#<Embryo name> <Cleavage cycle> <Temporal class> <Genes>
kw1 14A 5 even-skipped knirps giant

#Quantitative data
#<Nucleus number> <A-P coordinate> <D-V coordinate> <Fluorescence intensity: channel 1 - eve, channel 2 - kni, channel 3 - gt>
0 2.38 45.70 8.49 78.77 5.74
1 3.00 50.79 8.91 76.50 5.38
2 3.39 47.72 10.92 79.04 7.18
3 3.39 42.13 9.88 74.94 7.17
4 4.09 39.99 9.54 75.08 6.21
5 3.99 45.15 10.86 75.58 6.67
6 4.19 54.70 7.47 67.46 5.43
7 3.91 43.07 11.24 76.84 7.50
8 4.35 52.02 10.20 72.60 6.86
9 4.38 49.25 11.56 76.89 6.60
10 5.14 38.33 10.28 63.32 6.56
11 5.15 42.48 11.04 71.17 7.28
12 5.53 47.06 12.96 75.43 7.72
13 5.65 44.85 12.23 74.05 8.04
14 5.51 54.83 10.57 75.89 7.05
15 5.75 49.53 12.03 79.08 7.28
16 5.83 51.90 12.11 81.50 7.09
17 5.63 40.04 12.81 60.84 7.84
18 5.94 57.06 8.46 66.79 6.98
19 6.41 40.94 12.09 59.84 8.78
20 6.52 37.38 10.79 51.27 7.26
21 6.89 58.84 9.05 68.22 6.35
22 6.61 53.76 12.60 84.61 7.92
23 6.97 43.56 12.98 61.35 7.68
24 7.06 48.11 11.89 67.37 8.40
25 7.07 34.99 9.70 38.01 7.52
26 7.15 50.69 12.39 67.71 7.20
27 7.45 55.45 11.72 76.20 8.18
28 7.52 39.32 12.18 48.96 8.89
29 7.28 52.41 12.42 72.21 7.86
30 7.94 45.61 13.16 60.72 9.16
31 7.94 60.24 10.03 73.52 7.18
32 7.81 36.84 11.41 38.66 6.98
33 7.70 51.42 13.50 73.95 9.50
34 8.23 41.61 12.64 50.01 8.87
35 8.31 34.58 11.21 33.63 7.29
36 8.55 53.38 13.94 71.19 8.39
37 8.65 50.45 13.11 65.79 9.44
38 8.64 48.02 13.38 63.15 9.62
39 8.62 56.47 13.43 73.65 8.88
40 8.69 62.44 8.58 61.34 6.75
41 9.11 39.22 11.87 33.44 9.48
42 9.28 43.13 13.63 42.02 8.73
43 9.09 32.90 9.65 25.37 8.27
44 9.18 59.10 13.89 74.27 8.60
45 9.50 36.97 12.63 28.50 8.95
46 9.53 45.73 13.61 52.24 9.38
47 9.54 34.17 10.89 23.35 9.63
48 9.95 51.49 14.86 65.04 10.05
49 9.67 54.42 15.11 70.94 9.30
50 10.04 56.75 14.77 79.60 9.78
51 9.91 61.91 13.20 70.57 8.87
52 10.18 40.85 12.84 31.27 10.25
53 10.18 48.47 14.26 54.67 9.16
54 10.34 64.40 10.10 66.33 7.74
55 10.08 35.15 11.60 21.84 10.40
56 10.42 53.87 14.94 64.45 10.72
57 10.60 59.98 13.45 79.42 10.12
58 10.50 31.00 10.11 16.87 9.18
59 10.91 43.52 13.05 31.80 10.53
60 10.90 66.89 7.76 53.20 6.15
61 10.67 36.25 11.87 21.48 10.78
62 11.01 46.15 13.37 38.35 10.02
63 10.66 32.87 11.36 20.18 8.53
64 10.90 38.49 12.54 22.53 10.74
65 11.06 68.80 4.79 37.21 4.76
66 11.40 57.61 15.62 79.58 11.21
67 11.56 52.19 14.72 57.58 11.14
68 11.45 49.61 13.71 51.00 10.26
69 11.66 54.71 15.05 69.97 11.69
70 11.38 41.32 12.01 25.12 10.94
71 11.50 62.44 14.90 74.40 11.59
72 11.36 36.16 14.55 20.69 10.38
73 11.66 32.97 11.40 20.13 10.71
74 11.51 38.85 13.27 23.00 11.53
75 12.12 60.12 15.44 77.52 11.38
76 12.15 69.19 7.81 48.68 6.96
77 11.75 39.64 13.56 21.33 15.11
78 12.21 65.74 12.07 66.57 10.12
79 11.82 36.50 12.62 23.38 12.54
80 12.38 47.58 15.92 37.37 11.86
81 12.21 44.89 14.16 29.02 10.31
82 12.70 32.63 13.29 17.53 11.72
83 12.18 42.19 14.55 22.10 11.55
84 12.33 37.11 12.51 20.46 11.87
85 12.42 39.80 15.34 19.54 11.43
86 12.74 56.52 16.98 68.12 12.68
87 12.76 63.61 14.96 76.45 11.90
88 12.86 51.06 16.18 45.81 12.20
89 12.77 41.09 13.95 22.40 11.35
90 12.78 28.54 10.30 15.42 10.15
91 12.94 30.42 11.97 15.23 11.03
92 13.28 67.57 13.07 67.35 11.30
93 13.11 38.48 15.43 19.90 12.87
94 13.33 53.98 16.46 56.38 13.10
95 13.36 58.64 17.07 70.61 13.72
96 13.57 61.49 17.21 80.08 15.07
97 13.23 42.45 15.11 24.32 11.93
98 13.68 48.75 14.07 33.22 12.30
99 13.36 35.20 15.33 20.00 13.00
100 13.21 27.98 12.83 15.00 9.67
101 13.84 45.72 15.24 24.96 13.09
102 13.77 65.34 15.75 72.58 14.06
103 13.54 69.23 10.45 60.64 12.73
104 13.58 29.17 10.27 15.82 10.36
105 13.73 31.33 13.89 18.33 14.81
106 13.90 70.41 11.75 54.24 11.53
107 13.90 28.07 10.22 14.31 10.91
108 14.00 37.26 13.76 20.60 13.26
109 13.71 30.31 10.50 17.25 12.75
110 14.33 56.18 17.12 57.33 15.28
111 13.95 29.62 12.25 16.12 10.75
112 14.09 43.21 15.35 21.75 13.12
113 14.27 41.57 13.67 22.08 13.00
114 14.55 72.91 7.76 41.91 9.51
115 14.72 52.71 16.55 40.66 15.69
116 14.54 49.99 15.71 31.02 14.56
117 14.43 63.46 18.32 78.31 20.52
118 14.26 31.86 12.25 21.00 15.75
119 14.45 33.36 14.71 16.53 14.09
120 14.59 59.20 17.46 63.66 18.69
121 14.40 65.05 15.39 72.06 13.67
122 14.36 26.48 9.75 15.75 11.33
123 14.70 68.15 14.84 71.19 15.78
124 15.06 47.65 14.86 26.89 15.99
125 14.90 31.21 13.83 18.83 13.55
126 14.61 38.56 17.13 19.71 15.11
127 14.79 40.47 16.00 21.16 15.12
128 14.97 25.79 10.91 15.64 12.98
129 14.70 32.34 11.92 20.92 14.83
130 14.77 26.94 10.17 19.42 13.50
131 15.19 43.44 16.20 21.88 16.61
132 14.91 62.13 16.70 66.47 16.80
133 15.51 70.82 13.64 63.05 16.69
134 15.57 65.54 17.28 72.04 19.41
135 15.24 49.49 16.06 28.06 17.65
136 15.59 54.56 17.55 38.37 19.94
137 15.47 28.27 13.04 17.43 14.55
138 15.86 57.16 18.31 45.01 22.70
139 16.11 30.64 13.96 17.10 19.81
140 15.96 73.70 10.04 47.84 12.39
141 16.06 46.25 16.82 22.12 18.72
142 15.78 40.92 16.03 19.76 18.76
143 15.99 25.54 11.12 14.52 17.97
144 16.02 50.53 16.78 26.84 22.84
145 16.15 68.27 18.16 71.06 22.45
146 15.92 31.85 15.71 18.07 19.98
147 15.96 38.47 16.84 20.08 20.30
148 16.11 60.57 17.22 54.57 21.97
149 16.58 52.53 17.55 29.16 28.84
150 16.31 35.29 16.57 20.46 17.81
151 16.60 63.43 17.93 63.28 25.55
152 16.44 33.35 13.87 16.40 20.67
153 16.17 40.72 13.50 24.75 18.50
154 16.80 47.86 18.43 22.65 27.88
155 16.88 42.37 15.74 19.60 25.59
156 16.61 39.27 16.93 17.45 23.24
157 16.81 55.28 18.26 29.39 38.84
158 16.95 71.81 13.84 61.33 19.33
159 16.98 36.86 16.05 17.72 23.52
160 17.00 58.47 18.95 43.80 34.75
161 17.10 66.19 19.37 71.35 26.87
162 16.77 76.49 7.13 35.37 8.73
163 17.39 27.84 14.01 15.46 27.63
164 17.35 45.37 17.44 21.55 31.24
165 17.37 49.74 18.02 23.45 35.21
166 17.31 31.10 16.00 19.00 24.80
167 17.39 61.32 18.39 50.40 37.46
168 17.37 74.33 12.13 53.18 15.85
169 17.57 69.51 16.92 69.75 24.15
170 17.55 34.23 16.22 18.54 29.29
171 17.76 24.77 11.39 14.55 30.18
172 17.86 39.34 16.51 19.70 35.87
173 17.90 76.97 9.35 41.05 11.31
174 18.03 56.52 18.65 29.44 58.52
175 18.21 51.73 17.91 22.27 55.58
176 18.01 63.56 18.09 57.20 44.67
177 18.21 42.01 17.52 18.45 43.29
178 18.25 59.12 17.44 31.73 58.69
179 18.38 36.68 16.07 17.34 38.46
180 18.16 31.80 14.61 17.08 33.28
181 18.54 54.12 18.59 23.26 72.96
182 18.62 47.03 18.44 20.73 57.13
183 18.54 66.48 18.99 65.86 33.18
184 18.16 64.64 20.22 63.44 43.22
185 18.88 72.05 17.35 62.25 29.11
186 18.78 44.51 17.52 20.48 59.71
187 18.49 74.50 14.43 55.71 21.07
188 18.90 49.40 18.75 21.31 70.40
189 18.85 26.96 15.26 16.65 48.68
190 18.71 75.91 14.20 47.82 19.12
191 18.91 61.72 18.69 39.18 66.48
192 18.83 33.93 16.35 18.46 48.02
193 18.91 30.11 15.06 16.24 45.36
194 19.33 23.98 12.93 14.75 53.27
195 19.05 69.56 19.51 71.01 32.23
196 19.08 39.02 16.93 20.15 49.11
197 19.47 64.69 19.73 46.24 51.45
198 19.55 42.11 17.68 19.67 72.24
199 19.58 56.03 20.37 23.91 92.61
200 19.87 32.02 15.03 18.42 62.32
201 19.57 37.93 16.95 18.78 60.12
202 19.70 59.06 18.39 26.35 87.74
203 19.75 52.88 20.54 23.02 102.04
204 19.82 76.87 14.55 50.73 24.78
205 19.88 67.48 20.29 60.67 43.15
206 20.03 36.07 17.15 18.47 66.52
207 19.81 74.42 18.52 60.83 29.22
208 20.09 45.40 18.08 19.99 105.59
209 20.20 29.47 15.70 16.72 70.35
210 20.22 50.49 19.68 21.32 107.41
211 20.12 26.57 15.85 17.22 74.72
212 20.29 39.87 19.12 18.29 88.99
213 20.15 62.26 21.07 30.32 74.12
214 20.45 47.75 18.73 20.62 121.53
215 20.09 72.96 17.17 61.10 30.86
216 20.38 70.12 19.70 63.50 44.96
217 20.94 79.38 12.62 46.54 25.94
218 20.82 57.20 19.66 22.58 116.33
219 20.93 34.34 17.34 19.77 93.24
220 20.79 65.15 19.39 38.80 66.04
221 20.93 53.93 19.85 21.25 132.62
222 21.08 24.58 14.67 16.00 99.19
223 20.97 43.08 17.28 18.90 124.88
224 20.57 72.29 18.50 66.58 48.83
225 21.11 76.45 16.79 58.15 35.81
226 21.16 60.05 19.66 25.25 92.85
227 21.01 73.08 20.39 58.75 41.92
228 21.33 21.84 12.30 13.51 92.24
229 21.36 67.83 18.90 48.28 61.80
230 21.41 27.14 15.48 16.13 95.51
231 21.58 36.82 19.12 19.23 115.61
232 21.53 30.97 16.16 17.84 98.77
233 21.50 49.69 20.32 21.11 153.95
234 21.44 28.63 13.87 16.68 93.06
235 21.50 62.67 20.61 28.23 83.32
236 21.45 39.77 18.64 19.36 118.80
237 21.73 46.49 20.73 20.07 149.42
238 21.66 70.70 21.45 53.82 51.82
239 21.89 52.21 20.82 19.59 151.30
240 21.93 55.91 21.21 21.11 137.78
241 21.85 73.66 19.62 59.08 49.79
242 22.17 33.43 16.94 17.91 120.24
243 22.06 64.89 19.90 31.88 72.49
244 22.24 44.16 18.93 20.79 152.64
245 22.21 80.45 13.87 46.80 33.05
246 22.48 41.54 20.07 19.30 141.92
247 22.40 58.52 21.21 24.17 116.57
248 22.38 19.62 12.48 14.18 98.37
249 22.53 24.50 15.42 15.90 114.19
250 22.57 61.20 21.03 25.64 100.98
251 22.31 83.11 7.90 30.44 12.36
252 22.49 77.16 20.37 56.58 44.47
253 22.67 38.67 19.98 19.49 136.39
254 22.78 48.27 20.12 20.20 150.48
255 22.65 72.63 24.30 50.93 65.33
256 22.72 27.74 17.39 16.59 124.02
257 22.75 66.90 20.29 32.96 74.44
258 22.89 54.02 22.36 20.89 147.87
259 23.08 30.29 17.88 16.59 123.63
260 23.11 35.34 18.25 17.80 139.42
261 22.93 69.85 24.23 44.83 69.05
262 23.02 50.93 21.60 19.17 156.90
263 23.27 22.14 15.23 14.42 112.44
264 23.34 45.72 21.88 20.45 168.20
265 23.26 63.45 20.20 25.77 94.53
266 23.28 56.60 20.90 21.25 134.96
267 23.37 74.80 23.90 50.61 70.72
268 23.27 82.48 13.88 37.16 29.49
269 23.46 79.90 20.84 48.19 54.26
270 23.56 32.61 17.41 18.40 136.33
271 23.39 16.53 9.90 13.69 74.45
272 23.67 43.10 21.82 20.35 158.50
273 23.77 37.51 18.67 19.92 138.73
274 23.64 59.79 21.73 23.18 120.04
275 23.82 19.08 13.45 13.50 107.48
276 23.75 26.55 17.69 18.13 126.01
277 23.90 77.03 28.25 49.22 68.46
278 23.94 40.35 20.12 19.98 142.34
279 23.84 72.08 26.71 43.07 81.40
280 24.00 67.00 23.59 32.84 88.48
281 24.11 52.31 21.87 20.22 156.93
282 24.02 49.44 21.54 20.77 155.97
283 24.27 64.41 23.18 28.89 109.62
284 24.33 54.78 23.75 20.99 139.84
285 24.36 69.48 24.58 36.75 91.42
286 24.46 46.52 21.16 20.38 157.98
287 24.49 57.85 22.50 21.73 138.25
288 24.51 24.69 18.05 18.43 123.21
289 24.60 34.32 18.57 19.71 134.74
290 24.54 61.46 25.08 24.37 115.64
291 24.54 22.25 14.57 15.70 118.20
292 24.82 28.75 18.06 17.53 127.65
293 24.73 31.12 16.83 19.46 138.78
294 24.49 81.70 23.42 35.55 47.49
295 24.60 73.96 33.05 39.64 88.29
296 24.77 79.04 38.76 37.69 84.68
297 24.82 16.16 11.84 14.04 79.18
298 24.99 36.95 18.80 18.26 130.97
299 24.83 42.84 22.78 20.71 146.24
300 24.86 26.05 18.04 18.14 127.86
301 25.09 18.91 14.86 15.87 109.04
302 25.10 84.17 26.21 23.64 41.38
303 25.17 39.94 21.57 18.69 138.79
304 25.17 49.28 22.03 20.38 147.12
305 25.36 66.94 28.80 31.38 117.52
306 25.25 20.46 16.86 14.33 110.80
307 25.51 71.82 42.42 31.77 113.10
308 25.45 76.60 54.36 34.12 107.92
309 25.25 52.29 22.64 23.14 148.67
310 25.38 56.12 23.88 20.12 139.07
311 25.71 44.43 22.42 19.89 150.25
312 25.51 59.27 24.02 22.70 123.46
313 25.43 64.26 29.45 31.01 131.94
314 25.73 80.86 68.67 25.42 88.97
315 25.71 46.61 21.83 21.71 144.31
316 25.64 69.41 34.57 33.13 113.77
317 25.73 23.83 17.00 16.43 115.92
318 25.72 74.22 61.56 33.20 115.31
319 25.70 61.74 26.78 28.37 127.46
320 25.84 27.17 17.80 17.99 126.28
321 25.82 33.46 19.90 19.16 140.18
322 26.07 17.31 15.85 15.89 109.54
323 26.22 30.80 21.12 17.78 138.40
324 26.12 54.09 25.78 23.72 154.36
325 26.20 42.28 22.27 20.36 149.90
326 26.23 85.26 43.64 17.26 49.13
327 26.11 37.14 20.62 19.88 134.31
328 26.22 50.94 23.27 21.46 148.21
329 26.40 20.58 17.70 15.31 112.21
330 26.38 39.74 22.90 19.97 143.36
331 26.44 48.33 24.32 20.50 148.30
332 26.51 57.58 25.93 24.53 139.04
333 26.58 77.43 120.96 22.63 118.49
334 26.49 65.41 34.80 30.71 144.06
335 26.81 82.39 106.92 20.34 104.32
336 26.80 35.41 21.64 18.59 137.82
337 26.76 62.89 31.29 33.04 144.38
338 26.70 67.92 44.21 28.92 151.12
339 26.86 15.01 15.22 15.15 96.77
340 26.70 60.12 28.80 27.40 141.34
341 26.83 70.77 69.08 25.99 141.36
342 27.07 29.12 21.35 17.14 135.89
343 26.75 23.09 20.59 15.71 128.75
344 26.87 74.02 109.21 25.26 131.07
345 27.07 55.38 27.47 25.76 157.12
346 27.11 26.54 20.82 17.17 131.33
347 27.17 46.26 25.48 22.58 142.82
348 27.29 44.00 26.10 21.71 140.60
349 27.14 52.44 26.57 23.04 154.69
350 27.10 24.27 20.93 17.40 114.07
351 27.25 33.15 21.21 19.38 139.55
352 27.36 79.24 157.47 22.01 129.93
353 27.42 38.03 23.36 20.21 139.18
354 27.38 41.10 24.74 22.07 149.76
355 27.39 49.66 26.72 23.91 148.19
356 27.48 18.07 19.86 15.69 106.20
357 27.70 21.23 22.04 17.23 120.93
358 27.83 84.30 104.21 16.05 111.29
359 27.73 59.13 33.75 30.24 163.59
360 27.75 64.53 53.93 29.27 152.78
361 27.81 61.76 39.07 31.23 147.22
362 28.00 75.46 171.84 21.05 148.85
363 28.05 31.47 23.79 19.72 137.08
364 27.82 67.54 76.68 27.37 171.26
365 27.98 72.71 163.69 20.36 160.03
366 28.00 35.49 25.66 21.60 142.92
367 28.09 56.90 32.76 30.65 164.66
368 28.07 53.83 29.10 28.52 160.51
369 28.11 70.21 139.06 22.75 166.76
370 28.20 24.33 25.70 18.33 130.26
371 28.31 14.95 23.67 14.83 103.37
372 28.19 47.81 28.46 24.32 159.40
373 28.28 81.46 164.87 17.46 140.27
374 28.34 41.95 27.72 22.43 152.21
375 28.30 51.03 29.51 30.86 160.92
376 28.44 86.74 69.75 12.09 83.26
377 28.48 26.94 27.09 19.35 133.60
378 28.58 45.67 31.49 24.47 160.62
379 28.55 29.40 24.82 17.96 131.91
380 28.46 39.15 28.78 23.17 149.97
381 28.56 77.93 177.96 18.88 153.37
382 28.69 17.88 29.99 16.79 122.47
383 28.75 66.13 117.69 23.93 183.54
384 28.84 33.70 28.81 21.48 144.18
385 28.77 60.07 48.88 31.54 181.09
386 28.88 22.11 30.91 19.40 123.40
387 29.10 43.60 36.12 23.74 164.81
388 28.96 55.22 40.83 30.31 183.45
389 29.17 64.15 129.53 24.82 193.67
390 29.11 36.68 33.27 22.63 153.30
391 29.28 62.05 91.19 27.50 185.90
392 29.12 68.58 145.30 20.49 184.57
393 29.17 72.43 185.73 19.85 170.28
394 29.25 52.85 39.64 35.14 186.59
395 29.35 57.59 55.25 33.68 194.78
396 29.25 48.09 34.63 27.79 164.55
397 29.29 84.03 120.80 15.11 138.23
398 29.43 75.11 190.85 19.91 187.48
399 29.44 50.39 40.05 30.91 189.24
400 29.49 80.55 154.54 17.33 169.74
401 29.58 25.87 36.53 21.33 148.18
402 29.71 18.81 51.22 18.13 131.32
403 29.66 31.62 37.13 21.12 149.87
404 29.69 41.44 48.35 27.88 172.77
405 29.64 38.97 41.93 26.67 171.30
406 29.71 15.51 45.96 16.85 115.74
407 29.82 28.84 39.17 21.15 152.58
408 29.82 77.64 163.34 18.07 180.14
409 29.92 21.39 63.88 21.54 151.06
410 29.91 34.75 45.26 23.09 160.20
411 29.93 59.54 93.12 28.31 205.90
412 30.07 44.58 55.66 28.32 185.95
413 30.15 46.95 52.57 26.40 192.11
414 30.00 55.19 70.54 29.47 209.16
415 30.11 65.51 177.68 22.32 209.00
416 30.16 69.03 175.45 21.84 183.95
417 30.36 85.94 86.89 13.97 131.09
418 30.22 71.79 155.23 20.11 166.45
419 30.40 24.19 62.15 19.53 154.47
420 30.35 52.24 75.93 27.62 211.61
421 30.47 62.82 177.70 23.88 197.81
422 30.43 81.86 109.88 14.86 160.48
423 30.54 12.93 81.32 15.42 152.08
424 30.49 49.62 67.22 27.01 199.20
425 30.80 37.67 74.49 23.97 174.09
426 30.53 83.31 98.78 15.02 151.67
427 30.53 75.11 158.82 18.45 200.41
428 30.71 57.19 125.71 27.11 211.67
429 30.83 40.01 81.68 23.31 190.46
430 30.80 42.55 90.68 26.32 194.64
431 30.78 79.08 133.58 17.68 177.09
432 30.88 27.51 77.03 20.81 176.76
433 30.92 30.63 63.35 21.24 178.10
434 30.97 33.01 69.36 21.07 178.34
435 30.83 60.33 168.07 22.17 221.53
436 30.98 18.67 100.31 19.12 147.22
437 31.00 66.73 194.39 20.54 213.07
438 30.95 35.44 75.11 22.11 180.64
439 31.16 15.90 108.37 17.90 149.38
440 31.02 54.47 141.86 23.75 216.77
441 31.16 21.73 118.49 18.71 166.06
442 31.14 45.77 91.40 24.26 208.23
443 31.40 70.88 158.08 19.97 204.12
444 31.45 73.51 133.74 17.58 201.68
445 31.52 10.26 102.07 14.94 109.46
446 31.32 48.32 109.06 24.99 214.01
447 31.51 68.68 176.47 21.34 204.87
448 31.50 64.38 198.87 21.63 222.24
449 31.44 51.65 141.26 24.46 224.83
450 31.67 84.40 71.26 15.64 139.18
451 31.62 24.74 120.34 19.56 181.42
452 31.71 58.56 181.81 24.40 226.39
453 31.69 76.50 102.06 17.27 188.66
454 31.65 61.45 205.53 23.24 223.26
455 31.73 81.73 79.06 17.08 158.86
456 31.54 86.69 52.48 12.79 115.83
457 31.83 43.83 162.80 22.85 215.03
458 31.92 13.35 128.95 18.07 159.71
459 32.00 29.39 130.07 21.44 194.69
460 31.93 41.26 153.05 23.80 214.86
461 32.12 56.46 195.75 24.06 232.62
462 31.98 79.23 79.75 18.74 179.64
463 32.10 87.51 46.42 13.83 105.74
464 32.11 35.08 141.34 22.67 197.85
465 32.14 37.92 155.92 23.31 194.72
466 32.06 53.95 183.81 24.06 235.00
467 32.26 20.74 157.09 19.60 175.25
468 32.25 32.43 143.08 22.03 198.96
469 32.27 49.89 179.71 23.87 229.70
470 32.39 27.01 151.77 20.34 190.58
471 32.36 17.92 143.40 19.11 168.07
472 32.40 66.18 165.76 20.78 222.63
473 32.33 47.31 169.19 24.38 227.45
474 32.46 62.61 195.98 23.07 222.07
475 32.64 71.60 98.01 19.38 203.39
476 32.63 74.31 79.78 19.64 188.59
477 32.76 68.78 117.68 20.76 208.20
478 32.87 23.27 161.27 21.09 185.03
479 32.82 52.00 194.66 24.19 225.64
480 32.83 59.94 185.41 24.78 228.94
481 32.90 89.12 29.78 12.43 72.37
482 32.83 45.17 187.41 22.78 223.72
483 33.04 15.11 126.34 17.05 160.23
484 32.93 40.11 199.64 22.80 220.09
485 32.95 77.55 63.18 17.54 175.76
486 33.16 83.48 52.05 16.22 130.96
487 33.16 42.84 194.53 24.28 215.23
488 33.07 80.80 59.33 18.20 154.78
489 33.18 12.10 108.53 16.04 158.01
490 33.14 30.68 174.29 20.64 205.55
491 33.15 54.69 196.44 24.20 235.64
492 33.23 57.61 184.38 25.20 239.25
493 33.27 86.30 41.44 13.70 113.25
494 33.33 64.01 134.32 21.79 231.43
495 33.44 35.71 187.03 23.31 221.40
496 33.49 25.58 159.70 20.69 193.35
497 33.47 38.05 193.50 23.85 220.94
498 33.35 48.36 195.39 24.88 233.43
499 33.53 33.15 183.39 22.71 221.66
500 33.55 20.66 149.45 19.32 185.38
501 33.71 17.77 134.82 17.80 164.64
502 33.82 28.63 167.66 21.04 197.12
503 33.69 66.29 108.28 19.73 216.76
504 33.70 61.67 128.83 23.57 230.31
505 33.89 50.67 186.83 23.84 229.21
506 33.79 70.12 79.55 19.36 214.45
507 33.80 75.44 56.31 18.77 173.39
508 33.93 72.81 65.78 17.73 192.28
509 33.91 45.99 195.86 24.71 231.33
510 34.10 41.01 207.41 24.49 218.80
511 34.16 52.94 161.50 24.20 235.73
512 34.27 10.90 81.88 16.90 146.82
513 34.12 55.77 158.67 23.83 238.04
514 34.11 79.06 50.11 18.14 140.38
515 34.19 59.24 122.69 25.07 229.52
516 34.36 23.32 135.06 20.46 183.83
517 34.44 88.48 39.36 14.11 79.89
518 34.46 68.04 74.29 20.69 206.02
519 34.43 14.11 96.20 17.35 151.51
520 34.53 43.74 179.86 23.87 227.21
521 34.53 84.66 40.84 16.45 95.31
522 34.50 90.72 28.71 12.41 43.98
523 34.57 31.42 165.92 22.67 216.88
524 34.50 48.70 179.57 23.79 234.08
525 34.37 87.05 39.94 13.24 85.76
526 34.67 81.81 43.86 17.17 114.15
527 34.61 37.49 166.42 23.24 220.04
528 34.57 63.56 86.22 23.86 221.47
529 34.62 34.31 178.80 22.86 209.19
530 34.74 26.76 139.47 21.35 203.52
531 34.77 20.33 115.20 20.77 195.79
532 34.83 16.69 104.46 18.33 177.48
533 34.89 76.54 46.64 18.32 148.98
534 35.01 57.26 95.54 23.16 230.06
535 34.96 61.29 75.35 20.91 220.14
536 35.17 65.31 60.72 20.62 203.25
537 34.98 70.93 52.17 17.97 189.40
538 35.09 39.99 169.84 23.08 229.32
539 35.07 46.07 162.51 25.22 230.88
540 35.16 54.45 112.40 23.68 235.37
541 35.24 73.62 46.18 20.88 160.88
542 35.35 29.43 117.56 21.37 203.82
543 35.37 51.92 120.17 22.51 230.02
544 35.52 42.23 137.69 25.65 229.48
545 35.55 78.82 48.09 16.47 112.13
546 35.58 9.67 44.97 16.42 123.35
547 35.40 12.42 51.96 16.44 142.69
548 35.65 25.16 97.02 19.85 191.14
549 35.69 86.45 61.15 14.73 72.04
550 35.61 35.31 128.49 21.57 208.66
551 35.69 59.81 65.36 21.66 215.64
552 35.55 49.19 130.95 24.33 234.50
553 35.67 18.65 78.14 18.88 167.67
554 35.75 22.37 93.53 20.54 183.50
555 35.69 67.53 53.35 21.45 185.94
556 35.76 89.92 59.10 13.13 43.47
557 35.85 32.37 115.55 22.74 195.53
558 36.04 15.03 60.13 16.97 141.50
559 35.90 38.28 108.61 22.64 220.26
560 35.94 83.93 58.05 17.15 72.70
561 35.99 69.92 52.46 20.81 173.98
562 36.08 62.67 52.84 22.52 198.12
563 36.05 81.27 58.33 17.63 85.86
564 36.20 44.39 102.06 23.69 218.43
565 36.15 46.79 91.82 22.81 223.62
566 36.10 75.76 47.64 18.95 123.41
567 36.26 27.71 92.09 20.88 208.44
568 36.18 57.87 65.07 23.52 210.82
569 36.08 12.53 60.43 16.26 134.19
570 36.23 55.09 68.82 24.42 218.67
571 36.49 40.47 99.55 24.37 221.79
572 36.53 50.61 71.61 24.52 225.82
573 36.50 65.02 50.87 20.53 184.73
574 36.49 72.77 48.23 19.46 125.52
575 36.68 20.16 61.93 20.05 161.82
576 36.78 30.07 78.00 22.12 201.16
577 36.60 36.29 77.82 22.85 209.55
578 36.80 52.75 59.68 24.23 209.25
579 36.86 8.69 32.33 14.87 106.90
580 36.85 17.27 49.89 18.78 146.66
581 36.84 23.69 63.67 21.09 177.08
582 37.06 90.96 83.25 14.27 27.24
583 37.02 48.62 64.12 23.28 208.70
584 36.93 60.68 57.04 22.76 187.15
585 37.05 42.79 70.76 23.63 209.44
586 36.96 67.31 49.77 21.61 142.57
587 37.06 79.36 76.03 18.32 71.08
588 37.18 11.75 37.51 15.70 117.07
589 37.21 32.13 66.81 21.41 188.50
590 37.22 34.41 62.82 21.70 191.74
591 37.26 26.20 68.76 19.12 191.98
592 37.11 76.72 60.91 18.99 85.70
593 37.22 82.68 101.13 19.05 55.85
594 37.22 88.35 98.78 14.96 39.09
595 37.16 56.94 54.11 22.11 202.72
596 37.14 70.11 55.04 20.66 124.00
597 37.48 85.31 120.82 16.96 41.64
598 37.41 38.03 61.90 23.36 195.44
599 37.50 14.87 40.83 16.69 131.60
600 37.47 46.41 61.23 23.40 208.51
601 37.51 63.09 51.58 23.31 154.52
602 37.56 54.72 51.77 24.84 192.54
603 37.99 93.16 72.39 10.85 13.14
604 37.69 74.32 73.21 20.03 92.16
605 37.80 21.58 51.02 19.65 151.72
606 37.78 40.43 59.84 22.73 194.60
607 37.84 58.72 51.27 24.70 174.54
608 37.91 28.44 56.25 20.79 171.96
609 37.94 71.87 78.30 20.71 88.83
610 37.93 51.01 53.45 24.46 202.05
611 38.00 18.76 43.92 18.17 124.75
612 38.07 44.46 56.29 23.23 194.64
613 38.05 65.26 61.33 23.34 126.85
614 38.02 68.06 61.20 21.18 108.52
615 37.80 24.49 41.38 20.25 159.88
616 38.24 81.08 126.71 19.14 43.17
617 38.25 60.90 52.98 22.02 148.08
618 38.29 78.35 117.03 20.03 47.89
619 38.34 9.06 29.66 14.86 83.51
620 38.30 35.60 55.69 21.50 179.56
621 38.31 48.49 53.39 24.43 187.74
622 38.55 30.56 51.16 21.58 154.80
623 38.47 42.25 56.70 23.48 186.81
624 38.52 53.14 53.68 22.59 168.34
625 38.49 32.99 53.88 22.14 163.74
626 38.53 12.88 34.77 16.33 91.90
627 38.36 24.35 48.62 19.37 142.48
628 38.63 87.02 135.99 16.44 26.54
629 38.62 90.06 132.03 14.45 22.47
630 38.77 76.12 139.06 20.54 52.28
631 38.59 56.42 56.60 24.87 151.62
632 38.73 16.24 39.50 18.52 107.48
633 38.77 37.68 53.74 24.11 154.96
634 38.81 69.77 115.81 20.47 75.88
635 38.89 83.58 153.67 18.32 30.63
636 38.91 26.73 46.81 20.99 129.36
637 38.89 62.72 83.72 24.51 115.79
638 39.05 73.62 141.51 20.53 55.93
639 39.03 45.87 58.15 24.37 153.67
640 39.04 40.02 57.18 24.67 159.96
641 39.14 22.21 43.09 19.89 114.04
642 39.12 58.83 67.30 23.24 134.76
643 39.11 66.92 95.57 22.61 77.82
644 39.22 50.88 59.56 23.55 141.03
645 39.26 19.48 46.76 19.95 113.58
646 39.43 64.73 115.25 23.92 83.26
647 39.22 10.70 39.90 18.95 71.98
648 39.42 79.73 158.89 19.43 32.61
649 39.56 43.05 62.63 25.93 130.56
650 39.45 54.61 78.26 24.52 135.05
651 39.54 92.75 95.46 12.45 13.11
652 39.72 29.42 55.91 20.79 114.30
653 39.53 34.96 59.32 22.67 124.72
654 39.54 48.14 67.92 24.12 136.79
655 39.69 71.48 166.55 21.88 53.41
656 39.71 11.44 41.11 13.97 63.75
657 39.77 24.43 52.93 20.48 103.96
658 39.78 60.51 113.39 24.24 93.48
659 39.88 32.38 64.24 23.95 114.87
660 40.01 7.70 48.43 15.47 40.45
661 39.96 17.39 52.70 18.94 86.16
662 39.68 9.77 42.42 14.68 63.95
663 39.96 56.82 113.05 25.24 103.73
664 39.88 85.66 160.58 18.67 21.62
665 39.97 89.20 143.81 14.96 18.11
666 40.02 76.68 189.61 21.14 33.54
667 40.02 37.69 64.06 23.27 111.12
668 40.15 69.18 184.09 22.46 50.10
669 40.20 82.46 155.95 18.98 25.49
670 40.14 26.78 60.17 21.02 94.15
671 40.17 40.42 68.97 22.82 103.02
672 40.17 14.87 49.82 17.01 70.72
673 40.21 45.03 71.92 23.69 89.77
674 40.28 62.61 144.94 24.76 63.93
675 40.31 67.05 172.28 23.29 50.39
676 40.40 53.35 118.57 25.12 90.14
677 40.41 21.00 58.48 19.93 79.57
678 40.33 73.81 183.60 23.49 36.17
679 40.41 50.95 105.87 23.78 99.86
680 40.64 12.55 59.63 16.25 50.46
681 40.56 48.53 116.93 24.32 83.30
682 40.61 79.69 170.62 20.06 26.30
683 40.76 58.44 162.32 24.95 65.57
684 40.73 64.97 177.84 25.85 46.26
685 40.81 35.42 90.63 24.89 74.00
686 40.89 30.94 84.43 23.86 76.82
687 40.98 23.53 78.44 20.59 64.84
688 40.93 42.27 98.59 24.78 76.32
689 41.15 10.13 71.80 17.60 33.62
690 41.10 18.34 74.55 21.52 53.94
691 41.05 28.28 84.72 22.82 70.93
692 41.01 87.16 134.13 17.36 17.75
693 41.10 55.42 163.33 25.90 62.76
694 41.14 60.62 203.88 25.46 51.90
695 41.07 71.21 190.37 21.61 30.51
696 41.24 5.90 56.55 14.41 21.30
697 41.22 84.64 144.18 19.04 18.68
698 41.15 38.74 117.96 24.13 66.24
699 41.42 47.09 154.16 24.21 58.02
700 41.38 15.84 95.96 18.60 42.33
701 41.35 44.87 127.21 25.80 64.97
702 41.30 76.88 174.80 21.54 22.73
703 41.46 33.05 111.54 24.64 60.27
704 41.57 89.61 110.09 15.62 13.68
705 41.53 25.70 106.17 21.29 52.41
706 41.43 74.12 185.18 21.34 27.12
707 41.45 52.16 162.58 25.80 57.37
708 41.51 67.09 194.60 23.18 35.69
709 41.45 63.07 197.37 26.06 40.91
710 41.63 21.12 88.16 21.61 44.68
711 41.75 82.22 142.60 18.75 19.75
712 41.87 69.22 193.45 23.60 28.54
713 41.86 49.44 172.36 25.21 48.07
714 41.92 57.15 202.38 27.20 40.77
715 41.79 79.26 153.58 21.80 19.94
716 42.14 7.99 83.82 17.47 18.98
717 41.98 13.51 99.51 18.29 28.57
718 41.98 36.09 145.40 23.20 46.53
719 42.06 29.61 119.29 22.78 43.83
720 42.14 41.17 164.04 26.33 45.92
721 42.17 65.09 209.38 23.97 30.91
722 42.29 43.50 175.50 26.61 43.24
723 42.27 59.43 204.76 26.64 35.97
724 42.24 94.54 36.58 11.06 8.85
725 42.29 54.69 191.38 25.62 38.27
726 42.28 71.94 173.01 21.95 23.41
727 42.24 38.79 162.86 24.70 46.51
728 42.36 92.02 72.24 14.53 11.15
729 42.38 61.77 208.53 23.74 31.12
730 42.39 86.92 90.86 18.82 14.83
731 42.44 19.10 116.69 22.26 31.50
732 42.62 24.15 119.59 22.04 31.13
733 42.53 27.16 143.52 22.44 33.95
734 42.50 75.00 159.50 22.13 19.45
735 42.62 10.98 104.16 18.47 21.62
736 42.70 31.39 149.80 23.10 35.81
737 42.67 33.93 162.89 23.77 37.88
738 42.51 51.83 198.08 27.52 36.79
739 42.80 45.47 179.27 25.75 35.86
740 42.77 16.47 111.46 19.36 24.40
741 42.80 84.21 96.45 19.09 16.12
742 42.89 47.76 185.88 25.95 34.98
743 42.91 21.71 122.78 19.43 27.08
744 42.81 67.20 186.32 22.87 25.45
745 42.92 77.58 114.27 20.33 17.58
746 42.86 80.46 108.40 21.23 17.69
747 43.03 63.89 188.11 25.67 24.42
748 43.13 37.26 169.61 25.67 31.43
749 43.17 57.57 205.91 25.55 30.69
750 43.17 69.55 159.39 23.52 21.23
751 43.33 90.16 66.69 14.78 11.93
752 43.33 50.18 195.65 26.81 29.31
753 43.44 13.75 115.04 19.85 19.47
754 43.45 42.17 181.20 25.65 28.13
755 43.43 53.24 198.29 26.65 27.82
756 43.45 28.76 155.83 22.50 24.96
757 43.55 39.81 178.25 25.96 28.75
758 43.47 72.00 142.50 23.06 19.47
759 43.58 8.01 78.86 16.99 15.05
760 43.56 93.02 35.68 14.33 10.45
761 43.62 59.65 191.28 24.90 24.26
762 43.69 55.68 189.40 25.35 26.77
763 43.66 25.56 140.70 19.80 23.70
764 43.58 61.87 179.19 26.50 25.96
765 43.67 74.32 115.41 23.54 17.67
766 43.80 34.94 172.07 26.67 27.45
767 43.78 86.12 64.58 19.13 15.54
768 43.79 82.43 72.52 19.40 15.32
769 43.83 19.61 124.68 20.69 21.80
770 43.88 32.44 152.99 24.77 25.16
771 44.01 11.18 104.17 18.39 15.73
772 43.92 66.73 137.51 26.19 19.44
773 43.99 16.68 107.45 19.82 19.25
774 43.98 22.99 131.90 22.65 22.41
775 44.06 46.04 170.74 27.09 25.72
776 44.11 76.62 84.51 20.82 16.20
777 44.26 43.76 160.78 25.51 24.10
778 44.07 64.62 148.84 23.77 21.60
779 43.95 79.80 77.13 20.17 16.30
780 44.21 48.46 168.81 24.32 24.53
781 44.31 88.77 50.55 17.78 12.62
782 44.38 30.04 149.84 24.59 21.42
783 44.39 68.91 103.69 22.52 18.76
784 44.36 37.22 165.89 27.09 24.32
785 44.33 78.79 77.64 21.33 15.80
786 44.22 91.41 41.18 15.75 9.82
787 44.49 51.05 164.46 26.39 23.15
788 44.56 94.75 25.12 10.85 8.06
789 44.58 26.77 138.30 22.13 20.48
790 44.61 71.31 85.52 22.39 17.71
791 44.52 53.52 159.44 28.41 22.65
792 44.71 58.22 163.80 25.51 22.92
793 44.75 62.58 127.21 25.20 21.05
794 44.55 84.22 53.85 17.02 14.04
795 44.80 41.48 130.17 24.12 22.43
796 44.75 60.56 143.51 23.84 20.64
797 44.94 39.24 133.36 25.30 22.50
798 44.89 21.23 104.03 22.32 16.47
799 44.90 14.95 80.31 19.33 15.38
800 44.93 55.81 144.90 26.62 21.62
801 44.78 74.26 70.16 22.67 16.19
802 44.88 81.35 55.76 20.29 14.43
803 44.97 8.89 63.99 17.60 13.79
804 45.02 18.15 88.65 20.16 16.45
805 45.13 12.20 70.96 18.84 13.81
806 44.85 91.49 38.72 16.02 11.70
807 45.15 24.09 111.51 21.99 17.66
808 45.11 32.66 120.06 23.94 19.76
809 45.12 35.20 130.33 22.69 19.60
810 45.12 66.98 83.88 23.74 18.52
811 45.24 64.60 85.56 26.51 17.77
812 45.31 46.36 122.69 25.71 21.52
813 45.20 77.38 58.97 21.63 15.21
814 45.32 48.99 126.19 26.96 21.24
815 45.17 84.47 50.00 19.58 15.92
816 45.49 28.01 107.10 21.95 16.18
817 45.48 43.92 112.02 25.38 21.89
818 45.28 93.09 45.79 15.24 8.94
819 45.62 30.33 108.24 22.25 18.63
820 45.68 6.27 36.81 16.01 11.97
821 45.64 89.66 51.50 17.24 11.31
822 45.63 53.00 98.07 23.61 19.23
823 45.75 68.81 63.08 23.22 16.68
824 45.70 71.00 56.00 22.76 15.42
825 45.65 73.51 57.32 21.79 15.35
826 45.82 37.31 98.38 25.84 18.70
827 45.78 59.70 95.21 26.79 17.78
828 45.94 79.89 54.36 21.56 14.32
829 45.62 91.96 53.13 13.93 9.20
830 46.01 50.88 92.23 27.21 20.51
831 46.09 19.02 63.85 20.73 14.63
832 45.93 57.44 95.26 25.59 17.78
833 45.88 82.86 53.80 20.44 14.44
834 46.04 25.64 83.99 23.67 16.90
835 45.91 20.38 70.19 22.37 15.09
836 46.03 61.88 74.08 25.46 17.33
837 46.08 16.21 55.64 18.73 13.37
838 46.06 41.90 85.21 25.49 18.39
839 45.88 93.28 56.64 14.17 9.17
840 46.20 10.42 45.35 18.94 12.59
841 46.17 22.63 74.28 22.61 15.52
842 46.21 55.24 86.21 26.92 18.52
843 46.18 34.27 77.14 23.85 16.66
844 46.16 66.08 58.08 23.82 17.46
845 46.20 13.53 49.48 18.47 13.22
846 46.36 39.49 72.71 26.19 19.01
847 46.42 75.26 51.41 21.56 14.66
848 46.31 77.47 53.95 22.22 13.78
849 46.49 63.91 59.24 25.53 15.62
850 46.51 86.79 70.27 17.31 11.69
851 46.44 32.02 73.27 22.85 18.05
852 46.51 45.98 73.44 26.61 19.72
853 46.43 48.34 80.15 23.21 18.13
854 46.82 84.35 68.43 19.35 13.56
855 46.65 28.09 64.42 21.82 15.82
856 46.81 7.00 27.56 18.10 10.58
857 46.72 72.72 53.21 20.91 14.26
858 46.76 4.49 20.48 14.22 9.28
859 46.78 70.32 52.97 22.94 15.44
860 46.68 88.89 100.42 17.58 12.42
861 46.96 44.04 67.79 26.29 17.39
862 46.93 92.55 102.82 16.89 8.65
863 46.95 95.05 62.57 13.31 7.92
864 46.91 36.88 63.78 23.09 17.63
865 46.88 53.21 66.48 27.15 18.24
866 46.95 17.70 44.66 18.53 13.87
867 46.88 59.86 72.15 25.61 17.50
868 46.93 67.98 52.04 20.20 14.69
869 47.02 81.36 68.75 20.80 14.75
870 47.17 20.73 45.69 20.16 13.54
871 47.13 57.70 66.68 25.08 18.06
872 47.14 41.60 60.27 25.80 16.70
873 47.13 50.49 63.73 27.54 18.48
874 47.17 62.14 63.46 24.03 16.80
875 47.27 23.26 46.29 21.52 14.19
876 47.19 25.56 51.79 22.67 15.49
877 47.15 30.29 52.61 24.97 16.61
878 47.20 89.65 106.70 19.07 11.23
879 47.33 79.12 78.07 23.02 12.85
880 47.24 34.41 56.12 25.71 15.91
881 47.39 12.96 33.62 18.05 12.22
882 47.41 55.30 65.92 23.94 17.63
883 47.41 10.35 29.35 20.69 11.85
884 47.34 65.56 56.63 24.69 15.56
885 47.41 74.52 68.50 21.88 14.23
886 47.70 76.90 86.65 23.67 13.97
887 47.31 16.26 34.33 18.13 13.27
888 47.55 47.95 60.03 24.67 18.73
889 47.64 39.34 53.88 23.57 16.51
890 47.71 32.18 48.31 24.51 14.58
891 47.74 71.74 72.82 24.35 14.74
892 47.73 27.94 46.08 22.74 14.93
893 47.94 87.58 140.67 19.89 12.38
894 47.88 18.38 34.23 21.79 13.62
895 47.80 3.93 17.54 15.12 7.83
896 47.77 15.55 33.52 18.46 13.96
897 47.91 69.57 66.41 25.30 13.99
898 48.00 85.10 122.98 19.16 13.25
899 47.87 6.53 24.09 17.68 10.25
900 47.87 52.38 64.41 25.39 18.30
901 47.98 45.70 61.11 27.45 17.48
902 48.03 67.42 61.80 23.12 15.59
903 47.98 36.75 52.28 24.49 15.66
904 47.95 60.59 91.60 25.80 16.00
905 48.12 91.56 143.80 17.13 10.28
906 48.01 63.56 71.03 23.88 16.51
907 48.08 42.67 60.84 24.90 16.80
908 48.19 82.21 109.50 20.09 13.20
909 48.28 94.59 94.47 14.02 8.52
910 48.33 8.63 27.95 19.79 12.28
911 48.24 30.27 46.11 22.58 14.25
912 48.21 57.00 88.74 25.53 17.13
913 48.26 34.14 46.99 24.48 14.91
914 48.29 50.32 66.20 26.17 17.51
915 48.33 23.75 45.34 21.08 13.56
916 48.42 26.15 44.24 20.98 14.06
917 48.42 21.04 41.14 21.93 13.49
918 48.47 54.28 89.16 28.59 16.14
919 48.49 73.66 118.78 24.15 13.09
920 48.55 12.77 29.57 20.04 11.41
921 48.54 65.53 84.43 26.87 13.88
922 48.53 9.83 30.32 18.50 11.30
923 48.58 79.64 128.32 22.75 13.85
924 48.66 59.10 129.22 26.75 15.77
925 48.70 40.09 65.05 24.01 16.55
926 48.41 6.00 20.26 22.84 12.21
927 48.60 15.61 36.75 20.50 11.18
928 48.69 47.84 74.00 27.17 17.28
929 48.87 89.26 161.97 19.83 11.71
930 48.87 28.44 53.51 24.78 14.64
931 48.82 37.76 63.72 26.46 15.90
932 48.83 44.49 73.84 23.84 15.06
933 48.74 17.19 37.77 20.50 11.73
934 48.96 76.95 133.16 22.15 14.03
935 48.75 96.52 49.71 11.68 6.90
936 48.98 61.40 136.30 27.52 14.39
937 49.06 71.48 141.80 25.58 14.41
938 48.96 18.53 38.44 20.36 13.32
939 49.07 32.32 58.32 23.67 14.74
940 49.09 69.19 114.93 24.77 15.32
941 48.90 6.24 28.06 17.75 11.44
942 49.12 63.52 139.82 24.32 14.33
943 49.16 83.93 154.99 22.56 12.72
944 49.14 52.14 102.69 27.68 17.30
945 49.17 35.26 64.41 25.82 15.22
946 49.30 67.04 128.22 25.22 14.49
947 49.30 22.81 54.29 22.40 14.28
948 49.24 55.83 145.38 27.16 16.47
949 49.44 10.89 35.67 18.29 11.06
950 49.38 41.71 92.94 27.24 15.98
951 49.42 86.83 150.40 21.96 12.51
952 49.46 7.37 36.21 17.49 10.04
953 49.17 15.63 36.30 21.33 12.70
954 49.42 25.51 58.42 23.65 13.62
955 49.61 93.28 125.71 16.12 9.83
956 49.46 74.73 174.11 24.00 13.15
957 49.51 49.62 103.21 26.74 16.14
958 49.62 46.78 111.83 27.06 16.50
959 49.60 58.05 188.85 28.86 14.90
960 49.60 20.50 53.57 21.19 12.36
961 49.66 30.34 75.59 24.21 13.89
962 49.90 95.86 61.12 12.81 7.12
963 49.77 13.41 45.01 20.21 11.34
964 50.05 81.99 155.92 22.97 13.60
965 49.91 90.58 145.33 17.50 10.83
966 49.77 38.40 93.16 25.65 15.36
967 49.81 79.56 163.89 25.05 13.14
968 49.85 43.79 128.32 27.09 15.68
969 49.98 65.34 173.72 26.61 14.62
970 49.97 5.17 41.04 14.15 8.57
971 50.03 54.22 188.15 28.96 16.70
972 50.01 27.70 85.34 24.43 12.95
973 50.06 60.51 200.66 30.60 15.85
974 50.16 15.96 56.20 20.86 11.63
975 50.09 18.47 67.38 20.93 11.35
976 50.14 33.57 104.30 24.79 14.49
977 50.27 36.44 116.10 26.77 16.19
978 50.19 72.72 193.28 27.58 13.73
979 50.16 62.85 190.36 28.25 15.36
980 50.36 70.36 178.37 26.50 14.31
981 50.48 9.09 46.62 17.07 9.23
982 50.36 68.33 184.83 27.56 12.78
983 50.35 75.77 186.34 24.43 12.77
984 50.37 23.84 83.81 23.26 13.21
985 50.42 52.03 174.28 28.64 16.20
986 50.35 84.91 148.41 21.82 12.86
987 50.41 40.27 145.06 28.86 16.04
988 50.65 77.91 164.72 24.47 13.04
989 50.67 56.47 189.88 30.37 17.11
990 50.65 88.10 124.96 21.69 12.17
991 50.69 21.18 96.25 23.96 12.81
992 50.66 45.15 162.53 29.88 14.84
993 50.67 49.79 172.98 30.17 16.90
994 50.77 31.46 119.23 26.92 13.67
995 51.00 6.24 51.22 18.81 10.65
996 50.80 47.49 161.98 30.03 16.37
997 50.89 26.22 102.87 25.44 14.32
998 50.82 58.67 202.43 29.89 16.66
999 50.98 28.96 118.19 25.54 13.28
1000 50.97 42.27 158.74 27.79 15.75
1001 50.90 13.34 65.02 21.00 11.84
1002 51.09 92.78 77.66 17.54 9.34
1003 51.09 66.66 192.37 28.54 15.00
1004 51.31 94.84 42.67 16.07 9.08
1005 51.13 64.63 186.92 28.73 15.05
1006 51.08 34.88 143.70 24.83 15.32
1007 51.18 38.33 131.42 27.85 15.67
1008 51.20 18.27 88.98 23.02 12.85
1009 51.05 90.99 91.42 19.20 10.84
1010 51.32 74.31 171.71 24.58 13.73
1011 51.31 54.30 188.80 29.82 16.21
1012 51.39 60.66 187.20 30.97 16.07
1013 51.26 62.67 181.25 28.54 15.85
1014 51.45 79.66 105.81 23.70 14.87
1015 51.43 10.23 59.84 19.54 9.87
1016 51.36 72.05 161.59 26.91 14.19
1017 51.25 82.30 104.15 24.57 13.99
1018 51.43 85.47 106.68 21.32 13.29
1019 51.61 15.73 81.49 22.18 11.44
1020 51.56 22.71 102.69 23.28 12.09
1021 51.67 51.89 167.60 32.76 16.98
1022 51.75 68.57 147.72 30.50 13.60
1023 51.67 76.83 125.26 25.30 13.35
1024 51.75 25.09 111.12 25.22 13.14
1025 51.70 44.15 146.88 29.27 15.38
1026 51.84 11.43 63.74 19.67 10.52
1027 51.92 33.03 140.45 28.98 14.39
1028 51.80 49.52 158.22 30.45 15.50
1029 51.97 7.65 51.38 19.65 10.38
1030 51.91 88.11 73.43 22.32 11.33
1031 51.91 30.41 150.44 29.98 15.17
1032 51.88 40.49 123.90 30.77 15.68
1033 52.02 70.47 122.62 28.79 14.14
1034 52.03 36.27 123.35 27.15 14.78
1035 51.90 46.79 157.70 29.35 15.35
1036 52.03 56.44 159.47 31.42 15.16
1037 51.99 20.60 90.40 24.40 12.21
1038 52.01 27.64 112.05 27.86 14.10
1039 51.98 58.68 168.21 29.49 16.51
1040 52.18 91.22 55.82 21.28 9.17
1041 52.32 13.66 69.76 22.68 11.40
1042 52.34 83.74 64.82 24.34 12.40
1043 52.42 64.39 131.40 28.98 15.92
1044 52.34 66.61 116.37 30.35 14.91
1045 52.30 62.29 139.78 31.12 15.54
1046 52.46 17.73 78.69 22.87 12.62
1047 52.47 81.00 62.96 24.87 13.29
1048 52.55 38.35 105.41 29.91 14.95
1049 52.45 53.88 153.81 32.08 16.33
1050 52.54 94.16 32.35 18.50 8.90
1051 52.53 75.45 87.82 26.97 13.70
1052 52.61 42.65 104.69 31.19 16.34
1053 52.49 72.74 98.57 27.07 13.38
1054 52.64 78.16 72.27 27.58 12.87
1055 52.64 23.67 85.49 26.10 13.38
1056 52.86 9.95 45.52 21.52 10.81
1057 52.80 45.02 103.74 29.95 17.10
1058 52.80 60.41 121.04 31.80 16.56
1059 52.64 85.99 50.64 22.26 11.77
1060 52.88 34.30 102.15 31.35 14.67
1061 52.81 49.75 123.70 31.47 16.42
1062 52.90 26.17 82.45 27.35 14.87
1063 53.02 29.33 85.54 26.98 14.32
1064 52.96 31.63 99.89 28.71 14.99
1065 52.96 6.77 40.18 20.23 10.49
1066 52.95 47.53 108.06 31.00 16.01
1067 52.98 40.46 85.97 32.15 16.23
1068 52.94 88.22 43.67 26.00 12.23
1069 53.07 20.68 70.85 26.05 11.79
1070 53.16 51.93 105.75 31.18 17.45
1071 53.01 69.25 81.74 29.68 13.96
1072 53.13 58.06 110.82 32.33 16.01
1073 53.15 89.78 41.58 23.65 10.35
1074 53.25 36.57 78.16 32.14 14.30
1075 53.41 12.69 40.90 24.30 10.47
1076 53.31 55.67 98.17 34.30 18.72
1077 53.08 86.40 44.00 23.13 12.60
1078 53.17 95.67 18.59 18.72 6.62
1079 53.46 15.72 52.99 24.73 11.37
1080 53.37 66.81 72.48 30.46 16.01
1081 53.37 71.66 68.10 29.48 13.75
1082 53.49 62.68 83.28 31.41 15.00
1083 53.43 82.61 46.11 28.38 13.14
1084 53.47 74.12 67.04 30.33 13.42
1085 53.40 92.30 28.73 23.50 9.54
1086 53.69 3.23 15.09 18.80 8.43
1087 53.54 18.39 46.51 28.52 12.27
1088 53.58 79.53 49.48 27.31 13.91
1089 53.64 64.76 76.09 32.54 14.26
1090 53.68 22.94 56.91 27.46 13.90
1091 53.73 76.88 57.80 27.10 12.82
1092 53.75 27.08 57.18 28.97 13.34
1093 53.73 41.96 66.56 31.92 15.66
1094 53.75 85.29 40.56 29.72 11.52
1095 53.74 93.48 27.72 21.79 8.74
1096 53.81 33.13 65.01 30.85 14.86
1097 53.93 44.12 71.45 36.26 15.71
1098 53.67 5.22 25.07 19.82 8.59
1099 53.96 8.20 30.44 22.30 10.73
1100 53.85 38.78 67.88 34.92 15.33
1101 53.69 87.06 36.77 27.16 12.26
1102 53.93 10.51 30.84 23.77 10.57
1103 53.86 46.54 71.23 35.36 15.76
1104 53.87 53.85 80.37 34.58 16.87
1105 53.85 60.41 70.03 33.21 15.64
1106 54.00 25.03 53.05 31.30 13.27
1107 53.86 49.62 76.38 34.73 15.68
1108 54.00 68.36 62.72 33.28 13.74
1109 54.02 90.62 37.69 26.54 9.88
1110 53.80 94.67 20.92 20.28 7.76
1111 54.08 88.41 39.25 29.10 10.92
1112 54.14 29.05 50.67 31.81 13.36
1113 54.07 20.41 39.86 28.61 11.00
1114 54.26 70.43 58.64 33.34 13.09
1115 54.32 31.11 50.88 33.60 13.68
1116 54.20 35.72 50.64 31.83 15.38
1117 54.17 57.81 68.53 37.60 16.59
1118 54.01 6.64 25.00 28.71 12.57
1119 54.49 80.81 42.29 34.12 12.32
1120 54.53 17.81 36.17 29.55 11.41
1121 54.49 51.58 63.77 38.76 16.68
1122 54.43 72.85 55.81 35.53 13.03
1123 54.43 12.93 31.18 27.65 9.82
1124 54.38 14.91 33.96 26.18 10.79
1125 54.30 5.99 20.86 23.36 8.86
1126 54.55 62.01 62.60 36.69 14.87
1127 54.59 66.40 63.54 35.55 13.80
1128 54.54 75.31 55.40 35.90 13.79
1129 54.41 83.77 40.95 32.26 12.39
1130 54.34 85.53 42.17 29.83 13.42
1131 54.61 40.83 58.02 39.58 15.52
1132 54.74 16.08 29.71 31.24 12.19
1133 54.65 48.17 62.04 42.47 15.89
1134 54.73 95.54 20.26 23.09 7.05
1135 54.73 56.14 68.03 38.42 16.62
1136 54.59 19.53 36.75 31.88 12.88
1137 54.74 64.21 61.67 37.49 15.01
1138 54.87 3.51 15.00 20.26 9.01
1139 54.88 78.51 57.42 36.00 13.41
1140 54.55 6.80 21.55 29.45 9.00
1141 54.83 21.83 36.35 33.08 12.84
1142 55.02 24.15 44.19 34.24 13.51
1143 54.83 26.56 46.53 34.33 13.33
1144 54.84 33.81 54.34 37.22 13.78
1145 54.81 38.09 55.24 38.63 14.80
1146 54.70 82.33 43.50 30.70 14.45
1147 54.89 45.81 60.51 43.40 16.27
1148 54.88 54.06 69.97 43.42 16.48
1149 54.86 59.55 67.09 42.47 15.17
1150 54.81 4.79 16.12 21.54 8.92
1151 54.91 91.68 41.78 31.41 9.46
1152 55.07 43.29 61.16 43.09 15.27
1153 54.97 87.20 50.37 37.55 11.65
1154 55.05 68.65 69.73 42.86 12.89
1155 55.17 10.60 28.83 30.52 10.67
1156 55.06 7.86 25.86 26.62 9.11
1157 55.30 89.49 55.10 34.79 11.22
1158 55.25 36.26 56.99 42.28 15.44
1159 55.03 5.73 17.11 25.33 8.89
1160 55.17 29.25 46.74 38.17 13.17
1161 55.07 39.19 53.29 40.00 16.48
1162 55.27 71.34 65.86 40.34 13.05
1163 55.46 13.74 36.14 32.05 10.67
1164 55.33 50.27 67.04 45.92 16.66
1165 55.31 31.83 51.50 40.65 13.90
1166 55.45 76.64 64.68 38.47 13.12
1167 55.53 62.73 84.13 48.54 13.55
1168 55.64 84.39 62.48 39.99 13.17
1169 55.57 73.90 72.91 42.89 12.71
1170 55.65 18.76 33.55 39.40 11.48
1171 55.66 58.04 94.47 52.78 16.13
1172 55.69 94.28 44.69 28.87 9.43
1173 55.63 41.23 67.30 47.01 15.46
1174 55.59 81.45 62.04 44.33 12.53
1175 55.71 52.92 72.31 52.30 16.52
1176 55.76 60.49 100.56 50.20 16.08
1177 55.75 66.87 94.66 49.71 15.25
1178 55.73 47.88 78.23 52.13 16.72
1179 55.80 64.92 112.84 48.15 14.56
1180 55.91 6.71 28.23 31.49 9.81
1181 55.90 27.01 62.37 44.82 12.92
1182 55.90 16.01 38.22 40.55 11.63
1183 55.87 20.63 43.80 41.89 11.69
1184 55.84 55.68 103.51 57.95 16.26
1185 55.78 2.98 15.65 21.46 6.94
1186 55.96 22.93 48.89 40.11 11.76
1187 55.88 34.26 65.06 45.22 14.55
1188 55.99 39.14 71.36 49.85 15.81
1189 55.88 45.09 79.55 52.78 16.09
1190 55.98 69.57 110.43 52.05 13.83
1191 56.03 91.61 79.93 40.52 9.94
1192 56.09 87.30 93.92 41.19 11.84
1193 56.27 9.43 40.81 35.44 9.35
1194 56.29 25.10 75.84 48.14 13.32
1195 56.22 29.04 70.33 50.82 13.16
1196 56.25 78.71 87.69 48.59 13.76
1197 56.24 31.62 70.03 52.45 14.21
1198 56.26 37.08 88.08 56.44 15.86
1199 56.36 12.47 43.27 44.68 11.16
1200 56.46 42.38 100.16 61.51 16.23
1201 56.37 51.22 104.55 65.90 16.43
1202 56.40 71.83 111.95 57.08 13.72
1203 56.36 75.83 111.34 51.50 13.36
1204 56.86 4.77 34.31 33.58 9.34
1205 56.55 62.23 152.60 61.39 15.18
1206 56.69 83.38 117.68 50.11 13.37
1207 56.79 49.17 117.87 70.61 17.10
1208 56.73 67.90 149.01 62.64 13.86
1209 56.79 46.74 123.27 65.13 16.32
1210 56.73 57.51 152.40 70.27 16.90
1211 56.83 18.18 57.08 48.80 11.48
1212 56.77 54.66 133.08 67.08 17.47
1213 56.78 81.01 120.15 56.65 12.73
1214 56.84 60.03 157.64 68.00 15.54
1215 56.87 94.93 60.55 33.32 7.63
1216 56.92 20.99 65.98 52.93 12.79
1217 56.83 34.30 108.51 58.32 14.06
1218 56.89 64.59 181.58 65.88 14.81
1219 56.96 74.01 131.18 58.66 14.03
1220 56.99 44.30 131.36 62.85 15.87
1221 57.02 85.88 126.70 53.95 12.46
1222 56.99 89.06 114.75 49.38 12.37
1223 57.04 7.54 48.76 40.41 9.91
1224 56.81 13.32 45.57 42.29 12.38
1225 57.07 15.44 64.14 54.33 11.15
1226 57.06 30.46 112.84 62.24 13.24
1227 57.07 39.99 126.09 66.81 15.84
1228 57.21 23.98 100.71 64.56 12.63
1229 57.18 69.84 147.68 69.32 13.99
1230 57.27 76.90 156.80 64.34 13.97
1231 57.26 92.12 112.51 44.96 8.64
1232 57.32 26.71 108.18 67.38 13.20
1233 57.32 52.49 152.90 80.95 18.26
1234 57.29 37.23 138.52 72.67 16.71
1235 57.39 10.88 59.62 44.67 10.15
1236 57.45 66.53 169.24 79.63 14.61
1237 57.61 32.58 136.24 71.97 15.01
1238 57.64 28.63 131.91 74.21 14.38
1239 57.65 79.18 159.65 67.84 13.78
1240 57.57 62.80 204.05 77.95 16.66
1241 57.62 71.78 175.92 70.11 14.82
1242 57.71 42.58 158.71 80.91 16.28
1243 57.79 56.95 184.37 88.35 17.18
1244 57.87 50.40 164.59 92.44 18.47
1245 57.96 13.75 65.45 62.63 10.51
1246 57.85 59.15 178.98 86.86 16.80
1247 57.84 3.40 33.71 36.35 6.83
1248 57.88 22.21 100.91 80.79 13.39
1249 57.91 35.38 141.69 80.44 15.47
1250 57.88 54.58 176.82 90.24 17.53
1251 57.94 45.85 159.01 83.91 18.14
1252 57.93 48.21 152.47 92.74 17.61
1253 57.93 16.96 78.38 69.80 12.20
1254 57.97 19.80 97.04 71.79 12.46
1255 57.91 81.66 144.82 61.87 13.97
1256 58.07 84.32 150.93 61.57 13.31
1257 57.98 95.67 60.43 33.01 6.98
1258 58.05 74.19 178.56 75.57 14.08
1259 58.13 87.54 141.88 59.48 11.38
1260 58.16 40.73 157.50 88.55 16.43
1261 58.22 61.20 185.01 86.22 16.78
1262 58.25 90.27 153.26 62.78 10.72
1263 58.16 8.13 54.73 52.89 9.91
1264 58.24 38.44 152.23 93.40 15.40
1265 58.20 64.63 183.55 92.12 17.19
1266 58.30 69.41 166.22 87.38 14.53
1267 58.30 30.65 141.54 87.33 14.59
1268 58.27 24.95 103.76 89.22 12.56
1269 58.33 76.69 171.03 75.11 14.92
1270 58.48 67.58 163.03 99.64 15.53
1271 58.69 5.20 46.95 49.64 9.35
1272 58.49 11.26 70.26 64.54 10.89
1273 58.20 12.32 62.67 80.67 11.17
1274 58.53 33.80 130.40 96.39 14.54
1275 58.61 92.76 113.03 53.01 10.48
1276 58.61 27.04 118.58 92.36 13.72
1277 58.62 52.65 147.62 115.76 17.49
1278 58.70 44.08 145.14 104.41 17.05
1279 58.70 71.56 166.77 89.29 13.78
1280 58.80 22.69 82.76 95.87 12.38
1281 58.83 79.31 150.04 78.10 14.09
1282 58.91 19.45 72.34 94.57 12.14
1283 58.99 29.05 126.23 105.04 15.19
1284 58.86 36.71 148.18 113.82 15.21
1285 58.90 55.05 157.77 110.67 17.58
1286 58.90 57.24 178.20 110.92 17.07
1287 58.89 47.52 136.97 116.53 18.62
1288 58.93 50.39 129.60 112.32 18.91
1289 58.98 16.82 63.44 91.37 13.21
1290 59.06 59.47 165.54 113.34 16.78
1291 59.10 62.21 159.00 131.32 16.87
1292 59.14 14.47 51.21 84.08 11.37
1293 59.05 66.04 165.59 111.97 17.39
1294 59.09 73.74 157.56 99.73 14.30
1295 59.01 82.19 157.15 74.36 14.53
1296 59.11 95.33 62.47 42.25 6.87
1297 59.19 42.18 139.62 124.83 16.90
1298 59.11 85.40 148.11 72.81 14.58
1299 59.15 32.38 122.46 120.59 15.57
1300 59.15 39.76 135.22 120.26 16.07
1301 59.34 9.82 61.64 86.32 10.78
1302 59.31 24.71 75.53 109.78 13.40
1303 59.34 64.09 151.17 112.78 16.53
1304 59.36 76.14 147.15 96.11 14.04
1305 59.33 88.85 144.31 75.32 12.09
1306 59.32 7.51 46.32 72.03 10.05
1307 59.43 35.07 91.85 132.17 15.59
1308 59.47 45.83 109.73 135.13 17.38
1309 59.47 69.12 124.97 125.28 16.60
1310 59.63 21.40 59.60 123.58 14.77
1311 59.75 91.65 102.65 64.45 9.86
1312 59.73 12.31 46.85 96.73 11.53
1313 59.64 27.39 81.76 121.84 13.69
1314 59.81 31.03 80.36 136.48 16.08
1315 59.67 52.84 92.69 152.89 18.50
1316 59.65 71.47 125.35 121.68 14.48
1317 59.72 37.75 89.43 139.88 16.38
1318 59.84 48.13 84.64 152.98 18.22
1319 59.83 78.37 121.25 100.98 14.49
1320 59.92 60.82 98.17 153.93 17.87
1321 59.92 18.23 42.63 111.36 11.65
1322 59.89 55.34 103.81 153.08 18.73
1323 59.91 57.44 105.31 155.44 18.03
1324 59.91 67.10 96.03 146.83 16.91
1325 59.94 80.58 117.73 97.33 14.62
1326 59.88 50.45 72.92 159.63 19.12
1327 59.98 83.36 128.52 102.14 14.16
1328 60.04 40.29 86.00 155.24 17.26
1329 60.09 44.25 76.14 155.75 17.82
1330 60.21 5.68 26.53 74.33 9.81
1331 60.10 86.73 121.79 86.32 13.11
1332 60.19 94.24 58.95 63.69 7.56
1333 60.18 33.53 62.23 151.12 15.86
1334 60.06 74.25 89.30 128.79 14.92
1335 60.30 15.83 36.61 116.92 11.43
1336 60.20 25.54 56.75 138.86 14.70
1337 60.29 62.82 80.82 161.29 16.71
1338 60.33 29.36 58.63 140.88 15.41
1339 60.38 42.24 72.12 166.51 17.90
1340 60.45 22.83 38.92 137.42 14.55
1341 60.38 65.18 72.59 151.92 16.72
1342 60.51 35.90 59.07 167.36 17.81
1343 60.42 59.02 70.38 168.02 18.22
1344 60.46 70.17 68.26 149.31 15.56
1345 60.65 3.48 11.86 50.95 7.24
1346 60.62 8.62 28.22 102.77 10.78
1347 60.47 76.78 80.26 115.13 14.04
1348 60.52 89.69 92.81 91.55 10.95
1349 60.69 20.25 36.30 137.04 14.08
1350 60.75 53.87 66.09 178.40 18.94
1351 60.65 72.42 61.75 150.89 14.30
1352 60.68 38.29 54.91 181.29 17.26
1353 60.73 46.60 55.16 169.47 20.15
1354 60.79 49.35 55.43 184.00 20.87
1355 60.81 68.18 57.14 162.03 16.75
1356 60.86 11.01 29.23 106.44 11.00
1357 60.88 13.68 30.56 125.13 12.41
1358 60.98 84.81 79.10 122.60 13.36
1359 60.87 27.28 45.08 154.00 15.12
1360 60.81 51.85 57.92 184.57 19.34
1361 60.97 55.85 60.83 181.10 19.75
1362 60.95 32.04 43.28 178.47 16.09
1363 60.93 81.82 72.21 120.80 14.99
1364 61.01 79.36 56.17 123.76 14.59
1365 61.20 17.88 30.75 144.33 12.84
1366 61.09 74.84 54.19 157.48 15.92
1367 61.16 24.74 39.90 161.06 15.67
1368 61.15 92.51 58.68 92.52 9.11
1369 61.22 60.30 54.00 185.78 17.90
1370 61.21 87.31 75.31 117.37 12.53
1371 61.25 40.12 49.19 187.95 19.48
1372 61.26 44.42 51.08 195.24 19.37
1373 61.28 95.59 16.41 50.98 6.46
1374 61.33 34.31 46.44 188.88 16.13
1375 61.30 57.81 52.70 188.22 19.33
1376 61.37 64.48 50.82 189.90 18.01
1377 61.39 62.33 53.31 192.58 17.70
1378 61.50 6.34 18.05 92.60 9.37
1379 61.45 29.95 45.38 175.42 16.59
1380 61.47 66.53 54.57 185.10 17.96
1381 61.52 42.36 49.90 191.86 18.70
1382 61.58 77.56 48.60 158.10 14.58
1383 61.67 15.62 27.65 151.21 12.88
1384 61.58 37.32 44.42 193.94 19.74
1385 61.61 70.04 48.29 169.44 16.95
1386 61.65 22.24 36.70 171.17 15.67
1387 61.66 48.43 49.95 197.46 20.10
1388 61.65 89.78 49.24 116.90 11.53
1389 61.69 72.59 46.08 167.14 16.26
1390 61.92 27.81 41.40 181.04 15.53
1391 61.76 51.34 57.37 206.82 20.49
1392 61.91 19.70 32.65 166.93 14.42
1393 61.87 82.96 48.97 145.55 14.83
1394 61.92 12.67 24.75 125.68 12.11
1395 61.90 46.10 52.55 203.03 21.16
1396 62.06 3.87 10.88 65.27 6.59
1397 62.06 8.84 20.72 115.30 11.80
1398 62.01 32.32 45.20 200.05 18.46
1399 62.10 11.09 25.21 139.86 10.79
1400 62.32 92.55 29.71 109.72 9.80
1401 62.12 56.40 55.99 206.00 20.69
1402 62.19 68.06 54.04 197.64 18.18
1403 62.16 80.38 41.60 152.44 15.82
1404 62.14 24.59 46.49 186.54 16.01
1405 62.24 58.82 64.14 207.42 20.99
1406 62.17 75.35 41.28 174.28 15.73
1407 62.28 35.10 48.73 208.09 18.19
1408 62.37 52.87 73.33 207.28 21.37
1409 62.38 87.89 45.28 148.02 13.19
1410 62.32 40.21 48.98 204.30 19.83
1411 62.45 85.29 43.96 149.52 14.78
1412 62.42 94.77 17.01 76.24 7.31
1413 62.45 61.14 54.75 202.00 21.46
1414 62.35 63.46 57.69 199.94 19.18
1415 62.53 37.60 55.90 203.65 19.82
1416 62.66 65.99 55.86 201.14 20.11
1417 62.59 71.37 49.48 196.63 17.04
1418 62.66 30.57 56.01 198.59 18.32
1419 62.56 49.88 74.49 215.96 22.66
1420 62.71 42.40 56.46 204.45 20.41
1421 62.71 55.06 68.74 214.72 22.53
1422 62.71 14.55 30.40 155.61 12.73
1423 62.80 17.31 37.51 167.74 14.67
1424 62.75 44.65 66.30 208.70 20.63
1425 62.80 5.80 18.43 99.66 9.55
1426 62.74 22.31 48.60 180.82 16.21
1427 62.85 26.27 51.45 190.93 16.26
1428 62.76 77.84 40.35 180.08 15.87
1429 62.84 47.34 70.35 215.79 22.78
1430 62.90 73.44 51.87 201.56 16.06
1431 63.02 90.00 34.37 129.63 12.37
1432 63.04 19.82 51.58 182.25 15.36
1433 62.96 82.49 40.17 162.97 17.60
1434 63.04 28.53 60.83 204.10 19.85
1435 63.03 33.42 68.10 208.49 19.77
1436 63.04 69.42 63.54 213.09 18.65
1437 63.21 11.82 29.40 145.60 12.13
1438 63.30 57.79 100.58 217.97 23.70
1439 63.37 8.39 29.44 132.32 11.28
1440 63.32 64.05 89.92 210.49 19.91
1441 63.35 24.33 67.04 191.70 18.95
1442 63.33 35.78 76.74 212.93 20.54
1443 63.51 38.72 76.98 206.95 21.57
1444 63.54 59.52 111.64 209.38 24.64
1445 63.36 75.51 52.82 191.41 17.32
1446 63.57 51.74 121.24 211.93 22.50
1447 63.45 80.30 44.41 174.76 18.12
1448 63.43 53.66 122.76 217.63 23.44
1449 63.54 40.80 69.35 209.01 24.08
1450 63.54 61.72 92.67 216.06 21.19
1451 63.48 87.47 40.18 152.29 14.47
1452 63.57 49.35 107.77 214.17 23.36
1453 63.69 92.84 23.60 110.74 9.65
1454 63.75 32.18 89.22 206.28 21.21
1455 63.76 68.00 89.66 209.83 20.61
1456 63.86 95.46 9.73 65.22 5.11
1457 63.76 56.25 122.34 214.84 24.17
1458 63.78 85.05 43.97 177.30 16.15
1459 63.81 43.96 85.00 209.65 22.18
1460 63.75 46.24 105.26 216.88 25.63
1461 63.73 71.80 97.49 206.13 17.78
1462 63.85 21.84 70.95 182.41 17.64
1463 63.89 30.11 87.76 204.35 20.98
1464 63.90 65.85 119.36 211.11 20.27
1465 63.88 77.93 54.56 194.25 16.96
1466 64.06 18.19 57.15 176.22 16.20
1467 63.97 27.26 77.74 198.52 18.63
1468 64.05 5.57 25.36 100.37 10.11
1469 64.13 74.01 87.38 206.51 17.74
1470 64.23 36.80 98.09 220.72 24.05
1471 64.25 10.40 40.69 147.30 14.44
1472 64.25 82.25 50.75 181.88 16.87
1473 64.21 90.34 39.30 145.90 11.62
1474 64.29 34.40 116.85 214.78 23.78
1475 64.42 13.13 48.02 163.60 15.94
1476 64.34 70.32 123.90 218.61 20.39
1477 64.40 42.32 97.43 214.40 23.73
1478 64.45 54.47 143.17 213.41 27.17
1479 64.38 62.95 132.24 215.78 22.26
1480 64.39 24.53 83.40 190.84 19.40
1481 64.50 48.27 131.31 219.40 27.38
1482 64.62 50.56 140.83 209.99 28.47
1483 64.58 60.54 137.71 212.22 27.96
1484 64.69 20.33 80.54 173.55 19.01
1485 64.61 87.69 49.89 164.13 14.75
1486 64.72 40.26 110.55 212.77 26.37
1487 64.79 46.22 117.89 215.54 29.23
1488 64.74 76.62 88.51 200.00 20.37
1489 64.77 57.00 133.58 212.64 28.55
1490 64.90 66.78 138.88 214.48 24.38
1491 64.88 79.56 75.08 186.66 19.67
1492 64.82 32.22 114.10 200.70 26.45
1493 64.97 15.90 62.37 168.41 17.86
1494 64.89 29.61 106.04 203.88 25.64
1495 65.00 38.18 116.50 212.32 30.35
1496 64.96 84.87 59.14 180.37 17.53
1497 64.93 93.69 21.43 96.78 8.56
1498 64.89 27.14 102.55 197.92 24.40
1499 65.03 52.79 140.16 211.24 31.20
1500 65.00 72.48 145.32 212.84 20.66
1501 65.11 6.20 27.94 97.64 11.26
1502 65.05 64.56 150.39 215.66 25.05
1503 65.06 68.92 156.07 217.41 22.72
1504 65.23 9.33 45.48 132.51 14.32
1505 65.15 22.71 76.82 189.44 23.27
1506 65.08 44.11 125.76 209.10 29.64
1507 65.29 35.77 115.52 207.43 28.96
1508 65.41 74.89 126.12 204.23 21.59
1509 65.42 91.13 52.88 142.94 11.18
1510 65.38 82.44 71.72 180.16 19.18
1511 65.50 18.09 68.95 162.37 21.50
1512 65.52 25.25 90.14 191.97 27.77
1513 65.61 58.05 140.41 209.97 38.56
1514 65.50 60.07 167.09 215.27 36.19
1515 65.54 12.65 51.49 140.68 17.65
1516 65.65 33.48 100.66 198.55 30.77
1517 65.65 41.90 113.28 205.92 33.95
1518 65.59 62.64 158.29 217.74 33.05
1519 65.64 48.70 140.55 206.77 35.48
1520 65.71 55.49 138.57 206.87 39.16
1521 65.74 88.26 79.03 165.98 14.28
1522 65.88 28.23 80.90 182.43 29.51
1523 65.87 70.85 164.07 210.48 25.12
1524 65.85 30.82 94.83 184.87 34.64
1525 65.79 39.42 105.23 208.89 38.36
1526 65.81 51.16 139.90 207.89 37.72
1527 65.89 20.32 78.35 168.00 24.53
1528 65.85 77.88 123.43 187.17 21.24
1529 65.93 46.36 110.88 206.21 38.01
1530 65.98 86.07 87.40 178.32 17.90
1531 65.98 65.63 151.49 208.82 31.43
1532 66.06 93.08 46.85 98.71 10.60
1533 66.14 44.26 106.78 205.48 42.63
1534 66.03 68.34 161.01 207.83 26.69
1535 66.24 80.51 109.70 185.13 20.42
1536 66.16 15.45 58.87 148.22 20.11
1537 66.15 53.48 118.42 209.78 43.45
1538 66.26 7.80 41.03 114.10 13.83
1539 66.25 37.52 106.71 200.58 46.71
1540 66.26 22.64 68.81 162.18 31.23
1541 66.33 72.91 154.17 198.90 26.20
1542 66.52 61.08 140.10 211.33 48.43
1543 66.53 83.54 114.46 182.09 20.30
1544 66.57 10.97 44.07 132.25 19.50
1545 66.41 35.19 98.11 186.85 50.58
1546 66.55 63.43 143.82 211.31 40.51
1547 66.57 75.07 158.70 187.90 26.22
1548 66.71 59.10 109.60 195.11 54.93
1549 66.59 25.36 70.47 160.58 40.50
1550 66.65 32.50 75.60 180.14 53.29
1551 66.60 40.84 88.26 188.00 48.77
1552 66.71 56.81 98.62 187.90 54.85
1553 66.71 50.12 109.40 199.67 47.85
1554 66.83 17.75 54.89 138.64 29.49
1555 66.84 48.01 94.99 196.70 57.15
1556 66.67 12.96 38.23 135.50 23.77
1557 66.86 67.33 146.29 204.56 37.41
1558 67.22 91.40 79.04 138.30 13.22
1559 66.95 29.76 65.69 171.30 53.37
1560 67.04 27.62 61.75 153.82 51.23
1561 66.92 77.67 142.99 182.78 27.79
1562 66.95 88.96 117.27 160.40 16.33
1563 67.06 43.41 97.69 184.35 59.42
1564 67.14 13.78 45.42 131.56 24.81
1565 67.12 20.14 49.21 135.00 34.67
1566 67.10 54.44 82.09 197.48 65.80
1567 67.17 69.34 137.03 197.06 35.27
1568 67.16 71.42 135.26 206.78 32.34
1569 67.20 52.12 99.90 182.39 63.92
1570 67.11 65.23 141.56 201.22 47.17
1571 67.30 38.36 63.69 178.98 62.82
1572 67.17 86.53 126.07 179.93 20.05
1573 67.34 93.67 43.88 89.39 7.75
1574 67.35 36.03 63.64 169.60 68.41
1575 67.28 45.94 78.30 190.46 64.54
1576 67.34 22.87 46.27 131.30 43.93
1577 67.40 81.49 130.45 171.62 25.80
1578 67.44 8.75 34.76 103.85 21.62
1579 67.46 6.37 19.44 68.03 12.59
1580 67.51 33.67 59.55 162.83 73.12
1581 67.51 62.47 100.35 193.58 65.19
1582 67.78 15.79 40.85 107.12 36.52
1583 67.64 31.35 51.66 145.38 73.55
1584 67.68 73.70 150.67 183.24 35.05
1585 67.64 40.62 68.24 169.66 76.89
1586 67.68 25.87 47.44 132.87 64.80
1587 67.82 56.14 74.10 180.37 80.28
1588 67.84 76.32 137.99 182.81 30.81
1589 67.82 79.05 136.44 168.64 31.74
1590 67.78 84.21 121.21 176.35 25.10
1591 67.78 49.89 70.80 168.18 80.49
1592 67.93 10.92 33.93 101.81 31.85
1593 67.88 58.38 77.81 178.28 78.08
1594 67.95 60.45 73.41 178.87 77.62
1595 67.90 67.08 102.40 190.01 54.62
1596 68.07 42.63 59.82 153.38 89.82
1597 68.08 18.84 39.22 108.87 45.94
1598 68.06 47.75 66.92 161.26 87.69
1599 68.07 28.85 54.99 125.64 71.01
1600 68.12 64.69 80.66 176.22 66.38
1601 68.16 53.72 70.24 168.23 97.52
1602 68.17 44.67 61.24 151.31 89.01
1603 68.31 21.75 41.73 105.30 59.58
1604 68.14 89.72 104.17 150.07 19.28
1605 68.40 13.04 37.03 99.55 43.10
1606 68.34 69.39 82.46 186.20 54.00
1607 68.34 71.76 111.04 188.38 47.30
1608 68.35 87.21 98.57 174.50 21.23
1609 68.38 34.35 48.06 129.92 97.04
1610 68.49 24.36 47.35 105.48 74.51
1611 68.51 39.08 53.40 135.71 96.19
1612 68.46 36.85 46.93 130.67 101.42
1613 68.53 51.24 59.48 155.51 97.43
1614 68.53 62.74 63.44 169.09 75.27
1615 68.40 93.37 35.72 79.81 8.83
1616 68.60 7.29 18.21 63.11 17.79
1617 68.73 81.20 102.30 175.63 33.64
1618 68.63 31.30 57.11 112.30 89.53
1619 68.79 83.26 104.32 168.51 33.07
1620 68.82 27.03 52.82 105.10 87.08
1621 68.79 75.23 124.77 168.83 42.90
1622 69.12 91.79 60.76 121.72 14.80
1623 68.88 41.19 51.51 124.77 114.77
1624 68.89 46.10 54.38 133.93 116.43
1625 68.82 56.82 58.51 152.18 108.39
1626 68.77 66.65 67.61 173.33 84.96
1627 68.96 17.38 40.60 91.86 63.51
1628 69.03 48.64 56.13 129.94 108.48
1629 69.04 58.95 59.19 143.40 116.35
1630 69.08 78.96 102.96 169.99 40.73
1631 69.06 10.23 27.31 68.48 35.77
1632 69.18 14.89 37.88 76.87 55.76
1633 69.28 60.78 63.11 142.06 111.95
1634 69.16 29.20 60.44 92.34 102.42
1635 69.20 53.26 59.10 132.22 111.04
1636 69.31 73.11 101.82 162.24 53.72
1637 69.48 85.71 95.18 162.16 30.62
1638 69.33 32.78 64.03 96.96 110.48
1639 69.27 43.73 61.62 114.14 127.12
1640 69.40 35.12 65.56 101.98 117.34
1641 69.45 68.17 56.41 157.67 78.43
1642 69.12 88.07 108.30 171.30 23.45
1643 69.51 89.60 83.11 144.17 23.55
1644 69.40 21.33 52.71 84.32 79.88
1645 69.43 65.30 52.81 152.38 97.75
1646 69.72 19.13 52.57 75.92 72.89
1647 69.46 55.42 74.37 126.30 134.44
1648 69.47 70.61 70.33 160.85 74.94
1649 69.65 25.76 55.52 75.78 90.26
1650 69.49 37.54 69.69 107.76 133.60
1651 69.62 51.10 61.76 117.20 135.77
1652 69.56 62.94 61.32 140.82 113.83
1653 69.70 77.27 82.34 164.27 51.40
1654 69.89 23.34 60.15 74.36 87.80
1655 69.80 39.64 77.59 99.53 142.13
1656 69.85 12.50 41.69 64.81 52.97
1657 70.09 30.85 78.96 81.09 111.30
1658 70.04 42.04 77.39 90.53 140.88
1659 69.98 46.71 89.35 102.19 135.40
1660 70.02 58.26 92.05 114.03 139.39
1661 70.14 83.69 84.65 161.45 44.47
1662 70.01 74.96 69.24 150.89 58.62
1663 70.14 16.64 46.55 63.26 75.35
1664 70.13 49.14 78.16 94.49 145.51
1665 70.36 81.39 69.41 151.29 51.80
1666 70.41 9.36 35.90 51.69 45.08
1667 70.29 28.94 76.98 67.33 109.16
1668 70.39 44.29 93.07 90.54 161.96
1669 70.37 53.63 102.03 103.67 157.09
1670 70.54 88.43 64.93 145.06 32.93
1671 70.52 32.73 82.33 72.96 121.76
1672 70.43 56.25 102.35 100.82 147.59
1673 70.46 62.20 79.19 112.20 133.98
1674 70.42 69.12 47.89 131.51 98.95
1675 70.53 71.40 51.30 133.44 87.87
1676 70.56 35.06 86.58 76.66 136.49
1677 70.52 37.28 84.27 85.88 149.03
1678 70.52 64.73 69.04 116.96 128.16
1679 70.75 60.03 113.53 96.62 142.37
1680 70.68 66.87 61.40 123.62 120.86
1681 70.79 20.60 66.81 56.74 92.33
1682 70.72 25.04 69.75 66.10 109.58
1683 70.67 51.43 107.10 93.92 166.68
1684 70.86 73.64 60.20 129.42 87.47
1685 70.87 14.58 45.49 53.32 75.22
1686 70.86 27.10 75.35 65.79 117.76
1687 70.87 39.62 97.22 79.65 156.16
1688 70.93 76.42 49.45 124.68 71.99
1689 71.15 12.01 43.31 48.14 59.92
1690 71.18 17.95 53.98 52.36 86.86
1691 71.04 46.03 107.96 79.80 162.93
1692 71.15 48.34 112.01 78.84 167.73
1693 71.18 85.78 69.66 151.42 50.13
1694 71.19 90.68 42.62 116.66 23.82
1695 71.33 22.96 65.83 53.72 102.57
1696 71.32 58.35 128.81 85.87 170.04
1697 71.21 41.86 109.24 68.49 160.96
1698 71.31 55.17 130.27 81.17 167.83
1699 71.45 31.43 80.87 58.40 125.98
1700 71.48 83.31 57.86 140.12 61.73
1701 71.66 52.85 135.02 73.37 169.00
1702 71.46 62.14 113.22 92.40 155.62
1703 71.49 69.23 66.61 105.74 127.41
1704 71.57 34.27 77.14 63.97 136.73
1705 71.56 37.49 93.55 65.40 154.74
1706 71.63 43.92 116.18 72.67 167.62
1707 71.60 64.48 108.18 91.99 160.51
1708 71.68 28.17 66.70 53.57 118.60
1709 71.69 50.54 121.66 72.40 172.57
1710 71.68 72.04 59.46 105.62 110.52
1711 71.84 78.64 50.26 120.12 91.25
1712 71.83 66.80 95.23 87.15 144.18
1713 71.94 81.03 46.54 118.78 85.24
1714 71.93 25.51 61.58 46.70 114.45
1715 71.95 88.74 37.07 111.21 37.67
1716 71.95 39.83 108.90 64.65 170.88
1717 71.99 75.93 49.29 111.51 102.37
1718 72.09 14.89 47.00 43.00 82.48
1719 72.05 20.79 61.66 46.36 104.12
1720 72.07 57.13 143.21 74.74 183.46
1721 72.16 29.86 66.60 50.37 125.60
1722 72.12 46.38 117.92 65.13 173.36
1723 72.24 60.71 149.24 76.42 170.81
1724 72.25 86.34 47.81 123.88 62.03
1725 72.26 17.84 49.40 40.57 89.27
1726 72.34 48.75 120.25 66.29 174.49
1727 72.38 11.88 38.67 35.01 61.38
1728 72.40 36.01 84.85 55.27 156.22
1729 72.43 41.70 106.49 56.70 171.59
1730 72.40 54.57 137.99 66.14 187.68
1731 72.51 70.02 90.31 87.50 137.58
1732 72.58 74.12 66.99 93.21 128.46
1733 72.53 33.62 58.93 54.49 149.89
1734 72.59 63.15 127.28 74.61 175.80
1735 72.81 22.46 43.04 39.86 96.96
1736 72.64 83.41 43.09 113.41 88.15
1737 72.75 65.23 118.03 75.64 173.37
1738 72.84 38.57 75.62 53.90 157.01
1739 72.75 44.06 102.59 55.36 173.33
1740 72.88 59.03 144.60 66.04 187.18
1741 72.99 31.66 49.98 47.13 127.72
1742 72.86 50.99 119.88 58.64 182.51
1743 73.02 27.08 48.65 41.10 115.46
1744 72.92 67.73 111.05 78.00 161.71
1745 73.00 72.21 93.14 84.95 134.69
1746 73.11 24.78 43.89 40.55 108.56
1747 73.15 53.02 107.74 56.97 177.06
1748 73.01 79.65 49.10 95.31 112.41
1749 72.98 56.37 130.36 58.23 192.46
1750 73.23 19.33 41.04 36.00 92.89
1751 73.31 88.95 25.44 87.03 48.27
1752 73.33 13.90 35.35 31.98 84.43
1753 73.28 77.29 59.90 93.40 121.40
1754 73.27 29.22 46.58 42.83 116.68
1755 73.18 46.29 92.98 52.42 168.78
1756 73.41 16.49 36.87 34.18 89.15
1757 73.37 61.69 131.91 63.15 184.48
1758 73.42 85.63 42.75 102.15 81.34
1759 73.44 36.50 54.77 49.18 145.44
1760 73.46 49.05 93.20 56.49 174.00
1761 73.48 42.45 83.32 51.59 165.37
1762 73.59 82.29 49.08 88.76 98.60
1763 73.53 34.18 47.91 43.35 142.98
1764 73.72 40.38 64.84 51.36 149.40
1765 73.76 70.45 114.48 69.15 148.61
1766 73.81 11.70 26.01 28.19 59.51
1767 73.81 75.25 87.73 78.00 133.05
1768 73.81 65.91 125.58 60.39 174.34
1769 73.89 55.10 99.31 54.14 188.68
1770 73.86 57.54 119.80 55.84 187.36
1771 74.01 63.72 124.09 57.21 181.55
1772 74.02 60.00 114.22 51.57 180.82
1773 74.13 20.60 30.25 34.35 89.80
1774 74.09 23.02 31.25 35.29 96.58
1775 74.00 44.58 72.06 45.33 157.11
1776 74.04 51.63 95.47 49.59 184.96
1777 74.09 68.18 119.60 63.89 164.50
1778 74.08 38.29 50.67 42.89 146.77
1779 74.30 30.46 34.86 38.01 111.11
1780 74.17 47.40 73.47 45.81 169.55
1781 74.19 80.15 64.04 79.81 119.85
1782 74.25 32.57 37.11 38.24 139.63
1783 74.26 72.83 119.83 65.74 141.94
1784 74.28 27.47 34.95 36.40 104.66
1785 74.46 17.17 24.68 28.95 84.69
1786 74.54 25.26 32.29 32.51 96.29
1787 74.34 87.09 37.00 83.41 68.79
1788 74.53 84.61 59.10 78.72 101.20
1789 74.49 35.29 39.60 39.70 128.80
1790 74.58 42.34 51.49 41.97 155.00
1791 74.66 53.55 83.05 48.07 184.06
1792 74.72 77.95 86.04 69.33 140.35
1793 74.70 49.96 71.61 47.13 175.48
1794 74.71 88.13 35.45 77.57 69.38
1795 74.86 14.36 22.24 27.12 76.88
1796 74.81 62.08 98.48 51.17 179.90
1797 74.90 57.85 84.43 48.76 169.39
1798 74.82 69.99 115.51 56.90 146.34
1799 75.07 45.27 50.91 43.65 150.70
1800 74.91 65.69 103.24 52.70 173.64
1801 75.11 82.52 66.58 74.71 123.64
1802 74.81 75.00 98.94 68.78 148.56
1803 74.96 89.60 18.76 60.45 30.27
1804 75.03 37.97 39.14 41.52 126.49
1805 75.11 55.58 67.28 44.72 162.47
1806 75.27 18.77 24.76 27.85 78.79
1807 75.18 40.19 43.07 39.37 127.65
1808 75.08 76.27 95.82 63.86 139.00
1809 75.17 29.08 36.84 35.20 95.37
1810 75.27 21.48 30.75 30.42 83.03
1811 75.18 60.06 76.54 47.28 173.76
1812 75.24 47.39 53.20 42.44 159.16
1813 75.31 32.96 37.20 35.77 114.72
1814 75.48 80.28 85.14 68.39 144.07
1815 75.61 51.82 51.51 41.32 152.31
1816 75.45 68.14 94.05 52.30 159.33
1817 75.46 73.46 107.70 54.48 146.43
1818 75.52 35.82 42.19 36.65 114.52
1819 75.51 43.31 45.19 39.89 144.73
1820 75.68 63.82 77.35 46.64 172.41
1821 75.68 85.98 67.06 66.22 100.71
1822 75.56 23.85 34.50 29.50 81.16
1823 75.69 26.65 36.23 29.84 80.52
1824 75.73 49.34 49.77 40.33 161.51
1825 75.77 71.00 113.64 51.13 156.00
1826 75.96 30.77 43.83 33.73 95.70
1827 75.95 15.96 23.69 25.75 65.31
1828 75.90 54.05 53.82 41.42 162.46
1829 76.03 88.40 39.39 48.91 52.25
1830 76.01 41.57 47.10 37.01 121.29
1831 76.18 78.51 100.87 56.79 154.08
1832 76.14 37.71 51.23 36.01 100.65
1833 76.11 56.55 50.55 40.93 156.82
1834 76.05 66.21 84.24 46.19 162.95
1835 76.16 75.83 96.10 51.94 145.83
1836 76.14 59.34 54.35 40.47 155.35
1837 76.22 61.81 57.03 45.27 163.80
1838 76.31 34.45 45.38 32.16 89.76
1839 76.27 83.34 85.31 61.92 124.35
1840 76.43 44.83 55.18 36.08 114.30
1841 76.47 28.74 52.34 29.89 77.09
1842 76.36 47.31 51.05 39.21 125.49
1843 76.58 19.07 30.63 26.54 64.51
1844 76.56 21.54 36.79 27.42 64.87
1845 76.55 39.83 56.67 34.47 103.75
1846 76.60 68.68 69.86 42.44 147.07
1847 76.68 23.97 43.94 28.58 63.33
1848 76.69 32.23 51.82 32.43 84.31
1849 76.66 50.08 51.59 35.72 125.30
1850 76.72 72.44 83.40 44.50 144.92
1851 76.90 53.62 49.45 38.23 129.69
1852 76.82 64.20 52.23 38.88 154.19
1853 77.01 80.70 103.82 52.93 144.88
1854 77.00 13.64 22.69 21.36 48.48
1855 76.95 26.37 50.18 29.47 60.21
1856 77.04 42.81 64.93 35.80 102.66
1857 76.98 57.83 40.45 36.91 141.27
1858 77.07 86.46 55.85 43.65 66.97
1859 77.10 74.72 85.96 41.74 146.83
1860 77.31 16.34 27.97 24.46 52.13
1861 77.23 66.49 52.49 38.99 141.64
1862 77.38 77.80 101.09 46.54 144.50
1863 77.43 35.87 74.06 31.32 71.31
1864 77.38 51.74 54.06 35.69 115.90
1865 77.36 55.71 48.67 37.54 123.82
1866 77.25 60.17 41.80 39.88 145.04
1867 77.34 38.06 73.06 34.14 83.11
1868 77.26 46.72 69.46 37.56 98.20
1869 77.42 70.61 70.98 39.22 153.60
1870 77.43 83.29 91.64 49.21 135.02
1871 77.53 62.45 37.43 38.52 139.94
1872 77.65 40.40 83.78 33.16 81.76
1873 77.64 28.47 61.62 30.00 58.82
1874 77.65 33.46 76.86 32.32 64.07
1875 77.73 30.88 72.23 31.31 60.12
1876 77.65 49.32 77.52 35.25 97.37
1877 77.81 20.40 41.63 24.80 49.81
1878 77.86 44.61 83.74 34.35 82.85
1879 77.96 18.31 39.93 24.46 49.62
1880 77.87 23.62 54.34 27.99 48.60
1881 77.99 68.67 48.65 36.29 130.94
1882 77.99 64.75 37.01 33.97 125.68
1883 78.09 73.24 64.48 38.95 127.59
1884 78.05 58.15 48.92 34.72 107.83
1885 78.18 75.70 75.08 39.82 141.32
1886 78.22 26.37 66.16 28.95 50.52
1887 78.21 53.28 73.92 35.81 95.07
1888 78.23 42.64 92.93 35.52 75.37
1889 78.27 80.12 85.50 42.38 139.52
1890 78.11 21.01 40.68 23.84 54.90
1891 78.33 46.78 105.36 32.70 70.29
1892 78.37 60.54 45.35 33.90 117.60
1893 78.50 55.46 77.13 34.57 96.51
1894 78.50 37.97 96.76 32.09 59.80
1895 78.42 82.17 89.90 40.88 130.58
1896 78.61 66.93 35.96 35.18 117.08
1897 78.70 51.16 96.34 34.23 76.30
1898 78.60 70.92 50.33 35.09 127.83
1899 78.70 29.20 74.85 29.84 50.41
1900 78.61 34.98 103.16 32.04 54.52
1901 78.66 49.00 104.86 32.61 74.59
1902 78.72 83.60 80.31 38.49 122.52
1903 78.80 40.76 107.52 34.31 56.66
1904 78.78 62.64 39.02 31.21 101.56
1905 78.83 32.31 93.29 31.26 49.34
1906 78.95 77.54 66.47 37.36 138.28
1907 79.07 16.73 49.35 22.69 34.22
1908 79.05 57.58 79.57 32.41 83.78
1909 79.28 21.38 63.37 25.39 37.99
1910 79.05 23.65 72.77 27.98 41.11
1911 79.21 44.92 108.47 34.05 62.36
1912 79.22 64.88 40.16 32.26 94.74
1913 79.26 73.19 41.90 34.99 134.90
1914 79.60 19.28 54.73 22.56 32.87
1915 79.37 60.00 68.59 29.86 88.53
1916 79.40 53.38 111.22 34.03 64.01
1917 79.55 26.38 76.48 27.31 36.88
1918 79.47 42.96 115.79 31.48 54.79
1919 79.50 46.94 121.14 31.70 54.62
1920 79.49 68.23 32.54 32.93 103.95
1921 79.47 79.52 64.79 36.44 137.06
1922 79.57 36.46 117.72 31.09 50.42
1923 79.73 82.10 64.12 34.80 127.71
1924 79.72 30.66 93.67 29.56 43.66
1925 79.65 38.82 119.03 31.88 47.74
1926 79.67 75.63 44.63 33.62 139.53
1927 79.73 49.35 128.25 35.63 50.45
1928 79.72 33.78 107.47 31.68 47.10
1929 79.79 55.99 113.36 32.38 65.14
1930 79.78 70.98 33.86 33.27 112.17
1931 80.03 84.49 40.51 28.05 68.77
1932 79.75 28.06 89.83 28.48 40.65
1933 79.89 62.56 66.47 31.24 70.72
1934 80.10 40.92 120.94 34.04 44.48
1935 80.05 51.48 125.60 32.88 56.15
1936 79.89 23.16 69.88 25.75 37.00
1937 80.28 28.43 83.06 29.15 37.20
1938 80.20 58.34 101.04 30.55 69.13
1939 80.32 65.47 49.82 31.48 81.87
1940 80.46 74.16 33.05 31.65 122.08
1941 80.44 22.30 68.89 24.30 33.48
1942 80.54 45.58 130.06 34.96 52.49
1943 80.49 54.52 128.16 32.88 53.21
1944 80.55 77.95 39.73 29.88 128.96
1945 80.31 23.78 69.07 28.75 32.96
1946 80.62 43.41 132.63 33.37 47.96
1947 80.64 67.69 40.12 28.90 87.69
1948 80.62 80.31 41.08 31.08 131.55
1949 80.79 18.46 60.25 23.95 27.13
1950 80.66 35.28 109.07 30.43 42.98
1951 80.64 60.81 85.87 30.37 58.24
1952 80.73 32.29 90.40 29.93 42.88
1953 80.69 47.89 131.16 32.43 45.28
1954 80.67 37.71 114.99 29.33 45.33
1955 80.73 69.87 37.10 30.01 95.52
1956 80.99 72.27 32.25 30.07 95.40
1957 80.91 25.57 81.15 28.66 35.38
1958 80.99 63.35 76.57 29.41 60.70
1959 81.17 29.91 83.21 28.30 36.21
1960 81.11 52.52 124.34 31.46 48.11
1961 81.10 50.08 131.57 31.30 44.33
1962 81.10 76.10 32.62 28.84 122.71
1963 81.32 82.36 26.02 26.37 76.71
1964 81.26 39.47 108.91 29.35 39.91
1965 81.29 56.72 131.91 32.95 52.34
1966 81.32 58.70 115.80 31.19 51.80
1967 81.35 41.78 107.92 31.38 44.07
1968 81.43 23.39 75.79 26.55 33.28
1969 81.21 27.87 77.97 24.50 38.41
1970 81.37 20.91 68.92 24.79 31.64
1971 81.57 65.68 70.06 29.19 60.69
1972 81.68 54.79 142.87 32.26 45.70
1973 81.63 46.32 121.93 34.88 44.79
1974 81.70 34.29 86.89 29.16 39.75
1975 81.75 37.04 95.72 30.81 41.18
1976 81.84 79.40 29.14 23.66 105.09
1977 81.89 44.24 110.77 31.01 40.28
1978 81.79 60.91 111.83 27.99 46.72
1979 81.92 67.95 64.10 28.97 63.50
1980 81.91 74.40 31.75 28.72 99.31
1981 81.94 31.81 68.86 29.11 36.95
1982 81.85 70.36 49.81 29.18 74.17
1983 81.66 76.83 28.85 24.19 99.73
1984 81.88 27.74 77.17 26.68 35.54
1985 82.11 48.30 118.49 30.03 41.28
1986 82.18 18.14 51.92 21.05 23.80
1987 82.15 25.51 71.21 24.83 32.35
1988 82.12 63.39 95.84 28.50 48.25
1989 82.18 50.65 124.06 30.02 38.07
1990 82.41 40.28 89.31 30.38 38.86
1991 82.27 53.14 130.61 30.30 38.45
1992 82.54 20.12 55.72 22.92 27.13
1993 82.51 72.32 47.28 27.99 74.84
1994 82.56 42.48 89.68 31.64 38.31
1995 82.50 56.95 135.51 30.23 42.46
1996 82.63 59.18 127.72 29.16 41.57
1997 82.65 22.72 59.94 24.30 28.96
1998 82.63 77.16 38.49 24.83 95.44
1999 82.82 38.06 80.23 29.23 37.87
2000 82.81 30.15 60.92 26.50 36.43
2001 82.87 35.07 68.29 28.20 34.59
2002 82.73 46.25 97.80 31.61 38.17
2003 82.78 66.01 92.12 27.15 46.37
2004 82.90 32.92 58.83 30.38 37.42
2005 83.12 27.98 55.73 27.62 32.12
2006 82.99 69.79 68.85 28.91 55.94
2007 82.95 61.18 111.97 29.16 42.17
2008 83.11 55.11 124.03 29.60 38.33
2009 83.17 74.85 44.76 24.46 78.68
2010 83.14 49.56 96.53 32.37 37.45
2011 83.21 52.19 108.38 29.73 37.87
2012 83.43 79.16 26.26 21.94 70.11
2013 83.34 25.47 54.39 25.39 29.69
2014 83.35 44.44 82.08 29.83 34.19
2015 83.31 63.79 107.88 28.23 41.46
2016 83.56 68.01 100.09 26.68 51.29
2017 83.53 41.11 66.28 29.19 34.32
2018 83.67 47.54 82.21 29.49 34.45
2019 83.64 57.98 116.85 28.69 35.28
2020 83.73 72.47 67.46 25.53 56.07
2021 83.92 20.93 43.22 21.45 25.57
2022 83.93 23.23 43.29 24.24 25.86
2023 83.82 36.33 54.88 28.70 35.05
2024 83.97 31.81 41.47 27.11 33.18
2025 83.95 39.23 57.56 29.47 34.13
2026 84.01 61.80 109.49 27.31 36.55
2027 84.03 76.65 44.97 22.91 67.58
2028 84.13 66.15 107.67 27.02 45.75
2029 83.97 29.98 40.90 26.03 32.60
2030 84.15 42.99 60.22 29.05 34.67
2031 84.11 55.14 94.55 27.83 34.55
2032 84.22 50.16 74.43 27.56 33.24
2033 84.26 70.25 86.85 24.91 47.39
2034 84.42 34.10 44.85 28.53 31.75
2035 84.28 52.50 88.93 28.00 35.30
2036 84.20 25.23 44.10 23.90 30.76
2037 84.50 27.49 38.04 27.51 30.06
2038 84.53 45.39 59.14 27.64 32.85
2039 84.59 59.45 108.33 28.02 34.01
2040 84.35 28.98 41.00 25.11 29.83
2041 84.68 64.37 112.94 28.48 39.79
2042 84.72 74.44 62.87 21.95 53.14
2043 84.80 37.59 45.76 26.40 30.54
2044 84.70 47.37 63.74 28.88 30.92
2045 84.78 57.25 94.54 27.79 36.89
2046 84.42 73.20 78.17 27.00 48.50
2047 84.76 30.18 33.43 26.30 29.91
2048 84.92 41.22 43.24 28.83 30.80
2049 84.98 68.36 105.55 25.69 40.12
2050 85.00 54.22 85.72 28.84 30.74
2051 85.07 61.76 110.05 28.71 35.07
2052 85.28 20.23 24.33 20.66 20.85
2053 85.32 43.61 47.76 27.90 31.30
2054 85.27 35.68 36.38 29.74 32.10
2055 85.26 50.45 56.65 25.70 30.05
2056 85.21 71.63 88.07 24.23 42.62
2057 85.46 76.37 59.23 19.12 45.76
2058 85.24 32.25 31.95 28.97 29.16
2059 85.59 48.48 48.49 27.79 30.32
2060 85.38 21.99 27.94 22.05 22.33
2061 85.44 66.23 93.06 25.62 36.20
2062 85.28 28.14 20.64 30.86 19.93
2063 85.68 39.52 35.66 28.68 30.10
2064 86.05 26.09 24.62 23.41 25.66
2065 85.65 30.47 26.68 27.83 29.46
2066 85.79 52.36 62.26 27.42 30.44
2067 85.48 73.85 68.76 18.92 39.40
2068 85.76 45.83 45.38 28.40 28.69
2069 85.84 56.87 77.74 27.39 30.15
2070 85.82 59.33 88.19 27.50 30.60
2071 85.89 63.76 97.74 27.16 35.20
2072 85.87 24.14 22.74 25.22 23.30
2073 86.02 28.26 25.12 26.84 29.20
2074 85.62 33.23 25.17 30.08 25.92
2075 85.86 34.05 23.22 29.83 25.39
2076 85.99 37.34 30.87 27.13 29.41
2077 85.79 41.66 37.57 23.29 28.43
2078 86.14 69.21 115.81 24.07 38.55
2079 86.09 54.68 64.30 28.23 29.43
2080 86.12 61.61 89.68 27.17 31.68
2081 86.28 71.28 105.79 24.14 38.46
2082 86.02 73.32 77.21 22.61 40.97
2083 85.99 32.10 20.92 33.58 23.42
2084 86.12 42.38 30.08 26.77 27.96
2085 86.41 50.19 44.73 28.08 28.89
2086 86.54 67.34 106.70 25.20 35.48
2087 86.36 41.12 28.28 30.82 25.44
2088 86.51 75.03 77.93 21.31 32.75
2089 86.69 65.39 93.66 25.76 33.33
2090 86.54 21.93 18.93 18.70 21.23
2091 86.66 44.41 30.61 28.42 26.90
2092 86.68 32.49 22.30 27.76 27.05
2093 86.73 47.01 35.76 27.93 28.40
2094 86.56 34.87 24.21 27.42 27.89
2095 86.50 34.11 25.17 31.67 25.83
2096 86.92 58.85 57.84 24.69 28.37
2097 87.13 76.46 57.56 17.08 22.00
2098 87.05 54.15 50.34 28.52 27.34
2099 87.14 56.49 51.66 26.67 27.43
2100 87.09 61.39 72.78 28.13 31.34
2101 87.27 52.08 34.92 26.62 25.23
2102 87.26 72.73 94.59 21.07 31.30
2103 87.20 28.52 18.88 26.08 24.95
2104 87.23 41.00 21.30 27.62 26.25
2105 87.37 33.59 18.51 28.60 25.16
2106 87.31 63.60 76.64 24.63 31.55
2107 87.33 23.18 15.81 22.69 22.55
2108 87.33 36.41 20.56 29.77 23.79
2109 87.46 48.72 30.69 27.70 25.71
2110 87.46 69.77 100.11 20.83 29.67
2111 87.14 24.46 19.31 19.56 25.69
2112 87.55 25.77 15.84 23.02 24.33
2113 87.32 26.84 14.82 27.36 20.27
2114 87.67 31.30 18.37 27.39 27.46
2115 87.45 44.33 24.12 27.75 27.00
2116 87.58 46.13 27.42 28.15 24.68
2117 87.82 67.56 91.17 24.49 30.30
2118 88.02 60.65 55.59 26.70 28.43
2119 87.81 27.73 19.27 28.90 21.27
2120 87.89 74.42 70.37 18.20 25.33
2121 88.11 38.81 19.27 28.15 23.13
2122 88.21 58.56 42.75 27.26 24.28
2123 88.07 65.53 71.31 23.00 27.02
2124 87.99 24.40 13.66 22.80 16.09
2125 88.08 44.94 19.89 30.35 22.85
2126 88.15 54.76 34.33 23.58 24.53
2127 88.03 30.25 18.15 29.36 21.76
2128 88.06 50.65 25.95 25.52 24.35
2129 88.30 46.97 21.82 28.40 23.62
2130 88.51 71.37 74.96 21.83 26.11
2131 88.46 62.96 59.24 24.60 25.83
2132 88.27 32.73 18.06 29.74 20.26
2133 88.70 56.77 34.18 24.98 26.08
2134 88.42 27.67 14.49 26.38 19.44
2135 88.35 39.81 20.90 22.60 26.60
2136 88.44 41.64 17.71 30.18 21.35
2137 88.78 68.85 81.89 22.04 25.10
2138 88.67 29.81 15.65 22.60 25.08
2139 88.97 40.74 19.40 30.42 20.39
2140 88.74 52.76 25.48 26.33 23.12
2141 88.88 38.63 16.90 30.03 20.74
2142 88.76 54.42 23.86 28.43 20.86
2143 89.18 64.78 53.66 22.66 25.62
2144 89.18 24.44 11.48 21.36 16.77
2145 89.14 27.25 12.95 22.47 21.89
2146 88.94 39.69 18.83 33.17 16.67
2147 89.27 60.88 39.73 24.08 24.39
2148 89.35 66.70 60.55 22.13 24.98
2149 89.37 45.16 19.46 28.94 21.20
2150 89.34 51.19 19.55 27.67 20.85
2151 89.33 34.22 18.35 27.38 23.77
2152 89.18 29.63 13.44 26.81 24.31
2153 89.74 72.33 53.52 17.97 19.56
2154 89.59 55.13 22.38 29.95 24.15
2155 89.59 58.79 31.18 25.99 23.54
2156 89.77 63.09 42.23 25.87 23.64
2157 89.41 30.40 16.17 31.00 17.50
2158 89.77 69.97 59.88 19.83 21.73
2159 89.81 36.13 16.56 29.34 22.29
2160 89.79 41.90 16.97 28.23 22.82
2161 89.56 43.65 18.88 28.84 20.20
2162 89.80 26.46 12.13 24.23 15.64
2163 90.18 29.39 13.92 23.80 18.58
2164 89.86 30.93 13.54 25.64 19.77
2165 89.81 57.13 25.38 25.83 23.86
2166 89.90 40.25 14.76 27.62 20.57
2167 90.20 49.73 18.15 26.20 19.83
2168 89.83 55.97 22.73 30.55 23.45
2169 90.07 53.84 19.66 29.51 20.83
2170 90.32 32.93 16.05 27.71 18.80
2171 90.17 45.40 19.18 28.73 19.97
2172 90.42 67.98 52.24 19.93 20.79
2173 90.50 65.19 38.75 20.43 21.36
2174 90.41 38.60 18.34 27.59 19.55
2175 90.19 43.31 19.71 26.33 20.62
2176 90.39 61.31 31.40 24.74 22.65
2177 90.25 56.38 24.17 26.83 21.00
2178 90.50 57.93 20.76 26.21 21.88
2179 90.61 44.36 17.43 30.36 20.73
2180 90.67 51.28 18.33 27.91 19.04
2181 90.60 52.77 20.77 29.37 22.13
2182 90.64 31.41 15.64 26.42 19.58
2183 90.72 40.09 18.12 28.61 19.27
2184 90.77 36.79 15.81 30.00 20.38
2185 90.96 27.92 11.87 23.13 13.82
2186 90.94 49.01 19.02 28.61 18.24
2187 90.94 41.42 16.12 28.72 21.09
2188 90.94 48.02 17.10 27.80 22.60
2189 91.05 55.68 16.78 26.66 20.84
2190 91.30 63.44 29.22 21.93 21.83
2191 91.10 53.37 13.48 26.04 17.91
2192 91.25 57.21 19.90 26.90 21.65
2193 91.23 30.84 12.79 25.18 19.29
2194 91.30 32.60 13.89 24.70 19.00
2195 91.30 44.04 16.89 28.63 16.63
2196 91.30 45.73 18.21 27.21 21.00
2197 91.49 47.30 17.87 27.74 19.45
2198 91.42 36.97 16.73 27.96 18.24
2199 91.45 51.83 17.56 28.18 18.46
2200 91.49 50.23 19.06 26.15 23.65
2201 91.84 66.01 28.38 22.17 18.33
2202 91.99 41.48 16.39 27.57 19.75
2203 91.59 55.51 16.44 25.67 15.22
2204 91.91 38.21 16.21 27.55 18.86
2205 92.00 54.51 16.84 26.24 18.36
2206 91.86 36.02 14.31 27.12 17.06
2207 91.98 44.75 17.02 29.85 20.37
2208 91.98 48.86 16.73 27.59 20.05
2209 92.11 58.70 18.77 23.25 19.08
2210 92.47 42.91 16.56 27.66 18.19
2211 92.08 53.00 12.97 26.03 18.62
2212 92.38 47.83 18.02 27.82 18.98
2213 92.39 50.73 16.72 28.33 18.26
2214 92.25 62.36 22.27 21.45 17.45
2215 92.42 36.25 16.61 27.56 19.32
2216 92.45 60.67 16.61 24.06 15.69
2217 92.54 32.80 14.79 25.14 15.64
2218 92.59 34.41 13.42 25.74 15.80
2219 92.55 52.17 18.82 27.24 20.06
2220 92.72 63.02 16.07 18.81 19.37
2221 92.99 31.57 11.62 24.43 15.03
2222 92.84 37.24 14.37 26.37 16.89
2223 92.78 38.52 14.41 26.28 15.66
2224 92.74 53.19 16.22 24.87 20.35
2225 92.87 66.00 16.69 19.71 16.87
2226 92.81 61.78 15.14 26.71 16.29
2227 93.22 51.14 16.28 25.70 17.40
2228 93.20 60.17 15.49 21.88 17.76
2229 93.12 47.64 14.47 26.20 20.13
2230 93.36 62.42 15.21 20.63 16.75
2231 93.36 35.29 14.60 24.05 17.73
2232 93.46 43.95 17.49 27.42 17.96
2233 93.41 48.59 14.95 25.88 17.18
2234 93.48 53.40 14.44 24.25 17.66
2235 93.31 57.08 15.23 24.54 15.73
2236 93.48 39.56 14.33 24.82 18.96
2237 93.58 55.55 14.95 25.26 19.86
2238 93.69 58.34 13.90 22.79 16.98
2239 93.75 49.89 18.15 24.52 19.15
2240 93.81 33.80 13.86 23.49 14.62
2241 93.99 38.42 13.74 25.91 15.87
2242 93.97 60.77 13.40 21.71 14.90
2243 94.35 36.82 14.22 22.78 16.49
2244 94.09 47.77 14.74 24.14 18.91
2245 94.23 56.49 14.96 22.37 16.92
2246 94.36 63.09 11.17 18.94 14.26
2247 94.93 48.54 14.68 23.82 16.45
2248 94.69 34.90 12.48 22.66 13.88
2249 94.53 55.17 13.00 24.09 14.58
2250 94.51 50.58 14.03 23.00 16.03
2251 94.79 46.83 15.82 24.35 17.28
2252 94.60 45.39 13.66 23.95 15.63
2253 94.90 39.18 15.10 24.03 15.79
2254 94.94 43.27 14.72 24.47 15.36
2255 95.18 59.51 13.68 19.88 13.62
2256 95.30 51.90 13.74 23.79 17.26
2257 95.37 53.98 13.53 23.29 14.96
2258 95.36 50.07 13.65 25.05 16.21
2259 95.63 36.82 12.67 20.13 13.65
2260 95.62 46.20 14.00 24.52 16.07
2261 95.56 60.62 10.05 18.55 13.25
2262 95.65 38.17 11.60 23.40 12.45
2263 95.85 58.50 10.70 19.44 13.44
2264 96.12 48.58 11.85 21.16 13.93
2265 95.68 51.18 11.00 21.00 12.00
2266 96.07 39.39 11.53 21.07 12.64
2267 95.97 40.97 11.23 23.64 14.91
2268 96.14 52.18 11.88 21.63 12.53
2269 96.16 54.76 12.14 19.95 14.24
2270 96.56 47.66 12.00 22.05 13.30
2271 96.43 41.57 14.15 20.15 13.15
2272 96.70 39.88 12.60 20.28 13.86
2273 96.83 42.58 11.08 20.53 13.66
2274 96.88 50.56 11.27 20.81 15.02
2275 96.86 53.34 12.00 20.01 12.79
2276 96.85 56.51 9.97 19.24 12.05
2277 97.11 46.00 9.38 21.77 13.31
2278 97.24 40.63 10.44 19.37 13.85
2279 97.52 50.10 10.84 21.03 13.41
2280 97.55 52.22 9.62 19.91 13.09
2281 97.70 41.63 9.44 17.56 12.11
2282 97.69 45.68 8.94 20.80 13.22
2283 97.75 43.36 9.31 19.81 12.36
2284 97.98 49.42 9.04 19.92 11.76
2285 98.39 48.17 10.14 18.52 11.30

