
0 2.37 43.90 9.96 12.13 72.45
1 2.85 39.58 12.41 12.22 107.31
2 3.11 42.22 13.03 13.02 100.33
3 3.57 45.65 11.69 13.39 75.86
4 3.46 35.55 12.80 13.13 107.62
5 4.02 38.72 13.18 12.78 104.62
6 4.28 47.70 12.60 13.21 97.88
7 4.27 41.49 13.60 13.34 115.97
8 4.60 33.37 13.21 13.60 106.83
9 4.71 35.93 13.77 12.84 104.50
10 4.88 43.84 13.18 13.25 111.03
11 5.14 31.00 12.96 12.31 95.03
12 5.32 38.32 14.29 14.55 126.05
13 5.36 48.58 14.31 13.58 127.56
14 5.58 51.57 12.08 13.62 111.06
15 5.51 40.94 14.20 14.50 126.28
16 5.80 45.55 13.93 14.18 119.69
17 5.83 34.56 15.36 14.48 131.39
18 6.26 29.61 14.39 12.82 106.53
19 6.38 32.19 13.98 14.17 112.48
20 6.26 54.55 12.65 14.40 105.15
21 6.42 36.73 15.34 14.42 132.05
22 6.48 42.54 15.35 14.09 125.28
23 6.65 47.61 14.82 15.12 124.93
24 6.65 50.34 15.11 15.12 136.81
25 6.81 39.40 15.83 14.26 115.44
26 7.25 44.80 15.57 13.83 128.89
27 7.19 53.12 13.19 15.42 143.78
28 7.23 34.44 14.76 15.08 134.57
29 7.50 29.53 14.36 14.06 117.58
30 7.53 55.88 13.85 14.63 131.37
31 7.87 37.18 16.52 14.91 140.40
32 7.92 42.11 15.76 14.75 127.72
33 8.00 31.98 16.80 14.00 130.19
34 7.95 48.26 16.50 15.82 141.48
35 7.96 51.25 15.36 14.80 140.12
36 8.53 39.63 16.84 16.33 140.44
37 8.59 45.42 15.81 15.01 118.68
38 8.52 54.28 16.42 14.79 154.19
39 8.67 34.45 16.81 14.69 138.65
40 8.60 57.84 14.14 14.80 129.33
41 8.60 28.05 14.39 13.02 126.23
42 9.16 30.55 16.55 14.11 127.88
43 9.15 49.80 15.81 14.57 131.45
44 9.34 37.04 16.40 15.83 141.54
45 9.46 41.46 16.20 16.68 135.98
46 9.43 26.13 14.70 12.70 124.04
47 9.57 52.74 15.62 14.67 150.35
48 9.65 60.13 15.09 13.86 105.95
49 9.57 56.03 16.31 15.01 154.84
50 9.88 46.86 18.44 15.11 151.58
51 9.92 33.38 18.24 15.13 133.91
52 9.92 44.04 17.75 15.87 147.72
53 10.06 28.15 16.44 13.99 136.20
54 10.37 38.94 19.10 16.69 150.43
55 10.43 49.33 17.98 14.62 158.59
56 10.67 31.04 16.92 16.22 142.17
57 10.78 35.92 18.24 16.49 147.15
58 10.79 54.24 16.94 15.71 158.80
59 10.71 56.90 16.37 15.44 167.84
60 10.70 25.22 15.26 12.68 126.09
61 11.06 41.89 18.67 16.55 140.12
62 10.97 59.31 17.70 14.57 162.23
63 11.14 51.62 17.67 15.22 148.53
64 11.02 62.26 16.54 12.79 131.57
65 11.30 45.46 18.93 16.15 133.12
66 11.34 28.77 19.53 15.92 156.42
67 11.51 23.25 15.75 11.95 110.50
68 11.65 33.48 19.52 16.14 158.00
69 11.70 26.50 17.62 14.28 142.49
70 11.74 48.83 18.51 16.54 147.87
71 11.74 38.76 18.75 15.68 150.53
72 12.03 64.07 19.32 13.79 132.14
73 12.10 57.85 20.77 15.51 169.50
74 12.24 31.21 18.60 16.03 155.25
75 12.16 54.89 19.13 14.97 143.30
76 12.25 60.63 16.50 14.61 147.01
77 12.31 36.11 20.21 16.52 153.84
78 12.39 43.13 19.87 15.92 148.39
79 12.55 51.71 18.68 15.52 152.80
80 12.68 46.73 19.81 15.42 141.93
81 12.72 28.78 19.23 15.14 155.55
82 12.79 40.41 19.57 17.45 149.12
83 12.82 22.26 15.26 12.06 121.23
84 12.78 24.60 17.49 13.96 145.75
85 12.84 66.43 17.07 12.48 107.36
86 13.15 62.52 20.11 15.29 171.19
87 13.24 34.20 19.81 16.44 143.39
88 13.42 26.76 19.40 15.82 151.80
89 13.38 57.85 21.18 15.71 158.36
90 13.54 49.19 20.11 16.03 161.48
91 13.67 38.13 19.83 16.20 145.82
92 13.46 54.61 20.20 16.08 157.90
93 13.57 44.43 19.79 17.22 158.81
94 13.70 31.71 20.94 17.19 158.94
95 13.90 64.61 22.03 14.34 167.65
96 13.99 51.85 21.54 16.01 163.47
97 14.07 60.61 21.93 15.10 168.82
98 14.10 29.44 22.77 17.44 156.06
99 14.35 40.82 20.90 16.21 138.71
100 14.33 23.86 18.01 14.06 147.53
101 14.29 21.69 16.16 13.14 136.45
102 14.45 46.90 21.28 15.71 159.20
103 14.43 35.87 21.50 17.31 168.58
104 14.61 66.82 20.53 14.31 133.19
105 14.40 69.47 16.15 11.46 85.22
106 14.58 26.04 20.46 15.09 161.82
107 14.78 43.52 20.84 17.14 151.45
108 14.68 57.74 21.56 16.44 167.86
109 14.90 54.83 20.10 15.07 152.61
110 14.91 32.89 22.21 16.70 159.02
111 15.00 62.91 23.00 15.62 171.05
112 15.08 49.66 22.02 15.85 161.66
113 15.13 28.10 20.31 16.07 166.42
114 15.31 52.41 22.55 16.40 184.48
115 15.41 20.21 17.97 11.97 118.14
116 15.50 37.92 21.50 16.74 153.59
117 15.50 60.30 24.74 14.90 175.34
118 15.75 22.54 19.86 13.59 138.35
119 15.82 30.33 22.22 15.00 154.98
120 15.73 45.78 23.41 17.38 156.39
121 15.69 65.28 24.20 14.93 176.92
122 15.76 25.02 20.29 14.46 155.39
123 15.85 35.08 21.46 17.13 154.56
124 15.76 68.70 25.05 13.82 135.24
125 15.87 41.67 21.19 16.86 146.46
126 15.96 56.99 23.26 15.17 167.74
127 16.07 18.40 14.20 10.60 84.22
128 16.33 48.63 23.67 17.01 161.11
129 16.49 27.24 20.70 15.25 154.99
130 16.57 32.76 23.59 16.81 157.38
131 16.50 63.15 23.79 15.40 169.92
132 16.45 52.87 23.45 16.29 153.40
133 16.60 39.49 22.99 18.25 176.34
134 16.74 66.82 26.38 15.33 167.59
135 16.80 44.32 23.85 16.84 157.65
136 16.75 59.60 24.21 15.58 164.12
137 16.83 71.23 26.49 12.71 119.99
138 17.02 24.29 20.81 15.40 154.42
139 17.15 21.86 21.62 12.66 137.56
140 17.15 37.10 23.62 16.88 158.48
141 17.18 55.91 25.71 15.97 170.22
142 17.24 19.45 18.99 10.55 120.21
143 17.31 29.48 22.14 16.54 161.15
144 17.43 50.16 24.71 16.66 161.81
145 17.47 41.61 24.33 17.85 174.37
146 17.74 46.67 24.70 16.58 153.42
147 17.83 34.60 25.17 17.49 160.87
148 17.72 61.65 26.94 15.29 177.54
149 17.65 68.65 30.53 15.05 174.70
150 17.77 64.73 28.73 15.43 175.88
151 17.79 53.08 25.26 16.67 178.28
152 17.87 73.78 25.64 12.02 93.27
153 17.88 26.74 23.79 15.82 153.07
154 17.87 32.07 25.38 16.75 176.04
155 18.03 58.47 26.57 15.58 169.95
156 18.29 43.78 25.55 17.85 164.36
157 18.33 70.94 29.09 13.88 152.08
158 18.29 24.17 22.12 14.32 157.98
159 18.43 39.84 25.17 17.17 165.87
160 18.40 18.29 19.46 11.26 118.67
161 18.56 20.66 21.94 12.75 132.05
162 18.58 37.14 26.58 17.77 172.48
163 18.73 55.99 26.01 16.34 161.05
164 18.67 66.95 30.44 15.18 159.51
165 18.64 29.87 24.08 17.56 166.36
166 18.71 49.26 27.32 17.41 169.21
167 18.91 62.81 28.47 15.47 162.97
168 19.04 53.04 28.65 17.18 175.79
169 19.10 16.31 16.98 9.64 81.43
170 19.13 27.56 25.85 16.23 171.87
171 19.19 74.57 25.28 11.98 97.36
172 19.23 22.66 25.07 13.31 160.67
173 19.20 32.49 26.72 16.61 166.76
174 19.31 46.63 29.27 17.58 169.91
175 19.30 59.50 29.42 16.16 162.12
176 19.47 35.12 24.82 16.44 157.25
177 19.69 41.31 28.10 17.78 157.50
178 19.59 71.79 33.28 13.89 152.08
179 19.60 25.12 24.90 15.30 166.63
180 19.56 43.98 28.81 18.14 179.38
181 19.75 51.09 30.20 17.98 183.97
182 19.98 68.78 32.05 14.77 159.07
183 19.78 18.89 22.04 11.22 136.95
184 19.83 65.80 30.16 14.72 168.98
185 19.90 38.41 26.13 17.86 166.25
186 20.01 30.13 27.15 15.33 158.05
187 20.11 55.03 30.04 15.98 171.72
188 20.17 62.90 29.79 15.86 165.96
189 20.26 15.57 18.64 8.85 76.29
190 20.36 57.71 32.64 17.62 186.01
191 20.47 48.68 32.57 17.48 170.47
192 20.52 21.26 24.44 11.99 139.15
193 20.44 27.15 26.82 15.70 160.90
194 20.65 23.53 25.73 13.14 133.82
195 20.62 33.72 28.48 16.19 153.60
196 20.82 60.15 33.52 15.73 171.88
197 20.68 74.21 35.10 13.31 127.25
198 20.70 45.84 30.16 17.83 170.73
199 20.84 36.71 31.52 17.51 173.22
200 20.96 43.02 29.94 17.21 157.78
201 21.02 17.46 22.73 11.60 126.78
202 20.98 51.70 31.24 16.87 181.62
203 20.98 71.17 37.16 15.11 170.01
204 21.21 31.84 28.42 17.62 162.04
205 21.14 65.73 37.86 16.25 183.00
206 21.28 39.64 30.99 16.70 162.61
207 21.38 29.38 29.34 16.47 172.13
208 21.41 19.72 26.53 12.82 152.70
209 21.51 53.98 34.33 16.34 176.07
210 21.61 76.95 39.15 12.40 107.30
211 21.56 56.58 36.86 17.58 185.02
212 21.50 25.48 28.44 14.29 165.32
213 21.54 62.54 34.39 15.39 173.43
214 21.66 68.35 35.97 14.41 160.23
215 21.83 49.19 32.70 17.05 173.60
216 21.91 15.56 23.31 9.64 108.88
217 21.92 35.82 30.85 17.20 168.94
218 21.93 46.17 32.66 17.58 172.72
219 22.10 74.44 45.73 13.34 155.69
220 22.16 42.00 32.64 16.87 177.75
221 22.31 23.90 30.75 14.44 153.72
222 22.25 27.46 33.14 15.83 165.98
223 22.30 58.89 37.07 16.13 174.12
224 22.19 71.75 46.33 14.93 172.49
225 22.29 21.59 27.18 13.24 151.18
226 22.40 64.81 40.81 15.43 182.81
227 22.53 52.12 36.67 16.84 170.63
228 22.41 32.08 31.01 16.43 162.50
229 22.64 18.13 24.35 10.66 128.16
230 22.60 39.40 32.74 17.28 172.12
231 22.84 44.31 36.06 17.73 178.20
232 22.81 61.38 39.87 16.66 184.27
233 22.78 78.90 36.70 11.68 77.51
234 22.81 55.49 39.60 17.29 175.00
235 22.91 29.86 33.57 16.26 168.90
236 22.89 34.39 33.06 17.18 172.98
237 22.87 69.14 43.11 14.79 178.36
238 23.06 14.69 25.34 10.46 108.05
239 23.17 37.24 36.55 18.13 176.19
240 23.11 49.64 38.67 16.75 184.11
241 23.24 47.18 36.31 17.67 176.78
242 23.30 75.49 46.31 13.18 134.76
243 23.47 66.48 41.67 15.43 173.12
244 23.40 20.61 29.30 11.93 139.34
245 23.51 25.79 33.18 14.77 155.40
246 23.40 72.35 52.23 14.39 166.84
247 23.69 23.39 31.87 13.04 157.68
248 23.67 28.32 34.85 14.69 157.01
249 23.70 57.58 42.81 17.40 180.55
250 23.70 63.41 45.28 16.79 185.76
251 23.76 42.36 39.08 17.70 177.71
252 23.73 53.68 41.03 16.82 184.85
253 23.80 32.15 33.34 16.35 158.48
254 23.85 16.95 27.08 10.56 129.72
255 23.94 39.83 37.81 18.01 185.40
256 24.01 60.26 43.82 16.15 189.92
257 24.07 77.87 49.55 13.14 118.27
258 24.05 35.63 39.40 18.37 183.43
259 24.07 45.34 40.24 17.89 183.07
260 24.12 69.93 50.81 13.84 177.14
261 24.17 13.47 25.14 8.99 89.97
262 24.14 50.96 42.72 17.12 181.53
263 24.51 19.43 29.94 11.25 141.95
264 24.55 48.46 43.96 16.83 182.45
265 24.67 55.49 49.31 17.15 182.76
266 24.67 72.80 54.50 15.18 159.78
267 24.74 38.09 39.29 16.88 178.13
268 24.74 22.31 33.20 12.35 155.46
269 24.72 67.37 52.23 15.21 180.44
270 24.77 34.13 38.56 17.92 186.33
271 24.89 75.40 58.03 14.43 153.84
272 24.87 64.63 50.64 16.08 175.80
273 24.89 15.88 28.02 9.73 115.38
274 24.94 26.75 36.68 12.99 146.36
275 24.87 29.31 36.10 14.95 155.76
276 25.07 31.81 41.18 15.35 162.43
277 25.05 61.91 53.58 16.43 178.58
278 25.06 43.76 41.85 17.74 178.93
279 25.01 52.70 51.42 17.28 193.86
280 25.03 58.15 55.13 17.00 189.11
281 25.39 24.74 39.35 13.59 150.69
282 25.18 40.94 41.60 17.79 183.51
283 25.25 46.52 46.24 18.84 195.75
284 25.42 78.28 57.77 12.94 128.98
285 25.48 70.16 53.02 15.52 160.39
286 25.48 81.39 44.03 11.56 63.72
287 25.51 36.59 42.63 17.80 175.79
288 25.61 49.82 50.91 18.66 188.07
289 25.70 19.19 33.80 11.44 134.50
290 25.94 54.67 50.95 17.43 182.71
291 25.92 60.18 55.67 15.83 186.44
292 26.05 13.22 25.50 9.50 67.27
293 25.95 22.07 37.91 13.38 146.09
294 25.98 34.28 43.88 16.39 172.00
295 26.01 67.38 62.42 16.16 173.15
296 26.06 15.78 35.76 10.38 119.95
297 26.11 39.28 47.57 17.54 185.67
298 26.15 73.12 62.98 14.98 153.34
299 26.26 57.13 55.92 19.45 175.64
300 26.07 64.29 60.04 15.77 173.70
301 26.15 29.57 43.29 16.88 162.15
302 26.20 43.02 50.18 17.78 184.69
303 26.17 52.02 53.03 18.72 189.90
304 26.34 75.76 68.62 14.59 166.07
305 26.29 46.08 53.30 17.07 190.20
306 26.43 27.38 44.12 14.46 166.75
307 26.45 32.09 44.21 14.92 165.25
308 26.62 48.58 56.51 18.88 187.78
309 26.66 18.15 37.15 10.38 138.98
310 26.70 25.13 40.73 13.67 155.06
311 26.69 37.08 48.68 16.30 170.87
312 26.71 78.79 71.70 14.31 145.43
313 26.91 62.46 61.31 17.47 169.92
314 26.99 70.88 65.60 15.76 161.74
315 26.99 41.15 51.14 18.78 195.66
316 27.11 81.74 56.21 12.68 94.10
317 27.08 59.93 66.09 16.82 183.54
318 27.11 53.70 66.04 18.42 192.61
319 27.19 68.22 65.46 17.59 169.95
320 27.23 20.74 40.47 12.22 150.01
321 27.18 23.17 43.78 13.14 153.91
322 27.23 34.59 47.11 18.16 177.53
323 27.20 44.70 57.96 18.89 187.62
324 27.30 50.80 65.69 18.43 186.79
325 27.20 65.49 68.28 16.52 182.92
326 27.23 14.51 36.43 8.67 103.49
327 27.39 30.93 46.99 15.52 166.65
328 27.46 57.89 68.78 18.29 191.82
329 27.61 16.89 42.43 10.87 136.00
330 27.63 76.12 73.69 15.19 162.00
331 27.64 27.72 46.29 14.07 145.77
332 27.65 47.44 61.72 17.86 189.95
333 27.78 73.39 67.01 15.59 164.47
334 27.85 55.70 73.60 18.43 195.53
335 27.78 37.40 55.60 18.18 175.83
336 27.91 39.85 56.07 17.52 181.99
337 27.98 42.72 57.16 18.81 182.07
338 28.02 78.95 76.13 14.04 144.10
339 28.14 33.54 54.74 15.54 178.79
340 28.15 61.32 79.79 16.60 177.18
341 28.17 64.04 75.86 16.72 177.87
342 28.20 24.52 43.28 12.60 146.77
343 28.23 52.63 73.45 18.28 196.40
344 28.34 18.79 47.06 11.27 142.91
345 28.39 45.59 66.84 19.74 196.12
346 28.46 49.57 66.71 19.22 182.43
347 28.38 67.19 75.69 16.77 172.97
348 28.47 70.37 76.03 16.07 164.03
349 28.48 21.47 46.99 12.43 143.78
350 28.41 30.36 53.61 14.78 172.90
351 28.44 14.65 36.77 9.33 88.28
352 28.70 35.95 59.57 16.91 180.31
353 28.58 57.92 80.31 17.48 190.26
354 28.79 81.62 65.55 13.69 111.46
355 28.83 27.94 54.38 14.51 169.09
356 28.98 54.68 73.21 18.45 186.28
357 28.99 75.73 77.02 16.24 160.02
358 29.03 41.21 62.23 19.17 181.42
359 29.01 38.58 63.23 16.78 178.73
360 29.13 32.64 54.21 15.52 155.54
361 29.21 59.89 86.17 17.53 187.86
362 29.15 43.89 70.63 18.28 194.17
363 29.31 72.78 72.49 16.06 159.43
364 29.22 47.62 76.14 20.19 192.10
365 29.33 26.08 52.14 12.92 151.77
366 29.24 78.80 78.92 16.16 168.96
367 29.32 12.98 30.19 9.38 56.42
368 29.33 65.17 80.05 16.80 173.36
369 29.42 16.32 47.70 9.31 118.84
370 29.37 23.43 55.74 12.09 145.46
371 29.33 51.80 76.45 18.77 192.32
372 29.38 62.54 79.48 17.86 180.00
373 29.49 84.32 46.74 13.14 67.23
374 29.54 68.18 84.43 16.83 178.65
375 29.49 19.22 52.99 11.84 139.86
376 29.67 56.89 79.71 18.44 183.07
377 29.66 30.08 56.98 14.81 154.92
378 29.87 35.59 62.37 16.51 163.16
379 29.89 49.75 76.20 19.18 182.94
380 30.02 45.91 75.96 19.41 192.98
381 30.15 70.40 86.78 17.29 174.62
382 30.20 21.27 58.00 13.08 133.04
383 30.11 38.24 70.08 18.92 178.60
384 30.19 54.36 83.19 18.72 186.66
385 30.26 40.68 75.16 18.34 182.53
386 30.22 43.13 75.33 19.08 190.94
387 30.26 81.00 76.14 14.07 133.90
388 30.27 33.28 64.29 16.90 178.58
389 30.39 75.05 82.60 16.81 156.98
390 30.40 77.90 75.92 15.43 149.16
391 30.36 59.77 92.30 19.30 190.33
392 30.42 13.96 42.89 8.55 70.47
393 30.43 65.98 83.10 17.63 175.06
394 30.46 18.23 51.48 10.60 120.93
395 30.45 26.36 58.67 13.05 145.39
396 30.55 52.28 87.05 18.44 184.48
397 30.56 62.14 88.69 19.14 189.03
398 30.51 23.83 60.11 12.34 149.90
399 30.61 28.81 60.42 14.10 162.72
400 30.88 86.29 38.75 11.99 50.95
401 30.75 48.06 83.41 17.39 185.38
402 30.81 57.82 91.82 19.44 187.94
403 30.81 31.42 69.49 14.76 156.70
404 30.93 72.43 85.89 16.52 169.66
405 30.97 83.50 64.02 15.61 119.68
406 31.03 16.37 57.83 10.23 122.29
407 31.05 68.39 84.96 17.21 172.15
408 31.09 37.17 73.37 17.15 173.98
409 31.17 45.22 77.82 19.04 173.58
410 31.21 50.43 91.26 19.54 179.87
411 31.24 64.06 93.67 18.02 174.84
412 31.21 55.65 94.17 18.43 179.94
413 31.33 34.81 70.68 16.41 160.76
414 31.37 19.84 56.38 11.35 127.35
415 31.34 42.51 76.35 19.46 185.75
416 31.45 39.87 77.58 17.62 173.83
417 31.49 22.50 68.21 12.50 138.32
418 31.68 12.11 38.36 8.95 44.06
419 31.60 77.02 75.98 15.50 147.25
420 31.61 80.64 71.25 15.21 133.95
421 31.62 25.23 68.98 13.56 152.12
422 31.65 60.52 92.64 20.05 180.55
423 31.71 27.70 67.84 13.86 155.28
424 31.66 14.58 57.59 9.88 98.53
425 31.76 53.15 90.65 19.02 178.03
426 31.79 30.07 70.65 14.23 149.31
427 31.91 70.40 82.27 17.21 160.85
428 31.94 32.76 77.81 15.22 152.90
429 31.88 47.57 89.21 19.32 181.46
430 31.93 66.26 85.07 17.89 169.42
431 31.91 74.07 86.63 17.73 170.32
432 32.03 58.04 89.54 19.26 174.84
433 32.18 17.82 59.39 11.74 115.04
434 32.28 84.22 58.71 15.12 96.90
435 32.23 37.61 86.09 19.00 185.89
436 32.35 62.68 86.14 19.04 176.00
437 32.44 45.30 83.35 19.42 180.79
438 32.35 50.95 92.43 18.19 180.28
439 32.34 55.52 94.64 19.24 176.58
440 32.43 87.13 37.08 13.15 46.92
441 32.45 42.79 87.67 18.81 181.98
442 32.54 20.74 72.14 12.24 139.31
443 32.63 35.38 82.93 15.36 162.73
444 32.66 78.89 74.56 17.14 146.07
445 32.68 23.36 71.65 12.83 136.97
446 32.69 40.05 82.57 18.45 164.19
447 32.74 14.68 53.81 10.14 95.62
448 32.78 26.19 68.05 13.53 143.15
449 32.88 48.81 94.22 19.54 188.58
450 32.90 31.16 77.86 15.62 161.09
451 33.05 67.70 76.88 18.79 163.09
452 33.05 76.12 77.78 18.11 147.38
453 33.00 59.80 92.61 20.41 178.16
454 33.06 73.05 84.02 16.70 153.84
455 33.06 82.08 67.97 17.19 146.78
456 33.04 28.59 73.19 15.44 146.10
457 33.16 54.10 98.91 20.51 177.92
458 33.12 65.02 88.78 18.70 176.56
459 33.35 12.44 46.15 8.54 52.85
460 33.15 70.33 80.11 18.04 164.43
461 33.31 33.59 86.87 16.38 164.80
462 33.37 57.18 99.99 18.70 166.82
463 33.44 19.01 62.17 12.44 120.70
464 33.47 51.80 103.76 20.69 177.97
465 33.46 37.64 88.13 17.70 163.46
466 33.59 42.04 91.65 19.73 176.56
467 33.63 47.20 88.56 18.12 177.66
468 33.57 62.19 96.09 20.13 177.72
469 33.64 10.08 37.06 9.10 33.22
470 33.61 16.41 69.70 11.99 124.01
471 33.67 44.75 99.85 19.44 178.64
472 33.67 21.87 69.17 12.83 117.10
473 33.70 85.92 53.22 15.64 70.29
474 33.77 25.09 71.84 13.12 138.37
475 33.89 79.79 71.75 18.22 137.91
476 34.01 49.75 96.49 20.39 175.78
477 34.05 30.22 81.26 15.32 152.58
478 34.21 74.49 78.28 18.37 163.21
479 34.34 35.18 91.48 18.44 164.30
480 34.33 39.65 91.05 18.45 157.57
481 34.28 59.39 93.23 19.45 169.33
482 34.44 28.07 75.54 14.79 146.92
483 34.41 77.15 69.03 17.82 149.60
484 34.36 83.25 74.76 17.70 127.58
485 34.39 32.57 80.29 17.93 156.96
486 34.37 64.51 90.70 20.53 169.50
487 34.48 71.97 77.30 18.81 166.90
488 34.38 53.87 99.92 21.12 176.80
489 34.61 67.02 76.05 20.08 156.83
490 34.44 69.36 86.60 18.78 172.82
491 34.57 14.70 60.05 10.32 97.33
492 34.49 56.56 104.31 20.82 172.69
493 34.62 88.20 32.78 15.61 40.51
494 34.66 17.80 65.35 11.88 119.80
495 34.75 20.70 70.33 13.90 124.69
496 34.71 23.40 76.91 13.99 140.84
497 34.73 37.46 93.10 18.51 163.23
498 34.73 46.55 96.44 19.65 169.57
499 34.89 12.21 59.46 10.20 80.11
500 34.70 61.86 88.07 19.49 174.10
501 34.85 41.70 97.52 21.49 175.90
502 34.91 43.93 91.67 19.70 164.23
503 34.97 51.68 94.03 21.27 168.07
504 34.89 9.98 38.40 8.92 37.26
505 35.03 25.99 76.88 15.15 143.92
506 35.09 48.92 98.87 20.34 165.42
507 35.11 80.66 80.36 19.30 154.78
508 35.31 85.52 61.16 18.07 97.13
509 35.33 31.06 80.83 17.04 148.72
510 35.42 58.54 93.64 20.92 168.34
511 35.44 55.29 95.15 21.23 169.82
512 35.50 33.87 84.79 17.84 154.90
513 35.60 75.48 74.55 19.94 149.41
514 35.70 65.41 83.25 21.17 156.87
515 35.78 78.23 70.32 19.52 134.84
516 35.66 69.95 80.68 19.46 155.70
517 35.81 72.94 76.45 19.50 148.18
518 35.79 28.27 75.81 16.96 140.66
519 35.75 36.40 85.75 17.91 163.75
520 35.66 62.47 95.57 22.89 167.67
521 35.80 45.64 93.31 20.16 171.05
522 35.82 18.56 66.90 12.57 116.77
523 35.95 38.94 93.89 17.31 158.20
524 35.98 82.64 66.74 20.81 126.37
525 35.89 15.21 65.64 12.22 105.50
526 35.91 24.37 75.53 14.67 131.80
527 36.05 21.62 71.34 12.80 121.14
528 35.99 41.39 92.20 18.38 169.55
529 36.08 88.22 39.33 17.88 48.11
530 36.11 50.53 94.96 20.45 162.37
531 36.14 53.27 99.29 22.20 172.60
532 36.26 12.08 54.28 9.92 70.04
533 36.31 47.86 99.43 22.02 174.61
534 36.43 60.72 94.70 22.08 164.86
535 36.47 67.99 79.49 20.57 148.79
536 36.46 43.79 89.48 20.08 167.57
537 36.44 30.69 75.03 18.14 142.50
538 36.53 56.11 96.46 21.62 168.27
539 36.64 58.41 94.30 23.32 173.36
540 36.63 33.64 88.39 18.16 141.88
541 36.75 85.18 59.45 19.78 99.49
542 36.74 63.44 87.99 21.58 154.40
543 36.85 26.52 72.23 15.10 124.73
544 36.83 79.74 70.34 19.72 144.02
545 36.92 17.21 66.08 13.36 125.99
546 36.84 71.25 74.34 20.85 149.97
547 36.87 36.46 90.59 18.42 161.15
548 37.00 76.58 69.55 20.14 141.53
549 37.10 19.83 68.85 14.66 121.56
550 37.08 23.92 76.45 15.54 136.40
551 37.20 65.81 84.47 22.17 156.11
552 37.27 73.98 68.31 21.58 131.52
553 37.17 41.39 90.76 20.81 161.10
554 37.22 51.99 90.47 23.44 164.27
555 37.29 14.59 65.92 12.92 110.49
556 37.37 28.90 80.25 16.95 130.43
557 37.34 38.95 85.98 18.76 160.43
558 37.42 46.32 83.29 20.44 149.96
559 37.36 82.24 67.50 21.66 129.74
560 37.48 89.68 34.16 19.44 36.68
561 37.38 49.27 89.83 22.60 165.03
562 37.45 54.78 88.91 22.56 158.32
563 37.49 9.22 46.17 11.40 43.22
564 37.63 31.44 85.22 18.91 149.86
565 37.76 11.99 56.88 10.94 73.77
566 37.81 22.00 64.46 14.51 121.45
567 37.67 43.77 92.91 22.34 171.13
568 37.70 60.60 87.88 22.57 154.91
569 37.85 70.16 83.22 22.06 145.34
570 37.82 86.72 56.83 20.96 86.21
571 37.74 34.11 81.38 18.29 159.83
572 37.89 57.66 89.74 23.03 151.31
573 37.94 63.40 88.36 23.89 157.39
574 38.10 67.57 78.49 22.16 143.20
575 38.03 78.52 63.90 21.76 131.48
576 38.01 36.46 83.79 19.19 161.87
577 38.18 17.60 69.13 14.23 115.44
578 38.32 25.04 74.02 17.27 129.64
579 38.35 84.15 65.02 22.19 116.69
580 38.46 27.51 70.40 17.17 129.82
581 38.40 53.47 96.40 24.65 169.31
582 38.44 41.12 84.34 21.23 153.83
583 38.52 51.16 88.78 23.39 156.11
584 38.52 72.68 72.66 23.49 141.45
585 38.59 75.77 69.39 22.07 126.42
586 38.51 48.64 85.65 23.28 155.48
587 38.67 81.19 69.80 24.23 128.44
588 38.66 14.49 65.14 14.82 115.62
589 38.72 38.68 88.25 21.19 151.54
590 38.94 20.05 61.80 14.99 108.49
591 38.70 32.97 71.13 18.56 141.87
592 38.89 30.19 78.12 18.66 138.07
593 38.93 9.09 41.13 11.01 40.28
594 38.78 43.80 93.28 23.27 159.40
595 38.95 46.33 86.40 22.02 157.91
596 38.86 65.26 78.39 22.85 147.75
597 38.87 89.70 33.69 22.81 32.92
598 38.94 55.71 93.16 23.65 153.68
599 38.93 60.13 86.61 25.10 157.28
600 39.08 62.75 85.75 24.80 154.01
601 39.17 22.85 64.38 17.42 122.96
602 39.23 11.81 59.53 13.27 88.97
603 39.14 35.76 86.72 22.05 150.39
604 39.11 69.54 72.87 24.41 136.95
605 39.10 86.74 58.22 24.91 75.87
606 39.32 58.02 86.25 25.76 158.99
607 39.40 16.64 62.60 14.55 111.87
608 39.37 78.63 66.24 24.43 121.70
609 39.64 42.22 83.47 22.86 153.50
610 39.63 53.11 88.77 25.82 157.36
611 39.67 67.05 83.28 25.37 145.15
612 39.71 83.15 59.19 25.32 107.02
613 39.76 74.36 69.54 24.67 123.12
614 39.84 25.91 69.98 18.84 114.79
615 39.85 28.44 74.28 18.61 130.75
616 39.81 48.61 81.08 27.18 148.13
617 39.86 50.93 80.68 24.45 146.87
618 39.87 71.86 73.33 25.07 130.52
619 39.83 32.60 76.31 20.37 134.78
620 40.00 40.15 83.26 22.66 142.94
621 40.03 37.95 82.03 24.70 153.41
622 40.01 44.63 86.49 25.83 156.90
623 40.07 61.61 77.46 27.63 144.51
624 40.33 13.63 55.48 14.87 95.54
625 40.22 18.90 67.75 18.00 120.12
626 40.28 91.38 23.33 24.13 18.43
627 40.27 55.04 80.86 28.80 153.38
628 40.29 64.45 82.40 27.03 135.34
629 40.38 76.84 66.20 26.02 116.14
630 40.24 88.54 48.36 26.62 57.01
631 40.26 8.29 39.91 12.26 35.75
632 40.30 85.51 63.83 29.54 112.90
633 40.33 80.58 69.02 26.74 125.53
634 40.37 35.62 82.47 22.11 144.81
635 40.48 21.52 68.14 19.88 122.74
636 40.38 57.44 87.41 28.46 158.39
637 40.42 69.42 78.71 26.39 133.80
638 40.52 23.97 65.77 19.07 125.12
639 40.62 30.68 74.87 21.33 131.88
640 40.68 10.70 50.42 13.12 62.27
641 40.64 46.51 75.60 25.79 145.77
642 40.68 59.67 77.85 27.53 144.92
643 40.84 16.10 56.39 16.01 108.11
644 40.98 42.91 79.69 25.24 137.02
645 40.97 67.02 80.39 29.92 134.03
646 41.00 33.62 74.80 20.78 132.01
647 41.08 51.68 76.64 27.81 140.78
648 41.21 49.11 79.29 26.63 133.65
649 41.14 74.19 71.05 27.89 122.41
650 41.19 39.89 77.28 26.44 139.12
651 41.27 71.60 68.36 30.20 124.19
652 41.34 82.42 64.16 30.73 111.50
653 41.13 28.62 74.57 20.52 118.04
654 41.29 62.14 78.64 28.01 133.83
655 41.44 26.14 67.44 21.06 114.74
656 41.32 79.11 66.68 31.12 122.05
657 41.46 37.29 77.51 24.16 139.12
658 41.39 54.17 80.44 30.91 145.07
659 41.47 19.99 62.44 17.79 116.81
660 41.58 56.94 78.66 29.87 136.79
661 41.52 85.34 59.25 30.14 87.76
662 41.51 88.52 50.90 29.31 61.12
663 41.63 91.83 19.44 25.99 14.32
664 41.68 64.94 76.54 31.08 125.92
665 41.72 12.38 58.61 17.02 87.81
666 41.71 69.12 76.38 32.32 130.83
667 41.85 23.05 62.20 19.30 108.16
668 41.81 76.68 63.09 31.66 111.31
669 41.84 46.75 74.20 28.26 138.50
670 41.96 31.65 70.51 22.52 117.94
671 41.94 59.73 79.07 31.57 131.59
672 42.01 17.09 58.37 18.23 103.15
673 41.77 28.99 56.78 21.13 111.62
674 42.14 9.36 41.51 16.03 45.84
675 42.05 34.95 74.40 23.96 131.04
676 42.10 44.21 73.68 29.99 137.43
677 42.33 41.64 83.98 28.42 135.13
678 42.37 52.06 80.36 30.83 128.76
679 42.40 80.33 63.88 34.24 97.74
680 42.42 39.19 72.11 25.65 123.36
681 42.60 14.43 55.51 18.45 94.92
682 42.47 62.72 80.00 31.94 125.32
683 42.54 74.49 65.28 32.63 113.20
684 42.64 49.42 73.90 30.06 127.02
685 42.51 71.71 73.11 31.39 110.36
686 42.63 54.80 75.41 32.25 129.06
687 42.64 68.00 74.88 32.61 112.44
688 42.60 83.41 62.90 36.75 99.45
689 42.61 86.84 58.39 35.29 82.95
690 42.67 90.17 38.27 30.22 30.39
691 42.65 19.84 59.31 20.70 107.91
692 42.66 27.27 67.55 25.05 118.49
693 42.99 29.73 67.29 24.87 111.36
694 42.95 24.68 62.59 23.47 108.82
695 42.85 57.46 76.53 33.09 129.64
696 43.04 36.82 78.63 27.85 128.54
697 43.01 33.59 70.19 27.08 120.92
698 43.01 65.34 72.97 34.42 115.98
699 43.02 77.61 61.75 34.21 99.81
700 43.09 11.24 50.59 17.91 62.47
701 43.16 93.00 17.96 29.35 9.93
702 43.10 46.25 76.72 31.55 120.62
703 43.19 60.09 78.04 34.39 120.69
704 43.41 22.00 59.85 21.85 99.69
705 43.39 7.89 39.41 17.30 32.34
706 43.40 17.61 60.09 21.83 94.63
707 43.44 43.28 78.15 31.06 127.19
708 43.45 70.43 74.34 36.26 112.21
709 43.60 52.43 73.73 36.21 116.72
710 43.56 81.08 62.62 38.10 88.64
711 43.79 40.79 77.32 30.78 116.60
712 43.64 84.90 59.04 38.93 84.09
713 43.74 62.52 74.68 39.18 113.88
714 43.67 73.81 68.80 34.07 99.32
715 43.67 88.63 54.05 36.00 47.95
716 43.78 31.79 63.03 26.65 110.79
717 43.89 15.48 57.70 22.92 99.64
718 43.87 48.45 80.56 35.96 124.59
719 43.83 67.91 76.11 38.11 108.87
720 43.96 38.55 76.19 30.97 128.92
721 43.95 27.05 65.67 25.55 103.93
722 43.95 55.50 71.86 36.52 115.45
723 44.12 13.14 52.45 20.65 79.26
724 44.09 35.05 68.12 27.86 103.94
725 44.04 58.09 73.34 39.21 116.29
726 44.23 76.28 66.81 39.51 97.76
727 44.29 91.21 37.59 36.37 21.96
728 44.35 19.76 59.87 23.57 87.71
729 44.29 24.42 60.96 25.99 97.59
730 44.33 65.86 77.54 40.70 102.56
731 44.35 78.96 63.07 39.24 95.67
732 44.36 45.06 73.63 34.76 123.60
733 44.48 10.10 42.86 20.57 50.75
734 44.48 29.55 62.24 28.43 101.09
735 44.54 50.61 71.50 41.03 113.55
736 44.44 72.04 63.03 37.57 95.18
737 44.50 82.64 66.64 42.38 80.36
738 44.55 86.76 56.32 42.91 66.15
739 44.65 60.27 73.83 43.50 110.03
740 44.94 7.22 31.89 20.08 26.85
741 44.74 63.82 75.07 43.73 110.09
742 44.82 69.49 71.02 42.19 93.46
743 44.81 53.68 79.72 43.16 112.57
744 44.97 42.78 72.99 35.41 105.72
745 44.94 37.23 67.49 32.24 105.28
746 45.05 16.65 53.03 23.71 79.42
747 44.98 47.06 70.32 37.57 115.22
748 45.14 22.40 60.69 26.53 82.54
749 44.99 32.23 64.07 32.55 105.55
750 45.21 40.25 70.55 32.26 103.06
751 45.22 57.63 70.28 44.21 104.01
752 45.32 74.65 62.97 40.55 79.14
753 45.33 27.25 63.37 31.03 91.88
754 45.32 34.53 64.07 34.79 108.24
755 45.37 89.04 54.58 41.64 38.38
756 45.37 84.22 61.73 47.30 72.30
757 45.38 13.13 51.37 24.19 72.23
758 45.41 67.06 71.74 43.21 92.51
759 45.46 80.72 62.77 45.19 80.01
760 45.49 92.30 25.07 38.86 11.99
761 45.48 62.00 71.07 45.48 111.14
762 45.53 77.42 62.79 42.21 73.70
763 45.60 72.13 66.99 42.95 80.94
764 45.61 19.74 58.45 27.83 89.98
765 45.65 49.58 69.67 40.90 107.26
766 45.68 55.45 73.93 48.75 103.98
767 45.83 24.84 56.51 30.88 86.99
768 45.74 52.13 72.15 47.82 103.47
769 45.81 29.96 63.35 34.59 92.99
770 45.84 10.33 46.75 24.55 57.51
771 45.95 44.50 70.04 41.59 102.07
772 45.94 64.57 68.43 48.88 89.76
773 46.02 86.40 56.61 45.65 60.84
774 46.05 59.53 67.95 48.78 95.42
775 46.05 69.41 70.01 46.08 81.27
776 46.07 47.25 75.14 45.40 107.87
777 46.12 37.11 67.64 38.98 105.19
778 46.35 15.05 54.25 28.80 78.93
779 46.44 8.17 35.33 25.06 35.35
780 46.39 17.59 52.05 29.00 72.96
781 46.50 42.01 71.57 42.25 96.43
782 46.49 32.03 59.09 38.60 88.37
783 46.44 39.55 70.49 39.39 102.78
784 46.43 90.52 41.12 44.67 25.74
785 46.47 82.83 61.89 45.19 61.36
786 46.52 79.12 56.44 44.87 59.78
787 46.54 34.58 61.93 38.58 89.25
788 46.68 22.63 57.53 33.05 81.94
789 46.65 27.64 61.37 36.05 85.26
790 46.66 53.94 67.98 49.47 87.92
791 46.61 62.10 70.34 49.44 81.78
792 46.57 66.86 71.46 50.01 82.22
793 46.63 75.38 64.30 45.30 64.40
794 46.70 12.65 53.23 31.20 65.27
795 46.73 56.82 69.38 53.00 85.62
796 46.75 71.83 67.22 48.86 69.87
797 46.89 20.15 53.40 33.08 75.69
798 46.87 51.15 71.06 52.43 87.13
799 47.10 93.22 17.75 39.48 6.13
800 47.09 46.13 70.66 51.60 90.91
801 47.12 87.94 52.69 45.70 39.83
802 47.13 48.85 66.31 46.67 84.86
803 47.27 25.32 57.61 37.76 74.67
804 47.22 64.74 68.45 52.74 69.86
805 47.33 59.16 66.33 56.11 77.78
806 47.20 68.69 72.67 56.37 68.47
807 47.40 85.12 56.15 47.07 46.11
808 47.37 43.88 68.50 49.88 82.81
809 47.45 29.48 61.34 42.41 74.09
810 47.42 37.32 68.19 46.23 88.56
811 47.60 11.17 45.84 30.65 46.16
812 47.54 81.19 61.01 49.13 50.21
813 47.52 5.99 22.45 25.00 10.35
814 47.29 73.77 62.71 49.54 65.92
815 47.74 16.68 50.74 34.86 60.62
816 47.65 78.32 66.26 52.50 53.98
817 47.71 61.40 66.47 52.54 67.20
818 47.78 32.22 60.03 44.59 75.99
819 47.67 34.87 60.41 44.44 79.30
820 47.80 39.54 69.06 50.26 79.22
821 47.75 90.85 38.91 47.15 20.67
822 47.79 8.35 40.66 31.34 35.08
823 47.94 14.17 48.96 32.53 55.29
824 47.82 54.74 71.03 56.38 69.04
825 47.86 75.85 65.45 51.49 53.23
826 48.01 41.66 66.25 51.45 80.60
827 47.90 70.66 66.77 50.68 55.26
828 47.89 95.26 8.86 31.05 1.90
829 47.82 73.20 62.75 53.04 60.17
830 47.94 23.00 58.64 39.51 62.32
831 47.98 52.23 67.11 56.20 73.13
832 48.10 19.21 55.90 36.87 66.28
833 48.06 57.18 70.75 59.99 68.72
834 48.13 67.19 66.54 51.90 54.76
835 48.32 26.97 57.37 45.74 67.16
836 48.27 63.87 71.45 56.50 59.88
837 48.21 48.17 68.42 56.72 78.03
838 48.40 83.18 58.42 50.95 44.27
839 48.41 46.00 66.92 53.29 70.39
840 48.58 88.53 48.57 49.51 30.91
841 48.75 50.21 66.23 55.93 58.47
842 48.64 30.04 60.46 48.62 63.76
843 48.71 43.79 69.17 57.45 73.42
844 48.76 36.13 65.58 54.02 67.82
845 48.86 21.38 49.34 43.31 56.22
846 48.79 79.64 60.62 57.32 43.17
847 48.91 86.03 54.86 51.37 36.92
848 48.86 9.99 41.75 32.47 38.48
849 48.96 94.08 15.14 41.81 3.95
850 48.99 58.72 70.63 63.63 56.01
851 48.90 74.37 57.16 57.35 45.31
852 48.93 6.32 26.35 28.47 13.88
853 48.93 33.27 61.16 50.13 63.40
854 48.94 61.23 67.20 58.95 56.60
855 49.01 13.11 48.19 38.03 46.78
856 48.95 38.64 65.09 54.27 69.07
857 49.06 24.37 55.48 44.36 50.38
858 48.99 71.51 62.64 59.63 44.77
859 49.04 55.73 69.09 59.36 59.86
860 49.17 77.10 55.11 57.27 37.69
861 49.08 91.38 30.06 46.90 10.74
862 49.09 53.05 65.07 58.63 59.88
863 49.24 66.13 64.33 60.54 48.35
864 49.30 68.93 60.06 61.02 41.32
865 49.39 16.33 47.50 37.38 37.10
866 49.30 41.72 64.56 55.06 62.14
867 49.44 19.25 53.53 47.16 49.57
868 49.51 27.66 55.62 45.48 48.13
869 49.50 63.76 67.60 63.47 51.16
870 49.66 47.55 65.09 59.11 51.00
871 49.66 81.43 50.70 54.67 32.78
872 49.77 31.32 60.91 52.34 50.22
873 49.83 45.10 58.70 59.56 53.75
874 49.84 84.24 53.68 54.94 31.58
875 49.93 8.01 35.67 36.87 21.04
876 49.93 34.86 62.05 54.49 54.26
877 50.00 39.90 63.69 55.19 57.23
878 50.02 51.81 60.94 66.24 48.37
879 49.97 73.09 54.36 60.37 37.30
880 50.05 11.31 46.41 43.55 36.33
881 50.15 90.01 37.68 50.01 16.87
882 50.21 37.40 60.92 59.88 50.72
883 50.13 57.33 65.12 66.92 48.69
884 50.08 60.19 67.31 67.99 47.30
885 50.27 22.39 51.89 48.63 39.75
886 50.28 49.66 64.86 70.35 50.60
887 50.18 25.17 55.05 53.21 48.47
888 50.17 54.60 63.11 68.85 49.62
889 50.44 87.46 51.42 55.71 24.33
890 50.30 93.38 17.99 46.46 4.42
891 50.43 14.25 50.11 47.14 37.76
892 50.33 76.76 58.33 62.12 34.47
893 50.52 62.43 61.85 70.23 38.11
894 50.45 67.34 65.51 71.26 37.36
895 50.67 79.49 53.32 61.32 31.73
896 50.59 28.96 56.20 51.95 39.77
897 50.53 42.46 59.44 63.33 49.82
898 50.55 69.86 54.89 68.27 36.27
899 50.60 19.41 49.62 53.56 38.89
900 50.75 65.08 61.02 72.43 37.59
901 50.80 16.80 45.05 49.26 37.01
902 50.78 32.89 59.38 56.67 44.32
903 51.00 5.87 22.50 32.90 6.94
904 50.97 82.21 48.67 61.66 28.18
905 51.06 74.68 55.39 65.93 30.39
906 51.07 85.25 53.00 61.75 28.94
907 51.03 44.67 57.22 72.12 47.88
908 51.07 71.94 53.55 67.90 32.78
909 51.06 8.98 34.74 40.88 20.47
910 51.18 46.90 62.28 66.93 38.40
911 51.16 26.08 50.06 55.85 40.00
912 51.13 53.55 58.52 73.83 40.87
913 51.11 59.15 60.08 71.59 37.26
914 51.28 35.27 56.33 61.04 40.29
915 51.31 40.35 54.88 62.73 37.23
916 51.33 12.02 40.67 44.85 26.14
917 51.50 56.34 63.73 73.56 36.33
918 51.57 91.82 26.32 48.35 8.10
919 51.48 37.68 57.99 68.98 42.55
920 51.54 49.11 63.20 78.06 43.16
921 51.55 51.38 61.79 75.47 35.84
922 51.56 30.85 55.28 63.16 36.70
923 51.57 23.24 50.32 54.64 32.06
924 51.59 94.37 13.37 42.63 2.49
925 51.63 77.48 51.93 68.92 28.74
926 51.70 20.19 47.62 54.21 30.91
927 51.69 63.37 60.61 77.51 33.47
928 51.72 68.56 53.68 77.66 27.92
929 51.83 88.79 44.88 62.12 18.55
930 51.89 14.62 43.73 50.62 26.82
931 51.91 28.24 53.16 59.52 38.32
932 51.97 43.11 56.74 66.68 35.49
933 52.06 61.04 63.93 80.36 31.08
934 52.02 66.21 54.17 73.07 29.21
935 52.05 17.36 44.92 54.25 25.96
936 52.24 79.96 50.86 63.93 20.89
937 52.13 83.40 50.74 68.38 26.38
938 52.19 33.11 51.90 64.13 32.74
939 52.13 73.22 51.73 76.82 29.53
940 52.35 70.78 52.32 76.91 25.70
941 52.33 6.60 27.25 41.18 9.01
942 52.31 9.60 35.17 46.84 19.04
943 52.40 45.61 51.77 71.93 32.69
944 52.35 86.36 50.08 66.37 21.01
945 52.34 53.75 60.24 79.27 31.14
946 52.39 25.68 51.79 62.81 29.63
947 52.38 58.58 61.53 75.87 28.74
948 52.54 75.71 50.35 73.09 25.10
949 52.52 36.05 57.51 64.60 34.84
950 52.59 38.81 49.33 66.60 31.39
951 52.67 48.15 60.69 73.66 30.88
952 52.74 41.23 55.32 74.10 30.83
953 52.71 21.46 44.47 56.47 25.67
954 52.81 12.49 38.55 50.76 22.38
955 52.75 94.98 10.93 41.28 1.15
956 52.81 30.22 52.72 62.14 27.36
957 52.84 50.79 57.43 80.01 28.81
958 52.83 56.02 58.23 77.38 27.06
959 52.83 64.40 49.57 82.47 27.22
960 52.96 90.36 35.72 53.44 10.30
961 53.14 23.75 42.80 62.70 25.26
962 53.12 68.62 53.96 70.64 22.33
963 53.11 82.33 47.74 71.50 23.87
964 53.19 18.38 45.00 57.30 23.03
965 53.26 62.25 56.47 82.84 23.88
966 53.28 77.82 46.99 71.96 20.57
967 53.36 15.32 39.45 50.11 18.63
968 53.28 27.61 48.42 61.57 25.93
969 53.26 34.35 50.96 69.51 26.13
970 53.41 92.64 23.89 54.42 5.00
971 53.40 73.51 51.07 76.22 19.86
972 53.53 43.11 48.02 72.60 24.72
973 53.52 60.17 52.72 83.21 25.30
974 53.51 66.34 47.84 75.80 23.60
975 53.47 53.21 51.38 80.52 26.61
976 53.58 85.28 45.24 66.31 19.01
977 53.58 87.98 42.24 64.03 17.09
978 53.65 4.32 13.42 32.25 1.61
979 53.62 7.28 27.63 42.25 7.76
980 53.56 57.92 52.08 86.31 23.85
981 53.63 10.06 36.93 51.50 17.19
982 53.65 32.11 49.20 69.76 24.99
983 53.63 45.75 54.25 76.42 27.19
984 53.69 71.01 51.12 76.77 22.77
985 53.78 37.19 51.84 70.26 24.45
986 53.94 80.21 48.74 68.10 17.49
987 53.90 39.87 51.60 75.07 24.14
988 53.95 20.70 42.04 60.52 18.83
989 53.90 48.33 50.61 80.36 24.03
990 54.10 96.72 5.45 28.80 0.32
991 54.08 55.67 54.33 84.75 22.07
992 54.21 24.63 46.12 62.41 20.84
993 54.11 50.88 51.85 77.98 21.64
994 54.19 75.70 50.56 77.21 21.94
995 54.29 29.83 51.39 65.43 20.97
996 54.35 12.35 38.98 51.91 15.92
997 54.29 63.95 53.62 80.60 19.32
998 54.37 83.03 44.97 68.40 16.41
999 54.39 94.15 13.07 50.08 1.86
1000 54.56 17.94 35.92 55.38 16.38
1001 54.53 26.94 48.40 63.91 18.60
1002 54.39 34.82 47.20 68.93 22.30
1003 54.51 68.59 50.14 75.89 17.54
1004 54.59 89.46 36.01 57.88 10.41
1005 54.65 61.18 51.26 82.72 19.54
1006 54.77 15.26 38.60 54.86 15.75
1007 54.67 53.48 51.28 83.72 20.96
1008 54.64 58.62 48.88 85.02 20.33
1009 54.70 77.91 44.01 78.77 18.94
1010 54.79 22.45 41.19 60.56 19.44
1011 54.74 41.64 48.17 76.72 21.60
1012 54.81 44.10 52.78 78.62 19.90
1013 54.83 73.56 45.59 74.45 15.03
1014 54.79 5.93 20.97 43.14 4.15
1015 54.79 66.28 47.24 84.31 19.33
1016 54.96 86.65 44.05 67.12 13.91
1017 54.97 9.13 32.62 48.96 9.93
1018 54.96 46.46 51.66 79.83 20.83
1019 54.97 32.35 48.11 66.94 19.16
1020 54.95 70.88 49.64 80.27 20.44
1021 55.01 91.80 28.81 56.65 6.70
1022 55.04 37.73 45.79 72.78 19.79
1023 55.07 49.00 49.09 81.50 19.33
1024 55.32 51.60 50.27 81.59 18.09
1025 55.24 55.96 46.60 83.69 16.62
1026 55.29 80.29 47.10 72.20 15.27
1027 55.42 20.13 39.38 61.31 16.03
1028 55.42 28.48 47.02 68.87 18.13
1029 55.42 84.05 41.51 69.32 14.78
1030 55.54 95.06 8.12 40.12 0.57
1031 55.56 35.18 48.46 75.86 18.33
1032 55.49 63.26 47.98 86.48 17.34
1033 55.58 12.90 35.10 51.71 11.96
1034 55.69 39.84 49.45 77.00 17.24
1035 55.70 76.90 48.05 73.77 15.21
1036 55.69 24.35 43.42 62.67 14.37
1037 55.71 58.81 50.17 81.44 15.93
1038 55.89 65.67 47.37 83.17 15.71
1039 55.97 6.70 23.12 47.72 4.68
1040 55.96 68.06 49.05 75.02 14.11
1041 56.03 3.71 10.81 33.59 0.52
1042 56.06 30.38 44.10 68.72 15.37
1043 55.96 42.18 46.18 80.93 17.82
1044 55.93 72.64 51.26 81.25 17.30
1045 56.02 89.82 38.54 59.34 8.25
1046 56.06 17.83 35.45 54.02 12.54
1047 56.04 61.17 43.77 79.93 14.58
1048 56.06 54.31 47.63 81.24 14.72
1049 56.13 70.31 49.06 81.85 16.15
1050 56.21 44.40 41.03 74.43 16.59
1051 56.13 46.97 48.38 81.10 15.44
1052 56.25 9.66 31.85 51.34 8.60
1053 56.16 81.90 42.50 77.42 15.93
1054 56.34 26.76 40.72 67.66 14.55
1055 56.21 33.05 46.75 74.41 16.17
1056 56.21 49.69 49.36 83.03 17.30
1057 56.33 74.95 45.53 78.21 14.16
1058 56.26 92.49 18.18 52.93 3.16
1059 56.44 15.31 34.87 56.72 11.96
1060 56.25 87.27 41.42 63.78 12.71
1061 56.43 21.63 35.72 58.47 12.53
1062 56.42 56.88 48.05 82.56 14.36
1063 56.52 36.63 40.84 69.13 15.66
1064 56.56 79.23 41.27 73.23 14.19
1065 56.57 52.33 50.36 81.30 14.75
1066 56.67 84.39 41.81 67.43 13.04
1067 56.81 38.85 47.80 76.28 15.24
1068 56.75 64.15 49.87 81.82 13.29
1069 56.82 12.24 30.10 54.76 10.42
1070 56.98 94.64 8.44 41.67 0.61
1071 56.98 59.33 49.72 79.00 11.78
1072 57.14 24.49 40.45 62.68 11.98
1073 57.25 29.10 43.68 65.21 12.02
1074 57.12 41.46 47.64 76.60 15.38
1075 57.18 7.33 23.33 48.78 4.42
1076 57.24 34.36 45.47 77.02 14.97
1077 57.19 66.97 44.47 78.27 12.39
1078 57.15 72.84 47.75 77.06 12.31
1079 57.20 31.64 43.86 70.96 12.11
1080 57.23 45.82 45.51 77.28 14.73
1081 57.23 4.58 14.40 43.27 1.35
1082 57.27 54.68 45.99 80.49 14.40
1083 57.29 61.89 47.16 85.70 12.41
1084 57.31 76.42 44.32 71.18 11.92
1085 57.28 48.76 51.36 78.60 13.78
1086 57.26 90.59 31.97 58.15 5.73
1087 57.34 18.53 34.39 56.38 10.90
1088 57.32 70.02 46.91 78.22 11.89
1089 57.35 81.70 40.97 69.86 13.09
1090 57.46 86.83 41.21 68.37 10.26
1091 57.60 51.33 42.13 75.88 11.55
1092 57.75 57.07 42.01 79.31 12.44
1093 57.72 15.55 32.24 53.28 9.88
1094 57.69 21.66 36.59 52.37 9.67
1095 57.84 27.01 39.12 65.04 10.79
1096 57.83 43.31 40.73 68.96 13.34
1097 57.93 9.46 28.75 46.18 6.24
1098 57.84 36.60 41.56 70.09 12.53
1099 57.89 78.95 39.45 68.34 11.28
1100 57.92 12.61 28.96 53.74 8.83
1101 58.07 84.37 39.94 64.66 9.28
1102 57.93 39.33 45.05 70.12 13.18
1103 57.98 64.77 45.21 80.95 10.89
1104 58.10 92.41 16.91 51.53 2.35
1105 58.16 59.51 43.06 78.03 10.76
1106 58.18 88.90 37.22 61.65 6.95
1107 58.26 73.77 45.82 73.15 9.95
1108 58.19 68.41 45.59 78.47 11.69
1109 58.18 95.46 5.12 30.46 0.05
1110 58.30 31.99 45.89 73.42 11.75
1111 58.35 53.85 46.95 73.36 10.48
1112 58.51 5.95 17.89 39.83 1.91
1113 58.44 24.48 36.62 59.47 9.93
1114 58.37 48.25 42.19 72.37 12.37
1115 58.47 45.91 40.15 70.87 10.90
1116 58.50 34.52 42.74 69.87 10.06
1117 58.43 62.07 45.89 79.47 10.94
1118 58.56 19.70 33.70 53.75 9.51
1119 58.61 81.32 37.38 65.51 9.38
1120 58.62 71.19 46.59 73.39 11.17
1121 58.56 76.42 43.85 71.76 10.51
1122 58.70 29.58 41.17 61.36 11.63
1123 58.86 16.96 30.58 51.98 8.17
1124 58.76 40.90 43.31 63.71 10.31
1125 58.73 51.15 41.48 68.61 10.07
1126 58.93 56.25 42.50 71.99 10.15
1127 58.86 37.64 39.00 62.98 9.63
1128 58.94 66.42 44.56 76.42 10.81
1129 59.02 11.23 29.36 46.83 5.42
1130 59.08 87.06 37.00 56.68 8.20
1131 59.00 43.79 40.92 64.62 10.93
1132 59.37 14.04 27.69 42.68 5.07
1133 59.13 22.22 34.66 57.32 8.50
1134 59.05 27.16 37.74 60.00 10.06
1135 59.16 90.55 26.53 53.53 3.77
1136 59.21 63.87 44.06 79.64 9.94
1137 59.31 8.01 21.65 42.53 3.60
1138 59.23 58.74 43.61 71.89 9.61
1139 59.34 78.59 38.48 63.18 8.70
1140 59.25 93.54 10.41 43.31 0.69
1141 59.33 84.11 39.03 60.82 8.40
1142 59.41 68.96 41.03 73.33 11.51
1143 59.40 49.07 42.68 71.71 9.72
1144 59.43 32.52 42.56 69.31 10.06
1145 59.49 60.97 42.85 71.95 10.58
1146 59.54 53.35 42.49 69.82 9.22
1147 59.51 74.71 41.09 67.88 9.35
1148 59.64 34.91 40.94 64.61 9.68
1149 59.76 24.83 35.10 52.43 7.03
1150 59.76 41.90 38.08 64.28 9.61
1151 59.78 72.23 40.84 66.55 8.94
1152 59.81 46.68 40.16 60.07 7.68
1153 59.81 39.32 40.26 60.58 8.55
1154 59.86 81.35 39.22 61.37 9.65
1155 59.94 30.31 39.26 60.37 7.92
1156 60.10 20.42 32.25 47.77 6.59
1157 60.06 17.70 33.18 46.36 5.94
1158 60.05 36.95 36.78 65.19 9.02
1159 60.01 51.14 41.27 64.91 8.44
1160 60.19 88.97 27.51 52.63 5.07
1161 60.18 10.18 27.83 46.25 5.41
1162 60.16 44.42 42.06 64.64 9.44
1163 60.24 66.96 40.25 66.69 8.19
1164 60.25 27.59 33.21 54.39 7.65
1165 60.24 55.11 42.10 67.15 7.91
1166 60.25 57.47 44.76 70.21 9.44
1167 60.42 5.17 15.14 33.82 0.78
1168 60.32 64.64 42.68 67.47 8.32
1169 60.41 76.53 35.85 59.97 8.95
1170 60.47 86.33 34.38 53.92 6.94
1171 60.41 62.19 40.77 65.29 8.29
1172 60.45 91.61 18.24 47.49 1.76
1173 60.44 70.09 42.25 70.32 9.18
1174 60.48 94.67 6.43 31.35 0.25
1175 60.62 23.04 36.40 49.29 7.37
1176 60.58 49.02 41.15 63.07 8.57
1177 60.61 83.61 38.37 55.90 7.42
1178 60.73 12.49 28.74 45.31 5.68
1179 60.66 32.90 35.84 56.87 7.50
1180 60.72 59.73 39.08 65.00 6.87
1181 60.66 79.24 38.43 59.29 8.67
1182 60.76 15.27 28.54 45.44 6.46
1183 60.87 7.91 20.80 38.24 2.79
1184 60.90 73.84 38.95 61.59 7.74
1185 60.95 40.21 41.79 56.67 7.22
1186 61.00 42.44 37.98 54.75 7.62
1187 60.95 52.22 37.02 61.55 6.80
1188 61.09 35.41 35.31 58.03 7.12
1189 61.20 25.38 36.52 43.95 6.16
1190 61.17 30.08 38.00 57.16 7.33
1191 61.24 37.81 39.43 58.19 7.60
1192 61.43 47.34 38.24 56.84 7.26
1193 61.30 44.96 41.49 55.48 6.94
1194 61.32 68.41 38.30 66.02 8.38
1195 61.31 71.42 38.01 61.90 8.43
1196 61.42 17.94 30.09 39.77 5.49
1197 61.37 54.87 41.81 57.86 7.90
1198 61.50 81.67 37.01 50.57 6.45
1199 61.50 20.82 32.33 43.17 5.69
1200 61.45 57.71 38.40 57.49 6.65
1201 61.56 63.82 39.91 58.66 6.79
1202 61.59 92.86 9.09 36.55 0.64
1203 61.64 27.53 33.40 47.51 6.11
1204 61.65 66.10 40.99 60.37 7.24
1205 61.55 88.13 31.52 49.74 5.18
1206 61.82 9.96 24.98 33.38 3.27
1207 61.64 61.30 39.16 57.99 6.66
1208 61.66 49.96 35.93 55.70 6.40
1209 61.75 75.86 36.78 55.08 7.28
1210 61.76 85.16 39.45 52.91 6.05
1211 61.86 78.83 37.82 50.53 6.27
1212 61.84 13.80 25.11 37.75 4.28
1213 61.99 90.20 21.75 45.19 2.51
1214 62.03 6.48 16.14 27.35 1.11
1215 61.94 31.80 36.38 48.52 6.75
1216 62.07 34.02 40.00 53.93 5.90
1217 62.18 23.37 31.58 39.14 5.96
1218 62.06 52.51 41.82 57.06 6.19
1219 62.23 39.73 39.28 50.92 6.57
1220 62.15 42.61 38.96 47.06 6.12
1221 62.28 72.68 36.66 52.85 6.11
1222 62.34 69.40 33.59 53.98 7.04
1223 62.36 37.08 37.60 49.62 7.03
1224 62.42 56.09 38.88 55.98 6.94
1225 62.55 28.80 34.81 43.79 4.95
1226 62.47 45.46 35.70 48.00 6.30
1227 62.57 58.77 36.29 51.54 6.17
1228 62.61 17.29 29.75 38.57 4.74
1229 62.70 83.59 36.07 47.94 5.96
1230 62.67 48.08 37.54 47.48 6.13
1231 62.74 20.60 30.41 33.44 4.23
1232 62.93 25.49 33.23 39.21 5.45
1233 62.80 63.95 35.29 51.92 5.67
1234 62.84 77.58 35.74 45.88 6.62
1235 62.91 11.60 24.35 36.35 3.98
1236 62.88 50.64 35.06 49.40 6.79
1237 62.79 61.47 40.08 51.90 6.32
1238 62.81 66.58 35.41 52.12 6.05
1239 62.88 81.09 35.39 48.56 6.35
1240 62.83 86.51 33.76 41.40 3.27
1241 62.95 14.59 27.92 33.69 4.17
1242 62.98 53.71 37.45 48.70 5.95
1243 63.09 75.07 37.38 46.82 6.34
1244 63.11 35.45 37.30 50.02 6.01
1245 63.12 91.04 16.65 41.71 1.43
1246 63.19 30.65 36.50 44.20 5.56
1247 63.20 41.22 35.88 45.59 5.45
1248 63.30 6.33 18.15 28.73 0.99
1249 63.30 32.93 35.58 43.55 4.92
1250 63.27 43.59 37.53 43.62 5.28
1251 63.34 70.59 37.43 50.09 6.62
1252 63.56 9.20 24.20 28.97 2.79
1253 63.48 38.43 37.29 45.03 5.06
1254 63.68 22.60 32.53 32.63 4.41
1255 63.63 72.98 35.96 44.91 6.47
1256 63.66 88.12 25.96 37.08 2.48
1257 63.61 56.32 39.17 42.99 5.36
1258 63.69 27.64 32.53 36.98 4.65
1259 63.69 18.62 28.22 29.93 3.75
1260 63.67 68.19 38.05 48.98 5.72
1261 63.62 45.89 37.30 42.14 6.43
1262 63.67 60.03 34.39 45.44 4.88
1263 63.75 79.59 37.62 44.82 6.28
1264 63.80 48.45 34.90 42.46 5.30
1265 63.94 63.03 35.24 40.35 5.08
1266 63.96 65.61 36.07 44.73 5.33
1267 63.92 83.83 37.72 41.85 5.02
1268 63.96 51.06 34.76 43.07 4.76
1269 64.03 14.71 27.21 29.08 3.02
1270 64.06 53.60 36.52 41.72 5.19
1271 64.12 76.87 36.67 41.78 5.63
1272 64.20 24.91 33.59 32.57 4.00
1273 64.22 34.30 35.73 37.42 4.75
1274 64.26 31.17 36.73 34.13 3.65
1275 64.50 11.62 26.29 26.99 3.09
1276 64.42 36.63 34.24 38.61 4.52
1277 64.30 40.44 36.70 38.79 5.02
1278 64.33 43.07 37.03 37.07 5.13
1279 64.46 58.19 38.65 39.05 4.88
1280 64.50 90.45 16.38 33.48 0.93
1281 64.54 7.20 21.94 26.39 1.09
1282 64.57 70.87 38.87 39.04 4.74
1283 64.65 81.55 39.42 39.28 5.09
1284 64.69 85.94 32.47 35.41 3.08
1285 64.77 20.29 31.69 28.65 3.86
1286 64.65 45.58 34.90 38.17 3.92
1287 64.78 17.40 31.47 29.64 4.27
1288 64.71 28.76 36.18 33.01 3.72
1289 64.79 73.61 39.59 36.55 5.02
1290 64.77 60.97 37.58 40.05 5.34
1291 64.92 68.52 35.53 37.04 4.82
1292 64.90 48.40 38.30 32.09 4.58
1293 64.95 55.62 34.87 35.66 3.86
1294 64.96 78.98 35.72 37.03 4.84
1295 65.06 22.81 34.85 27.11 4.07
1296 65.01 26.40 35.79 32.27 4.19
1297 65.04 52.32 37.92 32.74 4.59
1298 65.07 65.49 37.23 36.31 4.28
1299 65.15 32.81 35.33 33.17 4.46
1300 65.09 38.39 37.86 37.70 4.04
1301 65.22 63.24 33.59 36.37 4.68
1302 65.26 88.19 25.31 32.97 2.41
1303 65.27 9.38 24.29 24.86 2.48
1304 65.28 75.91 38.02 33.90 4.27
1305 65.27 14.40 25.48 25.38 2.94
1306 65.41 83.59 33.21 33.24 3.63
1307 65.35 92.23 7.22 25.21 0.12
1308 65.34 42.51 36.00 33.71 4.58
1309 65.50 30.62 36.99 29.01 3.30
1310 65.48 35.10 39.63 32.46 3.68
1311 65.56 58.82 36.77 33.04 4.07
1312 65.69 45.04 39.84 32.93 4.54
1313 65.69 50.39 36.21 30.73 4.59
1314 65.82 71.13 39.70 33.69 4.12
1315 65.81 24.61 36.21 26.13 3.75
1316 65.75 67.32 38.97 32.03 3.87
1317 65.98 17.60 26.71 23.70 3.22
1318 66.00 28.12 33.27 26.22 3.42
1319 65.98 47.80 35.78 29.67 3.94
1320 66.00 80.93 38.89 30.47 3.84
1321 66.07 11.49 25.90 20.32 2.30
1322 65.98 53.76 34.49 32.59 4.61
1323 66.03 61.00 36.35 31.02 3.80
1324 66.13 78.23 38.10 29.40 3.68
1325 66.17 20.82 28.69 22.47 2.80
1326 66.05 37.31 33.16 33.26 4.10
1327 66.08 56.51 34.53 30.97 4.56
1328 66.20 73.62 38.57 32.02 3.92
1329 66.29 85.43 29.37 27.41 3.02
1330 66.29 90.53 10.33 25.96 0.36
1331 66.31 63.76 37.70 30.12 4.23
1332 66.42 32.87 38.40 27.83 2.98
1333 66.46 87.59 25.54 28.83 2.26
1334 66.53 14.75 24.38 21.90 1.91
1335 66.54 75.78 38.68 27.28 3.80
1336 66.65 69.13 37.77 27.72 4.03
1337 66.67 8.94 22.72 19.35 1.82
1338 66.58 40.49 34.29 25.22 3.52
1339 66.75 35.31 33.90 28.40 3.48
1340 66.57 23.00 32.57 18.48 2.67
1341 66.66 30.40 34.05 24.85 2.60
1342 66.42 51.32 39.47 18.12 2.59
1343 66.72 26.06 34.96 22.70 3.37
1344 66.78 46.35 34.81 25.39 3.22
1345 66.87 58.86 33.86 27.23 3.07
1346 67.01 49.85 32.96 24.63 3.87
1347 66.59 54.69 38.91 21.64 3.82
1348 66.86 52.26 35.57 28.26 3.83
1349 67.00 82.40 39.35 27.60 3.61
1350 67.10 71.90 39.93 29.32 3.63
1351 67.26 18.36 27.24 18.79 2.44
1352 67.01 37.94 34.33 25.56 3.67
1353 67.08 61.68 37.09 26.79 3.47
1354 66.90 66.05 38.82 31.28 4.06
1355 67.17 54.87 36.28 27.86 3.61
1356 67.29 28.26 32.27 19.59 3.05
1357 67.40 80.06 36.21 25.77 3.18
1358 67.16 23.13 29.52 21.42 2.60
1359 67.44 56.87 35.94 25.93 3.73
1360 67.36 12.05 26.67 17.14 1.89
1361 67.52 77.06 39.02 24.42 3.67
1362 67.53 89.28 14.28 22.93 0.79
1363 67.56 16.40 24.43 19.32 2.02
1364 67.56 42.10 37.76 23.53 3.03
1365 67.50 44.59 35.08 24.05 2.95
1366 67.55 74.35 36.98 25.71 3.64
1367 67.55 14.99 25.88 15.12 1.73
1368 67.52 33.26 35.02 22.82 2.88
1369 67.63 64.44 40.01 23.78 2.93
1370 67.70 67.47 39.02 24.23 3.35
1371 67.62 84.49 37.44 25.22 2.88
1372 67.72 48.26 33.16 23.79 3.20
1373 67.79 20.67 29.39 18.66 3.00
1374 67.56 87.07 27.62 22.87 1.72
1375 67.78 30.77 32.01 20.01 2.51
1376 67.70 39.64 33.48 23.00 3.09
1377 68.11 9.77 22.58 14.64 1.57
1378 67.93 69.93 39.05 25.75 3.51
1379 67.96 25.43 32.79 20.27 2.46
1380 67.97 35.64 34.14 20.86 3.13
1381 67.92 52.95 35.87 21.08 3.26
1382 68.09 59.38 35.21 23.68 3.42
1383 68.20 23.14 30.97 17.81 2.79
1384 68.42 37.80 35.43 21.36 3.02
1385 68.10 46.43 36.49 18.60 3.27
1386 68.19 86.61 23.24 24.07 1.29
1387 68.18 78.65 32.72 24.15 3.20
1388 68.46 72.23 35.80 23.11 2.98
1389 68.34 28.30 33.72 19.45 2.63
1390 68.37 50.64 36.59 19.57 2.86
1391 68.28 55.83 38.22 17.18 2.48
1392 68.55 13.66 25.73 17.12 2.45
1393 68.67 32.95 34.32 21.15 3.00
1394 68.78 84.22 31.66 20.91 2.19
1395 68.69 41.86 36.39 21.67 2.64
1396 68.67 74.90 33.94 21.78 3.50
1397 68.42 19.60 31.40 16.10 1.90
1398 68.79 44.17 35.30 19.68 2.59
1399 68.71 65.37 35.95 23.40 3.33
1400 68.93 18.81 26.35 15.16 2.00
1401 68.81 88.73 12.06 21.92 0.63
1402 68.95 16.44 25.11 16.52 1.97
1403 68.66 46.21 36.95 22.21 2.92
1404 68.70 56.76 35.88 22.44 3.19
1405 68.85 81.61 32.33 19.67 2.55
1406 69.02 39.85 33.65 20.63 2.55
1407 68.62 78.16 37.68 22.00 2.41
1408 68.95 30.32 33.61 18.11 2.69
1409 68.93 48.59 36.48 19.92 2.82
1410 69.04 54.06 36.17 20.18 3.28
1411 69.08 60.88 35.21 21.68 3.46
1412 69.28 21.34 29.85 16.66 2.40
1413 69.19 67.53 36.43 22.78 2.80
1414 69.05 26.15 31.24 17.42 2.67
1415 69.11 70.03 36.19 22.23 2.69
1416 68.91 51.67 32.88 22.32 2.76
1417 69.28 79.66 35.38 22.68 2.53
1418 69.20 35.22 35.13 19.85 3.00
1419 69.28 58.38 37.58 20.18 3.18
1420 69.31 76.86 34.86 21.40 3.44
1421 69.28 8.95 21.06 13.97 1.51
1422 69.34 63.26 36.42 20.52 3.12
1423 69.63 23.75 29.96 15.57 2.61
1424 69.54 86.38 23.95 20.78 1.32
1425 69.64 13.36 24.30 12.60 1.57
1426 69.63 46.65 35.11 18.70 3.04
1427 69.51 50.57 32.63 17.35 2.19
1428 69.55 37.36 32.08 17.32 2.59
1429 69.73 73.10 33.63 19.62 2.33
1430 69.79 31.75 31.79 15.72 2.11
1431 69.86 56.00 35.14 18.18 2.82
1432 69.89 11.47 19.42 12.25 1.99
1433 69.83 27.33 34.87 15.82 1.92
1434 69.87 41.93 35.99 17.59 2.54
1435 69.98 52.81 34.31 18.66 2.45
1436 69.88 44.17 38.24 19.88 2.34
1437 70.04 65.15 37.09 18.59 2.57
1438 70.32 33.69 33.05 16.63 2.65
1439 70.26 29.24 33.35 15.50 2.79
1440 69.97 39.23 35.93 15.43 2.13
1441 70.22 60.27 34.81 19.51 2.57
1442 70.31 18.01 25.21 14.07 1.64
1443 70.17 70.64 34.78 19.68 2.80
1444 70.27 82.20 31.81 18.05 1.94
1445 70.43 48.59 32.91 18.59 2.52
1446 70.27 67.67 34.32 19.47 2.60
1447 70.38 75.29 31.94 18.78 2.54
1448 70.27 78.34 35.01 20.54 2.35
1449 70.21 15.64 25.98 12.57 1.02
1450 70.14 8.94 21.33 7.11 0.61
1451 70.52 35.78 37.98 17.49 2.76
1452 70.56 84.92 25.32 18.74 1.80
1453 70.49 25.39 30.41 13.69 2.07
1454 70.65 57.71 32.39 17.11 2.95
1455 70.63 62.67 34.53 19.11 2.52
1456 70.68 10.23 19.59 13.09 1.13
1457 70.60 20.54 29.08 13.62 1.69
1458 70.46 39.88 36.03 17.90 2.52
1459 70.83 37.84 33.05 17.32 2.52
1460 70.79 22.70 28.94 13.52 2.01
1461 70.80 45.69 33.31 17.59 2.23
1462 70.75 54.25 32.06 16.17 2.68
1463 70.88 51.48 33.37 17.85 2.40
1464 70.87 42.45 38.95 14.70 2.46
1465 70.96 31.64 29.88 15.29 2.53
1466 70.97 15.23 21.45 12.24 1.83
1467 71.05 80.14 30.37 17.59 2.76
1468 71.18 12.76 21.00 11.38 1.44
1469 71.09 69.60 33.83 17.03 2.07
1470 71.13 72.71 34.17 17.54 2.10
1471 71.22 65.79 35.34 17.17 2.69
1472 71.30 40.58 33.61 15.22 2.31
1473 71.34 27.08 31.52 14.55 2.18
1474 70.97 24.43 28.60 11.60 0.80
1475 71.40 77.35 34.78 16.73 2.38
1476 71.39 17.55 25.16 12.73 1.95
1477 71.65 61.43 36.06 16.30 2.56
1478 71.75 29.48 31.83 14.47 2.19
1479 71.64 49.95 32.77 16.83 2.62
1480 71.61 58.95 36.19 16.07 2.36
1481 71.67 83.08 23.92 14.97 1.65
1482 71.71 75.10 31.13 17.84 2.39
1483 71.68 47.49 33.91 16.76 2.42
1484 71.89 19.99 24.88 11.88 1.68
1485 71.90 33.33 28.24 15.21 1.90
1486 71.67 35.64 34.05 15.17 2.63
1487 71.58 56.76 33.41 17.66 2.47
1488 71.87 63.78 36.56 16.92 2.42
1489 71.77 85.90 17.24 15.34 0.79
1490 71.87 24.29 30.67 12.77 1.99
1491 71.79 53.23 34.77 15.91 2.46
1492 71.86 67.72 34.35 16.10 2.17
1493 71.94 55.72 33.93 14.25 1.96
1494 71.95 10.46 19.11 10.24 0.99
1495 71.96 44.96 33.38 15.41 2.44
1496 71.99 15.40 22.79 11.10 1.69
1497 72.05 38.17 31.56 16.19 2.51
1498 72.14 70.59 35.49 16.78 2.42
1499 72.23 42.69 32.42 14.10 2.40
1500 72.11 79.78 30.61 15.35 1.62
1501 72.41 14.39 21.63 10.18 1.34
1502 72.49 40.13 35.28 14.54 2.75
1503 72.41 72.89 35.56 15.42 2.22
1504 72.34 31.30 29.88 14.46 2.20
1505 72.73 51.38 32.58 15.01 2.59
1506 72.61 22.26 28.75 13.10 1.98
1507 72.57 26.65 29.37 12.23 2.21
1508 72.55 48.43 31.86 15.42 2.30
1509 72.77 60.04 33.43 15.12 2.21
1510 72.69 76.81 32.81 16.16 2.07
1511 73.02 12.17 21.42 8.81 1.42
1512 72.79 81.73 28.52 14.91 1.55
1513 72.69 18.02 27.43 10.30 1.21
1514 72.93 36.62 31.41 14.44 2.32
1515 72.86 53.98 31.84 15.07 2.46
1516 72.95 62.91 32.79 14.90 2.17
1517 72.96 68.42 34.28 15.51 3.41
1518 72.99 84.53 17.21 14.09 1.04
1519 73.05 16.76 26.27 9.60 1.40
1520 72.93 45.42 31.18 14.58 2.01
1521 73.28 24.45 30.54 12.69 1.89
1522 73.14 29.30 32.11 12.46 2.07
1523 72.77 33.47 28.58 11.00 2.25
1524 73.13 34.54 30.50 14.87 2.02
1525 72.99 65.40 33.32 15.62 2.04
1526 73.26 74.32 32.28 15.44 2.06
1527 73.06 13.36 21.82 10.76 2.76
1528 73.20 31.65 31.21 12.96 2.54
1529 73.37 71.17 32.25 14.48 2.52
1530 73.42 42.41 33.36 13.77 2.46
1531 73.53 47.84 33.47 15.17 2.17
1532 73.28 55.85 31.40 14.56 2.71
1533 73.57 79.13 29.07 13.16 1.61
1534 73.19 19.07 26.17 10.13 1.65
1535 73.46 38.92 31.04 14.00 2.42
1536 73.40 22.34 27.81 10.77 1.79
1537 73.49 20.33 25.00 12.11 0.96
1538 73.74 14.85 23.60 10.38 1.41
1539 73.64 27.11 27.43 12.26 2.06
1540 73.90 82.45 23.20 13.29 1.71
1541 73.78 50.40 31.76 14.20 2.04
1542 73.86 61.31 33.01 15.14 2.30
1543 73.79 44.72 34.44 13.44 2.49
1544 73.96 66.86 33.81 13.74 2.10
1545 73.68 32.91 31.00 11.08 3.54
1546 74.11 53.77 31.68 13.91 2.27
1547 74.03 58.95 31.74 13.88 2.18
1548 74.05 76.23 32.85 13.04 2.06
1549 73.89 18.96 25.25 9.57 1.18
1550 73.89 10.98 20.75 9.16 1.05
1551 74.02 64.15 33.30 14.01 2.34
1552 73.94 35.81 26.06 12.31 2.63
1553 74.15 69.35 34.80 13.17 2.30
1554 73.86 21.26 28.00 9.08 1.83
1555 74.09 22.53 27.35 12.03 1.97
1556 74.20 33.14 28.42 12.18 1.80
1557 74.34 40.43 29.88 13.40 2.11
1558 74.26 72.73 31.55 13.84 2.15
1559 74.36 30.55 26.41 11.36 1.64
1560 74.48 37.87 29.21 12.79 2.50
1561 74.39 25.61 26.76 11.26 1.81
1562 74.45 56.51 33.46 14.69 2.85
1563 74.71 12.73 22.66 8.84 1.13
1564 74.65 16.32 22.59 9.39 1.13
1565 74.62 42.78 28.63 14.75 1.96
1566 74.38 45.05 31.39 14.22 2.14
1567 74.52 46.77 35.88 14.64 2.52
1568 74.77 20.97 24.64 10.22 1.54
1569 74.40 23.99 26.77 9.60 2.07
1570 74.82 27.40 26.71 11.96 1.72
1571 74.83 35.58 28.55 11.86 1.98
1572 74.75 51.88 30.93 14.59 1.81
1573 74.77 78.38 32.61 13.42 1.41
1574 74.60 57.82 34.82 15.71 2.06
1575 74.90 81.11 24.10 11.32 1.23
1576 74.77 84.09 16.46 12.10 0.46
1577 74.89 49.54 29.09 12.91 2.28
1578 74.90 65.48 33.75 13.45 2.08
1579 75.00 61.45 32.07 14.07 1.88
1580 75.19 70.55 31.73 12.00 1.89
1581 74.96 47.65 31.73 15.93 2.40
1582 75.28 67.96 32.59 12.94 1.57
1583 75.26 76.02 29.08 13.04 1.40
1584 75.16 32.55 28.15 11.84 2.32
1585 75.25 58.89 29.85 14.17 2.04
1586 75.26 73.45 29.08 12.32 1.76
1587 75.43 23.61 28.49 10.35 1.60
1588 75.37 56.20 32.15 13.96 2.13
1589 75.28 34.65 29.84 12.25 2.50
1590 75.50 45.54 30.62 14.67 1.80
1591 75.58 63.25 31.33 12.68 2.09
1592 75.15 82.88 18.33 10.25 0.75
1593 75.55 38.42 28.47 13.12 2.24
1594 75.55 40.72 29.20 12.95 2.29
1595 75.51 54.42 30.36 12.82 2.02
1596 75.48 17.96 22.25 10.11 1.13
1597 75.76 14.72 19.78 9.36 1.04
1598 75.96 25.98 23.85 10.56 2.14
1599 75.94 28.66 24.11 10.96 1.95
1600 75.55 78.22 30.36 9.64 1.36
1601 75.80 52.36 30.17 13.77 2.48
1602 76.01 65.21 33.20 12.70 1.91
1603 76.00 79.26 25.71 11.68 1.29
1604 76.04 20.80 25.03 9.41 1.68
1605 75.95 36.37 27.39 13.11 1.80
1606 76.06 47.63 29.23 13.54 2.24
1607 76.09 50.14 30.75 13.14 1.50
1608 76.19 59.95 29.32 13.33 1.82
1609 76.15 33.79 27.52 12.30 1.84
1610 76.19 71.64 30.83 12.17 2.12
1611 76.34 16.91 23.82 9.88 1.49
1612 76.29 74.43 30.51 12.34 1.50
1613 76.48 44.09 29.48 14.23 2.08
1614 76.07 54.38 32.83 13.33 2.17
1615 76.39 57.44 30.88 14.11 2.07
1616 76.51 76.99 30.29 11.22 1.23
1617 76.17 38.73 29.56 11.56 2.00
1618 76.49 69.30 33.04 11.66 1.49
1619 76.51 67.09 32.05 13.45 1.96
1620 76.43 23.81 23.27 8.00 0.92
1621 76.79 61.58 28.49 12.04 1.38
1622 76.78 19.12 21.92 9.22 1.22
1623 76.73 31.37 24.24 11.52 1.80
1624 76.89 55.26 32.32 12.49 2.09
1625 76.95 81.00 18.84 10.68 0.62
1626 76.92 39.03 26.86 12.15 1.99
1627 76.86 53.04 28.76 12.84 2.00
1628 77.01 22.73 24.19 9.76 1.57
1629 77.02 36.13 25.28 10.93 1.90
1630 76.98 63.85 30.23 13.40 1.93
1631 77.13 14.96 18.45 7.98 0.95
1632 77.17 48.75 28.61 12.65 2.26
1633 76.97 27.89 24.51 10.14 1.68
1634 77.22 46.60 27.73 12.58 2.13
1635 77.10 72.65 33.06 10.60 1.52
1636 77.26 25.06 24.59 9.55 1.87
1637 77.38 33.73 24.15 11.46 2.62
1638 77.20 50.93 29.10 12.38 1.71
1639 77.21 78.83 21.18 9.70 0.75
1640 77.38 59.15 26.48 11.68 1.97
1641 77.39 70.77 28.33 11.44 1.63
1642 77.48 75.48 29.20 10.37 1.12
1643 77.25 30.76 25.35 9.82 1.88
1644 77.52 66.01 32.07 11.04 1.73
1645 77.47 73.71 31.50 10.53 0.81
1646 77.64 68.55 31.48 11.38 1.65
1647 77.67 44.30 28.59 12.77 2.23
1648 77.93 21.82 23.57 9.89 1.63
1649 77.60 57.15 29.20 12.20 1.86
1650 77.56 29.05 26.27 9.40 1.67
1651 77.95 19.97 21.42 9.94 1.88
1652 77.95 54.14 27.93 11.98 2.21
1653 77.90 62.55 28.13 11.80 1.87
1654 77.98 30.07 26.10 10.70 2.01
1655 77.95 18.60 19.57 7.29 1.19
1656 78.07 41.30 28.28 11.20 1.82
1657 78.10 60.58 25.84 11.89 1.46
1658 77.89 78.24 18.43 7.93 0.89
1659 78.34 16.77 18.42 7.85 1.32
1660 78.15 51.58 27.55 11.96 1.86
1661 78.06 79.63 16.63 9.03 0.27
1662 78.30 31.80 25.77 10.50 2.18
1663 78.26 36.06 24.21 11.00 2.14
1664 78.09 38.30 27.90 11.42 2.26
1665 78.46 49.53 25.95 12.70 2.02
1666 78.43 14.13 18.13 6.90 0.96
1667 78.29 47.12 27.21 12.51 2.37
1668 78.40 64.79 26.23 11.73 1.52
1669 78.40 56.73 27.51 11.31 1.59
1670 78.24 71.19 25.00 9.90 1.21
1671 78.24 55.66 29.45 12.27 1.73
1672 78.48 58.79 27.26 11.74 1.51
1673 78.80 23.45 22.30 8.99 1.48
1674 78.60 67.36 28.71 10.23 1.59
1675 78.55 70.01 27.43 9.98 1.64
1676 78.65 73.31 25.16 9.98 1.40
1677 78.48 32.91 26.55 12.00 2.50
1678 78.60 75.57 22.58 9.40 1.00
1679 78.68 26.20 20.21 10.10 2.08
1680 78.60 44.40 27.06 11.88 2.06
1681 78.90 39.03 26.65 11.95 2.13
1682 79.01 34.11 23.45 10.11 2.45
1683 78.96 62.98 26.64 10.82 1.55
1684 78.98 20.10 20.74 8.56 1.74
1685 79.10 29.12 25.27 10.22 1.93
1686 79.05 52.87 26.83 11.60 1.98
1687 79.14 55.02 26.20 12.45 2.37
1688 78.95 37.11 23.79 12.43 2.36
1689 79.18 60.47 23.48 10.32 1.41
1690 79.08 43.82 26.39 12.75 1.92
1691 79.34 57.87 23.41 11.36 1.96
1692 79.58 31.01 25.74 10.05 2.05
1693 79.19 42.21 26.67 10.74 2.41
1694 79.55 50.69 25.24 11.43 1.70
1695 79.43 65.18 25.83 10.80 1.49
1696 79.39 40.71 25.45 11.43 2.39
1697 79.31 27.97 20.78 10.39 2.52
1698 79.48 70.04 24.49 9.91 1.32
1699 79.19 71.69 21.67 10.89 1.56
1700 79.73 16.43 17.81 7.73 1.17
1701 79.40 46.14 26.79 11.44 2.63
1702 79.53 75.55 21.08 9.24 1.10
1703 79.51 36.42 21.61 10.16 1.98
1704 79.41 78.10 15.52 8.58 0.26
1705 79.48 25.67 22.56 9.51 1.95
1706 79.63 67.62 26.26 9.89 1.44
1707 79.74 73.00 23.75 9.80 0.67
1708 79.78 22.14 20.70 7.93 1.61
1709 79.77 48.63 23.42 11.69 2.56
1710 79.95 56.16 25.10 11.75 1.58
1711 80.25 39.03 23.70 11.27 2.58
1712 80.09 53.50 23.17 11.88 2.16
1713 80.12 34.68 23.55 11.22 2.60
1714 80.11 61.30 24.40 9.36 1.70
1715 80.01 25.28 20.41 9.97 1.88
1716 80.37 32.78 24.15 11.76 2.18
1717 80.20 28.67 23.02 10.68 2.48
1718 80.37 46.59 25.11 10.75 2.35
1719 80.35 71.21 22.40 8.71 1.33
1720 80.38 18.47 18.03 7.27 1.61
1721 80.43 41.58 23.76 11.90 2.47
1722 80.24 21.12 19.46 9.04 1.42
1723 80.44 65.77 25.11 10.28 1.38
1724 80.48 57.96 23.89 11.30 1.61
1725 80.46 36.15 22.29 10.73 2.35
1726 80.53 74.38 17.97 8.72 0.70
1727 80.35 69.16 20.07 10.27 1.40
1728 80.67 23.15 21.31 7.77 1.92
1729 80.76 30.14 24.61 9.77 2.34
1730 80.73 68.12 21.08 9.32 1.75
1731 80.94 49.07 24.57 11.16 1.99
1732 80.74 51.64 23.57 11.14 1.77
1733 80.65 37.42 22.63 11.58 2.21
1734 80.89 44.50 27.07 11.45 2.19
1735 81.03 20.04 17.72 7.69 1.62
1736 81.07 54.28 25.16 11.60 1.90
1737 81.03 56.28 23.73 10.78 1.72
1738 80.96 60.70 26.62 8.85 1.87
1739 81.32 21.36 17.39 7.07 2.00
1740 81.39 25.15 20.12 8.86 2.25
1741 81.06 59.39 27.10 9.40 1.50
1742 81.36 72.38 17.83 8.43 0.74
1743 81.11 23.93 21.07 9.43 2.21
1744 81.56 33.27 22.86 9.69 2.62
1745 81.45 64.87 23.56 8.73 1.02
1746 81.27 69.96 18.13 7.95 1.35
1747 81.38 40.54 22.46 11.29 3.13
1748 81.33 62.43 25.38 9.72 1.45
1749 81.53 38.02 24.04 10.15 2.75
1750 81.55 28.22 20.08 9.66 2.56
1751 81.36 58.38 24.18 11.88 1.32
1752 81.58 67.14 20.63 8.85 1.13
1753 81.36 30.97 20.77 10.42 1.81
1754 81.29 43.19 25.37 10.74 2.58
1755 81.66 46.39 25.46 11.30 2.11
1756 81.40 26.12 26.14 8.29 3.71
1757 81.96 53.00 22.54 12.02 1.76
1758 81.74 42.17 22.26 11.64 2.85
1759 81.79 50.79 23.11 11.18 3.20
1760 82.00 59.91 23.08 9.82 2.02
1761 82.09 57.25 23.62 10.50 1.67
1762 81.78 43.72 24.64 12.21 2.43
1763 81.73 69.27 19.40 8.60 0.60
1764 82.12 22.87 20.01 7.97 2.23
1765 81.98 55.17 21.54 11.15 2.70
1766 82.15 31.44 21.54 9.83 2.31
1767 82.25 48.68 24.63 10.91 2.83
1768 82.25 63.36 21.76 8.97 1.55
1769 82.26 70.45 15.74 8.49 0.91
1770 82.08 30.03 24.75 6.25 2.00
1771 82.32 68.20 17.60 8.13 1.08
1772 82.46 26.23 19.68 8.97 2.62
1773 82.48 72.71 13.34 6.97 0.58
1774 82.56 41.76 21.47 10.87 3.17
1775 82.59 44.30 24.94 12.23 2.58
1776 82.82 29.05 20.64 9.10 3.23
1777 82.51 65.28 20.36 9.20 0.96
1778 82.83 34.59 22.14 9.18 3.21
1779 82.60 37.92 22.24 9.57 2.73
1780 82.61 59.12 23.77 10.17 1.58
1781 82.52 66.43 17.00 9.38 1.71
1782 82.83 46.44 25.24 10.98 2.81
1783 82.76 61.78 21.22 9.72 1.61
1784 83.05 39.78 24.39 11.10 3.01
1785 82.98 52.72 25.59 11.34 2.02
1786 83.24 24.27 19.33 8.03 2.34
1787 82.83 68.23 16.78 9.44 0.22
1788 83.12 56.41 22.78 10.02 2.48
1789 83.25 31.47 21.04 9.84 2.91
1790 83.21 64.31 19.11 8.29 1.43
1791 83.46 22.00 19.08 7.73 2.44
1792 83.31 48.52 22.91 10.72 2.41
1793 83.28 66.58 16.66 7.43 0.97
1794 83.36 69.05 15.25 7.56 0.71
1795 83.36 71.42 12.44 6.56 0.40
1796 83.35 37.32 21.03 9.41 2.08
1797 83.39 54.40 22.89 10.53 1.93
1798 83.15 36.45 19.00 9.00 3.00
1799 83.54 58.45 22.49 10.71 1.90
1800 83.35 18.34 17.19 6.42 1.51
1801 83.70 43.66 21.56 10.54 2.87
1802 83.60 60.52 21.48 9.72 1.58
1803 83.53 26.22 18.27 6.78 2.63
1804 83.73 62.55 21.39 9.97 1.33
1805 83.76 27.65 18.02 7.20 2.89
1806 83.76 33.04 20.23 9.33 2.81
1807 84.02 40.84 22.47 10.78 2.59
1808 83.83 50.53 24.00 10.84 2.58
1809 84.13 45.91 24.10 11.33 2.89
1810 83.83 52.29 22.80 10.17 2.14
1811 84.02 29.65 21.39 10.10 3.34
1812 83.91 34.37 22.61 8.82 2.89
1813 83.95 66.32 17.44 8.40 0.78
1814 83.91 17.60 13.66 6.66 1.74
1815 84.20 19.53 17.03 6.59 2.24
1816 84.21 36.82 22.07 9.88 2.70
1817 84.08 35.48 23.89 9.04 3.22
1818 84.39 55.05 22.86 10.01 2.49
1819 84.27 48.44 23.18 10.32 3.48
1820 84.24 64.51 19.57 7.32 0.98
1821 84.34 23.36 18.27 6.68 2.39
1822 84.43 38.93 22.26 9.19 3.26
1823 84.79 59.53 22.87 9.88 1.78
1824 84.65 21.96 16.60 6.94 2.60
1825 84.45 50.19 22.68 11.84 2.92
1826 84.50 32.12 20.05 10.07 2.44
1827 84.74 61.51 22.34 9.97 1.79
1828 84.68 67.05 15.58 7.80 0.82
1829 84.96 42.51 22.16 10.51 3.52
1830 84.73 47.60 22.05 10.59 2.32
1831 84.81 33.68 20.32 9.26 3.00
1832 85.06 63.44 21.17 8.80 1.15
1833 84.98 44.68 21.68 10.74 3.51
1834 85.09 50.98 22.70 9.80 3.77
1835 85.56 37.89 19.82 9.64 3.63
1836 85.33 54.23 21.52 9.76 3.07
1837 85.44 27.75 19.24 8.93 3.64
1838 85.35 52.70 22.82 10.21 2.85
1839 85.43 20.01 16.70 7.67 2.08
1840 85.12 46.84 23.80 9.80 2.20
1841 85.59 49.16 20.69 10.64 4.02
1842 85.42 68.94 12.16 7.13 0.44
1843 85.72 40.63 19.89 10.41 3.87
1844 85.55 56.65 21.12 9.12 2.48
1845 85.54 65.40 15.34 6.95 1.08
1846 85.39 33.73 20.38 9.38 3.31
1847 85.60 30.35 19.52 9.15 4.13
1848 85.74 35.21 18.54 8.86 3.31
1849 85.67 47.31 20.78 9.78 3.49
1850 85.93 23.60 15.77 7.46 3.62
1851 85.80 25.92 17.37 7.63 3.23
1852 85.88 60.62 19.62 8.79 1.60
1853 86.12 42.87 19.67 9.39 3.81
1854 86.38 55.13 20.52 10.44 3.11
1855 86.27 31.72 19.85 8.06 4.11
1856 86.15 62.31 17.25 6.64 1.68
1857 86.41 51.06 21.92 10.44 3.85
1858 86.55 25.42 17.93 7.33 3.55
1859 86.53 52.80 18.99 10.33 3.84
1860 86.67 27.80 18.14 8.50 3.74
1861 86.47 45.92 20.88 10.93 3.39
1862 86.52 63.85 17.42 8.13 1.49
1863 86.47 47.90 20.27 10.03 4.32
1864 86.45 35.78 20.00 9.11 4.84
1865 86.87 21.11 14.60 6.79 3.04
1866 86.78 49.63 20.98 9.74 4.65
1867 86.71 65.79 14.71 7.10 0.97
1868 86.74 34.49 17.62 8.98 3.81
1869 86.71 39.95 20.94 9.29 4.96
1870 86.86 23.22 15.46 8.44 3.34
1871 87.05 37.49 21.03 9.18 4.23
1872 86.83 32.85 19.50 9.30 4.70
1873 87.21 42.39 20.39 9.19 4.93
1874 87.46 29.97 16.89 7.57 4.36
1875 87.47 67.62 10.63 6.71 0.65
1876 87.12 22.27 19.67 7.00 4.83
1877 87.33 61.99 18.09 8.40 1.80
1878 87.41 26.54 17.36 7.77 4.86
1879 87.12 33.88 21.00 9.00 11.00
1880 87.57 32.44 19.20 8.51 5.34
1881 87.70 50.62 21.56 9.70 3.79
1882 87.82 24.23 14.83 7.05 4.35
1883 87.49 34.27 20.08 8.88 5.08
1884 87.57 60.11 19.44 8.40 1.62
1885 87.69 55.43 20.35 8.95 3.79
1886 87.60 58.19 18.61 9.71 3.02
1887 87.75 48.84 19.95 9.78 5.90
1888 88.08 65.68 12.84 7.23 1.09
1889 88.12 22.28 15.33 6.52 2.65
1890 87.75 25.37 16.40 7.35 4.50
1891 87.70 40.26 18.09 8.51 4.29
1892 87.71 46.86 22.11 10.11 5.26
1893 87.96 36.97 19.20 8.60 5.00
1894 88.06 35.15 19.65 8.03 6.43
1895 88.19 43.70 19.02 10.10 5.89
1896 87.95 52.68 22.28 10.20 4.14
1897 88.11 41.30 18.25 9.02 7.86
1898 88.39 56.90 18.73 9.41 3.48
1899 88.31 27.59 17.06 7.31 5.16
1900 88.18 62.55 17.60 7.86 1.47
1901 88.52 47.90 22.57 10.50 5.00
1902 88.47 60.32 20.69 7.92 2.29
1903 88.59 30.42 17.56 8.29 4.21
1904 88.50 37.69 19.91 9.81 8.37
1905 88.61 58.59 18.47 7.86 2.81
1906 88.65 54.51 18.84 9.15 5.15
1907 88.92 33.18 18.49 7.73 5.34
1908 88.73 40.21 18.81 9.31 5.95
1909 88.81 49.93 20.18 9.18 6.02
1910 88.79 51.93 20.52 8.91 6.25
1911 88.81 24.20 18.52 7.12 4.00
1912 88.91 38.83 18.57 10.19 6.90
1913 89.13 42.26 18.79 9.48 7.19
1914 89.12 35.51 18.48 7.98 6.69
1915 89.18 25.93 16.48 7.90 5.64
1916 89.11 61.14 17.32 7.68 2.40
1917 89.30 28.50 17.42 8.14 4.28
1918 88.95 44.64 20.00 8.91 4.45
1919 89.19 46.04 19.05 11.00 9.46
1920 89.65 53.12 19.97 9.72 4.55
1921 89.55 57.30 18.67 8.31 4.07
1922 89.72 58.99 16.69 7.95 3.64
1923 89.77 47.94 21.18 9.70 7.18
1924 89.80 37.26 19.08 8.41 9.08
1925 89.77 55.58 19.82 9.11 5.22
1926 90.03 31.44 17.02 7.61 6.94
1927 89.96 61.97 15.15 7.31 2.06
1928 89.93 50.07 21.09 9.93 6.43
1929 90.26 26.50 15.65 7.69 5.79
1930 90.33 34.66 16.10 7.95 6.61
1931 90.30 41.00 19.24 8.91 7.83
1932 90.46 45.86 20.19 9.13 8.21
1933 90.29 24.76 16.10 6.69 3.03
1934 90.37 51.78 21.63 8.56 6.54
1935 90.27 61.30 14.50 7.20 2.50
1936 90.35 30.26 13.92 6.62 4.08
1937 90.50 60.09 14.58 7.58 2.18
1938 90.61 38.69 19.83 8.60 8.75
1939 90.67 56.27 18.84 8.88 5.21
1940 90.66 54.11 18.98 9.48 6.79
1941 90.96 37.02 17.02 8.89 5.47
1942 91.11 47.73 18.55 9.07 7.60
1943 90.92 28.90 16.46 8.29 5.85
1944 90.93 63.07 12.23 6.21 1.84
1945 90.85 61.25 12.35 7.12 2.88
1946 90.96 51.60 20.85 9.54 8.24
1947 91.12 41.89 20.74 8.11 8.28
1948 91.10 32.24 18.13 7.80 4.84
1949 91.26 30.50 16.38 7.66 7.98
1950 91.22 49.76 19.40 8.83 9.75
1951 91.54 53.92 19.03 9.08 6.19
1952 91.46 33.25 20.07 8.77 9.80
1953 91.53 39.29 17.79 8.86 8.19
1954 91.44 55.82 18.21 7.87 5.74
1955 91.50 45.40 19.39 9.22 8.61
1956 91.77 58.86 15.13 7.45 4.55
1957 91.67 61.08 13.53 6.43 2.64
1958 92.07 51.96 19.61 9.24 9.51
1959 91.89 35.20 16.38 7.64 10.16
1960 91.88 40.73 18.38 9.09 9.16
1961 92.22 28.85 14.28 7.16 8.52
1962 92.10 46.52 19.25 8.76 9.69
1963 91.84 52.79 20.00 9.80 9.80
1964 91.86 33.90 17.60 7.80 5.60
1965 92.08 50.24 18.95 9.02 9.82
1966 92.15 27.24 15.53 6.70 5.75
1967 92.28 30.90 16.23 7.38 7.02
1968 92.46 48.43 18.09 9.05 10.88
1969 92.34 37.20 17.84 8.95 6.73
1970 92.40 42.18 18.53 8.90 9.90
1971 92.72 33.48 17.21 7.47 9.04
1972 92.71 44.66 18.62 9.32 8.57
1973 92.76 39.08 16.10 7.79 10.22
1974 92.84 55.29 17.30 8.55 6.86
1975 92.97 58.81 13.41 7.64 4.23
1976 93.08 52.40 17.50 9.02 7.54
1977 93.10 36.59 18.00 9.04 8.84
1978 93.04 46.50 16.50 8.75 4.46
1979 92.95 42.16 19.86 7.57 7.14
1980 93.68 40.89 17.68 8.45 9.26
1981 93.42 42.89 20.25 8.55 8.60
1982 93.51 31.85 16.78 7.69 10.28
1983 93.50 49.96 19.76 8.47 11.21
1984 93.39 56.48 15.19 8.19 7.43
1985 93.55 37.79 17.84 8.47 9.02
1986 93.58 47.58 17.56 8.98 10.36
1987 93.73 29.09 15.87 6.97 7.82
1988 93.85 34.51 17.21 7.53 11.24
1989 93.44 57.52 15.00 7.25 4.75
1990 93.81 57.74 12.58 7.79 4.16
1991 94.18 36.85 17.48 8.03 10.03
1992 94.32 53.01 16.24 8.61 9.58
1993 94.39 56.42 15.58 7.08 7.21
1994 94.61 50.51 18.57 8.32 10.57
1995 94.84 31.31 15.03 6.72 10.54
1996 94.52 54.49 17.10 6.84 5.90
1997 94.74 41.59 17.88 7.59 11.90
1998 94.78 36.88 17.54 7.23 9.38
1999 94.94 43.50 18.02 8.00 9.59
2000 94.84 44.81 15.60 7.25 14.35
2001 94.96 38.86 16.59 8.21 11.42
2002 95.23 36.22 16.27 6.70 14.37
2003 95.18 33.63 15.21 6.81 12.60
2004 95.40 54.04 15.15 7.79 8.81
2005 95.34 46.29 18.20 8.51 12.18
2006 95.60 50.94 16.16 7.56 8.40
2007 95.56 41.05 17.09 8.34 10.58
2008 95.80 48.19 16.96 8.44 8.74
2009 96.11 44.61 15.73 8.30 11.28
2010 96.02 32.30 13.68 6.71 12.67
2011 96.14 35.42 15.30 7.14 9.50
2012 95.90 37.67 18.33 7.67 4.53
2013 96.31 39.15 16.00 7.91 13.09
2014 96.19 41.94 18.62 6.75 8.81
2015 96.46 37.17 14.47 7.88 12.71
2016 96.52 42.84 16.00 7.46 11.04
2017 96.75 34.03 14.35 6.52 13.12
2018 96.98 47.54 14.83 7.01 12.46
2019 96.79 41.26 15.65 7.58 8.26
2020 97.12 43.26 16.00 7.19 10.43
2021 97.51 36.66 14.07 5.20 9.48
2022 97.46 44.30 13.86 7.22 10.45
2023 97.67 39.92 14.44 6.41 10.37
2024 97.35 41.89 13.90 8.13 5.77

