0.008
0.0
0.0
0.0
0.0
0.0
0.0
0.0
0.0
0.0
0.0
0.0
0.051
0.0
0.0
0.048
0.05
0.05
0.048
0.048
0.031
0.019
0.031
0.023
0.033
0.022
0.018
0.041
0.024
0.032
0.025
0.038
0.022
0.029
0.03
0.026
0.025
0.032
0.043
0.057
0.061
0.048
0.051
0.049
0.047
0.051
0.055
0.006
1.0
1.0
1.0
1.0
1.0
1.0
1.0
1.0
1.0
1.0
0.72
0.789
0.795
0.783
0.025
0.025
0.024
0.023
0.021
0.021
0.018
0.02
0.016
0.025
0.02
0.019
0.0
0.0
0.0
0.0
0.0
0.0
0.0
0.0
0.0
0.014
0.009
0.008
0.012
0.009
0.016
0.01
0.012
0.009
0.009
0.011
0.012
0.01
0.007
0.014
0.008
0.015
