#<Embryo name> <Cleavage cycle> <Temporal class> <Genes>
kf2 14A 2 even-skipped knirps giant

#Quantitative data
#<Nucleus number> <A-P coordinate> <D-V coordinate> <Fluorescence intensity: channel 1 - eve, channel 2 - kni, channel 3 - gt>
0 2.17 45.71 5.71 80.29 4.18
1 2.55 42.06 6.84 87.74 5.16
2 2.86 44.42 7.51 87.42 5.09
3 2.91 50.12 6.31 81.98 4.52
4 2.98 47.32 7.97 87.09 5.40
5 3.11 39.40 7.61 88.96 5.25
6 3.54 53.13 4.94 66.80 3.59
7 3.55 42.18 8.28 93.28 5.69
8 3.88 51.12 8.16 93.10 5.16
9 4.03 48.54 9.79 87.03 6.47
10 4.16 37.92 8.89 87.08 5.96
11 4.32 40.37 10.41 87.88 6.89
12 4.53 34.96 7.66 81.06 6.44
13 4.54 43.21 10.72 91.72 7.32
14 4.60 54.99 6.03 74.65 4.40
15 4.63 52.59 10.61 97.22 6.19
16 4.84 45.47 11.60 98.98 8.01
17 4.87 53.67 7.64 90.52 6.60
18 4.67 36.09 9.09 84.09 5.22
19 5.18 50.87 11.48 105.64 7.82
20 5.13 48.68 11.99 94.67 7.50
21 4.96 57.01 4.96 63.89 3.17
22 5.38 39.19 10.86 88.10 7.85
23 5.33 36.40 9.76 81.14 7.02
24 5.25 41.76 11.32 96.60 8.36
25 5.68 34.21 8.86 78.33 6.94
26 5.79 46.92 13.14 92.73 9.52
27 5.60 55.88 8.68 79.18 5.83
28 5.67 37.32 10.30 80.80 7.90
29 5.87 44.10 12.70 93.78 9.23
30 5.75 53.09 10.04 89.06 7.19
31 5.89 41.53 12.44 89.30 8.02
32 6.05 58.22 6.94 70.88 4.69
33 6.43 51.71 12.47 99.77 8.66
34 6.38 54.54 11.25 94.92 7.31
35 6.26 60.44 4.13 51.47 2.22
36 6.61 49.20 14.37 91.96 9.67
37 6.40 35.10 11.38 81.00 8.12
38 6.73 40.17 13.90 94.79 10.76
39 6.63 59.66 5.50 66.64 4.50
40 6.90 46.74 14.52 93.57 10.04
41 7.03 44.34 14.60 99.31 11.15
42 7.16 32.64 9.98 73.50 7.28
43 6.94 37.49 12.07 82.44 8.72
44 6.99 58.33 8.88 82.52 6.77
45 6.99 35.29 11.27 84.42 8.52
46 7.32 42.29 14.40 92.01 10.73
47 7.30 56.23 11.31 92.36 8.36
48 7.49 53.97 14.76 98.05 9.77
49 7.28 60.19 6.77 71.80 5.23
50 7.17 57.51 8.67 92.83 10.00
51 7.69 51.92 15.04 101.71 9.87
52 7.84 50.30 15.00 102.00 11.35
53 8.02 37.90 13.74 90.03 11.61
54 7.91 35.39 12.72 84.34 9.78
55 8.05 47.27 16.69 98.73 12.31
56 8.13 40.73 15.71 97.45 11.98
57 8.22 44.95 16.20 94.23 13.17
58 8.16 61.02 7.36 76.35 5.88
59 8.26 57.65 11.87 96.72 7.96
60 8.42 32.63 11.92 70.56 9.65
61 8.21 49.09 15.04 99.12 12.50
62 8.60 55.84 13.46 89.68 9.61
63 8.32 54.91 13.60 101.60 11.20
64 8.47 59.48 11.09 84.94 8.34
65 8.73 53.15 14.49 96.34 12.21
66 8.86 63.73 5.42 63.10 4.44
67 9.07 39.09 14.88 93.29 12.92
68 9.04 50.41 16.26 100.31 13.08
69 8.98 62.18 9.19 75.12 7.23
70 9.07 43.03 16.43 87.36 12.45
71 9.22 47.78 17.53 106.81 13.93
72 9.48 36.59 15.04 85.63 12.95
73 9.41 58.55 13.16 88.11 11.22
74 9.48 45.25 17.68 95.13 14.34
75 9.47 60.77 11.41 83.37 10.50
76 9.41 29.84 10.40 46.96 8.60
77 9.17 31.42 15.14 57.00 10.29
78 9.38 34.49 13.87 72.13 11.66
79 9.68 41.24 16.00 94.45 13.00
80 9.68 56.50 16.99 92.88 11.96
81 9.61 31.93 13.48 55.23 10.36
82 9.70 64.24 6.93 70.07 6.09
83 9.50 33.24 11.38 64.75 10.94
84 9.72 54.48 16.83 99.55 12.88
85 9.97 51.28 19.11 96.03 13.54
86 10.09 52.69 15.17 95.27 12.67
87 10.10 49.42 19.48 102.80 15.05
88 10.23 30.57 11.68 46.95 10.25
89 10.44 43.60 17.06 96.57 14.59
90 10.34 38.96 16.33 90.47 14.31
91 10.37 46.90 19.58 103.84 15.71
92 10.46 29.00 11.29 41.73 10.06
93 10.37 62.02 12.95 83.70 13.11
94 10.52 33.90 14.85 62.02 13.01
95 10.57 65.70 7.33 65.70 7.60
96 10.74 57.83 15.02 90.59 14.77
97 10.74 36.73 18.04 77.95 15.12
98 10.71 59.89 14.55 86.98 14.12
99 10.60 49.38 19.50 101.57 12.64
100 10.96 41.29 18.28 89.72 15.53
101 10.82 67.59 5.09 50.89 4.40
102 10.88 31.81 13.08 49.95 11.81
103 10.89 55.60 17.29 87.66 14.16
104 11.06 63.83 11.08 76.86 12.51
105 11.12 50.90 19.28 96.19 16.51
106 11.39 45.29 17.01 99.64 16.11
107 11.37 53.88 18.99 94.48 16.86
108 11.37 47.94 18.89 98.57 16.41
109 11.48 29.77 13.48 42.76 12.83
110 11.80 61.32 14.28 80.65 16.40
111 11.47 37.34 16.64 78.71 14.89
112 11.64 35.05 15.84 65.32 16.65
113 11.85 39.67 18.32 84.71 16.27
114 11.81 42.73 18.92 91.83 16.67
115 11.60 60.39 17.22 81.67 17.44
116 11.91 58.20 18.37 88.32 19.13
117 11.90 25.37 9.27 32.15 9.78
118 11.84 32.10 15.72 50.67 14.02
119 12.09 49.90 18.67 94.15 18.53
120 12.13 55.95 18.80 90.49 19.65
121 12.19 63.52 14.02 80.49 17.28
122 12.35 52.24 21.08 96.93 21.11
123 12.11 28.05 12.28 38.39 13.81
124 12.05 69.35 5.73 50.91 7.45
125 12.26 37.58 18.65 72.54 19.41
126 12.44 46.60 20.21 101.71 19.80
127 12.30 30.49 16.30 42.55 15.85
128 12.75 68.36 9.33 62.76 14.94
129 12.56 33.88 18.95 59.32 21.29
130 12.80 43.91 20.66 93.68 20.74
131 12.96 25.70 10.13 32.06 10.81
132 12.87 36.09 18.14 66.80 19.57
133 12.99 58.96 19.05 88.63 24.28
134 13.03 30.47 15.78 45.00 17.08
135 13.07 41.64 18.33 85.27 20.20
136 13.06 39.14 18.83 78.36 21.04
137 13.06 65.93 13.72 75.20 24.82
138 13.14 61.73 17.26 83.36 25.24
139 13.15 56.37 20.74 89.58 26.12
140 13.03 60.21 17.47 90.53 23.41
141 13.23 64.19 17.37 78.48 32.58
142 13.19 34.18 16.39 64.78 21.26
143 13.27 48.36 19.64 99.49 21.51
144 13.39 50.60 19.63 103.28 23.71
145 13.51 32.53 17.31 50.44 19.41
146 13.67 45.63 20.40 104.43 23.96
147 13.69 35.08 17.53 61.44 21.16
148 13.81 52.85 21.19 102.78 26.67
149 13.78 70.43 8.72 54.53 15.43
150 13.81 43.07 20.91 96.03 28.09
151 14.07 58.42 21.12 87.82 30.47
152 13.98 66.97 17.47 74.40 35.39
153 14.23 36.71 20.27 64.81 25.18
154 14.36 60.48 21.52 83.86 34.10
155 14.24 39.17 20.19 80.16 22.98
156 14.40 41.23 21.04 88.35 26.49
157 14.08 47.70 19.31 98.64 29.11
158 14.10 62.39 19.94 85.38 37.03
159 14.24 23.70 9.93 30.57 14.36
160 14.26 69.27 13.33 67.74 22.60
161 14.48 26.38 14.34 36.53 21.15
162 14.35 43.57 20.24 96.90 23.55
163 14.37 22.38 8.74 30.23 12.35
164 14.31 28.35 14.34 38.75 22.81
165 14.33 31.47 17.95 48.74 28.92
166 14.40 33.73 16.88 51.82 22.43
167 14.56 54.55 22.51 95.72 31.73
168 14.53 30.00 18.13 44.32 22.45
169 14.46 49.88 19.97 96.38 28.23
170 14.57 72.60 6.52 46.39 11.89
171 14.70 56.58 20.79 92.39 31.89
172 14.59 65.03 19.75 78.10 39.75
173 14.40 67.17 15.33 76.00 27.33
174 14.91 45.47 20.21 93.99 31.34
175 14.93 63.48 20.81 82.10 38.04
176 14.92 52.16 21.79 103.99 29.39
177 15.24 68.93 17.01 66.93 37.08
178 15.23 66.87 20.51 78.83 41.94
179 15.00 70.62 13.36 59.98 30.09
180 15.07 37.60 21.06 64.38 36.17
181 15.12 58.92 21.98 85.30 45.62
182 15.46 42.99 22.17 97.69 34.98
183 15.59 25.62 15.67 33.81 32.69
184 15.56 36.05 20.57 58.54 27.93
185 15.57 47.60 22.19 95.51 39.71
186 15.50 40.03 21.95 77.27 32.55
187 15.57 30.12 19.49 43.49 32.49
188 15.51 33.44 20.56 50.05 35.78
189 15.58 50.10 24.30 97.25 39.43
190 15.82 55.02 23.34 97.86 42.28
191 15.69 57.37 22.91 94.64 44.91
192 15.81 60.75 22.33 91.30 43.06
193 15.53 38.25 16.67 69.50 24.33
194 15.86 64.76 21.44 83.96 52.67
195 15.94 52.56 23.56 106.68 39.92
196 15.97 45.02 24.15 94.56 43.74
197 16.26 28.06 19.80 38.01 42.99
198 15.89 37.78 17.88 67.96 28.67
199 15.86 26.48 18.80 33.30 37.00
200 16.11 23.47 14.72 28.19 35.49
201 16.31 31.67 20.88 40.26 45.09
202 16.56 34.69 20.89 53.62 43.53
203 16.26 71.47 16.11 58.04 41.07
204 16.52 62.92 22.46 84.86 50.42
205 16.28 41.23 24.23 93.40 44.71
206 16.46 69.69 20.29 67.29 52.98
207 16.70 37.90 21.39 66.56 41.18
208 16.77 43.20 24.63 90.71 48.10
209 16.62 58.83 23.42 92.33 50.68
210 16.84 47.36 24.21 97.06 47.57
211 16.76 49.54 25.45 100.66 44.09
212 16.73 40.22 20.69 84.65 39.26
213 16.52 45.32 19.70 87.60 32.00
214 16.94 56.23 23.82 94.74 49.02
215 16.97 25.94 17.55 33.30 48.79
216 16.84 52.94 25.47 95.81 51.72
217 16.95 21.28 12.61 27.87 38.82
218 17.04 69.15 18.89 68.02 40.94
219 17.13 30.10 21.03 39.48 53.85
220 17.13 61.21 27.01 83.77 58.79
221 17.37 23.77 16.66 32.13 49.96
222 17.01 54.65 22.36 99.71 33.00
223 17.55 32.56 21.94 43.61 62.37
224 17.21 51.17 25.11 97.93 40.93
225 17.34 64.98 24.41 77.28 57.57
226 17.50 36.75 23.79 61.07 53.04
227 17.52 45.57 24.59 88.30 55.34
228 17.47 71.53 21.17 58.29 50.14
229 17.57 39.03 25.08 66.51 69.22
230 17.67 41.50 23.89 80.95 56.53
231 17.69 63.70 23.76 80.11 49.42
232 17.84 27.90 19.29 37.61 60.23
233 17.82 59.33 25.39 86.21 59.70
234 17.92 34.55 24.96 47.68 64.91
235 17.82 57.37 27.87 89.49 62.51
236 18.01 19.63 10.96 24.29 34.50
237 18.44 55.32 28.87 92.25 60.39
238 17.97 50.32 27.38 95.13 60.19
239 18.13 43.57 25.16 84.30 63.30
240 18.02 73.96 15.62 45.71 44.65
241 18.08 47.73 23.92 95.88 56.50
242 17.83 52.31 28.13 95.07 66.47
243 17.95 62.52 26.96 80.92 69.38
244 18.06 69.51 22.64 66.34 54.44
245 18.27 21.95 14.96 30.68 54.57
246 18.36 25.32 19.55 37.02 68.81
247 18.32 30.39 23.27 40.27 73.93
248 18.35 52.93 25.32 94.03 44.59
249 18.25 75.19 12.00 44.18 22.00
250 18.60 71.86 24.96 55.66 59.17
251 18.66 60.59 27.26 85.40 62.38
252 18.42 63.69 25.27 81.00 54.36
253 18.72 36.09 23.86 49.75 84.68
254 18.73 40.64 27.74 70.26 78.69
255 18.37 49.64 24.83 97.50 39.67
256 18.75 67.55 25.64 74.05 59.75
257 18.84 45.64 27.47 84.67 66.48
258 18.87 65.51 28.24 79.07 71.47
259 18.98 33.01 22.97 41.20 88.36
260 19.01 38.38 25.94 57.92 83.16
261 19.08 48.47 28.52 91.08 70.32
262 19.03 75.00 18.65 38.24 44.92
263 19.12 51.18 28.78 95.38 68.62
264 19.28 23.66 19.41 31.55 83.19
265 19.16 27.44 21.23 36.15 83.99
266 19.32 58.28 28.78 87.40 62.86
267 19.33 42.64 27.68 73.31 80.15
268 19.19 62.73 29.86 79.29 71.18
269 19.41 53.47 29.49 93.07 71.52
270 19.39 69.79 28.56 62.75 64.64
271 19.44 30.23 23.16 40.51 87.32
272 19.70 21.41 20.01 30.07 74.19
273 19.72 72.60 28.53 50.15 66.60
274 19.78 35.33 23.92 46.05 101.16
275 19.78 60.17 30.24 82.14 70.83
276 19.85 44.91 28.64 78.40 86.23
277 20.07 76.96 17.92 30.79 42.25
278 19.67 61.57 26.62 86.25 57.42
279 19.91 55.72 28.62 85.85 68.81
280 20.05 64.91 31.41 73.81 70.66
281 20.11 40.22 27.46 59.92 90.99
282 20.17 47.09 31.43 85.20 85.50
283 20.10 25.68 21.63 34.93 94.38
284 19.93 49.19 31.96 92.29 78.66
285 19.90 67.08 31.08 64.01 72.59
286 20.15 37.69 29.31 52.89 100.52
287 20.17 74.63 29.58 40.65 65.10
288 20.19 32.70 25.75 43.48 105.61
289 20.30 51.63 31.49 90.36 80.91
290 20.34 28.66 24.47 38.20 97.87
291 20.08 50.26 26.50 104.25 54.00
292 20.49 58.66 32.90 77.60 76.77
293 20.50 42.43 28.90 69.38 98.67
294 20.73 19.77 18.20 29.88 76.37
295 20.73 54.05 32.81 87.67 80.39
296 20.64 68.76 33.49 61.25 70.05
297 20.80 23.31 20.99 36.27 91.86
298 20.77 62.94 34.65 70.69 80.37
299 20.62 71.47 29.93 48.64 71.16
300 20.80 56.50 35.53 84.74 84.23
301 20.84 60.85 33.49 77.82 81.64
302 20.94 35.35 27.96 46.78 102.05
303 21.03 30.72 26.07 40.19 111.74
304 20.97 44.62 32.06 69.51 103.80
305 20.95 49.28 32.54 87.60 84.88
306 21.12 75.81 26.06 36.21 62.59
307 21.19 26.73 26.25 38.38 109.58
308 21.19 38.23 27.89 46.74 101.06
309 21.06 67.20 38.00 65.45 82.26
310 21.36 73.29 37.88 44.71 78.24
311 21.36 64.90 38.19 68.97 85.05
312 21.32 51.99 35.41 87.20 93.58
313 21.42 32.91 26.26 43.08 116.11
314 21.50 40.44 31.33 55.27 105.71
315 21.38 47.02 35.15 81.49 105.53
316 21.36 71.22 37.51 51.87 73.81
317 21.49 78.39 21.57 25.53 43.92
318 21.66 58.32 39.92 77.95 92.13
319 21.76 21.80 23.47 32.34 104.04
320 21.77 42.66 34.20 63.64 107.28
321 21.77 28.93 26.71 39.83 110.13
322 21.93 24.95 25.70 36.28 111.91
323 21.89 56.12 38.47 84.17 90.70
324 21.97 19.02 19.30 30.45 79.55
325 21.97 50.04 37.30 87.00 99.08
326 21.85 60.70 41.01 70.19 89.36
327 21.97 54.07 37.52 78.88 95.82
328 22.07 36.42 30.88 44.11 122.51
329 22.05 69.28 41.34 51.54 79.84
330 22.04 45.16 37.29 65.66 103.84
331 22.11 62.91 41.56 61.81 87.19
332 22.23 74.89 39.72 40.20 82.64
333 22.40 34.18 30.00 41.82 127.54
334 22.39 48.14 37.52 74.77 102.02
335 22.34 38.71 36.15 47.68 119.08
336 22.46 31.50 28.03 41.22 121.24
337 22.41 51.81 43.35 81.71 110.36
338 22.50 71.24 40.60 48.42 79.25
339 22.48 77.54 34.61 29.43 82.07
340 22.49 67.14 45.87 54.87 89.29
341 22.65 79.69 26.73 25.59 51.77
342 22.60 16.65 17.46 26.55 71.67
343 22.73 41.58 38.19 55.75 118.30
344 22.81 64.68 45.29 60.98 92.16
345 22.79 57.65 43.67 74.41 98.29
346 22.79 59.78 43.32 64.26 93.01
347 22.89 22.97 27.23 35.94 109.94
348 23.01 26.09 29.51 41.33 113.63
349 22.81 28.50 29.04 39.02 118.16
350 22.99 43.95 36.56 59.91 117.76
351 23.18 73.36 46.61 41.39 87.71
352 23.10 20.63 23.71 34.28 97.12
353 23.04 46.35 40.79 65.59 117.78
354 23.02 53.56 46.74 80.04 105.68
355 23.16 55.73 49.88 80.74 105.77
356 23.28 39.84 38.61 48.16 131.14
357 23.29 35.77 32.05 44.37 131.81
358 23.26 50.50 42.37 70.09 118.36
359 23.02 69.48 46.05 51.57 81.43
360 23.32 61.86 49.98 59.70 96.53
361 23.44 68.77 47.59 49.08 87.62
362 23.50 18.25 24.74 31.39 96.09
363 23.58 37.77 40.38 45.33 146.40
364 23.54 33.40 37.47 43.78 138.30
365 23.56 31.06 31.62 42.50 130.09
366 23.65 48.70 46.55 64.96 125.68
367 23.71 78.14 49.91 29.40 81.33
368 23.88 75.81 55.45 34.37 91.66
369 23.71 66.37 48.96 53.71 90.60
370 23.83 42.53 44.03 51.14 132.50
371 23.85 59.11 53.58 62.77 110.58
372 24.03 70.87 53.78 44.41 94.54
373 24.10 80.32 43.29 24.99 65.04
374 23.94 28.67 31.95 36.95 134.76
375 23.97 52.23 51.04 66.39 113.50
376 24.00 23.91 29.56 34.35 112.66
377 24.07 46.77 46.38 60.47 133.42
378 24.13 54.49 53.67 76.00 117.16
379 24.13 63.57 54.02 51.35 101.59
380 24.14 26.39 30.54 39.33 131.21
381 24.22 44.67 46.04 59.29 135.49
382 24.23 56.98 49.48 68.67 106.52
383 24.27 20.78 27.84 34.91 108.79
384 24.36 40.78 44.49 47.76 138.46
385 24.35 73.30 62.53 37.14 98.00
386 24.43 34.75 36.02 42.23 142.17
387 24.51 61.09 58.87 54.85 104.63
388 24.66 17.51 28.00 32.39 99.45
389 24.65 38.75 40.42 46.33 141.13
390 24.59 50.09 57.13 64.79 119.40
391 24.62 68.22 66.24 47.80 96.86
392 24.82 36.72 42.12 45.26 144.23
393 24.69 30.53 34.49 40.33 137.25
394 24.82 65.67 62.58 52.84 102.85
395 25.01 32.66 38.77 41.77 140.63
396 24.92 77.88 69.73 28.39 94.70
397 25.01 14.76 23.88 27.25 84.32
398 24.98 42.86 51.46 49.44 151.78
399 25.06 47.53 56.27 55.69 139.31
400 25.03 58.78 62.12 55.28 112.88
401 25.12 22.68 31.88 36.16 111.84
402 25.06 52.45 62.51 64.46 124.01
403 25.17 28.35 36.45 40.32 140.69
404 25.11 55.11 65.13 64.58 126.25
405 25.25 75.03 79.02 35.37 110.06
406 25.26 25.53 33.54 38.27 122.09
407 25.37 45.37 58.54 55.38 147.67
408 25.36 62.99 67.66 49.44 108.83
409 25.39 72.39 75.23 38.51 105.44
410 25.52 19.55 32.37 34.34 114.86
411 25.46 70.13 75.68 38.24 105.06
412 25.46 40.63 50.65 45.90 151.99
413 25.59 34.81 42.96 44.52 152.93
414 25.65 56.84 68.26 57.59 131.32
415 25.64 80.18 76.55 26.70 89.30
416 25.65 49.25 66.41 57.16 135.89
417 25.65 60.52 76.61 52.88 118.54
418 25.83 38.54 49.91 45.71 150.40
419 25.83 67.96 84.57 48.36 110.60
420 25.84 30.68 40.15 41.28 146.69
421 25.81 65.55 82.60 48.70 113.25
422 26.03 43.33 63.58 52.05 157.27
423 25.99 51.46 75.30 59.93 134.70
424 26.15 36.70 50.76 44.26 150.29
425 26.04 53.92 80.11 57.74 140.33
426 26.04 76.87 85.86 31.35 105.11
427 26.16 27.46 40.07 39.77 137.48
428 26.20 23.81 37.76 37.33 126.71
429 26.41 21.27 38.15 37.12 115.44
430 26.26 32.99 44.14 43.15 153.78
431 26.34 58.60 72.68 48.25 126.21
432 26.46 41.17 69.76 47.45 161.54
433 26.46 45.41 77.53 50.33 154.44
434 26.62 47.45 80.55 53.37 149.22
435 26.44 72.73 93.75 37.37 118.78
436 26.59 63.71 97.91 47.51 127.72
437 26.57 61.40 88.80 48.26 125.52
438 26.67 81.84 73.46 25.66 76.73
439 26.65 55.77 86.65 48.78 141.22
440 26.88 74.50 95.51 35.86 113.50
441 26.74 78.98 87.87 28.48 101.65
442 26.69 49.74 79.27 51.67 146.27
443 26.73 70.61 93.35 37.05 113.30
444 26.82 18.86 37.74 35.41 110.92
445 26.82 29.45 46.24 39.82 143.18
446 26.87 35.28 54.33 43.71 167.01
447 26.91 25.90 43.52 42.07 134.97
448 27.02 15.56 36.86 31.53 102.32
449 26.92 52.57 95.47 53.01 146.37
450 26.87 66.02 102.34 45.74 122.62
451 26.94 38.72 65.24 44.20 155.17
452 27.05 68.23 104.22 44.42 120.49
453 27.17 31.58 45.78 41.47 151.41
454 27.14 43.15 91.54 52.03 163.84
455 27.31 76.53 107.00 33.73 111.03
456 27.39 23.30 45.23 39.06 131.08
457 27.37 57.30 102.45 48.21 146.48
458 27.45 33.63 57.10 43.76 162.17
459 27.38 59.62 98.00 47.27 136.89
460 27.53 13.22 36.07 28.97 87.18
461 27.53 40.90 84.97 45.18 160.53
462 27.60 54.21 105.23 49.17 149.31
463 27.54 45.60 99.42 48.31 154.09
464 27.54 62.37 109.16 46.66 124.83
465 27.69 36.80 70.16 44.32 170.51
466 27.60 50.79 99.69 53.93 154.17
467 27.70 80.68 87.43 26.10 99.89
468 27.76 28.07 53.69 40.06 149.10
469 27.71 48.49 110.24 53.86 165.73
470 27.82 17.72 48.02 34.46 113.56
471 27.78 71.96 99.23 37.32 115.61
472 27.89 21.26 49.91 38.66 122.77
473 27.87 65.25 118.94 40.66 127.98
474 27.98 25.62 53.80 38.68 137.52
475 28.02 69.66 103.92 38.32 118.79
476 28.06 38.81 89.26 48.36 175.65
477 28.24 82.80 78.36 24.59 88.34
478 28.07 30.39 61.64 41.54 155.96
479 28.12 78.52 99.55 29.30 114.93
480 28.18 43.53 117.72 49.96 163.89
481 28.26 55.77 109.26 46.55 152.88
482 28.35 52.17 118.24 47.81 152.80
483 28.32 67.51 117.68 38.25 121.88
484 28.35 15.64 56.29 32.08 112.01
485 28.43 35.12 79.16 42.61 172.57
486 28.38 60.89 109.30 46.66 132.86
487 28.44 58.54 112.58 48.21 147.46
488 28.40 75.81 111.16 33.66 116.54
489 28.40 32.91 71.70 43.80 170.86
490 28.44 47.07 112.83 52.29 168.29
491 28.55 73.42 106.05 36.09 114.66
492 28.51 63.44 115.16 44.72 122.52
493 28.71 23.59 61.90 39.58 131.63
494 28.54 41.13 112.27 46.44 169.47
495 28.73 49.62 131.13 48.46 156.02
496 28.87 19.03 57.01 36.85 117.75
497 28.92 45.23 132.12 45.81 173.70
498 28.92 28.97 80.07 42.00 158.64
499 28.95 36.85 102.49 44.67 179.12
500 29.09 13.84 61.05 31.12 105.32
501 28.92 26.57 72.28 38.79 140.99
502 28.97 53.80 130.33 50.13 162.36
503 29.02 80.42 95.75 28.57 93.37
504 29.07 31.25 86.93 43.28 178.22
505 29.08 70.80 110.01 37.31 114.98
506 29.12 39.16 129.14 49.23 188.08
507 29.08 56.79 136.98 48.38 158.62
508 29.01 20.83 67.28 38.41 131.79
509 29.16 65.83 128.02 42.22 129.41
510 29.27 43.22 137.72 48.66 173.75
511 29.24 77.75 108.82 31.27 105.12
512 29.36 11.09 51.30 25.86 73.23
513 29.36 21.99 65.13 40.04 135.07
514 29.40 60.22 130.97 45.41 136.82
515 29.41 33.58 100.95 44.59 179.28
516 29.50 68.22 112.54 39.37 123.02
517 29.48 16.89 70.64 34.66 114.35
518 29.47 51.56 142.66 49.51 167.86
519 29.50 62.28 127.13 44.42 128.18
520 29.53 83.10 80.84 24.23 80.79
521 29.53 47.21 139.32 51.02 168.51
522 29.54 74.68 110.42 34.64 116.16
523 29.61 41.14 131.60 48.03 179.88
524 29.77 55.27 143.10 47.18 165.39
525 29.82 24.30 96.93 40.60 147.92
526 29.77 58.20 134.19 46.43 143.75
527 29.87 64.15 129.79 43.79 129.97
528 29.85 49.29 145.17 47.84 171.68
529 29.97 35.47 127.82 48.02 178.35
530 29.92 85.54 50.93 20.77 45.66
531 29.93 37.88 145.16 48.73 181.70
532 29.90 26.80 96.61 39.82 153.70
533 29.96 29.22 103.61 40.99 164.24
534 30.08 72.39 107.12 34.90 113.52
535 30.08 20.36 76.64 38.02 131.34
536 30.08 44.90 151.91 48.49 176.65
537 30.15 31.44 109.31 44.70 172.98
538 30.29 81.00 100.14 28.88 89.37
539 30.27 53.38 141.01 48.11 160.54
540 30.24 69.97 115.06 37.95 116.30
541 30.42 12.47 77.26 31.20 97.52
542 30.35 78.19 110.03 34.35 95.98
543 30.40 15.02 82.55 33.58 114.97
544 30.41 65.88 120.85 42.84 124.05
545 30.46 39.96 154.67 49.72 191.29
546 30.43 42.68 155.90 48.07 183.78
547 30.56 17.82 87.62 36.06 122.31
548 30.63 33.30 124.76 46.01 176.48
549 30.46 60.10 143.28 45.93 137.39
550 30.73 46.47 147.44 48.79 171.69
551 30.60 51.04 151.11 47.45 174.96
552 30.62 75.29 103.75 33.38 99.26
553 30.72 22.99 105.58 39.97 140.52
554 30.66 57.10 144.01 47.61 146.15
555 30.77 62.75 130.95 44.34 123.98
556 30.82 67.76 115.16 39.62 110.29
557 30.84 36.97 156.30 49.72 186.81
558 30.80 83.87 73.85 24.36 68.49
559 30.90 25.94 124.24 42.20 157.18
560 30.83 48.46 144.15 48.49 176.78
561 30.95 28.58 115.46 42.49 153.96
562 31.06 54.98 140.05 49.86 143.53
563 31.19 20.45 102.16 38.66 134.39
564 31.31 35.11 148.04 46.45 190.09
565 31.20 70.89 109.19 37.88 111.78
566 31.26 30.88 131.56 44.30 170.39
567 31.30 38.85 149.15 49.97 182.66
568 31.26 44.32 157.19 49.28 182.54
569 31.31 41.72 152.86 47.23 179.78
570 31.36 73.26 109.26 35.32 103.99
571 31.36 52.61 136.06 47.05 155.15
572 31.37 58.98 141.48 48.71 140.52
573 31.39 10.96 80.68 30.47 78.66
574 31.52 80.46 93.96 30.03 79.48
575 31.50 61.11 138.06 45.70 129.90
576 31.47 64.93 122.00 44.03 114.53
577 31.49 77.89 102.73 31.82 86.10
578 31.62 15.23 98.95 35.04 118.18
579 31.59 49.86 144.99 48.11 168.42
580 31.83 82.88 76.62 27.97 67.24
581 31.66 17.84 99.33 36.15 125.21
582 31.76 32.98 144.11 46.29 179.47
583 31.80 68.43 111.16 39.41 109.70
584 31.86 22.70 130.03 40.96 146.24
585 31.86 47.56 149.82 48.61 160.61
586 31.87 57.23 135.25 50.38 129.18
587 31.91 75.51 111.87 34.56 93.25
588 31.91 25.17 130.47 41.96 156.63
589 31.91 27.87 134.34 42.90 162.70
590 31.93 37.09 153.94 51.53 183.33
591 32.23 13.07 93.22 30.93 109.58
592 32.00 40.39 149.96 47.21 181.67
593 32.09 62.75 129.92 41.06 121.17
594 32.17 45.42 150.03 48.14 180.34
595 32.09 54.90 139.46 47.63 140.86
596 32.28 30.26 129.90 44.51 170.43
597 32.22 43.09 146.22 48.96 166.66
598 32.24 51.22 141.26 50.30 155.57
599 32.26 66.44 111.86 41.22 108.52
600 32.25 70.44 100.11 37.28 99.68
601 32.35 20.08 108.54 36.68 128.94
602 32.45 86.01 51.52 22.19 42.60
603 32.49 34.66 138.09 45.30 172.18
604 32.50 59.61 129.37 46.55 124.92
605 32.54 73.27 99.78 38.04 89.56
606 32.63 52.95 139.83 49.70 123.69
607 32.64 77.86 93.39 34.36 71.61
608 32.82 81.27 85.52 29.67 65.81
609 32.84 39.36 137.14 48.46 180.11
610 32.84 49.14 136.37 49.01 158.38
611 32.86 17.70 93.30 37.60 123.21
612 32.89 26.80 130.80 41.60 154.34
613 32.81 32.41 128.24 45.80 164.64
614 32.84 64.36 119.20 42.71 95.65
615 32.83 56.75 128.41 46.39 131.61
616 33.00 83.78 72.18 27.15 54.51
617 32.83 37.08 135.16 44.39 179.18
618 32.97 41.58 134.23 49.49 172.66
619 32.98 46.93 136.26 49.67 161.47
620 33.06 15.13 96.48 37.75 114.78
621 33.02 24.28 128.45 43.78 148.30
622 33.02 21.97 123.74 40.44 139.51
623 33.09 10.66 75.78 30.72 89.10
624 33.07 61.97 122.11 43.67 110.41
625 33.23 76.07 98.82 32.85 77.92
626 33.22 28.86 117.76 45.19 162.06
627 33.30 68.86 99.18 38.13 87.98
628 33.19 71.34 101.08 37.87 85.89
629 33.19 44.24 133.27 49.90 166.89
630 33.21 54.51 138.60 47.94 127.90
631 33.33 66.74 104.22 41.48 86.53
632 33.36 51.05 134.41 47.10 135.17
633 33.48 35.44 126.38 44.41 162.43
634 33.52 58.39 122.24 48.00 117.57
635 33.59 12.82 85.26 31.75 106.81
636 33.26 80.09 86.33 30.33 46.00
637 33.63 30.94 114.01 43.40 151.87
638 33.69 20.08 98.96 38.78 125.23
639 33.67 60.26 120.51 42.46 114.88
640 33.69 38.22 124.42 46.91 170.07
641 33.71 73.68 97.11 37.78 77.12
642 33.74 78.64 91.46 32.93 64.06
643 33.95 85.77 56.41 24.70 36.90
644 33.86 33.46 119.38 44.33 159.67
645 33.83 55.93 122.12 47.84 120.89
646 33.93 64.51 107.67 43.45 82.97
647 33.94 42.09 118.54 50.69 167.18
648 33.93 46.08 123.61 49.26 147.94
649 34.02 48.34 129.47 49.81 136.28
650 33.98 52.92 133.10 49.76 128.22
651 34.04 81.59 78.67 28.63 49.44
652 34.08 17.34 84.58 38.19 111.30
653 33.98 25.92 110.56 40.44 147.50
654 34.11 9.22 60.33 29.86 69.11
655 34.18 22.83 104.44 41.15 133.91
656 34.28 40.15 117.16 46.49 168.64
657 34.23 62.08 118.06 44.79 88.21
658 34.30 43.99 109.41 46.06 151.89
659 34.31 28.90 103.23 46.48 152.54
660 34.30 50.74 129.70 50.17 130.88
661 34.31 71.03 98.22 39.25 76.62
662 34.34 36.44 128.07 45.11 158.78
663 34.65 14.35 79.28 34.33 100.80
664 34.45 75.99 95.41 32.67 62.75
665 34.52 66.57 101.56 40.23 79.31
666 34.56 68.83 103.79 42.54 77.29
667 34.69 88.30 36.48 20.89 19.86
668 34.49 57.37 122.21 46.57 99.51
669 34.65 11.65 72.22 33.00 90.38
670 34.69 31.61 101.05 42.50 141.09
671 34.69 54.46 124.66 46.91 113.45
672 34.85 83.97 76.83 26.60 40.14
673 34.72 59.90 111.49 46.16 88.45
674 34.78 73.38 99.45 36.56 67.61
675 34.88 20.13 86.80 39.92 117.59
676 34.83 78.76 86.18 32.87 50.91
677 34.93 33.75 112.12 48.12 151.68
678 34.89 38.34 112.97 45.12 142.32
679 34.99 24.64 89.94 41.06 134.30
680 35.02 27.12 93.51 42.32 142.95
681 34.91 45.95 114.51 50.54 128.89
682 34.98 63.55 106.70 41.00 75.67
683 34.99 49.26 107.61 47.68 112.37
684 35.12 41.52 108.47 48.11 141.07
685 35.19 52.27 121.28 47.77 98.14
686 35.23 86.70 57.03 23.24 28.79
687 35.16 17.02 80.78 35.48 104.28
688 35.15 81.93 86.54 28.03 45.17
689 35.29 35.77 106.22 44.14 141.17
690 35.37 29.70 88.69 46.92 139.96
691 35.37 43.51 109.75 50.57 129.25
692 35.38 57.83 124.71 48.71 79.43
693 35.47 65.46 108.90 43.49 70.08
694 35.56 22.66 89.60 41.56 119.80
695 35.50 71.23 101.64 39.38 57.05
696 35.58 55.69 126.74 48.36 86.23
697 35.60 61.83 118.26 43.96 70.04
698 35.59 47.58 114.92 51.27 104.61
699 35.62 68.03 108.10 41.48 60.49
700 35.67 76.30 100.15 35.37 49.57
701 35.74 39.76 101.28 49.14 123.41
702 35.60 80.82 82.76 30.30 38.00
703 35.89 31.77 90.40 44.15 128.21
704 35.81 59.78 116.59 46.31 72.36
705 35.86 73.80 101.12 37.61 49.14
706 35.94 12.20 64.50 32.65 76.09
707 36.07 15.08 69.70 35.10 86.98
708 35.88 37.62 95.63 45.20 119.06
709 35.88 45.35 106.16 49.58 99.36
710 35.89 50.07 114.37 50.14 88.65
711 35.93 78.51 91.34 33.52 43.92
712 36.06 20.50 81.12 39.88 105.67
713 35.98 34.01 95.60 41.54 127.12
714 36.03 53.83 130.56 51.11 86.23
715 36.09 17.91 77.38 38.76 95.55
716 36.03 27.64 95.04 41.27 126.26
717 36.02 84.80 70.05 25.64 31.77
718 36.18 25.04 86.80 41.89 118.04
719 36.22 41.69 107.07 49.43 107.94
720 36.24 83.47 74.35 29.34 29.81
721 36.28 63.60 120.99 45.24 61.72
722 36.31 69.99 102.94 40.83 51.49
723 36.36 9.31 53.93 28.78 59.96
724 36.47 87.33 58.08 22.13 21.26
725 36.45 52.11 120.33 50.46 80.97
726 36.39 57.79 124.28 48.74 68.66
727 36.43 66.14 112.13 39.75 52.16
728 36.51 29.68 81.33 45.91 112.80
729 36.53 35.87 94.20 47.42 110.97
730 36.50 80.61 88.22 31.72 39.82
731 36.60 43.56 107.64 51.35 92.29
732 36.60 47.79 107.62 50.90 77.34
733 36.77 55.30 128.68 48.36 70.73
734 36.84 22.41 79.22 39.08 98.94
735 36.79 60.32 118.11 43.41 55.68
736 36.77 38.25 95.33 45.80 102.73
737 36.90 72.60 105.65 38.82 42.10
738 36.85 75.30 105.80 35.16 39.90
739 36.87 32.65 85.68 44.85 103.98
740 36.87 45.73 108.07 45.68 81.37
741 36.87 49.97 113.56 46.36 68.74
742 36.94 68.45 110.46 40.60 47.65
743 36.95 13.76 67.94 35.33 75.94
744 37.02 26.86 81.77 43.87 103.81
745 37.04 78.14 103.03 33.33 36.10
746 37.10 40.14 100.49 48.93 89.45
747 37.17 82.79 80.07 30.23 31.31
748 37.12 18.96 65.13 37.94 86.46
749 37.21 62.25 118.69 43.81 49.25
750 37.49 85.17 76.96 26.07 23.88
751 37.37 11.14 55.65 30.80 59.87
752 37.43 16.41 63.07 36.71 76.08
753 37.49 8.16 41.38 27.96 45.77
754 37.34 24.52 83.19 40.96 92.35
755 37.40 64.46 122.55 44.05 42.61
756 37.41 34.45 89.82 43.91 86.81
757 37.30 57.25 121.27 48.92 51.20
758 37.45 42.14 98.93 49.50 82.12
759 37.42 30.70 84.83 45.92 98.48
760 37.47 66.57 119.96 44.00 40.45
761 37.52 70.68 108.72 38.05 38.88
762 37.31 81.55 84.29 32.00 29.76
763 37.53 52.16 121.87 47.95 60.08
764 37.61 28.53 78.70 42.51 89.85
765 37.70 54.13 129.16 48.97 61.81
766 37.70 87.54 66.04 23.72 16.88
767 37.60 91.33 30.31 17.15 6.23
768 37.66 36.52 87.51 45.25 79.81
769 37.72 44.15 104.97 52.22 66.21
770 37.67 59.15 123.80 45.67 48.38
771 37.80 20.96 65.99 40.76 75.94
772 37.93 48.12 114.77 49.27 53.74
773 37.94 79.93 97.40 32.97 28.31
774 37.90 76.33 106.63 36.60 29.60
775 37.93 46.23 113.22 48.63 59.20
776 37.87 50.03 122.23 48.23 57.63
777 37.99 38.51 90.73 49.41 71.19
778 37.97 74.12 108.95 37.41 32.22
779 38.01 14.12 59.66 36.97 63.48
780 38.06 32.33 83.01 45.54 79.49
781 38.11 68.58 124.28 38.94 37.54
782 38.19 60.81 123.70 48.36 40.79
783 38.15 56.19 128.73 49.75 49.08
784 38.28 40.55 96.77 49.51 68.79
785 38.32 25.08 72.14 42.74 74.84
786 38.37 18.30 62.23 38.55 62.96
787 38.36 63.21 124.43 44.73 38.00
788 38.44 22.72 74.21 38.94 71.09
789 38.44 72.21 115.40 39.03 30.34
790 38.53 82.67 95.52 29.90 24.01
791 38.48 9.99 50.15 34.89 44.43
792 38.54 7.34 36.90 26.70 31.73
793 38.51 27.15 78.37 41.11 73.22
794 38.49 29.80 78.44 41.24 73.24
795 38.52 34.28 83.16 44.81 69.00
796 38.51 66.39 127.24 42.59 34.22
797 38.74 89.42 66.00 24.61 11.46
798 38.71 42.58 107.27 52.32 59.00
799 38.66 58.21 127.25 47.12 41.31
800 38.74 53.09 128.11 52.15 43.98
801 38.75 77.84 113.46 35.75 27.25
802 38.78 12.12 59.66 32.98 49.86
803 38.69 36.45 91.76 49.11 59.74
804 38.75 50.88 127.69 49.79 48.30
805 38.45 84.40 91.00 30.67 18.67
806 38.81 87.18 81.56 24.56 14.88
807 38.92 15.91 60.80 37.08 53.75
808 38.91 44.62 112.84 54.48 53.42
809 38.88 70.00 122.54 39.06 31.74
810 38.98 20.61 68.22 39.13 57.55
811 38.89 85.27 89.00 28.71 19.57
812 38.90 91.18 38.67 21.12 7.06
813 39.03 46.73 122.25 50.65 45.97
814 39.03 55.36 124.40 48.05 42.36
815 39.15 48.90 132.21 52.09 40.88
816 39.12 64.86 132.35 43.20 30.66
817 39.12 38.39 98.65 46.78 51.51
818 39.12 74.98 106.33 37.40 24.64
819 39.15 31.54 83.30 43.76 57.81
820 39.10 61.30 128.31 48.13 32.90
821 39.30 79.86 103.79 32.37 22.72
822 39.14 13.68 54.91 34.78 52.09
823 39.34 23.86 68.91 40.29 54.76
824 39.32 40.64 104.78 52.51 50.39
825 39.38 28.35 81.71 42.62 59.10
826 39.54 67.94 127.92 41.98 28.31
827 39.57 8.70 46.62 31.65 30.50
828 39.65 26.20 78.62 42.54 51.56
829 39.53 33.59 94.25 46.95 56.05
830 39.51 59.24 128.28 47.79 33.04
831 39.65 18.91 64.21 41.00 49.60
832 39.70 35.59 98.07 50.05 48.17
833 39.64 72.36 119.49 39.41 24.79
834 39.70 63.08 135.36 44.78 30.30
835 39.66 51.93 127.21 50.20 37.86
836 39.52 81.05 101.56 31.25 22.06
837 39.85 82.60 99.02 30.50 18.20
838 39.77 11.06 55.63 32.93 36.34
839 39.86 56.90 129.07 46.00 33.22
840 39.80 77.37 102.35 34.91 22.21
841 39.88 85.54 84.55 28.95 15.10
842 39.87 42.77 108.96 52.62 43.82
843 39.97 14.57 59.30 39.86 43.97
844 39.93 70.18 121.78 42.28 27.18
845 40.03 21.85 74.04 40.95 47.78
846 39.99 30.04 82.05 47.55 50.21
847 39.96 54.33 132.85 49.44 34.29
848 39.97 88.88 70.03 24.29 11.18
849 39.90 6.33 32.60 27.57 19.77
850 40.00 45.06 112.48 51.13 41.28
851 40.05 16.68 63.66 39.40 43.27
852 40.10 65.96 131.19 42.23 25.64
853 40.13 37.49 103.39 48.18 42.21
854 40.10 47.29 122.32 52.11 36.56
855 40.17 49.78 128.95 51.72 35.68
856 40.09 13.22 61.51 37.08 35.14
857 40.18 39.70 103.34 48.77 40.63
858 40.30 32.10 90.97 43.75 44.81
859 40.27 74.60 108.23 34.39 23.57
860 40.20 11.97 58.32 33.08 34.24
861 40.38 61.05 138.06 48.86 28.19
862 40.68 90.96 40.28 20.41 7.17
863 40.41 24.43 80.70 44.42 41.89
864 40.51 58.85 122.65 44.05 29.14
865 40.59 79.96 102.99 33.21 19.04
866 40.57 28.18 84.96 41.93 42.30
867 40.64 63.78 136.84 44.42 26.97
868 40.71 52.42 138.62 51.45 30.12
869 40.72 9.50 51.09 30.79 23.17
870 40.66 19.54 71.36 39.70 39.20
871 40.89 87.81 77.81 25.75 11.35
872 40.92 6.78 38.86 27.43 18.03
873 40.81 33.81 101.45 49.13 38.04
874 40.84 41.22 108.95 46.14 35.55
875 40.80 67.64 126.60 39.86 23.70
876 40.86 77.17 109.42 34.31 19.92
877 40.92 72.66 110.03 38.55 20.55
878 40.91 36.03 105.99 48.10 35.11
879 40.95 43.62 114.35 51.52 34.13
880 40.92 55.25 130.62 50.55 30.71
881 40.90 70.15 118.44 39.64 21.69
882 40.95 83.12 98.58 27.97 16.55
883 40.78 84.40 101.63 27.16 14.89
884 41.09 57.30 127.60 48.06 26.79
885 41.12 81.80 100.40 31.83 16.43
886 41.08 13.43 56.24 38.86 28.59
887 41.15 26.23 85.71 45.04 37.20
888 41.11 45.87 118.01 52.41 32.25
889 41.12 85.87 96.77 27.92 11.36
890 41.09 11.63 58.31 32.12 27.77
891 41.16 16.66 70.33 41.20 32.73
892 41.16 48.20 126.56 52.80 29.26
893 41.13 38.49 110.47 51.35 32.28
894 41.07 18.49 65.50 38.85 32.08
895 41.19 30.56 92.15 45.36 35.45
896 41.23 50.51 131.04 48.30 29.69
897 41.16 20.62 76.20 40.80 34.35
898 41.36 65.39 126.24 45.39 21.49
899 41.39 62.33 126.35 44.73 23.49
900 41.47 75.12 100.40 36.83 17.85
901 41.49 23.84 81.52 43.78 32.89
902 41.54 60.11 118.53 45.74 23.79
903 41.66 53.63 138.52 50.23 28.09
904 41.46 21.68 75.83 39.93 34.45
905 41.80 15.15 64.00 41.94 29.03
906 41.73 27.97 87.21 43.04 33.04
907 41.81 32.51 103.69 45.77 31.51
908 41.77 34.73 107.90 46.03 31.60
909 41.80 78.42 103.41 32.71 16.75
910 42.03 92.15 29.99 18.12 4.67
911 41.78 42.04 115.42 50.47 28.62
912 41.89 69.33 112.24 41.66 20.72
913 42.08 84.40 90.72 28.61 13.25
914 41.91 89.52 59.87 22.73 8.11
915 41.89 67.27 117.56 41.35 20.00
916 41.91 71.53 105.80 37.35 17.80
917 41.81 6.55 38.33 30.15 14.91
918 41.98 39.65 110.91 51.03 29.04
919 42.02 58.26 122.23 49.43 23.57
920 42.02 37.05 105.72 50.82 26.97
921 42.10 80.84 88.10 30.48 15.24
922 42.10 9.61 48.69 33.47 20.36
923 42.07 55.95 118.75 48.92 24.10
924 42.18 12.15 58.53 34.56 22.70
925 42.16 19.94 74.22 38.19 27.13
926 42.13 45.61 115.73 49.73 25.81
927 42.20 49.60 117.43 49.81 25.88
928 42.21 51.62 122.53 50.43 26.62
929 42.27 17.68 71.89 37.26 27.35
930 42.24 64.06 113.88 43.22 21.23
931 42.24 73.79 103.08 39.16 17.91
932 42.27 7.59 42.48 28.68 17.70
933 42.27 29.58 90.64 42.70 27.28
934 42.35 47.64 113.71 51.83 26.79
935 42.28 86.87 86.48 26.63 10.66
936 42.39 22.30 80.01 41.72 30.06
937 42.35 25.56 85.33 44.16 29.71
938 42.43 43.61 108.83 49.04 25.48
939 42.33 13.82 63.88 37.35 25.69
940 42.53 62.00 109.54 42.96 21.04
941 42.64 75.95 99.04 34.42 16.36
942 42.74 66.04 109.32 44.18 19.04
943 42.68 5.43 40.82 26.37 11.26
944 42.81 31.18 102.37 46.35 25.49
945 42.72 53.62 117.32 51.64 23.74
946 42.81 60.02 110.03 47.34 20.63
947 42.54 81.58 92.95 28.50 15.27
948 42.95 33.40 96.47 47.55 24.97
949 42.81 35.43 107.43 47.85 24.76
950 43.00 68.19 104.16 41.09 17.59
951 42.90 78.52 100.67 35.61 15.25
952 42.87 82.93 91.48 29.31 13.55
953 42.96 27.60 85.37 47.66 24.66
954 42.95 38.11 102.45 48.53 25.60
955 42.90 40.58 107.42 47.80 25.37
956 42.96 70.68 99.26 38.32 16.84
957 43.02 15.53 63.94 36.96 22.39
958 42.97 89.69 57.56 23.17 7.78
959 43.04 57.82 119.65 49.92 21.33
960 43.10 11.19 55.24 31.97 19.09
961 43.17 23.70 88.76 41.01 26.07
962 43.18 55.55 111.50 47.45 21.10
963 43.16 72.97 94.47 38.00 16.12
964 42.95 6.82 42.89 29.22 13.89
965 43.37 8.23 46.67 31.41 14.71
966 43.32 45.38 106.70 52.70 23.10
967 43.29 51.75 110.14 48.41 23.96
968 43.31 18.85 70.84 37.59 22.78
969 43.34 42.92 100.41 50.03 22.49
970 43.31 49.58 108.11 51.38 22.01
971 43.31 86.97 74.18 25.88 9.24
972 43.25 5.88 40.27 27.47 12.07
973 43.41 47.45 108.39 52.77 24.04
974 43.49 63.26 98.14 43.68 19.72
975 43.60 21.40 81.12 41.82 23.35
976 43.63 81.60 89.35 33.12 13.47
977 43.68 84.41 83.14 28.69 11.56
978 43.62 25.86 92.16 45.51 22.40
979 43.63 29.21 93.40 46.34 25.26
980 43.74 61.11 104.88 49.16 19.25
981 43.72 65.39 101.34 43.30 18.43
982 43.69 76.63 92.12 35.66 14.85
983 43.84 91.53 35.80 20.37 5.80
984 43.73 35.92 94.14 45.97 23.33
985 43.91 13.91 61.31 36.94 18.40
986 43.88 31.71 93.36 51.39 23.61
987 43.84 41.09 104.31 50.77 22.18
988 44.01 74.46 85.91 34.85 14.68
989 43.97 69.19 94.24 38.38 16.38
990 44.03 11.01 57.48 36.15 14.53
991 43.94 38.16 92.40 49.07 21.55
992 43.96 53.38 100.67 48.97 21.79
993 44.04 79.28 87.51 32.56 15.06
994 44.09 89.15 55.52 23.58 7.60
995 44.08 57.03 103.33 46.10 20.69
996 44.09 59.06 110.49 48.37 20.56
997 44.16 16.85 66.94 40.46 19.47
998 44.10 71.28 94.30 38.40 16.47
999 44.20 33.86 94.26 47.65 22.12
1000 44.39 6.55 41.84 30.56 10.91
1001 44.17 44.17 95.80 50.70 22.57
1002 44.36 67.30 90.51 43.50 17.21
1003 44.39 24.03 85.38 43.27 21.27
1004 44.29 50.60 93.06 52.13 21.93
1005 44.46 48.46 96.91 49.55 21.69
1006 44.47 86.97 66.49 27.40 9.54
1007 44.57 19.21 71.07 37.48 19.64
1008 44.50 46.31 94.01 54.01 22.61
1009 44.46 55.14 99.09 51.17 19.09
1010 44.59 26.78 75.90 45.39 20.86
1011 44.62 8.82 54.60 31.76 13.65
1012 44.55 29.27 83.74 47.35 22.64
1013 44.60 39.71 89.49 52.29 21.17
1014 44.68 62.85 103.23 47.96 19.15
1015 44.71 21.80 77.41 40.74 19.51
1016 44.74 42.39 90.62 49.45 20.90
1017 44.72 72.84 89.66 37.40 15.61
1018 44.72 65.09 95.29 41.96 18.49
1019 44.76 36.68 80.19 47.80 20.92
1020 44.74 77.12 82.14 33.77 13.83
1021 44.86 84.87 76.82 26.23 10.06
1022 44.89 52.24 95.30 52.28 20.20
1023 44.90 60.73 93.14 50.07 19.41
1024 44.87 83.04 77.63 33.26 10.59
1025 45.04 13.91 56.61 35.59 15.98
1026 45.01 31.43 86.19 48.33 20.52
1027 45.01 69.67 86.90 43.10 16.84
1028 45.16 90.37 42.64 23.05 6.73
1029 45.03 93.14 20.53 18.67 3.57
1030 45.14 34.43 79.39 48.34 20.20
1031 45.16 58.34 88.99 49.99 18.46
1032 45.35 5.56 36.26 26.79 8.44
1033 45.25 44.30 85.71 48.91 21.37
1034 45.26 74.60 77.87 37.02 14.40
1035 45.30 79.48 79.89 35.18 12.34
1036 45.12 89.18 53.36 25.48 7.60
1037 45.36 56.26 93.34 48.13 19.70
1038 45.39 50.23 88.58 51.98 20.77
1039 45.43 53.99 98.82 54.46 20.12
1040 45.44 17.60 65.10 39.17 16.71
1041 45.46 23.86 71.47 43.10 18.34
1042 45.50 38.54 78.71 48.44 21.12
1043 45.46 40.82 85.73 50.11 19.44
1044 45.53 66.87 87.76 43.37 16.19
1045 45.49 11.58 55.04 35.10 13.04
1046 45.48 28.69 75.74 45.38 19.01
1047 45.69 8.96 46.83 32.30 13.00
1048 45.60 46.39 79.21 51.26 22.11
1049 45.63 48.27 86.05 52.23 21.00
1050 45.65 87.70 62.56 26.47 8.52
1051 45.61 71.70 85.97 37.68 15.82
1052 45.76 26.33 73.45 44.09 18.82
1053 45.70 64.56 88.42 45.59 17.48
1054 45.69 20.49 66.65 41.66 17.10
1055 45.71 77.01 73.00 36.50 14.06
1056 45.78 36.35 75.96 47.87 19.84
1057 45.83 32.75 81.87 48.83 19.99
1058 45.90 62.18 86.50 46.17 18.60
1059 45.89 59.96 86.33 47.16 19.11
1060 45.93 68.71 91.01 44.73 16.00
1061 45.96 82.08 70.85 32.77 11.83
1062 45.97 84.80 69.90 28.02 10.88
1063 46.09 42.54 81.67 50.17 20.61
1064 46.02 51.99 86.58 49.03 19.69
1065 46.07 15.14 59.52 36.54 15.97
1066 46.12 30.44 78.11 47.65 19.59
1067 45.98 91.97 29.42 21.68 5.48
1068 46.12 6.53 34.44 32.35 9.75
1069 46.26 12.76 55.11 37.42 14.87
1070 46.28 44.73 85.24 51.09 20.64
1071 46.31 57.47 89.54 45.99 19.37
1072 46.31 75.25 73.28 34.67 13.76
1073 46.37 89.94 44.80 22.38 6.95
1074 46.35 55.36 97.19 50.38 20.59
1075 46.37 22.67 62.33 43.63 17.12
1076 46.41 34.77 78.19 49.86 18.79
1077 46.41 40.22 74.54 50.67 19.57
1078 46.55 72.99 82.41 38.77 14.38
1079 46.47 28.14 66.66 46.00 18.56
1080 46.45 79.21 77.01 35.80 13.95
1081 46.48 17.65 60.68 37.89 17.06
1082 46.44 49.47 78.70 50.73 20.77
1083 46.50 70.62 88.94 39.16 15.13
1084 46.54 37.89 71.08 49.28 18.90
1085 46.76 24.98 64.21 43.30 17.01
1086 46.68 66.31 87.80 42.14 16.66
1087 46.81 9.95 47.00 31.45 10.83
1088 46.72 46.63 74.29 52.30 20.30
1089 46.72 63.86 84.74 44.17 16.20
1090 46.80 20.21 57.52 39.58 15.93
1091 46.80 53.62 89.46 52.33 19.47
1092 46.79 32.36 73.00 49.49 16.88
1093 46.82 59.44 82.48 44.68 18.71
1094 46.76 86.66 59.20 27.07 9.48
1095 47.00 92.51 29.52 20.13 5.36
1096 46.81 7.23 35.95 28.51 10.92
1097 46.79 8.55 46.22 29.96 10.87
1098 46.98 61.45 78.67 49.00 17.25
1099 47.00 68.65 81.61 39.75 14.49
1100 47.04 77.42 71.71 33.78 13.10
1101 47.10 83.77 64.78 28.60 10.44
1102 47.15 51.68 85.89 49.69 19.70
1103 47.10 81.26 67.67 31.70 11.77
1104 47.05 43.51 78.14 51.36 20.41
1105 47.18 11.80 48.70 33.93 13.23
1106 47.07 30.06 69.43 48.57 19.19
1107 47.00 14.64 50.96 38.12 15.04
1108 47.16 6.13 28.75 29.14 8.43
1109 47.25 36.33 77.74 50.35 18.71
1110 47.14 4.93 25.00 27.96 8.82
1111 47.29 41.40 75.03 51.91 18.97
1112 47.31 27.29 60.01 46.97 17.97
1113 47.35 47.96 77.98 52.64 19.98
1114 47.38 75.05 80.59 40.23 13.40
1115 47.41 90.06 48.71 22.62 6.21
1116 47.42 39.18 74.79 49.00 19.03
1117 47.41 57.66 75.73 49.62 18.84
1118 47.52 22.53 56.38 44.05 16.54
1119 47.43 34.24 67.81 50.07 18.83
1120 47.52 49.88 83.38 51.62 19.41
1121 47.47 55.46 82.16 48.04 18.91
1122 47.49 70.74 83.83 40.83 14.20
1123 47.52 87.97 58.94 28.54 7.87
1124 47.59 17.99 54.51 38.17 16.28
1125 47.34 14.86 54.50 38.25 13.25
1126 47.74 45.31 77.00 54.00 20.85
1127 47.62 62.86 83.01 44.40 16.78
1128 47.65 65.29 81.67 43.90 16.74
1129 47.65 8.10 38.77 30.49 10.36
1130 47.53 30.49 70.94 46.24 18.65
1131 47.84 72.94 87.61 41.20 14.09
1132 47.75 79.19 69.94 33.25 12.45
1133 47.90 32.37 66.60 48.39 18.35
1134 47.90 67.40 82.83 43.45 16.44
1135 47.71 5.65 29.71 28.38 7.67
1136 47.71 15.70 50.33 40.14 13.92
1137 48.04 20.24 51.84 41.35 16.52
1138 47.97 24.76 57.22 42.73 16.74
1139 47.85 86.74 60.18 26.84 10.34
1140 47.95 59.79 77.67 48.43 17.97
1141 47.72 4.58 19.25 29.38 5.75
1142 48.11 10.37 42.41 34.35 11.09
1143 48.00 84.94 65.36 28.74 10.58
1144 48.05 37.51 71.11 50.62 19.79
1145 48.06 53.32 83.38 49.71 18.76
1146 48.11 29.29 62.75 44.48 16.89
1147 48.00 42.96 76.49 50.30 20.85
1148 48.11 13.55 50.65 38.44 12.99
1149 48.15 77.16 71.80 36.62 12.63
1150 48.35 4.80 23.78 29.11 7.89
1151 48.29 47.22 75.97 52.50 18.84
1152 48.01 80.26 67.47 35.53 14.27
1153 48.37 69.35 82.90 40.73 14.44
1154 48.33 81.60 70.96 33.35 10.52
1155 48.24 26.96 64.68 46.89 19.30
1156 48.34 40.16 69.71 50.07 19.13
1157 48.30 35.19 68.76 50.62 17.85
1158 48.26 92.12 33.91 20.25 5.91
1159 48.25 11.81 47.29 37.29 12.48
1160 48.42 57.80 79.71 50.35 18.43
1161 48.48 51.44 84.52 51.65 18.05
1162 48.50 49.33 81.62 50.71 18.35
1163 48.53 61.51 81.92 46.92 18.42
1164 48.53 55.38 87.93 50.64 19.13
1165 48.54 75.03 74.86 39.47 13.52
1166 48.47 90.77 42.41 24.69 7.38
1167 48.74 15.79 45.98 38.69 14.07
1168 48.60 18.18 50.03 40.45 15.58
1169 48.62 63.85 83.12 46.81 16.85
1170 48.66 71.51 83.88 37.93 13.42
1171 48.51 88.94 55.51 25.53 7.44
1172 48.61 96.12 6.91 13.53 1.02
1173 48.52 84.32 65.62 28.77 11.15
1174 48.75 31.08 65.36 48.20 16.92
1175 48.83 65.87 79.04 43.84 15.55
1176 49.00 44.13 78.12 52.80 19.42
1177 48.76 86.61 61.45 28.45 9.38
1178 48.92 41.99 73.99 47.24 18.96
1179 49.04 33.70 64.09 51.39 16.78
1180 48.97 38.41 73.22 52.48 19.85
1181 49.08 79.15 72.36 35.19 12.75
1182 49.04 9.28 38.65 34.66 10.69
1183 49.09 12.94 50.14 39.22 14.97
1184 49.10 93.17 24.14 19.68 4.57
1185 49.06 94.81 13.14 17.96 3.20
1186 49.11 46.08 85.89 52.49 21.85
1187 49.20 73.41 74.14 37.14 13.66
1188 49.19 24.49 55.58 45.60 15.84
1189 49.16 26.76 61.01 44.46 16.25
1190 49.27 20.09 48.90 39.99 15.03
1191 49.23 28.91 62.12 46.99 16.55
1192 49.23 35.64 66.03 51.50 18.12
1193 49.29 59.50 78.22 48.98 17.12
1194 49.32 67.76 81.44 44.85 14.99
1195 49.26 52.78 83.51 53.55 18.64
1196 49.23 5.48 21.79 32.07 8.12
1197 49.31 83.73 65.22 31.54 10.48
1198 49.25 36.81 67.86 54.45 18.69
1199 49.33 57.08 78.80 52.00 19.61
1200 49.34 76.59 67.63 36.23 13.12
1201 49.46 90.75 41.49 23.01 6.65
1202 49.35 48.38 79.96 54.59 19.43
1203 49.54 50.39 83.91 51.93 19.04
1204 49.50 62.18 82.62 45.95 17.30
1205 49.50 70.00 79.58 43.42 15.14
1206 49.30 86.09 58.64 27.71 9.54
1207 49.55 81.30 67.91 31.09 11.49
1208 49.62 40.41 76.22 52.61 18.90
1209 49.58 54.87 78.12 51.35 17.42
1210 49.54 7.50 34.90 34.54 9.26
1211 49.72 88.49 52.96 26.38 8.18
1212 49.86 17.56 46.88 38.54 14.32
1213 49.72 64.42 84.10 48.37 16.80
1214 49.68 31.86 63.14 47.89 16.58
1215 49.74 22.37 49.58 40.81 15.46
1216 49.80 15.10 45.24 36.41 12.37
1217 49.94 10.37 40.39 35.22 11.41
1218 50.07 72.33 77.00 40.96 13.88
1219 49.96 46.96 75.84 56.16 18.93
1220 50.10 38.67 69.27 52.37 18.63
1221 50.04 42.54 71.05 49.60 19.27
1222 49.90 94.47 15.36 20.14 2.95
1223 50.12 74.77 64.39 39.68 13.75
1224 50.12 33.97 66.96 50.00 17.23
1225 50.13 36.61 70.97 49.07 15.91
1226 50.13 44.72 75.79 51.32 19.67
1227 49.91 28.28 63.44 46.11 14.56
1228 50.14 29.88 63.75 49.11 16.34
1229 50.24 85.25 58.74 29.39 9.54
1230 50.30 95.50 11.28 17.23 2.20
1231 50.25 66.34 77.24 45.60 16.08
1232 50.22 8.31 38.35 33.42 9.77
1233 50.20 77.77 64.79 35.58 12.43
1234 50.31 20.24 48.05 42.92 14.75
1235 50.22 25.48 51.43 47.57 15.45
1236 50.20 52.72 75.40 51.63 19.13
1237 50.34 57.11 72.61 49.27 17.24
1238 50.36 61.36 76.76 47.54 17.12
1239 50.38 59.23 79.81 51.56 17.32
1240 50.47 92.31 33.04 22.40 5.51
1241 50.37 27.79 60.95 48.62 15.57
1242 50.47 68.55 75.11 44.15 15.68
1243 50.42 82.75 61.26 33.24 11.61
1244 50.44 4.56 17.87 28.32 7.89
1245 50.55 13.20 39.77 37.87 13.17
1246 50.61 80.28 63.79 35.10 11.81
1247 50.54 48.59 80.32 55.45 18.36
1248 50.69 50.96 77.94 57.18 18.79
1249 50.57 70.70 75.12 43.33 14.28
1250 50.51 54.93 73.64 53.28 18.62
1251 50.34 90.84 39.38 22.69 6.38
1252 50.63 23.91 52.13 45.75 14.79
1253 50.50 15.01 36.78 41.06 14.44
1254 50.71 63.96 70.04 46.76 15.92
1255 50.81 16.30 45.79 40.91 13.62
1256 50.76 40.83 69.32 51.76 17.85
1257 50.80 89.79 44.79 27.24 7.23
1258 51.00 18.35 42.97 41.38 14.99
1259 50.87 87.20 55.48 27.32 8.51
1260 50.95 21.96 49.71 43.82 13.92
1261 50.89 31.06 65.52 47.24 15.45
1262 50.91 35.26 70.30 52.57 17.41
1263 51.03 10.86 41.58 34.89 10.99
1264 50.95 46.39 73.65 57.03 20.00
1265 50.98 76.27 63.27 38.26 12.60
1266 50.96 43.15 71.79 55.10 18.78
1267 50.99 26.90 53.39 48.11 17.15
1268 51.10 38.43 72.12 55.47 17.87
1269 51.03 93.78 22.73 22.98 4.65
1270 51.11 32.92 65.09 50.88 16.14
1271 51.11 7.15 29.48 33.14 9.24
1272 51.21 74.12 63.66 42.82 13.49
1273 51.15 29.18 53.27 52.60 17.27
1274 51.19 53.27 70.23 53.86 18.04
1275 51.11 5.72 21.50 32.00 9.06
1276 51.22 66.67 71.66 46.34 15.51
1277 51.41 57.81 72.86 53.67 18.07
1278 51.43 71.99 69.12 45.95 14.04
1279 51.53 95.17 9.93 19.69 2.76
1280 51.39 49.15 73.22 55.25 19.12
1281 51.44 60.08 74.81 54.38 16.91
1282 51.46 55.45 67.42 54.93 19.00
1283 51.45 62.28 69.01 48.47 16.79
1284 51.59 36.61 63.51 52.02 16.75
1285 51.28 4.72 21.50 29.89 7.44
1286 51.49 69.22 65.90 45.90 15.76
1287 51.49 13.43 35.64 41.00 11.78
1288 51.57 20.38 44.00 46.40 15.28
1289 51.55 44.73 67.89 57.90 18.38
1290 51.65 15.16 41.86 39.93 12.85
1291 51.56 25.25 56.49 47.20 14.29
1292 51.79 91.32 35.61 24.81 5.74
1293 51.49 92.35 28.76 22.16 6.36
1294 51.53 8.39 33.81 35.39 9.00
1295 51.68 40.41 68.56 53.30 18.43
1296 51.87 64.56 69.00 48.86 15.89
1297 51.94 81.12 57.68 38.45 11.81
1298 51.81 34.33 64.57 50.18 17.08
1299 51.89 51.74 69.63 55.21 18.67
1300 51.87 88.88 46.26 28.29 7.27
1301 51.81 4.43 19.10 31.18 7.12
1302 51.85 17.25 46.88 41.20 16.44
1303 52.01 47.40 67.75 58.43 19.18
1304 51.91 31.40 61.29 51.33 16.98
1305 51.99 42.63 64.71 58.42 18.48
1306 52.18 23.14 46.91 49.69 14.41
1307 51.89 84.25 50.49 34.33 10.90
1308 52.20 75.94 59.39 41.83 13.46
1309 52.09 27.38 54.89 49.16 14.96
1310 52.23 7.84 30.90 35.96 8.98
1311 52.04 18.41 35.07 48.86 16.64
1312 52.23 54.13 68.58 57.27 17.95
1313 52.20 96.08 6.95 16.18 1.56
1314 52.10 21.45 36.57 53.10 17.24
1315 52.21 66.72 64.82 46.61 15.88
1316 52.23 49.69 68.87 54.13 18.07
1317 52.32 70.90 64.43 47.09 13.30
1318 52.28 56.70 69.67 57.16 17.76
1319 52.37 73.77 63.39 47.29 13.54
1320 52.34 25.41 47.54 50.44 17.31
1321 52.54 61.30 63.61 56.86 17.43
1322 52.40 38.99 65.29 53.58 18.88
1323 52.43 36.62 60.87 53.82 17.07
1324 52.56 58.92 67.33 58.92 18.16
1325 52.52 6.15 21.55 33.80 8.62
1326 52.43 29.49 53.76 47.68 16.24
1327 52.62 68.64 65.01 49.21 14.19
1328 52.35 92.60 24.30 27.90 5.50
1329 52.61 4.29 16.28 31.72 6.66
1330 52.61 63.18 63.02 56.66 15.34
1331 52.78 83.15 48.49 38.53 11.10
1332 52.47 87.60 47.48 31.79 10.24
1333 52.37 90.83 34.45 24.55 6.91
1334 52.69 9.78 30.23 36.70 10.84
1335 52.73 41.21 60.83 61.49 19.07
1336 52.62 95.02 9.23 19.00 2.97
1337 52.81 33.96 55.90 54.18 17.26
1338 52.71 78.08 55.69 44.70 12.26
1339 52.47 16.50 31.11 45.56 19.00
1340 52.67 17.91 31.82 50.67 16.13
1341 52.89 46.40 60.56 62.53 18.89
1342 52.74 11.73 28.06 41.00 12.79
1343 52.91 15.43 34.72 45.39 13.61
1344 52.77 20.49 37.03 50.16 15.53
1345 52.59 28.34 43.50 55.75 20.00
1346 52.91 31.54 51.42 54.34 17.28
1347 52.97 55.65 72.05 65.48 18.74
1348 52.90 90.21 35.04 29.46 7.83
1349 52.87 93.42 18.56 24.72 4.68
1350 53.04 48.71 60.48 62.15 17.32
1351 52.91 51.32 67.47 58.05 17.97
1352 52.71 88.99 41.17 23.33 8.17
1353 52.97 22.11 41.95 49.68 15.21
1354 53.03 80.70 49.47 41.71 11.75
1355 53.01 13.32 32.93 41.22 14.67
1356 53.02 27.13 46.35 53.62 16.62
1357 52.99 25.64 40.87 56.30 16.17
1358 53.22 72.36 61.15 53.97 13.86
1359 53.34 85.25 46.37 38.99 10.22
1360 53.22 28.60 39.71 56.39 17.49
1361 53.26 53.54 65.47 65.27 19.42
1362 53.33 75.73 51.17 48.95 13.87
1363 53.07 8.28 20.44 35.89 8.89
1364 53.06 38.40 43.36 65.91 21.00
1365 53.20 5.99 23.74 36.03 8.29
1366 53.24 36.28 59.08 56.48 16.82
1367 53.25 39.47 59.77 62.77 19.74
1368 53.39 70.26 61.55 51.13 13.55
1369 53.47 10.15 30.64 39.48 11.16
1370 53.47 57.61 65.02 70.11 18.56
1371 53.42 59.97 61.33 67.92 17.00
1372 53.51 7.31 22.03 38.33 9.44
1373 53.66 37.12 46.26 62.59 19.48
1374 53.56 67.72 61.28 57.82 16.46
1375 53.39 90.82 28.75 31.94 7.19
1376 53.85 94.84 8.58 22.49 2.94
1377 53.59 29.95 49.52 56.36 16.93
1378 53.52 47.27 56.86 68.24 20.43
1379 53.66 41.26 60.68 63.09 19.81
1380 53.82 88.52 40.79 35.16 7.82
1381 53.37 5.09 15.00 42.00 4.00
1382 53.63 63.17 67.77 61.22 17.69
1383 53.71 78.34 47.26 48.76 13.51
1384 53.69 50.38 63.91 68.78 19.09
1385 53.58 86.89 41.32 39.41 8.95
1386 53.72 26.14 44.65 55.37 16.00
1387 53.71 13.19 35.57 45.63 12.20
1388 53.83 92.01 24.40 31.08 6.11
1389 53.77 34.32 52.02 59.67 17.26
1390 53.94 52.48 64.44 64.06 19.19
1391 53.93 55.34 63.07 73.53 18.19
1392 53.75 73.96 55.74 55.50 14.50
1393 53.97 32.39 46.57 63.85 17.35
1394 53.74 39.74 62.47 62.87 18.33
1395 54.03 65.69 57.33 61.40 16.62
1396 53.81 5.20 15.15 34.31 8.08
1397 53.84 30.93 40.80 61.67 16.40
1398 53.94 90.26 30.58 34.54 7.42
1399 54.02 45.83 55.20 67.68 17.64
1400 53.79 56.88 61.80 76.60 20.20
1401 54.05 11.88 25.96 44.11 12.87
1402 54.10 93.47 15.33 28.19 4.58
1403 54.04 47.81 58.76 69.24 17.60
1404 54.17 61.04 55.97 68.97 17.73
1405 54.21 6.23 22.75 35.47 7.64
1406 54.17 27.75 46.95 61.15 17.08
1407 54.36 71.77 59.13 57.18 13.36
1408 54.22 37.85 48.73 65.73 17.94
1409 54.38 69.55 59.01 62.40 14.46
1410 54.40 24.87 35.22 60.96 15.96
1411 54.38 43.61 59.64 67.82 19.40
1412 54.42 49.17 55.94 72.74 18.86
1413 54.48 39.58 53.72 71.63 18.54
1414 54.23 86.98 38.71 40.50 10.50
1415 54.43 96.80 4.65 15.93 0.90
1416 54.45 29.78 35.49 63.60 19.00
1417 54.23 76.82 44.00 59.70 15.40
1418 54.43 20.24 37.83 55.61 13.63
1419 54.61 85.71 42.90 42.24 9.24
1420 54.69 10.13 28.76 44.04 10.70
1421 54.83 63.25 57.99 73.78 17.73
1422 54.56 41.07 60.86 69.00 17.95
1423 54.59 75.84 54.75 56.06 12.12
1424 54.49 91.28 29.45 32.82 5.91
1425 54.70 42.16 54.17 69.78 17.54
1426 54.81 35.35 47.06 66.57 18.74
1427 54.82 51.98 60.60 76.82 20.56
1428 54.69 57.18 59.05 76.67 18.61
1429 54.80 78.62 49.48 51.74 12.55
1430 54.72 17.32 35.51 55.07 15.75
1431 54.98 31.87 48.08 68.33 16.70
1432 54.75 67.55 58.11 63.11 14.94
1433 54.71 53.87 54.85 72.67 18.97
1434 54.68 13.64 35.96 49.42 14.00
1435 54.77 37.02 43.35 70.30 19.07
1436 55.03 84.09 42.20 48.39 11.84
1437 54.87 88.73 40.19 38.92 7.33
1438 54.70 86.84 47.53 42.80 8.47
1439 54.83 12.52 29.17 50.11 13.11
1440 54.96 65.50 61.82 76.40 15.82
1441 55.07 74.03 54.61 64.02 14.04
1442 55.07 22.18 40.50 60.32 14.25
1443 54.99 94.76 8.98 28.02 2.62
1444 55.16 45.43 61.68 76.23 19.32
1445 55.10 55.22 51.76 78.93 19.27
1446 54.87 83.02 51.17 46.83 12.08
1447 55.11 26.28 38.76 63.29 15.04
1448 55.21 18.72 34.00 63.09 15.46
1449 55.24 7.99 26.15 41.37 9.25
1450 55.29 61.27 62.04 81.24 17.39
1451 55.26 38.35 55.49 75.97 17.33
1452 55.46 40.46 54.65 80.36 20.31
1453 55.41 59.24 63.99 86.39 17.94
1454 55.38 20.52 33.83 62.88 14.43
1455 55.36 43.48 61.03 72.98 19.71
1456 55.45 71.36 56.51 68.56 14.45
1457 55.26 50.98 55.71 78.71 21.29
1458 55.38 13.29 31.21 51.98 12.77
1459 55.40 33.42 45.56 72.88 17.04
1460 55.50 68.60 67.50 73.46 14.84
1461 55.54 16.04 38.81 61.88 13.88
1462 55.56 35.37 47.53 74.98 16.71
1463 55.69 53.43 59.55 86.27 18.53
1464 55.69 86.02 48.26 47.82 9.21
1465 55.43 17.01 27.50 62.17 15.67
1466 55.65 57.22 69.95 86.15 18.47
1467 55.83 78.06 53.33 60.54 13.07
1468 56.14 11.16 31.21 52.19 12.45
1469 55.79 27.94 42.82 71.16 16.93
1470 55.86 48.25 62.43 84.72 19.91
1471 55.78 50.23 62.52 84.38 19.10
1472 55.97 25.36 44.79 70.16 16.73
1473 55.86 30.48 47.54 75.78 17.20
1474 55.84 66.44 57.78 81.47 16.23
1475 55.55 87.16 42.00 51.00 10.00
1476 55.75 22.95 37.56 68.37 16.63
1477 56.07 95.93 6.26 24.45 1.45
1478 55.97 63.59 69.78 86.79 15.91
1479 55.92 75.81 57.88 69.11 12.80
1480 56.02 83.75 47.46 52.78 11.60
1481 55.80 38.77 45.60 80.35 18.85
1482 56.26 51.98 60.18 88.10 18.90
1483 56.08 55.45 63.09 87.58 18.10
1484 56.08 46.10 61.14 84.74 18.99
1485 56.14 91.69 24.80 47.39 6.30
1486 55.86 13.43 30.17 52.08 14.92
1487 56.02 18.35 39.17 65.98 15.64
1488 55.95 87.78 37.56 48.06 9.14
1489 55.82 14.86 29.00 64.25 12.25
1490 55.95 33.37 42.56 74.69 20.31
1491 56.23 37.04 52.81 84.69 19.44
1492 56.04 5.23 19.19 43.10 7.84
1493 56.12 42.28 63.29 87.26 19.13
1494 56.20 90.60 28.89 50.30 7.19
1495 56.42 15.16 33.69 59.68 14.61
1496 55.98 35.28 52.33 76.17 18.83
1497 56.32 61.28 63.56 95.33 18.08
1498 56.11 68.65 48.18 80.53 15.94
1499 56.50 80.44 54.49 62.66 12.40
1500 56.23 89.30 40.86 48.14 7.09
1501 56.30 6.62 25.87 47.40 8.34
1502 56.39 23.62 34.29 71.29 17.10
1503 56.49 40.08 59.26 88.79 19.94
1504 56.50 58.79 68.82 100.27 18.96
1505 56.55 28.80 49.95 74.74 17.31
1506 56.43 43.61 64.33 88.04 18.78
1507 56.48 70.06 59.34 83.25 14.09
1508 56.66 72.09 59.05 81.53 15.05
1509 56.61 20.92 40.71 71.96 15.29
1510 56.63 34.53 57.52 89.57 17.92
1511 56.76 87.13 45.17 55.64 9.56
1512 56.73 50.25 64.47 99.64 20.61
1513 56.74 44.45 51.26 94.07 20.26
1514 56.77 67.18 68.98 87.57 15.55
1515 56.93 17.02 44.12 69.85 14.12
1516 57.15 41.74 60.18 90.25 19.22
1517 56.97 38.51 64.90 92.29 17.69
1518 56.96 53.96 67.93 96.07 19.30
1519 56.77 93.32 14.94 39.69 4.88
1520 57.06 4.80 17.29 50.65 7.34
1521 56.74 7.38 24.70 49.80 10.00
1522 57.05 8.90 31.08 55.95 9.87
1523 56.93 26.08 46.06 82.42 15.53
1524 56.83 48.20 65.75 96.68 19.19
1525 56.95 63.08 72.62 93.21 17.41
1526 57.01 82.92 50.43 63.31 11.67
1527 57.16 85.23 52.19 61.28 10.13
1528 57.00 65.23 68.30 92.68 16.56
1529 57.00 56.27 69.67 99.82 19.05
1530 57.02 78.22 60.80 68.80 13.17
1531 57.01 18.43 33.57 69.30 14.57
1532 57.14 23.22 39.93 79.84 15.15
1533 57.31 10.97 32.84 59.02 11.82
1534 57.28 76.29 60.46 78.13 13.57
1535 57.04 88.51 27.88 50.81 9.31
1536 57.25 46.09 60.05 98.62 19.70
1537 57.21 74.18 58.23 77.62 12.86
1538 57.22 95.69 6.90 28.52 1.61
1539 57.06 12.11 33.67 63.89 12.50
1540 57.25 36.19 55.28 93.12 17.74
1541 57.37 30.59 55.30 91.63 17.72
1542 57.39 91.62 25.35 48.99 6.13
1543 57.36 60.73 79.83 105.82 18.57
1544 57.13 94.17 11.08 37.23 4.31
1545 57.36 28.10 54.02 89.04 17.60
1546 57.46 33.95 50.95 95.84 18.58
1547 57.52 69.59 73.98 98.78 15.39
1548 57.51 43.71 59.80 98.96 20.12
1549 57.67 80.86 56.74 70.42 12.48
1550 57.63 13.62 40.53 71.04 13.08
1551 57.57 58.36 78.37 107.45 18.01
1552 57.77 20.84 44.88 83.72 15.72
1553 57.76 71.89 66.22 97.54 15.25
1554 57.68 49.09 67.07 107.14 18.42
1555 57.91 18.57 40.86 85.06 14.52
1556 57.74 67.35 66.64 97.64 14.93
1557 57.88 16.02 48.29 84.12 14.22
1558 57.87 39.90 69.26 100.41 18.73
1559 57.53 77.45 50.83 75.33 12.00
1560 57.99 63.16 76.22 106.78 17.26
1561 58.05 86.65 47.54 64.92 8.23
1562 57.98 37.79 62.57 102.32 19.08
1563 57.81 88.13 43.17 63.75 7.88
1564 58.08 50.66 74.12 110.07 20.25
1565 58.01 65.35 72.01 99.94 15.86
1566 57.76 83.11 63.67 67.50 11.83
1567 58.27 22.94 49.50 92.09 16.26
1568 58.08 83.43 52.43 66.67 11.65
1569 58.19 7.57 34.10 64.25 8.96
1570 58.28 10.53 35.56 71.34 11.94
1571 58.25 35.56 62.28 104.64 18.57
1572 58.15 47.35 62.26 104.02 20.18
1573 57.97 89.67 38.52 54.00 7.09
1574 58.12 78.54 75.00 70.96 12.65
1575 58.19 4.14 18.64 50.52 6.79
1576 58.35 26.40 54.87 96.26 17.34
1577 58.33 28.84 58.82 98.08 18.12
1578 58.33 57.19 80.64 117.97 19.47
1579 58.18 74.29 58.18 88.53 14.50
1580 58.31 42.09 64.48 107.84 19.52
1581 58.23 52.89 66.35 112.24 19.45
1582 58.36 31.29 66.05 97.84 19.11
1583 58.51 45.28 64.21 110.20 20.66
1584 58.40 61.62 72.98 112.14 16.85
1585 58.13 5.12 24.50 58.75 9.75
1586 58.50 76.74 65.43 87.12 13.84
1587 58.30 90.68 30.35 52.94 7.06
1588 58.40 96.00 7.47 29.47 0.88
1589 58.50 33.62 57.85 102.74 16.63
1590 58.47 59.57 77.31 114.12 19.58
1591 58.55 79.84 62.47 77.82 12.58
1592 58.29 88.62 40.33 63.56 7.44
1593 58.58 92.07 27.55 53.35 5.42
1594 58.55 69.23 66.06 106.74 15.81
1595 58.59 5.61 21.49 60.78 7.62
1596 58.74 13.50 37.65 79.22 12.80
1597 58.83 49.39 72.38 116.70 19.40
1598 58.85 66.86 75.27 109.10 16.29
1599 58.96 72.45 75.58 101.65 14.89
1600 58.70 82.29 51.63 78.80 12.03
1601 58.94 16.41 40.97 90.69 14.25
1602 58.90 19.42 47.55 101.81 15.50
1603 58.92 37.86 58.89 111.93 19.83
1604 58.94 86.09 52.61 69.01 8.74
1605 58.97 40.49 67.41 117.90 19.04
1606 58.79 88.11 49.47 65.40 8.47
1607 59.12 21.69 47.30 102.14 16.46
1608 59.14 24.52 51.41 105.26 16.92
1609 59.20 64.69 85.81 117.49 17.10
1610 59.09 43.50 67.51 120.90 19.81
1611 59.19 29.93 61.75 110.49 18.49
1612 59.19 47.52 71.68 120.12 21.25
1613 59.25 55.45 79.09 126.16 18.71
1614 59.28 51.61 83.45 127.10 19.42
1615 59.27 62.72 80.45 123.92 17.17
1616 59.13 74.83 62.59 90.41 14.61
1617 59.18 90.36 39.73 63.58 6.00
1618 59.19 7.12 27.89 72.60 9.47
1619 59.46 9.06 32.91 79.62 9.82
1620 59.28 27.07 57.54 111.02 18.01
1621 59.33 32.57 60.44 111.25 18.86
1622 59.20 53.32 76.07 122.17 20.39
1623 59.38 83.95 53.49 78.40 11.43
1624 59.20 89.04 39.89 66.37 8.17
1625 59.33 10.27 39.21 82.36 11.43
1626 59.34 57.94 83.90 130.76 18.29
1627 59.34 78.93 70.33 91.00 13.61
1628 59.27 11.66 39.40 87.12 12.68
1629 59.40 35.23 63.43 118.46 19.23
1630 59.37 60.06 85.92 126.30 18.27
1631 59.41 70.12 77.34 111.03 14.97
1632 59.33 87.61 43.52 70.52 8.87
1633 59.80 45.96 74.33 124.91 20.91
1634 59.79 76.67 73.23 101.85 13.52
1635 59.67 91.87 25.69 62.04 5.85
1636 59.86 15.34 41.32 94.78 15.98
1637 59.66 67.99 79.25 112.33 15.69
1638 59.82 50.17 78.16 132.83 19.72
1639 59.86 39.49 64.98 122.44 20.49
1640 59.83 37.43 65.78 124.63 19.89
1641 60.03 17.88 44.07 102.49 15.20
1642 59.97 20.12 44.12 114.27 16.25
1643 60.04 22.74 53.65 115.71 16.71
1644 60.10 81.34 70.04 86.81 12.86
1645 60.25 12.78 42.50 99.00 13.99
1646 60.06 25.35 55.44 118.08 17.42
1647 59.99 28.70 54.84 124.79 17.65
1648 60.05 71.94 83.06 111.72 15.37
1649 60.09 31.22 60.18 118.87 19.12
1650 60.05 43.81 73.82 134.55 19.20
1651 59.93 89.35 46.43 76.29 7.95
1652 60.21 87.59 48.72 75.52 7.97
1653 60.11 53.49 87.86 141.88 20.68
1654 60.19 66.02 86.43 125.50 16.12
1655 60.30 48.15 72.47 132.20 20.84
1656 60.23 61.50 85.24 127.87 17.56
1657 60.20 58.58 85.58 135.45 19.86
1658 60.32 74.60 77.11 103.85 14.20
1659 60.24 33.74 59.65 121.73 18.16
1660 60.42 63.72 85.44 130.71 18.06
1661 60.34 85.53 53.84 78.67 10.33
1662 60.27 55.94 95.47 140.85 19.62
1663 60.15 68.40 76.93 116.86 16.79
1664 60.40 79.17 72.56 101.30 13.20
1665 60.27 83.91 54.75 81.22 10.65
1666 60.36 90.41 37.91 75.21 6.75
1667 60.26 3.72 18.08 63.50 4.75
1668 60.34 5.72 26.92 72.59 8.97
1669 60.49 7.91 36.26 85.86 9.53
1670 60.50 35.81 64.42 127.87 20.47
1671 60.46 1.54 5.60 35.80 0.63
1672 60.58 69.53 79.50 121.93 16.03
1673 60.65 51.89 84.50 145.18 23.54
1674 60.77 27.03 58.77 135.60 17.08
1675 60.72 40.33 67.85 133.31 20.72
1676 60.82 37.86 68.22 132.18 20.09
1677 60.81 42.53 71.02 144.34 21.00
1678 60.91 77.04 77.94 111.35 13.60
1679 60.87 29.92 57.83 130.90 19.09
1680 60.83 45.24 75.51 136.73 21.32
1681 60.73 3.73 16.52 67.45 4.52
1682 60.91 23.80 53.11 119.26 16.71
1683 60.88 50.05 77.57 139.63 20.89
1684 61.02 14.46 45.85 107.76 14.47
1685 60.97 59.89 88.20 135.04 18.21
1686 61.06 82.55 66.80 89.75 11.32
1687 61.01 32.38 66.03 133.67 18.84
1688 61.18 16.83 47.68 109.75 15.63
1689 61.01 54.68 84.47 144.39 20.52
1690 60.98 57.36 88.41 147.57 20.05
1691 61.00 72.87 78.29 114.33 15.05
1692 61.01 18.78 54.42 110.85 15.90
1693 61.09 5.24 25.73 76.79 8.52
1694 61.01 92.05 28.63 76.81 6.46
1695 61.24 67.86 78.84 131.61 16.19
1696 61.23 65.54 90.26 137.36 17.57
1697 61.27 47.19 80.77 145.78 20.39
1698 61.11 3.11 12.64 60.36 3.07
1699 61.36 62.74 86.75 145.20 17.38
1700 61.39 70.77 73.92 119.83 15.26
1701 61.19 84.92 55.60 85.88 11.09
1702 61.25 6.94 31.00 85.70 9.33
1703 61.31 34.57 60.20 137.24 20.06
1704 61.30 8.40 33.48 90.39 11.15
1705 61.54 86.24 52.26 84.51 9.83
1706 61.37 93.55 15.95 61.75 3.82
1707 61.59 75.02 72.57 111.26 13.79
1708 61.61 25.44 64.23 133.61 17.22
1709 61.56 79.52 70.57 104.79 12.61
1710 61.46 89.29 41.64 82.88 7.20
1711 61.66 28.71 69.31 140.54 19.60
1712 61.61 41.12 69.37 147.68 20.89
1713 61.67 43.59 67.54 144.18 21.52
1714 61.56 52.75 88.24 145.38 20.65
1715 61.75 36.72 62.01 138.96 20.08
1716 61.76 38.94 67.24 146.14 20.93
1717 61.79 11.20 45.12 101.22 13.42
1718 61.67 60.93 90.44 139.38 18.15
1719 61.71 12.54 40.15 100.85 14.30
1720 61.78 49.05 86.36 150.09 21.50
1721 61.89 22.78 56.26 130.51 19.30
1722 61.95 30.68 67.61 145.81 19.81
1723 61.85 58.16 93.64 151.49 21.03
1724 62.00 45.71 75.53 156.40 21.58
1725 61.91 55.81 88.90 149.96 20.79
1726 62.13 77.13 66.47 112.30 12.83
1727 61.98 91.57 27.21 78.55 5.79
1728 62.22 5.26 23.94 83.87 7.67
1729 61.94 7.87 34.29 91.71 9.81
1730 62.26 20.46 52.64 125.43 18.86
1731 62.06 32.67 63.87 141.86 20.30
1732 62.05 64.35 76.90 149.29 17.69
1733 62.18 84.41 57.51 89.55 10.00
1734 62.11 14.42 46.56 110.43 16.35
1735 62.30 50.98 87.93 158.09 22.92
1736 62.24 73.10 70.46 122.30 14.67
1737 62.18 82.14 63.77 102.47 12.00
1738 62.03 87.12 49.06 85.58 8.48
1739 62.31 18.03 45.27 114.56 17.24
1740 62.27 27.20 66.55 143.41 17.83
1741 62.20 66.67 79.82 143.17 18.11
1742 62.34 68.91 77.13 140.05 15.40
1743 62.25 93.87 13.53 58.12 2.61
1744 62.38 35.01 65.10 147.67 20.86
1745 62.44 47.43 76.03 158.06 20.60
1746 62.42 70.87 74.19 136.89 16.98
1747 62.32 6.68 27.65 93.59 9.24
1748 62.46 41.44 75.11 156.86 20.84
1749 62.47 53.38 93.38 161.95 22.69
1750 62.48 59.94 84.63 152.65 20.04
1751 62.54 62.21 86.01 151.23 20.05
1752 62.75 9.36 41.84 94.29 11.96
1753 62.65 24.52 65.44 132.65 18.77
1754 62.64 79.76 63.75 103.14 13.68
1755 62.72 13.31 42.22 108.41 15.47
1756 62.73 39.27 68.94 154.70 22.89
1757 62.79 43.41 72.20 156.85 21.79
1758 62.92 89.63 41.22 88.05 7.14
1759 62.72 11.26 48.13 102.04 14.50
1760 62.94 75.11 66.12 121.57 14.27
1761 62.87 37.16 76.25 148.24 22.41
1762 62.89 55.30 91.24 155.81 21.12
1763 62.98 16.17 54.23 119.42 16.63
1764 62.93 49.15 84.03 157.77 22.06
1765 63.01 87.07 50.49 98.51 9.18
1766 62.95 57.75 85.20 155.31 20.89
1767 63.08 6.76 35.32 90.33 10.80
1768 63.10 28.73 63.17 137.32 19.79
1769 63.04 91.61 30.33 86.23 5.89
1770 63.07 30.89 64.83 153.42 20.45
1771 63.06 45.45 76.56 162.47 22.29
1772 62.97 64.72 78.15 150.08 18.56
1773 63.14 22.42 56.35 136.94 19.41
1774 63.06 33.33 67.73 155.75 21.58
1775 63.03 3.72 11.81 65.76 3.05
1776 63.12 77.61 59.55 113.41 14.31
1777 63.33 84.34 59.20 102.62 11.41
1778 63.23 26.38 60.17 138.71 20.01
1779 63.24 67.15 73.93 146.43 17.68
1780 63.29 72.25 71.57 138.27 16.20
1781 63.28 81.84 59.40 109.35 12.26
1782 63.31 93.34 16.39 66.98 3.02
1783 63.27 18.99 54.55 120.90 17.63
1784 63.34 52.66 92.75 166.93 22.32
1785 63.46 69.67 82.51 139.90 16.09
1786 63.45 60.57 83.87 152.63 21.49
1787 63.46 41.00 70.69 153.77 20.82
1788 63.58 35.45 73.07 161.30 24.28
1789 63.65 47.02 78.45 159.76 21.01
1790 63.65 50.51 85.33 153.93 23.01
1791 63.65 62.91 80.58 156.99 18.51
1792 63.84 20.67 55.08 124.98 19.03
1793 63.75 11.41 52.95 104.46 15.68
1794 63.50 14.77 56.00 121.20 17.07
1795 63.73 38.22 72.14 152.94 23.65
1796 63.66 17.97 54.72 121.25 18.58
1797 63.81 4.80 21.84 80.48 7.34
1798 64.01 8.30 38.78 93.52 12.78
1799 63.92 24.94 63.70 133.91 20.78
1800 63.95 42.79 76.58 164.75 24.15
1801 63.86 56.46 89.78 159.90 21.91
1802 63.92 32.38 68.31 150.92 23.47
1803 63.97 54.34 86.50 159.13 22.55
1804 63.90 65.36 79.92 147.38 18.25
1805 63.93 74.28 68.12 130.18 15.38
1806 64.03 79.18 64.64 113.96 13.15
1807 64.01 58.74 88.25 158.09 22.50
1808 63.79 9.55 34.75 93.38 11.38
1809 63.98 15.56 46.18 112.36 18.01
1810 64.00 44.90 76.31 156.98 22.44
1811 64.16 27.67 65.34 138.20 21.78
1812 64.18 30.10 70.48 147.81 23.52
1813 64.15 48.55 80.41 162.63 23.41
1814 64.19 76.70 68.28 122.06 14.74
1815 64.19 88.92 41.08 94.35 8.12
1816 64.23 91.39 25.51 83.08 6.18
1817 64.23 68.09 77.20 142.58 18.07
1818 64.26 71.38 81.08 141.11 16.78
1819 64.29 86.13 49.74 98.29 9.27
1820 64.42 23.02 63.20 129.26 20.69
1821 64.30 93.35 10.46 62.64 2.51
1822 64.35 40.42 81.25 161.37 25.93
1823 64.41 52.09 96.07 161.58 24.06
1824 64.39 83.34 55.64 111.82 11.74
1825 64.46 61.55 81.40 158.13 20.53
1826 64.55 34.29 70.00 155.54 22.80
1827 64.49 36.48 72.84 157.34 23.27
1828 64.61 18.49 55.16 117.49 20.38
1829 64.70 64.19 79.18 145.69 19.17
1830 64.70 10.66 46.98 105.86 17.81
1831 64.68 81.36 57.05 114.43 12.50
1832 64.53 11.69 51.14 115.71 15.14
1833 64.58 14.19 48.60 107.20 18.53
1834 64.80 38.49 81.23 157.71 25.82
1835 64.86 50.13 91.59 157.86 23.77
1836 64.64 73.07 80.48 136.33 15.90
1837 64.93 4.74 20.17 74.43 6.48
1838 64.97 15.83 54.58 116.94 20.40
1839 64.80 44.01 76.53 162.49 23.58
1840 64.92 46.25 81.62 158.80 24.38
1841 64.87 66.35 74.44 145.79 19.15
1842 64.94 12.90 52.81 109.65 20.51
1843 64.94 70.05 83.88 142.47 17.14
1844 64.95 21.14 62.09 119.17 21.52
1845 65.01 32.06 78.46 146.60 24.62
1846 64.93 57.60 88.87 157.24 23.54
1847 64.87 8.33 39.15 92.79 13.15
1848 64.98 25.28 61.16 130.76 24.19
1849 65.14 55.66 85.21 152.98 24.60
1850 65.09 6.89 37.89 92.93 12.85
1851 65.05 59.81 89.13 155.20 21.84
1852 65.12 53.63 89.33 157.11 24.21
1853 65.24 90.56 32.12 87.96 6.59
1854 65.05 27.73 68.40 138.08 26.77
1855 65.15 42.03 75.48 160.75 27.39
1856 65.19 77.98 68.79 119.01 14.47
1857 65.01 79.80 68.05 116.32 14.18
1858 65.01 9.59 40.79 98.32 15.95
1859 65.13 75.10 69.70 126.23 15.80
1860 65.27 48.03 89.82 161.62 25.71
1861 65.22 29.99 73.66 141.92 26.34
1862 65.18 87.87 52.37 94.76 8.28
1863 65.23 92.43 15.13 72.45 3.83
1864 65.12 72.30 84.12 139.25 16.42
1865 65.38 86.06 52.95 102.76 11.03
1866 65.50 94.06 7.99 49.26 1.56
1867 65.55 68.45 77.79 145.92 17.76
1868 65.53 35.79 72.85 160.22 28.42
1869 65.42 62.42 83.97 151.32 21.19
1870 65.47 40.08 80.51 158.38 28.57
1871 65.36 81.40 57.47 109.22 13.94
1872 65.52 83.62 59.07 110.45 12.68
1873 65.61 51.66 90.50 156.16 27.00
1874 65.60 71.63 80.98 138.44 17.86
1875 65.65 33.71 73.76 148.14 27.41
1876 65.68 37.76 72.10 152.85 29.57
1877 65.91 17.54 51.55 114.16 23.07
1878 65.86 20.12 58.05 116.70 24.86
1879 65.92 22.51 64.52 119.89 26.69
1880 65.76 44.12 82.44 166.27 29.48
1881 65.86 66.42 84.48 154.12 19.03
1882 65.96 8.96 39.43 91.76 16.92
1883 65.90 14.05 50.02 105.90 22.94
1884 65.93 64.49 83.04 157.29 22.60
1885 65.93 49.52 89.92 157.38 29.00
1886 66.07 10.57 39.64 94.28 16.13
1887 66.01 24.63 64.77 121.15 28.12
1888 65.95 57.86 90.38 151.40 24.92
1889 66.39 88.63 42.15 96.68 9.67
1890 66.03 6.47 30.58 80.46 12.38
1891 66.11 26.74 57.26 123.19 30.66
1892 66.06 60.58 83.73 154.36 24.57
1893 66.13 74.59 77.48 129.54 17.38
1894 66.09 79.34 65.03 124.06 13.63
1895 66.11 29.38 68.15 140.04 32.73
1896 66.11 53.83 100.49 149.77 29.55
1897 66.24 31.96 70.76 136.39 32.95
1898 66.19 41.74 79.57 164.30 28.90
1899 66.11 15.95 42.55 108.25 23.80
1900 66.33 81.47 63.95 114.84 13.41
1901 66.15 87.33 54.08 102.17 10.38
1902 66.37 70.31 74.73 137.23 19.69
1903 66.38 76.92 70.98 125.20 16.11
1904 66.21 90.33 28.00 87.89 5.89
1905 66.35 39.22 74.48 155.74 31.18
1906 66.49 55.70 90.31 151.88 30.07
1907 66.40 62.67 80.97 154.30 24.05
1908 66.42 47.70 87.53 153.18 31.20
1909 66.45 72.69 86.85 136.06 19.46
1910 66.67 91.82 16.06 73.56 3.77
1911 66.57 34.46 74.95 139.47 30.59
1912 66.60 93.85 7.23 47.54 1.21
1913 66.65 36.67 73.58 147.68 32.16
1914 66.59 51.36 93.42 152.08 31.76
1915 66.68 68.27 83.90 146.89 22.01
1916 66.70 83.89 69.43 107.78 13.59
1917 66.69 15.76 48.38 97.64 24.76
1918 66.75 43.74 75.12 157.68 31.38
1919 66.74 59.18 83.62 153.95 28.68
1920 66.95 19.12 58.41 113.08 32.64
1921 66.89 65.94 82.22 147.06 23.10
1922 66.89 13.23 56.49 94.35 26.43
1923 66.86 20.31 52.54 115.03 30.56
1924 66.94 28.24 57.12 135.53 34.74
1925 67.12 22.17 54.81 109.33 32.80
1926 67.05 24.71 61.34 117.81 34.44
1927 67.06 40.73 78.06 155.45 34.11
1928 67.09 49.17 86.71 146.44 32.18
1929 67.12 30.71 66.74 132.15 37.30
1930 67.16 57.05 94.89 149.36 30.35
1931 67.14 4.98 15.17 61.37 6.56
1932 67.34 8.36 34.62 80.82 19.03
1933 67.21 10.41 43.05 88.91 23.79
1934 67.19 53.38 97.40 151.77 33.57
1935 67.17 79.36 73.45 119.41 17.33
1936 67.23 38.47 80.75 151.06 36.05
1937 67.25 63.72 98.85 163.76 30.06
1938 67.29 17.42 47.85 99.18 29.92
1939 67.28 61.51 89.04 153.51 29.70
1940 67.22 14.19 47.11 89.49 27.94
1941 67.30 46.66 88.08 148.88 38.01
1942 67.32 74.76 80.60 126.59 20.76
1943 67.49 33.04 62.90 132.14 37.97
1944 67.46 72.40 90.94 133.91 21.46
1945 67.63 26.78 57.18 125.15 42.99
1946 67.51 35.23 67.31 144.60 36.98
1947 67.48 69.92 82.13 142.25 25.10
1948 67.54 77.37 76.06 121.51 17.18
1949 67.53 90.15 25.43 81.45 6.63
1950 67.65 44.51 85.18 149.42 40.42
1951 67.63 88.06 53.77 95.86 10.07
1952 67.62 42.42 82.40 152.57 37.93
1953 67.75 82.76 68.29 112.47 16.59
1954 67.52 93.24 6.71 47.44 1.08
1955 67.66 51.07 84.12 149.68 38.22
1956 67.65 15.41 51.72 90.46 35.43
1957 67.76 55.25 90.44 145.92 34.77
1958 67.71 59.17 93.43 154.03 32.55
1959 67.78 67.52 88.06 148.27 27.84
1960 67.99 29.09 62.30 119.36 39.51
1961 67.96 85.32 56.62 97.99 12.38
1962 67.98 37.15 71.34 136.75 41.46
1963 67.99 19.61 56.22 100.18 39.20
1964 67.95 65.26 93.66 148.92 28.15
1965 68.12 91.57 13.00 67.25 3.80
1966 68.08 31.33 62.20 122.21 41.64
1967 68.04 40.00 71.95 140.75 43.78
1968 68.26 5.61 17.81 62.31 10.67
1969 68.29 11.27 40.80 76.48 28.31
1970 68.19 22.43 54.54 106.21 43.55
1971 68.13 13.06 43.96 78.38 31.00
1972 68.24 24.84 59.95 111.85 50.16
1973 68.18 48.62 83.84 149.18 43.20
1974 68.28 57.30 91.69 143.14 37.14
1975 68.28 53.56 93.74 151.78 46.24
1976 68.36 80.51 68.48 106.97 18.65
1977 68.26 7.47 29.94 71.80 16.75
1978 68.30 46.55 78.47 144.27 42.47
1979 68.30 61.05 83.38 147.98 34.79
1980 68.36 63.12 80.33 144.08 31.96
1981 68.38 76.36 81.25 117.68 21.53
1982 68.38 71.40 80.90 134.28 24.03
1983 68.50 34.44 67.07 132.06 50.70
1984 68.55 9.89 38.29 69.13 25.44
1985 68.54 73.87 77.34 120.44 22.56
1986 68.51 89.73 28.49 76.00 7.02
1987 68.72 17.12 46.55 85.72 42.59
1988 68.54 42.29 76.71 135.13 45.36
1989 68.54 51.48 93.25 153.64 45.48
1990 68.69 69.41 71.15 136.98 29.03
1991 68.65 93.01 7.69 41.71 1.31
1992 68.73 27.64 58.52 112.98 49.84
1993 68.70 44.50 76.39 147.30 48.22
1994 68.93 78.53 74.66 116.79 22.84
1995 68.65 87.88 36.77 88.81 10.12
1996 68.84 36.42 72.09 129.11 54.09
1997 68.81 38.88 73.80 128.77 54.30
1998 68.89 32.58 64.79 124.08 51.65
1999 68.87 59.20 88.01 146.44 39.90
2000 68.85 55.22 88.96 136.14 44.93
2001 68.98 67.43 80.55 136.37 31.29
2002 68.98 14.29 42.42 74.30 39.10
2003 68.89 65.12 85.29 139.86 32.83
2004 69.13 83.78 64.07 94.23 16.85
2005 69.04 30.10 63.51 116.60 51.75
2006 69.02 86.20 55.19 96.71 14.17
2007 69.02 19.69 52.90 88.68 47.53
2008 69.06 49.85 84.37 140.32 53.67
2009 69.23 21.84 59.19 94.81 54.63
2010 69.27 40.75 68.76 125.55 52.27
2011 69.37 24.15 52.88 92.95 54.40
2012 69.24 46.39 85.36 137.98 56.31
2013 69.46 91.74 11.39 56.48 2.51
2014 69.33 52.42 83.83 145.74 57.85
2015 69.39 61.72 79.80 135.81 40.34
2016 69.47 48.24 84.58 139.70 62.49
2017 69.44 56.95 83.30 141.15 48.52
2018 69.45 71.53 85.74 131.10 29.82
2019 69.49 76.09 79.18 109.28 25.44
2020 69.42 81.42 66.64 104.16 20.05
2021 69.55 88.26 37.84 86.24 10.43
2022 69.61 42.84 70.80 129.32 55.62
2023 69.71 35.38 68.27 117.44 73.38
2024 69.68 73.65 82.06 120.75 30.39
2025 69.80 11.08 33.56 63.84 37.40
2026 69.63 37.86 66.03 128.18 59.42
2027 69.75 63.87 79.12 135.13 41.10
2028 69.73 54.46 79.24 137.48 53.30
2029 69.81 15.73 45.04 72.99 46.64
2030 70.01 18.39 49.64 81.69 52.23
2031 69.85 27.96 51.14 100.80 64.37
2032 69.77 33.11 72.90 117.70 77.79
2033 69.86 44.93 74.23 128.94 61.74
2034 69.80 59.40 88.22 133.34 48.06
2035 69.84 69.28 72.42 128.59 33.61
2036 69.91 30.70 64.08 103.87 60.90
2037 69.88 65.81 74.07 125.42 35.75
2038 69.95 78.17 75.66 107.94 26.92
2039 69.85 85.26 61.41 88.29 18.47
2040 70.18 86.32 50.54 89.10 16.85
2041 70.16 39.77 66.73 115.00 62.73
2042 70.16 51.40 85.93 131.00 72.69
2043 70.43 20.51 51.97 79.91 58.78
2044 70.32 49.31 80.42 128.78 66.47
2045 70.36 22.98 52.84 85.69 61.22
2046 70.38 46.98 76.99 126.54 67.51
2047 70.40 67.58 73.23 120.15 39.31
2048 70.60 75.47 75.96 107.30 32.91
2049 70.24 14.60 49.82 68.55 47.64
2050 70.49 62.21 76.64 129.63 52.13
2051 70.57 81.92 66.63 93.63 26.41
2052 70.92 84.46 58.56 84.62 22.69
2053 70.63 25.29 57.62 86.59 69.00
2054 70.48 37.18 70.21 103.28 72.47
2055 70.52 55.56 73.72 134.51 60.80
2056 70.47 57.73 82.62 132.59 59.98
2057 70.56 13.29 47.42 63.97 51.26
2058 70.54 42.25 71.96 115.57 70.51
2059 70.57 34.24 65.31 101.34 77.07
2060 70.60 88.26 34.40 78.64 12.06
2061 70.62 53.34 81.93 131.81 77.42
2062 70.67 72.86 71.04 111.32 35.25
2063 70.77 29.64 62.30 91.61 74.32
2064 70.78 32.02 68.20 91.91 77.03
2065 70.68 70.54 66.06 113.80 36.96
2066 71.04 10.95 36.06 61.21 43.34
2067 70.64 76.99 89.56 106.88 32.96
2068 70.78 44.48 68.54 122.15 68.59
2069 70.79 60.18 78.06 122.07 56.59
2070 70.80 65.15 74.57 116.03 48.46
2071 70.87 27.54 57.00 87.96 74.39
2072 70.65 15.49 52.92 67.54 49.15
2073 71.00 17.05 48.42 68.10 58.49
2074 71.05 77.80 59.93 97.71 31.24
2075 71.15 38.54 70.19 102.94 76.94
2076 71.14 40.58 71.82 107.37 77.10
2077 71.29 79.70 68.48 88.23 33.62
2078 71.20 8.58 28.32 54.55 32.52
2079 71.02 14.45 40.14 61.82 44.68
2080 71.16 35.53 68.49 96.75 84.82
2081 71.21 50.15 88.58 119.17 80.70
2082 71.25 47.72 81.17 110.47 75.45
2083 71.31 63.59 71.32 118.18 59.98
2084 71.40 22.14 54.91 72.59 72.40
2085 71.42 58.58 75.08 121.49 67.55
2086 71.36 67.25 72.79 116.12 52.24
2087 71.47 52.37 84.12 117.18 77.87
2088 71.50 56.09 76.01 117.05 68.47
2089 71.38 86.73 43.15 71.49 17.17
2090 71.56 43.25 77.20 104.54 82.98
2091 71.61 69.83 69.82 107.75 44.57
2092 71.69 20.20 46.88 67.17 62.67
2093 71.53 33.25 65.24 89.86 82.42
2094 71.62 45.72 83.05 103.27 75.94
2095 71.63 61.43 71.14 120.58 62.45
2096 71.65 72.09 76.94 109.21 45.47
2097 71.66 89.41 18.38 60.38 7.13
2098 71.75 26.14 64.51 76.37 84.38
2099 71.73 30.57 61.38 82.63 87.11
2100 71.73 74.64 82.69 100.03 42.73
2101 71.93 82.61 62.12 82.18 31.84
2102 71.74 15.18 45.23 61.94 65.40
2103 71.88 23.95 56.14 68.34 81.94
2104 71.89 54.22 82.00 116.43 85.95
2105 71.88 28.38 61.41 81.26 90.40
2106 71.82 36.64 76.79 93.15 104.61
2107 72.00 12.71 39.29 58.14 59.01
2108 72.04 65.62 64.71 106.91 69.08
2109 72.09 77.56 73.64 92.31 41.87
2110 72.01 41.22 74.69 89.44 78.92
2111 72.10 8.03 24.42 50.29 26.64
2112 72.16 17.70 46.90 58.92 65.64
2113 72.12 48.67 79.48 102.30 82.56
2114 72.12 39.14 77.31 90.28 89.34
2115 72.28 51.17 84.14 103.45 87.54
2116 72.33 34.36 60.86 76.97 94.06
2117 72.26 63.32 75.52 115.41 69.61
2118 72.41 87.53 29.43 63.32 15.25
2119 72.46 10.63 33.94 49.09 49.47
2120 72.34 57.66 75.54 109.59 80.44
2121 72.42 60.07 72.75 111.92 81.63
2122 72.42 68.17 73.11 100.69 59.36
2123 72.48 32.01 59.56 77.30 97.59
2124 72.48 80.24 66.95 75.65 40.84
2125 72.66 21.85 44.88 64.71 76.55
2126 72.56 42.66 75.05 86.90 89.37
2127 72.64 44.70 78.22 88.46 93.40
2128 72.57 46.68 85.54 94.22 87.62
2129 72.71 70.91 70.44 97.78 52.45
2130 72.67 37.38 78.44 79.53 108.00
2131 72.69 89.44 13.02 48.54 6.39
2132 72.55 90.51 9.68 40.28 3.28
2133 72.78 55.60 72.20 106.52 87.93
2134 72.74 73.75 73.80 93.68 51.75
2135 72.74 26.90 62.54 66.10 95.68
2136 72.72 53.04 82.00 98.39 94.86
2137 72.83 24.63 51.06 65.54 85.39
2138 72.78 29.67 60.19 71.59 94.27
2139 72.87 84.23 48.76 69.06 25.50
2140 72.95 75.84 72.29 86.55 55.90
2141 72.92 13.69 34.65 51.59 66.55
2142 73.07 19.41 40.47 55.33 79.60
2143 73.14 35.51 65.71 74.67 102.33
2144 73.05 49.86 78.92 99.82 97.29
2145 73.09 16.14 40.33 52.05 74.98
2146 73.06 62.17 74.95 101.52 83.08
2147 73.17 64.46 75.08 100.92 77.05
2148 73.15 39.35 66.16 78.95 100.39
2149 73.21 66.78 69.30 94.57 74.10
2150 73.30 9.54 21.15 45.89 31.21
2151 73.05 77.16 63.06 82.00 46.67
2152 73.32 41.32 71.17 78.90 100.30
2153 73.45 81.27 58.58 71.60 40.94
2154 73.38 33.40 61.61 69.28 108.50
2155 73.28 58.08 80.39 96.54 95.63
2156 73.38 78.58 60.34 73.53 45.37
2157 73.38 69.36 63.42 94.99 67.65
2158 73.43 48.05 70.53 88.53 98.63
2159 73.79 87.07 26.93 53.88 15.19
2160 73.50 60.20 67.58 95.25 89.39
2161 73.49 31.31 57.75 66.10 101.55
2162 73.55 27.83 59.87 64.09 95.14
2163 73.56 43.82 78.88 79.25 102.11
2164 73.65 51.67 82.72 92.54 97.46
2165 73.70 23.14 47.13 55.50 91.92
2166 73.65 45.93 74.02 85.03 105.94
2167 73.68 54.02 85.44 88.45 97.77
2168 73.66 73.02 69.07 79.19 58.51
2169 73.77 11.41 27.41 42.47 53.94
2170 73.76 37.56 68.85 72.77 109.24
2171 73.83 56.37 73.64 83.32 97.42
2172 73.97 25.50 50.36 57.63 93.52
2173 73.60 84.94 38.00 60.00 24.00
2174 73.97 17.68 38.81 47.87 81.18
2175 74.05 20.85 44.04 54.39 85.38
2176 74.05 29.51 57.85 59.58 100.12
2177 73.97 75.43 65.46 76.49 63.38
2178 73.76 84.23 42.33 58.87 30.33
2179 74.11 14.48 34.92 47.00 71.74
2180 74.14 62.53 78.72 93.62 88.58
2181 74.25 71.35 70.82 79.21 70.53
2182 74.20 35.49 66.86 64.08 112.70
2183 74.32 40.14 60.72 67.77 117.92
2184 74.23 49.50 73.07 83.97 101.54
2185 74.26 64.73 79.30 90.96 89.48
2186 74.24 42.25 68.33 69.76 113.55
2187 74.29 66.96 74.46 87.12 77.81
2188 74.39 33.02 61.52 61.57 108.25
2189 74.37 69.25 68.64 82.69 74.23
2190 74.39 77.00 58.00 69.12 61.26
2191 74.45 78.79 52.62 64.26 52.50
2192 74.59 9.32 19.81 36.90 32.63
2193 74.48 47.39 72.25 75.25 101.89
2194 74.61 57.88 74.47 82.71 105.36
2195 74.52 60.21 74.19 89.06 94.51
2196 74.67 80.99 53.93 59.74 47.66
2197 74.69 31.04 55.69 61.35 104.73
2198 74.65 44.93 78.72 74.24 104.75
2199 74.64 52.75 86.37 78.17 110.71
2200 74.70 27.76 54.82 57.13 105.88
2201 74.69 54.97 77.66 83.17 106.88
2202 74.72 38.38 61.37 68.00 115.10
2203 74.77 73.78 67.69 70.47 72.80
2204 74.86 23.24 39.81 52.02 99.07
2205 74.94 83.60 44.28 56.22 35.76
2206 74.84 12.30 29.39 36.22 61.25
2207 74.68 87.94 14.21 41.36 9.86
2208 74.97 18.77 36.63 46.37 85.12
2209 74.95 15.99 33.38 45.43 75.31
2210 75.00 50.83 78.38 75.50 110.90
2211 75.13 25.56 41.93 50.27 98.41
2212 75.10 34.35 59.08 61.98 108.55
2213 75.18 36.58 56.90 57.84 109.13
2214 75.13 43.10 64.85 69.40 120.48
2215 75.33 21.17 37.23 46.59 92.42
2216 75.13 63.11 78.24 77.70 95.08
2217 75.41 76.31 62.35 61.52 65.89
2218 75.19 13.49 24.69 40.37 60.20
2219 75.25 65.65 80.00 73.75 86.09
2220 75.34 70.92 73.16 72.09 79.42
2221 75.42 68.25 64.83 69.66 82.06
2222 75.40 85.51 25.53 44.17 19.57
2223 75.50 48.81 72.73 67.44 115.73
2224 75.53 41.31 59.52 64.80 119.58
2225 75.48 46.73 67.63 66.23 118.26
2226 75.57 29.76 52.15 51.45 106.48
2227 75.53 56.08 70.07 76.57 113.23
2228 75.68 10.96 21.04 35.28 41.06
2229 75.48 60.12 67.03 78.12 104.88
2230 75.65 78.98 55.06 58.26 60.39
2231 75.60 32.25 50.37 53.28 108.69
2232 75.64 39.38 55.68 59.33 119.28
2233 75.62 53.40 70.96 75.73 115.85
2234 75.75 27.50 43.46 49.24 108.65
2235 75.81 58.04 69.20 71.94 104.82
2236 75.81 44.83 57.97 63.07 118.29
2237 75.95 73.57 66.57 61.08 74.99
2238 75.99 81.40 51.71 51.80 53.55
2239 75.93 83.42 44.62 44.80 31.73
2240 76.04 14.15 25.42 36.27 62.27
2241 75.98 16.81 31.29 40.82 78.78
2242 76.01 24.04 36.65 44.86 102.38
2243 75.96 86.96 11.25 33.28 9.20
2244 76.01 50.71 69.64 66.57 117.81
2245 76.06 62.11 64.87 69.60 99.32
2246 76.07 34.98 51.21 55.77 113.79
2247 76.19 19.28 35.97 49.64 109.61
2248 76.15 37.25 50.55 54.96 111.13
2249 76.20 66.47 80.47 65.91 86.93
2250 76.23 64.40 71.96 65.13 95.17
2251 76.28 42.74 50.80 60.95 120.83
2252 76.54 21.65 35.58 46.90 92.33
2253 76.42 70.77 65.47 66.41 84.70
2254 76.39 84.32 34.17 43.63 28.98
2255 76.52 55.35 62.59 64.63 110.31
2256 76.47 47.08 61.13 62.32 123.51
2257 76.49 52.59 65.70 66.68 114.67
2258 76.57 77.54 61.44 53.57 71.41
2259 76.60 26.11 39.58 48.80 105.20
2260 76.55 30.86 43.46 51.66 103.97
2261 76.56 33.08 49.34 52.44 110.07
2262 76.65 60.07 68.77 65.51 98.71
2263 76.73 28.64 39.66 49.47 107.61
2264 76.70 39.27 46.23 55.91 112.86
2265 76.72 68.43 65.31 59.55 86.55
2266 76.78 49.18 65.22 61.26 123.51
2267 76.75 11.39 16.72 32.25 35.30
2268 76.76 85.51 17.81 34.19 18.66
2269 76.78 44.42 49.55 59.61 120.11
2270 76.81 57.74 70.24 69.04 108.77
2271 76.92 41.14 46.69 55.00 111.96
2272 77.18 75.25 60.94 54.21 80.73
2273 77.08 35.34 49.14 51.90 111.11
2274 77.09 62.75 64.62 61.09 105.20
2275 77.16 72.74 71.63 55.10 87.73
2276 77.16 80.31 46.89 45.43 58.72
2277 77.30 13.69 23.19 32.83 57.05
2278 77.22 16.90 26.78 37.18 68.28
2279 77.17 23.69 35.07 43.91 93.85
2280 77.17 37.48 44.64 52.26 109.00
2281 77.36 82.96 36.94 36.94 39.41
2282 77.31 19.20 32.16 41.92 79.93
2283 77.31 51.29 59.38 56.28 120.98
2284 77.30 65.49 66.44 58.45 101.97
2285 77.36 53.82 59.93 61.94 110.30
2286 77.40 46.09 50.95 56.00 118.03
2287 77.58 32.93 44.17 51.93 98.20
2288 77.59 70.24 64.09 52.91 92.90
2289 77.57 30.67 41.01 48.00 97.47
2290 77.61 26.33 39.83 43.45 103.47
2291 77.73 47.94 53.40 53.40 120.74
2292 77.72 55.94 58.81 58.37 119.65
2293 77.80 77.64 56.44 47.24 71.64
2294 77.70 60.75 62.90 60.26 108.92
2295 77.87 21.69 33.29 41.10 86.15
2296 77.76 44.02 44.49 52.25 110.79
2297 77.80 41.94 44.79 52.62 112.08
2298 77.90 28.36 38.29 48.73 98.92
2299 77.82 58.32 63.26 56.74 113.51
2300 77.88 67.81 60.06 50.75 93.55
2301 77.88 39.68 39.13 52.85 107.44
2302 78.03 12.21 17.18 29.31 37.46
2303 78.00 49.89 51.36 59.15 120.24
2304 78.05 63.64 62.59 52.21 101.41
2305 78.07 34.96 42.55 47.92 104.41
2306 78.20 24.24 32.29 41.83 91.21
2307 78.12 37.41 41.12 47.65 106.63
2308 78.27 81.35 41.37 39.54 51.45
2309 78.27 72.59 61.39 49.31 90.76
2310 78.39 16.33 25.85 34.19 65.98
2311 78.29 52.68 51.50 54.17 113.72
2312 78.36 19.07 29.92 34.73 76.45
2313 78.49 75.18 55.92 46.01 80.09
2314 78.61 65.83 56.36 47.95 97.27
2315 78.54 46.41 47.59 51.75 118.07
2316 78.58 29.99 36.14 45.59 90.29
2317 78.76 13.97 22.61 29.78 47.96
2318 78.65 32.26 40.36 45.55 94.24
2319 78.73 55.09 50.68 55.68 110.90
2320 78.79 62.01 54.93 50.09 108.57
2321 78.76 70.13 56.34 45.33 97.21
2322 78.74 59.76 50.79 49.88 108.11
2323 78.78 26.46 36.61 42.37 86.09
2324 78.75 44.47 38.80 50.43 112.97
2325 78.85 40.58 36.88 49.62 109.80
2326 78.82 42.47 38.55 48.11 106.06
2327 78.84 57.37 53.67 53.54 116.49
2328 78.94 48.33 46.10 51.03 113.46
2329 78.82 78.85 50.15 40.24 67.80
2330 79.00 50.43 46.85 50.08 113.31
2331 79.00 21.05 30.23 38.23 73.48
2332 79.01 34.37 40.36 44.75 101.88
2333 79.02 36.45 38.79 47.60 102.24
2334 79.04 38.66 40.13 47.51 105.64
2335 79.14 68.04 51.86 48.19 101.66
2336 79.19 23.79 33.12 38.62 83.55
2337 79.30 52.52 45.97 53.17 112.28
2338 79.39 64.38 49.46 47.82 102.94
2339 79.48 77.13 47.29 36.76 75.52
2340 79.45 80.78 35.34 32.36 44.62
2341 79.44 28.46 35.57 42.17 88.02
2342 79.42 72.41 52.97 46.59 98.69
2343 79.45 18.08 29.60 33.03 64.27
2344 79.59 30.83 38.37 43.20 84.41
2345 79.62 46.41 44.01 48.86 113.38
2346 79.87 15.15 25.74 29.49 48.68
2347 79.79 54.18 45.41 45.19 110.07
2348 79.80 32.88 43.49 46.74 91.80
2349 79.74 44.21 37.83 46.73 103.96
2350 79.77 58.73 47.67 49.38 110.19
2351 79.90 61.27 48.65 47.43 107.25
2352 79.84 26.34 40.03 40.49 84.73
2353 79.84 37.56 43.36 44.36 97.54
2354 79.91 41.99 41.40 44.85 105.94
2355 79.94 56.23 45.11 47.67 117.53
2356 80.01 74.60 45.69 38.49 80.55
2357 79.95 40.11 39.96 45.91 100.37
2358 80.01 35.20 44.42 42.57 94.84
2359 80.08 67.11 49.15 39.84 95.47
2360 80.07 69.97 46.80 41.41 89.44
2361 80.02 22.18 35.84 38.22 80.66
2362 80.04 48.64 46.11 49.48 114.65
2363 80.10 51.22 45.57 45.13 107.23
2364 80.42 79.46 30.61 29.70 48.48
2365 80.37 19.88 31.57 32.60 67.86
2366 80.32 63.37 44.78 44.40 100.43
2367 80.35 82.17 16.42 25.53 23.16
2368 80.40 24.38 38.84 40.04 84.88
2369 80.47 29.66 41.62 40.28 88.03
2370 80.68 17.29 31.34 31.63 59.88
2371 80.69 72.35 44.16 36.76 82.18
2372 80.60 76.68 38.91 30.50 69.00
2373 80.74 65.50 46.93 39.26 89.72
2374 80.63 38.58 44.08 43.69 97.31
2375 80.61 46.24 42.13 45.51 105.92
2376 80.60 43.61 36.73 41.24 106.03
2377 80.80 27.46 41.21 42.14 84.90
2378 80.75 33.51 48.17 41.65 91.85
2379 80.79 57.55 40.44 43.24 104.51
2380 80.83 54.49 42.80 42.90 101.15
2381 80.85 36.43 44.23 46.19 90.33
2382 80.93 60.03 45.83 42.04 111.67
2383 80.93 49.91 44.15 48.88 104.03
2384 81.09 31.50 49.41 44.18 86.09
2385 81.12 52.26 44.31 45.33 97.92
2386 81.13 68.87 41.77 36.67 87.55
2387 81.13 40.31 44.58 44.38 92.35
2388 81.14 22.24 35.34 38.22 71.37
2389 81.25 48.00 44.12 40.19 105.09
2390 81.29 62.55 44.48 41.93 99.40
2391 81.32 74.69 38.58 32.14 78.47
2392 81.26 42.31 44.26 43.06 91.60
2393 81.40 15.25 27.51 29.95 41.92
2394 81.37 25.42 43.92 38.68 81.85
2395 81.42 44.77 40.50 42.56 90.00
2396 81.56 19.29 35.49 32.26 64.17
2397 81.56 34.91 50.14 42.38 85.61
2398 81.65 79.79 20.33 23.98 32.50
2399 81.56 29.17 47.83 41.36 84.28
2400 81.66 56.35 40.60 42.67 105.53
2401 81.61 38.20 48.73 42.76 92.49
2402 81.79 71.60 38.84 32.12 82.74
2403 81.70 77.29 30.02 26.45 63.44
2404 81.84 64.70 45.13 36.56 88.82
2405 81.94 67.05 41.47 35.49 86.05
2406 81.83 58.62 47.75 42.94 99.97
2407 82.05 32.95 53.64 42.71 82.93
2408 81.98 46.57 43.08 40.58 93.51
2409 82.01 50.46 47.19 43.53 98.49
2410 82.01 54.43 43.53 42.50 99.46
2411 82.11 23.30 44.39 34.73 75.95
2412 82.18 27.51 41.97 38.16 79.56
2413 82.20 61.34 43.62 39.01 92.57
2414 82.25 17.17 32.48 29.38 51.27
2415 82.14 40.97 50.26 39.83 86.29
2416 82.25 36.48 52.21 40.70 93.46
2417 82.26 43.14 44.53 40.64 90.24
2418 82.26 52.48 44.54 42.28 92.73
2419 82.38 20.95 35.62 31.56 65.44
2420 82.24 30.72 47.66 44.86 84.91
2421 82.34 69.51 42.21 34.15 80.26
2422 82.41 73.81 34.63 29.37 73.51
2423 82.42 48.61 47.28 42.72 93.30
2424 82.64 25.31 41.01 35.27 73.01
2425 82.57 38.90 50.74 43.81 83.59
2426 82.67 45.14 49.25 39.90 84.39
2427 82.75 76.33 26.08 25.41 59.83
2428 82.88 63.34 43.96 35.66 84.78
2429 82.92 57.24 42.80 40.20 90.08
2430 82.83 59.45 44.44 39.25 91.81
2431 82.89 34.52 53.32 41.28 79.48
2432 83.27 78.93 13.36 20.13 27.55
2433 83.07 66.20 42.24 33.49 80.52
2434 83.12 55.18 47.72 40.24 92.59
2435 83.19 71.70 35.45 29.61 75.32
2436 83.10 29.31 48.32 38.19 77.18
2437 83.11 31.81 52.78 44.10 81.51
2438 83.14 47.17 47.80 39.02 80.17
2439 83.23 41.07 54.03 40.63 79.29
2440 83.29 18.57 33.58 28.91 53.13
2441 83.29 50.20 47.39 42.39 80.20
2442 83.27 68.59 35.40 33.55 74.29
2443 83.25 36.83 58.41 40.50 81.45
2444 83.34 23.19 38.78 34.71 63.68
2445 83.28 43.24 46.03 39.21 78.65
2446 83.24 52.77 46.23 40.56 85.87
2447 83.31 27.13 43.25 38.62 78.07
2448 83.12 15.36 29.45 25.30 18.15
2449 83.63 20.87 33.92 31.41 61.02
2450 83.62 16.07 25.37 26.46 27.46
2451 83.60 61.35 41.63 37.53 81.41
2452 83.65 38.92 57.32 42.23 79.51
2453 83.68 74.10 25.96 24.11 60.74
2454 83.77 45.18 49.20 38.75 73.91
2455 83.94 32.96 51.21 38.10 70.10
2456 83.96 59.02 47.56 36.49 84.00
2457 84.00 76.30 20.83 22.78 40.26
2458 84.03 35.07 57.92 42.12 78.07
2459 84.10 63.59 41.22 33.59 77.82
2460 84.14 25.42 42.84 35.53 68.34
2461 84.12 30.74 47.70 40.10 69.73
2462 84.11 47.65 54.12 39.89 76.85
2463 84.16 56.64 47.77 38.92 76.31
2464 84.24 65.77 46.82 32.80 73.00
2465 84.20 70.47 33.31 26.17 67.86
2466 84.13 53.96 52.81 38.87 77.65
2467 84.24 28.09 44.74 38.36 68.79
2468 84.28 51.58 50.71 40.22 75.88
2469 84.28 42.79 56.75 41.57 69.15
2470 84.38 68.15 39.36 29.94 64.69
2471 84.32 37.12 61.00 40.74 73.18
2472 84.29 40.61 52.02 39.59 72.73
2473 84.45 49.51 53.15 38.80 74.46
2474 84.26 16.80 35.25 23.75 19.88
2475 84.47 23.03 37.98 34.66 57.85
2476 84.66 72.57 32.26 24.27 62.15
2477 84.69 17.87 28.57 25.12 36.04
2478 84.82 77.38 13.72 16.00 22.03
2479 84.84 20.58 32.44 29.35 47.43
2480 84.83 45.85 54.08 37.62 67.10
2481 84.82 61.36 44.33 33.71 72.12
2482 85.08 38.71 50.32 39.55 66.21
2483 84.98 34.02 50.51 39.73 66.03
2484 85.11 75.18 20.21 20.27 37.16
2485 85.12 59.13 49.28 37.57 72.11
2486 85.12 29.61 46.71 39.46 64.67
2487 85.11 54.95 52.03 37.82 71.35
2488 85.23 25.07 41.61 34.62 60.60
2489 85.20 43.52 49.66 39.12 67.53
2490 85.21 52.61 57.34 38.66 65.87
2491 85.26 57.16 52.74 37.32 68.33
2492 85.34 31.83 46.97 37.56 62.29
2493 85.29 41.02 46.62 40.18 66.79
2494 85.42 27.31 42.55 36.58 62.27
2495 85.29 64.31 43.53 32.37 67.28
2496 85.46 48.08 54.52 39.62 65.30
2497 85.38 36.41 52.05 40.39 67.45
2498 85.50 67.11 42.80 28.35 60.04
2499 85.49 50.32 57.81 39.29 65.57
2500 85.46 69.97 37.10 24.69 55.76
2501 85.76 22.72 39.22 32.71 51.92
2502 85.76 73.12 26.85 21.70 49.14
2503 85.92 45.79 50.27 38.61 61.62
2504 86.10 62.93 51.02 31.64 60.59
2505 86.06 19.83 30.49 25.41 36.90
2506 86.09 60.85 49.31 31.99 65.99
2507 86.05 34.39 45.24 38.34 58.01
2508 86.15 53.98 56.40 34.18 61.12
2509 86.02 18.27 31.83 28.87 25.00
2510 86.22 30.12 43.96 37.65 55.46
2511 86.18 38.80 46.67 39.96 62.89
2512 86.18 43.46 44.16 39.24 59.40
2513 86.30 56.23 50.94 34.38 61.50
2514 86.38 58.63 54.05 34.72 54.72
2515 86.28 75.18 19.10 18.45 20.71
2516 86.32 41.12 46.44 37.90 59.45
2517 86.38 51.73 54.63 37.01 58.04
2518 86.37 25.08 37.93 33.57 51.27
2519 86.49 32.55 45.30 39.58 54.18
2520 86.51 49.45 51.91 37.89 54.84
2521 86.55 71.93 33.33 22.89 40.33
2522 86.45 36.57 43.64 37.36 59.32
2523 86.53 65.15 46.32 28.62 58.69
2524 86.51 69.56 38.12 24.15 56.17
2525 86.49 27.75 44.19 36.58 58.04
2526 86.83 21.34 30.62 28.65 35.54
2527 86.80 47.42 49.20 37.21 57.13
2528 86.71 67.36 42.56 27.33 55.22
2529 87.04 44.92 45.38 38.26 56.33
2530 87.33 23.18 32.64 29.12 40.70
2531 87.20 34.80 41.06 36.83 48.33
2532 87.16 39.06 42.45 38.74 54.36
2533 87.14 42.62 42.48 40.15 55.13
2534 87.33 62.82 47.27 28.55 51.03
2535 87.31 54.46 47.84 34.55 50.49
2536 87.47 31.04 38.72 39.37 46.87
2537 87.43 60.79 46.39 30.63 53.99
2538 87.38 29.04 36.97 35.70 49.70
2539 87.42 25.40 36.51 31.22 47.74
2540 87.38 52.08 50.01 34.84 55.47
2541 87.47 56.89 52.34 35.26 52.10
2542 87.45 73.59 19.04 18.31 18.96
2543 87.61 36.79 40.57 37.47 50.05
2544 87.74 58.85 53.02 30.69 48.25
2545 87.80 33.16 38.22 35.94 46.98
2546 87.63 40.92 38.97 38.68 51.16
2547 87.73 66.35 39.10 24.93 46.46
2548 87.72 71.39 27.54 19.34 28.92
2549 87.61 49.50 44.00 37.33 48.45
2550 87.62 68.85 39.18 23.48 42.98
2551 87.85 46.31 41.11 36.75 49.15
2552 88.15 26.98 32.34 31.93 44.93
2553 87.98 20.53 19.84 23.26 23.51
2554 88.15 43.02 39.47 37.46 46.67
2555 88.22 38.47 33.42 35.22 43.92
2556 88.38 64.63 43.14 25.68 45.33
2557 88.31 55.46 43.73 31.94 45.36
2558 88.41 35.08 31.68 39.42 44.74
2559 88.46 22.96 26.86 28.87 31.25
2560 88.39 51.95 40.14 35.45 44.93
2561 88.68 25.03 27.43 28.76 35.51
2562 88.35 29.00 34.00 34.94 43.98
2563 88.52 48.13 35.54 36.34 45.18
2564 88.60 62.28 46.46 26.42 40.96
2565 88.63 69.75 29.94 19.76 29.61
2566 88.62 31.09 28.95 33.52 42.72
2567 88.64 40.38 33.31 36.18 43.83
2568 88.65 60.17 52.79 30.89 43.68
2569 88.50 56.74 44.59 33.71 43.24
2570 88.81 44.73 33.62 36.50 39.58
2571 88.63 21.52 28.84 25.95 15.89
2572 88.90 66.99 36.46 22.62 36.35
2573 88.94 50.05 34.36 35.90 42.32
2574 88.93 53.98 34.98 35.18 41.35
2575 89.11 58.11 42.98 31.46 40.71
2576 89.08 37.07 32.74 38.79 42.48
2577 88.99 28.54 26.56 33.08 38.00
2578 89.23 32.86 31.51 35.63 37.90
2579 89.27 42.31 31.46 36.78 41.95
2580 89.16 46.61 32.88 38.00 41.34
2581 89.47 26.79 25.47 29.79 38.48
2582 89.62 38.95 28.69 37.10 36.66
2583 89.60 56.23 37.80 30.19 36.26
2584 89.56 52.14 33.58 34.36 40.14
2585 89.80 35.02 27.29 38.24 37.43
2586 89.76 64.53 33.26 25.38 38.71
2587 89.88 31.17 25.85 33.77 33.95
2588 89.84 48.52 32.52 35.48 39.26
2589 89.84 60.29 39.16 29.45 37.95
2590 90.08 44.09 29.54 36.79 37.83
2591 89.97 28.73 23.03 34.12 31.43
2592 89.94 66.48 27.14 20.43 33.25
2593 89.93 25.03 21.02 28.45 30.27
2594 90.16 46.42 29.18 31.86 36.07
2595 90.20 62.45 35.08 22.49 36.76
2596 90.33 50.56 28.64 33.21 33.48
2597 90.13 40.87 27.75 37.20 40.00
2598 90.30 33.43 27.26 31.17 38.29
2599 90.50 36.62 26.80 36.27 35.61
2600 90.47 58.17 37.62 29.97 34.57
2601 90.34 24.07 15.26 29.95 15.21
2602 90.32 26.23 19.18 35.59 19.82
2603 90.79 39.30 27.65 36.37 35.18
2604 90.85 52.48 30.43 30.97 30.65
2605 90.52 49.16 27.06 37.76 25.35
2606 90.79 29.64 22.29 30.51 34.77
2607 90.83 56.33 30.20 30.27 35.60
2608 91.18 24.81 14.16 24.78 19.44
2609 91.03 60.32 34.49 25.35 29.48
2610 91.03 64.13 26.92 22.65 27.31
2611 90.86 26.91 16.83 32.90 27.26
2612 90.94 42.55 26.36 33.17 36.87
2613 91.04 47.51 25.29 34.14 34.07
2614 91.37 33.19 22.93 34.56 27.56
2615 91.38 54.77 30.76 30.96 28.31
2616 91.11 62.20 24.48 25.90 28.76
2617 91.18 30.81 18.90 36.40 24.90
2618 91.22 48.56 24.77 36.08 22.38
2619 91.37 66.34 20.84 18.68 17.91
2620 91.33 35.41 24.38 36.09 30.84
2621 91.40 58.20 29.35 30.59 24.59
2622 91.45 27.78 16.70 32.34 17.61
2623 91.61 50.24 27.69 32.82 32.25
2624 91.55 40.42 25.91 36.39 27.54
2625 91.76 56.66 28.62 28.82 27.16
2626 91.77 62.05 22.78 23.50 20.78
2627 91.99 29.62 18.16 31.08 22.93
2628 91.54 42.30 28.00 41.25 16.00
2629 91.91 42.90 26.64 37.24 32.15
2630 92.00 48.33 27.83 34.68 30.85
2631 91.90 35.57 24.13 37.83 25.30
2632 92.14 52.58 27.93 32.06 26.68
2633 91.99 59.05 26.07 24.50 28.05
2634 91.99 64.19 14.65 21.53 15.02
2635 92.15 26.69 15.63 26.33 18.29
2636 92.26 41.40 25.68 33.52 29.70
2637 92.18 36.55 24.25 30.83 34.46
2638 92.40 33.80 21.74 28.78 31.97
2639 92.26 54.53 25.71 31.62 22.71
2640 92.57 62.45 15.92 21.00 15.92
2641 92.55 37.93 23.42 35.37 22.93
2642 92.66 56.93 24.00 27.22 20.69
2643 92.89 55.43 24.44 27.74 22.35
2644 92.64 28.80 14.90 28.51 17.46
2645 92.63 49.27 24.05 32.25 22.40
2646 92.97 44.27 24.69 34.25 23.61
2647 92.58 35.31 19.80 35.93 23.27
2648 92.73 46.07 23.00 32.43 21.74
2649 92.87 31.93 21.07 29.64 21.92
2650 92.84 47.49 25.86 31.70 27.36
2651 92.77 64.94 11.80 19.50 8.58
2652 93.16 39.47 22.69 33.28 21.02
2653 92.85 36.31 20.61 31.91 25.65
2654 92.97 50.82 23.69 29.93 24.65
2655 93.01 60.88 16.21 23.62 17.46
2656 93.18 53.34 24.48 26.20 24.96
2657 93.27 41.68 24.46 30.40 27.07
2658 93.53 33.50 19.59 29.69 20.04
2659 93.86 35.82 20.96 30.40 24.18
2660 93.61 49.22 24.01 28.63 24.53
2661 93.56 45.57 24.49 34.26 23.00
2662 93.45 61.90 14.62 18.62 16.00
2663 93.62 47.56 23.11 33.11 16.44
2664 93.73 58.04 16.79 24.34 15.15
2665 94.08 52.29 20.49 27.26 24.40
2666 93.71 46.63 25.22 31.89 22.22
2667 94.31 59.55 12.92 20.93 12.34
2668 93.98 56.38 18.21 25.13 19.96
2669 93.94 62.18 9.94 18.28 9.39
2670 94.14 41.78 22.32 31.02 19.77
2671 94.61 54.62 18.64 25.16 16.20
2672 94.62 47.96 21.60 29.80 18.64
2673 94.28 32.65 17.83 28.27 18.57
2674 94.66 34.88 16.78 30.61 16.02
2675 94.78 56.31 17.11 22.44 17.96
2676 94.67 53.58 18.00 28.60 23.40
2677 95.00 38.42 20.01 30.39 19.13
2678 95.03 42.80 19.03 28.89 18.64
2679 94.99 52.94 19.21 24.71 14.15
2680 95.04 32.17 14.04 26.21 12.54
2681 95.14 33.45 17.09 28.32 19.35
2682 95.37 46.69 19.44 28.33 16.51
2683 95.48 40.41 18.76 29.44 16.56
2684 95.74 51.42 18.38 23.96 14.86
2685 95.94 47.26 18.84 27.58 15.71
2686 95.64 55.85 13.11 20.87 13.89
2687 95.91 33.05 12.42 24.12 12.86
2688 95.95 54.02 14.73 20.91 13.89
2689 95.69 34.15 15.00 28.50 15.00
2690 95.91 34.72 14.31 27.08 12.31
2691 95.91 52.88 16.33 24.33 17.50
2692 96.16 43.25 17.06 28.05 17.58
2693 96.17 45.38 18.81 27.50 16.66
2694 96.36 36.01 13.25 25.96 12.15
2695 96.13 52.27 13.50 22.00 10.75
2696 96.70 50.15 14.40 24.21 12.98
2697 96.99 38.16 13.62 23.87 13.64
2698 96.84 52.31 12.96 19.48 12.99
2699 97.14 48.42 14.21 21.51 15.26
2700 97.06 45.83 13.51 22.25 13.46
2701 96.96 43.18 15.44 25.39 12.28
2702 97.27 39.83 15.02 20.63 13.17
2703 97.25 41.65 12.81 24.00 11.69
2704 97.27 49.62 8.15 19.77 9.77
2705 97.45 43.78 12.87 23.98 12.40
2706 97.37 47.42 14.71 20.93 12.00
2707 97.80 50.29 7.27 16.11 5.11
2708 97.95 42.80 10.65 18.77 7.00
2709 98.43 46.01 6.31 21.22 6.47

