#<Embryo name> <Cleavage cycle> <Temporal class> <Genes>
kf3 14A 8 even-skipped knirps giant

#Quantitative data
#<Nucleus number> <A-P coordinate> <D-V coordinate> <Fluorescence intensity: channel 1 - eve, channel 2 - kni, channel 3 - gt>
0 2.64 48.38 8.73 159.91 7.07
1 3.23 51.95 8.76 159.60 6.98
2 3.57 48.73 8.43 143.48 8.01
3 3.87 56.66 9.22 163.72 7.96
4 4.49 53.87 10.02 157.73 8.37
5 4.22 44.20 9.28 158.74 12.91
6 4.65 59.03 9.47 170.76 7.74
7 4.44 50.39 8.95 147.56 8.40
8 4.84 47.55 9.13 156.92 11.89
9 4.92 41.77 7.30 146.65 22.51
10 4.99 51.37 9.98 148.90 8.65
11 5.54 61.48 10.26 170.01 8.15
12 5.71 56.15 10.06 140.47 9.82
13 5.81 37.56 9.15 148.58 28.29
14 5.69 45.11 8.70 136.60 13.72
15 5.82 41.85 9.83 146.73 21.70
16 6.14 49.73 10.81 134.02 14.68
17 6.02 52.75 10.94 141.47 10.96
18 5.94 59.35 10.48 178.90 8.30
19 6.19 39.39 8.71 125.40 26.13
20 6.70 46.99 10.19 144.06 18.68
21 6.63 63.25 9.65 164.39 7.88
22 6.76 43.65 10.63 130.91 25.81
23 7.11 54.35 12.39 135.98 13.18
24 7.24 60.47 10.90 164.30 9.02
25 7.34 37.94 9.74 114.74 29.92
26 7.53 41.05 10.09 109.40 30.52
27 7.44 56.60 12.82 156.85 12.73
28 7.44 51.58 11.02 127.86 14.50
29 7.70 65.19 10.58 157.68 7.37
30 7.84 48.88 11.61 133.88 17.38
31 8.05 45.90 11.26 120.89 28.29
32 7.98 33.91 8.41 87.08 31.61
33 8.26 31.66 7.62 68.96 28.06
34 8.15 57.34 13.42 164.73 11.62
35 8.12 52.47 11.64 151.40 19.40
36 8.37 63.18 12.32 174.10 9.64
37 8.51 58.34 12.96 166.29 13.19
38 8.57 67.44 9.14 136.14 8.30
39 8.71 43.60 11.14 110.28 36.59
40 8.51 35.43 8.55 80.14 28.00
41 8.75 53.10 11.72 155.22 22.00
42 8.91 60.96 13.27 168.99 11.72
43 8.67 38.40 9.58 94.41 37.39
44 8.58 59.64 13.44 174.17 11.15
45 8.97 50.32 12.03 134.30 24.80
46 9.07 54.49 13.70 159.98 26.25
47 9.00 32.46 7.80 70.00 25.41
48 9.25 41.20 10.95 95.34 33.06
49 9.34 46.98 11.59 117.62 27.78
50 9.52 69.30 8.91 136.30 8.60
51 9.26 30.82 6.70 66.90 22.49
52 9.46 64.55 11.55 154.47 8.61
53 9.42 56.24 12.93 173.73 22.11
54 9.70 36.05 9.91 80.76 31.39
55 9.73 57.98 16.46 168.19 17.41
56 10.05 33.28 8.34 56.78 20.56
57 9.77 39.00 10.21 93.26 35.42
58 10.22 51.75 12.90 145.51 33.18
59 10.35 29.03 7.29 46.78 14.04
60 10.16 60.30 13.60 168.80 12.94
61 10.19 43.70 10.90 95.68 31.87
62 10.45 48.69 12.31 125.73 36.54
63 10.23 67.21 11.95 150.90 10.12
64 10.73 45.82 12.50 97.32 36.33
65 10.88 31.23 8.52 43.07 12.66
66 10.59 38.79 10.62 79.97 24.90
67 10.39 54.69 13.50 139.71 31.00
68 10.82 64.68 13.33 171.67 11.07
69 10.92 57.37 14.39 168.38 18.93
70 10.92 41.17 11.47 72.90 31.72
71 10.71 55.73 14.10 165.95 23.79
72 11.06 37.33 9.70 68.91 22.07
73 11.12 61.92 15.44 172.87 11.60
74 11.22 69.91 10.31 136.54 10.31
75 10.95 35.38 10.61 47.76 19.96
76 11.07 67.48 11.22 145.49 11.68
77 11.33 54.52 13.12 145.88 27.84
78 11.20 27.01 7.18 30.51 7.32
79 11.67 43.74 12.54 83.17 37.59
80 11.46 46.61 12.75 100.67 51.53
81 11.69 72.76 8.00 101.50 10.57
82 11.61 50.84 12.92 134.57 39.37
83 11.62 34.68 9.13 34.65 15.70
84 11.68 60.60 14.66 166.25 12.44
85 11.84 58.57 15.56 178.98 14.80
86 11.75 29.26 8.24 33.92 9.52
87 11.76 33.23 8.49 35.31 9.71
88 12.02 38.81 11.07 56.58 26.72
89 12.11 65.70 15.07 166.41 12.17
90 12.12 46.77 12.89 100.97 50.53
91 12.13 52.97 14.68 157.10 30.45
92 11.94 27.23 7.03 30.73 8.57
93 11.98 68.00 13.43 145.60 13.12
94 12.35 63.27 15.33 180.79 12.22
95 12.10 31.43 8.16 38.93 9.95
96 12.31 35.83 11.09 48.09 20.18
97 12.32 49.80 14.70 132.38 49.22
98 12.30 41.76 11.47 69.51 32.58
99 12.74 70.78 11.59 129.18 15.46
100 12.44 47.84 14.94 100.09 46.15
101 12.60 60.01 15.84 184.96 14.27
102 12.47 44.34 13.33 79.20 31.93
103 12.57 33.51 10.12 41.84 12.57
104 12.81 56.98 17.12 180.33 15.86
105 12.79 67.90 12.82 146.25 12.90
106 12.73 26.92 8.73 27.38 7.70
107 12.92 41.34 11.48 63.42 19.15
108 13.10 31.52 9.58 34.88 7.95
109 13.07 54.76 17.96 164.20 24.29
110 13.08 73.69 8.99 99.67 23.01
111 13.10 37.88 10.84 50.03 16.94
112 13.18 39.30 13.04 53.98 15.75
113 13.15 52.36 15.75 141.18 30.04
114 13.03 44.57 12.91 79.27 32.27
115 13.35 47.11 14.35 103.36 36.86
116 13.38 49.83 15.52 131.72 39.34
117 13.55 44.02 13.70 70.83 24.46
118 13.66 65.05 13.64 169.45 13.41
119 13.64 61.09 15.93 196.07 13.34
120 13.57 29.45 9.36 28.43 8.82
121 13.72 57.72 17.95 188.38 16.49
122 13.76 27.84 8.85 26.60 7.61
123 13.79 24.80 8.00 27.75 6.36
124 13.55 35.83 12.00 43.13 12.67
125 13.63 37.39 11.04 43.00 15.00
126 13.71 73.05 10.05 113.22 25.56
127 13.85 41.16 12.49 55.08 14.87
128 13.76 53.92 16.69 170.00 25.00
129 14.04 67.96 14.53 138.34 18.43
130 14.28 75.29 8.86 103.05 25.38
131 14.03 71.19 12.88 145.08 35.69
132 14.06 45.86 13.80 75.17 25.07
133 14.31 52.54 16.90 149.48 23.49
134 14.36 55.28 17.14 177.32 18.89
135 14.18 31.43 10.54 31.94 9.15
136 14.25 36.39 11.20 37.02 11.96
137 14.53 59.03 18.03 194.98 16.07
138 14.52 62.29 16.78 193.29 14.65
139 14.57 43.44 14.74 62.14 16.75
140 14.51 47.31 17.08 84.27 19.49
141 14.42 49.90 15.24 116.20 23.65
142 14.53 34.10 11.69 33.73 11.25
143 14.76 29.49 8.37 27.56 7.33
144 14.60 27.60 9.00 27.82 8.63
145 14.72 40.41 12.55 48.64 13.09
146 14.94 26.27 9.08 26.86 8.62
147 15.16 63.77 17.04 185.25 17.42
148 15.20 66.16 16.14 176.59 19.05
149 15.26 56.34 16.69 164.17 17.66
150 15.33 24.45 8.30 24.00 7.74
151 15.16 31.12 10.60 30.06 8.26
152 15.07 36.86 9.63 36.53 12.21
153 15.29 51.09 14.62 104.00 17.92
154 15.53 59.58 17.12 192.80 17.29
155 15.52 71.64 13.42 130.75 37.64
156 15.64 74.08 11.41 118.33 37.24
157 15.72 68.65 15.09 155.90 30.88
158 15.42 47.91 16.00 73.99 17.33
159 15.49 53.53 16.83 142.74 18.64
160 15.48 32.76 10.81 33.51 11.04
161 15.50 34.31 12.66 35.86 10.77
162 15.49 42.72 14.35 51.10 14.39
163 15.85 76.73 9.06 108.17 21.88
164 15.70 37.14 13.74 34.59 12.21
165 15.51 29.11 10.57 29.29 10.29
166 16.08 61.26 16.38 183.38 19.14
167 16.06 22.22 7.99 22.81 8.35
168 16.17 49.43 15.77 77.28 16.05
169 16.00 26.03 9.47 26.26 8.44
170 15.93 29.69 11.12 29.42 11.64
171 15.94 39.76 14.44 39.72 14.28
172 16.35 56.94 16.39 173.36 18.52
173 16.37 28.03 10.14 27.31 10.26
174 16.24 43.22 15.11 46.72 13.23
175 16.48 40.78 13.60 38.68 15.13
176 16.42 45.96 15.59 52.74 16.74
177 16.35 63.98 19.48 184.74 19.78
178 16.34 38.09 14.00 36.76 14.31
179 16.53 51.67 16.19 90.82 17.15
180 16.42 33.30 10.49 30.25 11.79
181 16.77 53.97 16.91 114.80 19.77
182 16.53 23.94 9.22 25.38 9.11
183 16.70 62.70 16.68 185.21 18.85
184 16.72 65.86 16.44 172.01 23.73
185 16.41 29.32 11.00 32.75 11.38
186 16.87 30.80 10.36 29.03 11.17
187 16.84 35.51 12.88 33.73 15.54
188 17.13 58.70 17.34 179.39 19.34
189 17.00 70.75 14.74 143.71 44.96
190 16.84 39.04 13.21 36.34 15.47
191 16.95 47.98 15.61 56.36 19.55
192 17.06 74.45 12.49 135.08 30.48
193 16.80 26.11 8.07 24.87 11.67
194 17.21 77.59 9.35 109.61 21.00
195 16.89 43.90 11.38 42.85 17.62
196 17.10 68.65 14.82 154.91 33.89
197 17.22 27.27 9.90 26.42 13.15
198 17.26 32.84 10.87 29.11 12.54
199 17.41 24.50 8.82 24.57 10.51
200 17.62 29.35 11.50 27.97 14.77
201 17.61 56.04 18.33 140.22 23.49
202 17.55 20.85 7.73 25.20 10.76
203 17.66 50.29 15.60 65.12 23.58
204 17.42 45.66 17.71 44.84 19.42
205 17.64 67.51 16.99 162.47 35.87
206 17.54 61.30 16.50 178.53 25.28
207 17.86 63.37 17.40 189.88 22.28
208 17.96 53.24 18.08 86.25 26.86
209 17.80 22.93 9.87 23.48 11.77
210 17.83 37.12 12.98 35.16 15.30
211 18.25 72.62 15.26 146.43 35.20
212 17.93 31.73 11.66 28.84 15.25
213 18.04 40.71 14.02 39.68 18.36
214 18.35 60.55 17.02 177.94 24.54
215 18.54 65.32 17.20 191.60 24.44
216 18.31 70.25 16.26 146.85 30.67
217 18.18 27.87 11.46 26.46 13.44
218 18.17 46.68 13.59 52.28 31.87
219 18.13 48.31 16.28 53.10 30.72
220 18.42 35.64 13.24 31.94 22.53
221 18.45 75.16 15.10 141.05 26.62
222 18.34 77.85 12.04 124.40 22.46
223 18.58 57.96 18.04 140.24 28.66
224 18.87 45.63 15.71 47.85 54.91
225 18.46 21.49 7.42 23.51 13.11
226 18.41 30.03 11.77 25.08 16.23
227 18.77 23.62 10.23 22.96 17.75
228 18.91 26.41 9.27 26.19 22.97
229 18.73 33.82 12.91 32.95 15.68
230 18.70 49.77 15.82 60.41 40.79
231 18.94 32.07 12.04 26.39 24.97
232 18.89 55.28 18.05 84.92 40.56
233 19.38 38.88 14.62 33.36 41.67
234 18.98 41.14 15.11 36.96 43.17
235 19.13 48.35 17.43 44.59 62.62
236 19.12 79.48 11.03 124.31 16.64
237 18.93 20.18 8.52 26.26 18.67
238 19.28 62.08 18.55 172.76 26.80
239 19.19 52.39 18.96 63.01 65.64
240 19.62 29.64 11.43 27.43 31.09
241 19.18 66.61 16.92 175.00 23.92
242 19.51 77.43 14.03 146.74 26.25
243 19.52 34.66 13.21 28.66 34.64
244 20.04 36.74 15.67 33.61 64.52
245 19.47 22.90 10.18 27.47 14.87
246 19.79 59.29 19.19 149.56 36.66
247 19.76 70.94 16.32 148.49 28.05
248 19.67 73.81 15.89 151.81 30.26
249 19.98 81.27 7.62 113.50 12.37
250 19.66 57.16 17.81 110.81 55.38
251 19.69 68.54 17.76 158.70 26.10
252 19.67 20.19 8.58 19.79 26.91
253 20.06 24.90 10.69 21.28 39.61
254 19.71 32.17 13.35 23.18 32.44
255 20.16 42.11 16.72 36.02 99.37
256 20.23 44.84 16.73 38.47 119.52
257 20.07 50.18 17.62 48.36 115.09
258 20.00 53.89 18.89 59.09 98.38
259 19.94 64.49 18.46 175.99 27.63
260 20.22 47.32 16.04 42.83 127.63
261 20.32 56.63 17.63 103.55 43.68
262 20.60 27.32 12.08 24.56 51.12
263 20.17 67.39 16.67 167.80 25.53
264 20.42 21.39 10.28 22.81 47.56
265 20.50 22.83 10.61 21.24 48.61
266 20.56 33.87 13.19 28.01 68.74
267 20.43 61.59 17.98 164.20 31.90
268 20.71 18.34 8.33 18.82 43.21
269 20.72 31.03 13.20 24.55 68.80
270 20.64 78.25 13.98 142.23 24.08
271 20.88 39.52 14.97 33.97 112.32
272 20.85 75.85 16.06 154.42 25.20
273 20.61 73.90 15.71 158.76 24.41
274 21.03 51.92 16.56 46.62 145.77
275 21.02 65.51 18.30 178.09 28.37
276 21.15 54.69 18.70 58.17 123.26
277 20.92 72.44 16.08 157.81 27.38
278 21.16 82.87 7.73 104.26 12.16
279 21.23 68.65 17.69 163.23 27.44
280 21.19 48.82 18.15 42.12 154.98
281 21.24 57.64 18.51 93.65 53.23
282 21.36 42.95 16.00 37.25 158.26
283 21.47 60.06 19.24 138.16 39.06
284 21.47 63.02 18.35 161.01 36.17
285 21.32 80.48 13.52 137.97 15.56
286 21.58 24.41 11.47 23.69 84.90
287 21.50 35.67 15.16 30.12 134.39
288 21.65 45.66 16.95 40.35 170.34
289 21.74 21.27 10.51 21.98 81.26
290 21.82 29.72 12.96 25.35 111.45
291 21.51 71.42 16.16 163.72 24.93
292 21.92 32.61 12.89 28.17 127.22
293 22.09 38.20 14.68 30.75 155.35
294 21.95 26.90 12.19 24.15 104.56
295 21.82 78.24 16.22 161.16 27.73
296 22.07 40.77 16.14 34.45 180.04
297 22.17 18.35 8.82 19.24 83.34
298 21.98 73.64 18.75 165.65 27.73
299 21.98 75.38 15.41 143.74 25.58
300 22.15 50.60 20.40 44.62 159.84
301 22.18 55.93 19.36 60.64 95.25
302 22.40 52.97 17.75 43.83 148.46
303 22.28 48.03 18.69 41.03 173.51
304 22.51 69.10 18.57 176.83 30.07
305 22.46 58.39 19.55 71.74 64.15
306 22.41 65.21 19.39 173.48 33.35
307 22.66 80.78 13.37 146.42 20.14
308 22.49 72.01 17.07 176.99 27.24
309 22.77 83.19 11.03 125.62 15.53
310 22.66 43.04 16.81 35.47 181.80
311 22.66 35.16 14.72 27.52 170.35
312 22.65 61.22 17.61 116.86 46.53
313 22.59 77.63 14.74 141.79 23.47
314 22.84 46.08 17.42 37.29 168.20
315 23.00 22.84 10.34 23.82 104.53
316 23.02 28.71 12.42 25.31 129.18
317 23.30 25.94 12.53 24.18 123.91
318 23.29 31.53 14.43 25.76 159.38
319 22.91 74.97 18.44 162.56 30.56
320 23.35 66.59 18.36 165.67 33.82
321 23.24 74.01 16.76 162.36 28.46
322 23.51 19.41 9.99 23.51 106.84
323 23.30 40.41 16.09 32.92 193.72
324 23.21 49.62 18.09 40.00 141.96
325 23.43 54.28 18.45 48.17 123.56
326 23.35 15.04 8.33 17.85 95.16
327 23.43 63.81 18.89 135.30 42.65
328 23.48 37.72 15.91 29.80 196.97
329 23.47 56.72 20.88 54.86 81.03
330 23.48 70.82 18.80 171.78 30.06
331 23.37 75.86 15.85 153.06 25.19
332 23.56 16.67 7.64 20.39 92.23
333 23.67 44.21 17.19 38.09 181.66
334 23.74 59.13 19.06 65.62 60.91
335 23.87 51.89 19.34 44.40 131.15
336 23.44 77.27 17.71 158.43 29.43
337 23.74 34.83 15.84 27.19 162.65
338 23.76 61.11 21.24 105.50 48.11
339 23.93 83.66 12.58 134.18 20.92
340 23.90 47.04 19.14 38.19 163.81
341 23.90 77.88 15.75 156.58 23.99
342 24.02 68.11 20.56 174.07 37.22
343 24.06 80.67 15.19 141.89 25.88
344 24.30 72.73 17.67 163.16 30.83
345 24.35 41.86 17.58 34.61 173.38
346 24.47 22.19 11.52 23.58 124.92
347 24.51 24.86 11.67 23.87 127.37
348 24.38 32.65 13.88 27.65 155.79
349 24.35 28.73 12.03 22.79 151.05
350 24.45 49.53 18.62 41.22 143.38
351 24.60 38.82 16.75 32.55 168.05
352 24.61 86.42 7.62 80.77 12.08
353 24.64 57.06 18.47 50.88 76.86
354 24.68 65.19 20.56 132.59 43.23
355 24.66 54.25 17.81 43.56 91.96
356 24.76 74.83 18.26 154.19 32.03
357 24.84 16.38 9.09 21.21 97.81
358 24.83 35.88 16.02 31.00 163.18
359 24.79 70.57 19.66 165.41 37.38
360 24.86 77.61 17.46 148.89 36.18
361 24.90 44.57 17.02 36.26 158.22
362 25.03 19.48 10.72 21.91 113.01
363 24.83 59.74 19.70 72.71 58.19
364 24.91 62.63 19.24 106.44 56.98
365 24.99 47.06 18.73 40.23 163.74
366 25.19 30.92 14.28 27.03 159.39
367 25.24 51.27 18.79 44.67 113.71
368 25.25 82.00 15.04 141.48 31.46
369 25.23 84.21 13.03 124.58 28.61
370 25.39 67.63 19.81 161.48 40.72
371 25.43 26.99 12.45 23.01 129.82
372 25.43 40.46 16.94 34.99 174.92
373 25.22 78.73 15.37 138.71 31.82
374 25.52 80.37 17.41 141.41 33.57
375 25.73 33.57 14.54 29.96 147.15
376 25.80 43.11 18.99 36.38 153.39
377 25.72 55.83 20.43 59.07 87.63
378 25.65 58.32 21.21 78.29 73.64
379 25.79 53.35 20.02 48.59 100.23
380 25.92 36.75 17.00 29.72 150.98
381 25.82 48.67 20.91 40.21 110.69
382 25.76 64.14 21.63 136.97 55.04
383 25.68 86.82 10.48 84.69 20.84
384 26.06 61.19 21.89 115.98 61.34
385 25.88 69.90 20.31 161.06 39.31
386 25.77 71.60 21.96 161.30 43.51
387 25.86 75.68 20.37 149.60 37.11
388 25.80 14.37 10.11 20.77 83.65
389 26.02 21.53 11.91 22.96 99.39
390 26.00 24.25 12.39 22.64 110.93
391 26.15 29.17 14.87 26.84 141.40
392 25.96 73.64 21.79 161.31 44.66
393 26.25 45.53 19.67 39.23 127.00
394 26.31 18.24 10.85 22.49 80.38
395 26.22 78.23 19.19 134.14 43.78
396 26.44 38.75 16.38 33.40 163.96
397 26.50 85.24 18.07 112.02 44.07
398 26.22 16.21 9.58 20.22 81.42
399 26.43 66.97 22.17 146.97 49.90
400 26.73 31.43 15.54 30.93 146.53
401 26.55 51.13 20.94 48.80 97.62
402 26.54 81.44 18.83 128.22 44.13
403 26.45 87.62 9.38 75.97 16.95
404 26.66 41.22 18.05 36.51 148.91
405 26.80 56.90 21.46 92.92 69.51
406 26.55 83.12 19.22 118.71 47.86
407 26.88 27.14 14.11 25.89 117.08
408 26.93 59.27 22.41 121.24 69.96
409 26.86 70.63 27.14 156.45 57.27
410 26.93 34.45 15.70 29.35 137.21
411 26.82 76.93 22.24 134.30 43.72
412 26.86 48.06 18.97 42.85 93.86
413 26.79 54.12 19.31 62.72 83.72
414 26.74 64.08 21.81 140.11 66.03
415 27.12 80.00 26.55 122.80 55.01
416 27.26 12.47 8.57 19.94 61.28
417 27.19 74.75 30.21 129.21 56.90
418 27.39 22.15 12.14 23.70 83.08
419 27.36 43.09 18.93 39.52 123.88
420 27.41 36.79 17.19 33.11 130.87
421 27.28 15.06 10.68 22.32 67.08
422 27.36 24.79 13.50 26.26 108.79
423 27.43 62.03 26.05 147.19 72.59
424 27.45 17.58 10.79 18.77 78.92
425 27.55 19.61 12.07 24.67 76.94
426 27.56 45.37 20.12 47.93 102.35
427 27.45 66.38 26.79 143.66 57.09
428 27.67 52.55 23.14 109.81 85.71
429 27.32 64.55 27.53 153.40 61.00
430 27.67 50.05 23.35 67.42 93.17
431 27.57 86.71 20.71 62.76 38.67
432 27.81 68.65 58.29 135.95 71.53
433 27.70 72.04 55.82 133.15 64.30
434 27.82 29.30 14.08 27.84 103.47
435 27.63 39.45 17.75 36.34 118.80
436 27.90 55.41 23.09 120.68 79.64
437 27.80 77.25 38.36 108.44 68.64
438 27.73 82.86 37.98 90.69 80.19
439 27.72 15.80 11.45 23.45 64.17
440 27.89 32.67 16.78 32.12 106.13
441 27.97 65.33 35.30 132.16 62.77
442 27.97 47.49 21.58 58.45 107.22
443 28.57 58.18 35.24 132.01 97.60
444 28.27 60.43 44.66 140.35 86.60
445 28.38 26.50 14.55 30.94 93.38
446 28.45 35.45 17.98 33.76 110.16
447 28.44 41.17 19.29 41.64 107.11
448 28.33 63.46 47.07 127.93 74.70
449 28.26 73.47 111.07 88.31 89.35
450 28.26 79.81 59.90 87.33 96.63
451 28.67 23.55 12.74 26.91 84.12
452 28.61 43.52 20.36 57.10 101.17
453 28.62 16.79 10.74 21.44 62.79
454 28.71 38.46 20.88 40.44 93.00
455 28.73 20.73 13.41 25.89 69.74
456 28.84 30.58 15.52 31.81 96.91
457 28.91 51.19 25.56 127.83 91.17
458 28.86 53.80 26.56 145.97 90.42
459 28.69 13.10 10.48 20.48 57.71
460 28.91 77.24 136.85 61.36 97.85
461 28.74 87.57 35.36 38.12 46.01
462 28.87 45.94 24.08 72.09 93.23
463 28.71 83.01 69.03 49.84 93.21
464 28.72 10.49 9.27 18.51 56.62
465 28.79 48.75 23.74 87.13 90.47
466 29.12 71.45 189.23 56.81 107.42
467 29.02 33.04 17.08 34.42 91.13
468 29.28 69.15 187.75 63.35 110.77
469 29.18 74.45 178.93 53.66 109.42
470 29.24 80.60 99.58 44.60 112.59
471 29.24 66.50 175.22 67.08 95.55
472 29.38 27.88 16.31 32.33 90.76
473 29.32 56.14 33.63 148.30 100.02
474 29.12 64.22 119.33 97.44 123.12
475 29.35 85.68 50.78 38.70 86.15
476 29.25 14.47 10.08 22.04 56.55
477 29.51 36.64 19.33 41.43 102.78
478 29.90 88.81 25.85 29.89 62.22
479 29.71 24.56 13.89 30.31 76.45
480 29.63 41.18 21.78 73.84 106.94
481 29.69 17.84 12.06 25.13 61.31
482 29.69 43.95 23.93 103.92 96.15
483 29.88 34.32 19.64 47.50 98.26
484 30.09 48.18 29.96 138.46 101.75
485 29.84 62.44 201.32 60.74 123.80
486 29.84 84.12 77.07 37.63 142.43
487 29.78 10.52 10.53 20.35 54.00
488 29.87 12.81 10.23 20.89 55.79
489 29.68 15.60 11.67 22.50 53.89
490 29.98 38.71 21.98 57.10 90.88
491 29.85 53.40 34.96 145.19 102.10
492 29.89 59.61 158.14 71.57 147.56
493 29.95 21.15 13.17 27.56 63.64
494 30.07 29.74 16.35 41.86 90.72
495 30.11 50.65 32.16 148.27 106.80
496 29.82 78.83 112.78 44.57 142.74
497 30.20 31.96 17.96 52.38 92.70
498 30.22 82.54 83.42 38.53 138.53
499 30.09 57.03 67.13 119.39 148.78
500 30.40 75.19 162.12 42.79 144.50
501 30.46 64.60 215.94 47.62 152.91
502 30.30 77.45 117.34 42.44 172.81
503 30.37 45.65 27.94 108.11 109.94
504 30.46 67.34 203.10 43.23 135.39
505 30.49 26.36 18.18 41.18 91.41
506 30.48 70.12 184.71 47.08 143.57
507 30.58 72.62 158.32 44.08 148.09
508 30.60 15.24 12.39 26.16 59.49
509 30.82 86.32 36.09 31.44 109.11
510 30.70 35.67 21.14 78.82 108.45
511 30.72 42.77 27.86 112.19 103.03
512 30.88 80.35 62.85 39.92 127.09
513 30.83 61.17 207.00 48.21 179.60
514 30.83 18.65 15.12 31.50 70.46
515 30.88 40.10 25.68 118.86 104.86
516 30.98 23.57 15.59 39.85 77.38
517 30.73 52.19 56.66 120.06 141.89
518 30.91 58.29 210.68 55.39 178.38
519 30.78 17.12 13.62 28.48 64.00
520 30.76 12.48 14.29 29.29 62.94
521 31.13 28.18 19.04 74.57 86.95
522 31.19 55.85 218.20 60.03 170.58
523 31.16 21.06 15.31 46.22 74.50
524 31.24 33.03 22.11 91.37 105.94
525 30.98 47.70 36.13 135.17 120.65
526 31.27 37.34 27.26 107.22 108.87
527 31.28 11.33 14.07 29.43 60.17
528 31.18 13.41 13.05 27.34 61.89
529 31.32 30.58 19.64 74.53 103.48
530 31.27 83.86 43.15 35.25 131.49
531 31.35 45.48 42.11 128.40 125.85
532 31.59 9.01 12.91 33.91 51.49
533 31.56 63.15 170.79 44.42 171.30
534 31.53 89.26 17.88 26.50 56.03
535 31.46 50.37 92.94 82.33 166.61
536 31.55 53.35 205.45 57.24 172.98
537 31.63 66.13 148.93 39.96 166.20
538 31.52 77.09 65.53 37.39 138.42
539 31.58 82.22 40.76 36.84 135.00
540 31.70 68.75 129.26 40.61 159.44
541 31.66 25.69 20.37 66.45 93.82
542 31.77 74.17 87.77 39.59 146.84
543 31.74 41.05 39.41 128.32 132.24
544 31.85 71.42 93.24 36.80 152.26
545 31.82 47.42 73.52 105.71 162.87
546 31.92 34.64 29.53 100.44 120.76
547 31.76 43.23 57.19 130.51 149.72
548 31.93 60.10 175.96 46.91 207.29
549 31.93 15.06 14.96 39.66 62.54
550 31.92 18.33 16.92 40.24 69.67
551 32.04 38.44 39.91 105.18 132.04
552 32.29 57.69 196.17 45.28 209.02
553 32.11 86.47 22.45 28.19 95.52
554 32.23 28.94 24.75 87.72 94.60
555 32.35 20.91 20.77 69.22 86.31
556 32.39 23.37 22.44 73.05 86.58
557 32.47 51.34 213.97 45.91 200.96
558 32.32 78.96 40.46 33.56 128.71
559 32.39 48.87 203.76 57.84 181.10
560 32.59 55.62 178.28 40.16 208.98
561 32.47 10.41 20.23 42.64 70.61
562 32.48 31.69 32.39 85.77 116.54
563 32.48 44.79 168.23 67.48 174.91
564 32.50 84.30 27.59 33.54 111.76
565 32.51 64.67 117.81 39.43 186.24
566 32.68 35.92 65.09 90.05 154.80
567 32.68 42.18 196.00 55.88 161.49
568 32.46 16.77 14.27 43.00 61.64
569 32.81 53.59 198.11 41.89 218.61
570 32.83 61.89 120.79 40.66 191.43
571 32.74 25.78 26.88 73.94 102.82
572 32.76 75.75 36.91 34.49 140.51
573 32.97 89.00 17.70 29.44 58.80
574 32.83 39.89 98.91 68.18 162.65
575 32.91 69.45 75.10 37.31 147.22
576 32.98 82.37 26.10 33.11 94.05
577 32.95 72.62 43.70 37.74 137.48
578 33.09 46.80 222.72 50.24 205.40
579 33.19 66.80 66.65 36.62 162.38
580 33.02 13.19 32.55 39.18 87.28
581 33.13 33.54 60.48 79.47 166.90
582 33.10 18.41 29.93 54.86 94.65
583 33.25 27.67 39.37 84.86 133.49
584 33.14 37.74 127.34 71.11 162.89
585 33.33 59.55 119.86 40.42 203.86
586 33.26 15.19 52.43 36.36 95.70
587 33.36 29.75 68.92 65.79 140.48
588 33.49 80.23 28.26 34.41 95.30
589 33.32 86.26 24.19 28.96 70.28
590 33.49 21.07 36.09 41.68 120.99
591 33.49 49.41 198.80 42.55 220.98
592 33.71 43.28 203.81 45.30 195.90
593 33.64 23.43 50.48 59.25 137.42
594 33.75 57.45 82.76 38.49 220.63
595 33.62 63.58 68.28 35.93 181.26
596 33.67 16.47 63.82 36.30 109.09
597 33.78 31.70 169.43 43.66 164.95
598 33.81 77.25 33.11 37.75 99.60
599 33.73 7.98 52.50 26.12 77.36
600 33.80 52.09 157.43 40.33 223.69
601 33.82 40.65 209.71 43.07 191.23
602 33.86 10.55 90.69 27.54 105.54
603 33.90 54.81 88.24 39.20 217.24
604 34.01 25.67 124.39 38.87 148.18
605 33.90 35.45 197.41 42.08 197.13
606 34.01 74.80 28.61 36.14 99.08
607 33.97 85.54 27.29 29.87 62.05
608 33.99 70.19 33.17 36.68 116.52
609 34.08 45.50 185.14 42.53 225.71
610 33.84 90.47 20.89 29.44 27.04
611 34.25 72.39 29.44 38.39 112.00
612 34.19 37.71 187.88 42.19 194.82
613 34.25 61.15 56.19 36.12 177.58
614 34.44 82.31 28.12 35.79 64.95
615 34.42 67.74 34.70 36.48 127.81
616 34.29 88.40 33.02 26.70 48.45
617 34.36 14.36 117.78 26.87 118.49
618 34.42 18.41 135.05 31.01 129.82
619 34.47 47.83 158.74 42.06 231.07
620 34.51 64.45 36.82 37.04 146.56
621 34.62 33.39 182.56 38.34 206.46
622 34.71 27.61 185.21 34.55 180.12
623 34.54 29.87 182.70 34.55 183.73
624 34.63 50.23 97.84 37.04 209.16
625 34.78 20.99 144.66 29.04 169.43
626 35.01 91.49 68.80 26.28 17.81
627 34.83 23.43 174.56 30.14 173.40
628 34.94 58.95 42.04 35.22 187.28
629 34.85 56.23 52.63 34.88 190.62
630 34.75 79.42 30.17 34.62 68.69
631 34.92 38.90 187.31 38.99 215.01
632 35.10 8.60 111.73 20.78 112.13
633 35.05 41.33 170.08 37.92 220.63
634 35.05 43.58 151.92 40.11 224.20
635 34.98 52.78 67.35 40.73 211.59
636 34.82 15.48 122.05 25.10 104.75
637 35.02 76.65 29.98 35.38 68.62
638 35.24 11.13 116.29 23.48 124.06
639 35.21 35.36 177.32 36.30 220.22
640 35.34 31.56 155.36 32.54 218.17
641 35.43 25.22 151.71 31.77 182.07
642 35.26 46.02 131.80 37.62 229.72
643 35.30 70.30 27.48 37.08 92.02
644 35.44 16.43 113.73 23.44 133.56
645 35.30 65.70 30.66 37.32 115.82
646 35.33 73.60 30.02 33.88 73.48
647 35.38 61.63 35.49 33.82 139.45
648 35.47 87.89 110.75 30.38 29.70
649 35.54 81.30 78.34 35.41 43.30
650 35.59 13.03 88.88 22.69 126.25
651 35.83 49.76 51.07 36.36 188.69
652 35.83 67.63 26.00 37.38 88.86
653 35.81 36.98 171.01 35.79 234.37
654 35.78 54.51 41.16 35.81 193.42
655 35.93 19.01 131.59 25.70 169.82
656 35.86 28.97 152.78 30.08 214.23
657 35.70 79.29 72.39 34.27 38.58
658 35.99 22.03 146.82 28.91 185.28
659 36.05 56.96 35.34 35.35 162.86
660 35.99 39.53 150.43 35.28 217.90
661 36.18 47.45 59.75 35.52 207.39
662 35.99 77.39 71.41 35.74 42.78
663 36.07 82.84 127.96 35.45 35.34
664 36.21 33.51 125.09 32.58 218.02
665 36.16 64.02 29.75 32.85 105.44
666 36.33 26.57 144.69 28.05 212.83
667 36.28 59.29 31.17 35.04 143.24
668 36.28 44.53 72.97 36.08 215.74
669 36.33 52.13 39.88 37.23 183.56
670 36.32 42.03 89.08 34.39 224.22
671 36.22 75.01 52.37 33.21 57.25
672 36.29 72.08 35.46 33.95 74.96
673 36.55 30.70 99.35 30.07 218.46
674 36.60 69.32 32.56 34.70 77.79
675 36.39 89.78 95.28 29.76 17.66
676 36.51 9.63 79.52 18.66 129.71
677 36.65 12.93 75.77 21.47 145.19
678 36.79 61.39 28.76 35.39 99.19
679 36.84 80.03 159.95 36.73 32.45
680 36.85 23.92 123.54 27.16 206.65
681 36.72 91.29 69.60 26.97 13.43
682 36.76 16.79 95.42 23.07 163.25
683 36.93 35.72 66.18 32.31 224.63
684 36.80 86.84 146.17 34.51 20.48
685 36.87 38.28 80.13 33.42 218.74
686 37.00 6.99 61.18 17.80 121.50
687 36.95 54.59 29.85 38.11 143.21
688 37.05 66.42 31.01 37.20 77.71
689 37.06 49.48 30.67 34.66 163.44
690 37.18 76.62 175.46 36.00 33.86
691 37.21 28.25 74.97 26.55 219.01
692 37.32 21.41 80.61 25.50 199.41
693 37.34 73.57 166.46 39.17 36.43
694 37.29 19.11 77.53 22.34 167.57
695 37.21 46.08 36.71 36.37 182.29
696 37.04 10.66 58.05 20.71 127.33
697 37.37 56.99 32.81 36.55 120.84
698 37.41 31.79 52.35 28.38 210.92
699 37.29 63.74 33.93 34.77 87.05
700 37.49 40.41 45.67 31.76 203.80
701 37.28 70.92 84.05 38.58 48.72
702 37.28 84.32 153.84 37.49 23.72
703 37.62 33.86 50.88 29.38 204.65
704 37.43 43.21 47.44 31.79 214.72
705 37.54 52.29 30.96 35.27 153.96
706 37.67 89.18 111.65 30.81 17.17
707 37.63 25.65 78.18 25.52 206.92
708 37.73 59.14 32.43 34.84 100.37
709 37.68 82.96 136.28 36.05 21.91
710 37.60 9.04 61.11 20.19 131.72
711 37.75 68.56 72.63 35.73 60.90
712 38.05 29.79 44.99 26.10 206.50
713 37.91 37.20 38.76 29.26 189.56
714 37.81 13.95 47.11 22.51 133.47
715 38.01 47.77 30.66 35.15 153.37
716 38.19 91.97 56.76 27.93 11.28
717 38.21 10.59 43.42 19.52 115.52
718 38.07 16.81 56.01 23.32 150.67
719 38.00 61.39 37.72 33.54 80.46
720 38.12 80.26 175.26 32.36 21.80
721 38.28 22.86 51.40 25.49 192.39
722 38.26 50.41 30.18 32.56 131.54
723 38.22 54.81 33.88 36.47 102.86
724 38.01 86.55 120.35 33.16 18.91
725 38.36 44.65 30.54 33.86 173.94
726 38.27 66.33 89.14 38.11 49.92
727 38.26 64.01 79.45 34.81 58.10
728 38.44 77.54 194.36 35.88 25.88
729 38.25 8.65 44.27 17.29 122.33
730 38.56 42.02 31.46 34.42 165.62
731 38.47 71.17 151.70 35.95 33.38
732 38.62 27.61 35.47 26.70 192.74
733 38.55 19.73 42.31 22.44 167.79
734 38.60 74.50 187.75 38.34 24.82
735 38.48 34.81 32.34 28.93 180.66
736 38.70 39.35 31.98 33.60 168.01
737 38.56 56.89 46.86 36.12 97.84
738 38.74 31.90 33.36 27.34 175.18
739 38.75 81.59 155.26 36.82 19.91
740 38.73 86.04 109.73 34.57 16.47
741 38.76 25.13 41.99 24.34 197.43
742 38.60 13.56 34.30 23.39 128.11
743 38.80 52.66 35.06 36.60 103.39
744 38.99 83.56 119.40 33.76 17.95
745 38.87 59.09 89.67 36.90 57.57
746 38.99 61.69 118.98 37.03 50.85
747 39.03 36.65 30.81 30.97 160.47
748 39.06 46.46 31.38 36.17 122.90
749 38.98 88.87 92.69 29.24 14.10
750 39.14 68.19 176.79 38.69 34.82
751 39.09 33.97 30.47 29.62 171.00
752 39.17 48.88 37.44 33.47 102.99
753 39.39 7.58 20.35 18.06 114.28
754 39.15 14.83 27.18 23.05 125.00
755 39.33 29.54 29.76 28.62 168.68
756 39.40 64.72 166.70 37.73 37.21
757 39.33 17.37 26.42 22.19 126.43
758 39.56 20.93 27.28 24.78 156.46
759 39.29 54.71 79.57 33.17 77.07
760 39.31 9.45 23.97 19.36 118.78
761 39.53 91.90 46.30 26.81 10.93
762 39.52 11.81 21.47 21.03 100.60
763 39.29 23.08 31.81 26.07 173.56
764 39.45 79.21 146.56 36.17 18.54
765 39.64 43.18 31.93 35.30 128.48
766 39.48 50.89 61.02 33.95 92.67
767 39.72 56.79 185.42 39.28 46.98
768 39.77 76.31 148.83 36.83 19.44
769 39.83 40.47 31.74 31.83 138.62
770 39.76 71.04 173.08 37.97 26.14
771 39.51 86.26 86.50 35.19 14.31
772 39.82 25.50 28.36 24.81 151.29
773 39.86 73.57 148.76 41.36 24.23
774 39.98 31.29 28.65 28.80 128.14
775 40.07 38.05 32.32 31.63 119.04
776 40.01 85.29 79.97 33.67 14.73
777 40.10 27.53 26.95 25.95 154.46
778 40.12 35.28 30.57 28.70 125.99
779 40.01 52.78 156.12 34.51 55.82
780 40.09 59.40 191.02 38.39 39.15
781 39.97 45.50 38.36 34.30 115.22
782 40.11 62.31 194.84 37.55 32.82
783 39.97 23.20 27.24 27.42 152.93
784 40.34 33.14 35.82 29.39 110.12
785 40.12 81.06 110.77 36.85 19.01
786 39.99 94.00 18.71 28.11 9.95
787 40.33 88.30 75.29 30.92 11.74
788 40.17 47.90 73.76 34.52 90.06
789 40.34 66.66 196.08 38.40 28.82
790 40.17 83.11 88.11 34.16 16.19
791 40.28 15.17 19.84 23.10 93.19
792 40.38 18.53 22.05 22.32 114.41
793 40.45 50.21 151.07 37.96 51.36
794 40.76 54.47 202.56 38.31 37.96
795 40.68 69.08 163.63 37.91 21.72
796 40.67 10.87 19.55 21.14 84.26
797 40.75 29.39 35.25 26.27 123.06
798 40.78 8.53 17.22 18.18 85.35
799 40.65 43.86 78.34 33.83 86.40
800 40.83 21.26 23.76 23.78 113.82
801 40.67 41.69 54.79 32.77 88.37
802 40.79 78.29 102.57 36.62 15.25
803 40.99 64.52 161.27 37.73 24.91
804 41.13 13.29 19.12 22.16 70.85
805 40.78 91.23 34.72 28.46 9.90
806 40.88 93.83 15.50 24.70 7.45
807 40.91 24.69 28.07 25.08 103.97
808 40.95 46.17 136.96 36.80 58.12
809 40.95 74.70 108.56 37.74 16.88
810 41.02 56.67 193.30 36.21 31.54
811 41.05 71.61 123.16 38.15 19.40
812 40.98 36.47 56.68 31.30 92.12
813 41.06 39.21 67.20 33.07 87.65
814 41.18 61.24 159.67 38.98 25.08
815 41.42 84.09 54.81 32.22 14.19
816 41.15 85.37 56.12 32.51 12.49
817 41.42 48.56 187.46 37.22 42.65
818 41.30 51.82 193.69 39.59 35.47
819 41.28 31.17 53.50 29.77 87.20
820 41.34 27.04 35.14 25.55 107.55
821 41.31 81.57 66.20 36.51 14.33
822 41.41 58.92 173.12 38.04 30.49
823 41.35 34.16 69.15 29.35 83.83
824 41.46 18.37 26.02 22.79 79.84
825 41.47 15.80 21.86 20.49 64.52
826 41.65 40.95 173.84 36.25 61.09
827 41.63 22.85 37.43 22.14 96.88
828 41.63 67.23 121.04 40.20 20.80
829 41.60 87.86 43.37 29.07 11.01
830 41.69 90.73 25.54 33.11 10.84
831 41.71 43.53 173.89 36.07 48.18
832 41.80 36.94 162.41 34.05 54.78
833 41.82 6.51 23.24 16.64 63.53
834 41.59 11.72 24.12 18.29 60.00
835 41.91 28.77 112.30 27.37 66.95
836 42.02 32.60 152.26 31.67 56.36
837 42.05 62.84 123.31 37.59 19.52
838 42.07 72.88 71.40 35.88 16.39
839 42.03 79.06 60.30 35.28 14.14
840 42.10 69.82 82.99 36.68 18.63
841 42.12 76.12 64.34 35.74 13.45
842 42.04 20.57 46.48 23.30 80.92
843 42.11 55.14 168.00 41.62 27.33
844 41.90 93.95 15.74 26.22 7.41
845 42.04 25.15 52.77 23.65 74.72
846 42.25 45.98 177.26 35.47 35.00
847 42.05 9.70 25.66 17.48 58.55
848 42.30 52.87 166.28 39.29 26.10
849 42.32 57.51 148.29 41.80 21.52
850 42.35 65.11 101.07 38.57 17.12
851 42.49 34.62 179.09 32.29 44.73
852 42.60 39.22 199.88 34.21 39.52
853 42.42 50.48 146.97 38.84 27.21
854 42.45 60.25 132.83 37.10 19.43
855 42.33 82.21 40.61 36.07 12.46
856 42.56 30.62 152.34 29.26 45.30
857 42.26 92.09 22.73 29.60 9.60
858 42.50 12.68 42.72 22.02 47.34
859 42.55 85.98 35.69 32.90 10.10
860 42.64 16.11 84.65 22.76 40.69
861 42.56 18.45 77.62 23.14 46.79
862 42.88 26.77 158.90 30.46 44.72
863 42.67 22.71 117.38 24.41 51.76
864 42.71 48.10 164.09 36.38 30.48
865 42.93 41.66 204.86 34.57 38.12
866 42.86 5.08 73.38 16.61 32.90
867 42.89 67.47 71.53 37.31 16.78
868 43.00 7.23 92.55 18.16 37.44
869 42.97 44.03 191.11 37.12 32.64
870 42.98 74.11 47.74 33.48 13.03
871 42.98 36.86 168.47 32.49 33.86
872 43.10 91.76 26.05 29.14 7.38
873 43.26 20.51 129.67 25.35 39.62
874 43.26 28.73 186.00 28.05 33.94
875 43.13 71.48 49.74 37.94 15.44
876 43.25 24.65 168.56 27.78 37.43
877 43.15 78.14 42.71 33.90 12.30
878 43.28 10.45 80.68 21.02 26.91
879 43.38 53.97 135.75 37.57 21.67
880 43.17 62.14 83.31 40.20 19.28
881 43.32 83.30 31.30 36.07 12.01
882 43.40 32.73 180.76 30.37 32.14
883 43.34 56.20 127.59 35.31 17.54
884 43.41 58.85 100.25 35.31 15.25
885 43.63 51.76 135.27 38.14 20.06
886 43.53 69.40 47.04 36.08 15.54
887 43.52 64.82 69.14 36.51 15.92
888 43.55 49.39 128.84 37.39 21.01
889 43.41 86.62 31.41 34.21 10.90
890 43.78 18.21 138.83 22.45 27.24
891 43.63 46.00 163.80 34.97 24.61
892 43.60 8.91 87.61 18.47 33.53
893 43.79 35.04 164.30 30.48 28.31
894 43.86 87.82 35.95 32.57 9.59
895 43.91 15.74 108.88 21.71 22.08
896 43.86 30.62 159.69 29.67 26.36
897 44.10 73.12 43.21 35.82 12.94
898 43.84 11.46 91.44 20.44 25.24
899 43.99 13.38 97.67 21.39 18.49
900 43.85 38.14 163.23 34.87 24.03
901 43.97 22.74 151.82 25.88 31.69
902 43.92 75.80 42.36 35.89 12.12
903 44.09 40.64 172.85 36.09 23.48
904 44.02 43.08 162.90 36.56 22.75
905 43.69 92.40 26.11 24.11 7.56
906 43.67 74.68 32.80 49.80 16.80
907 44.19 66.84 50.91 37.65 13.89
908 44.14 62.53 53.18 39.44 15.79
909 44.23 78.67 31.33 39.33 13.10
910 44.24 27.43 173.03 29.74 25.18
911 44.38 60.21 72.62 38.02 15.07
912 44.24 71.26 46.02 42.02 13.71
913 44.25 89.77 44.52 31.15 7.82
914 44.35 83.02 38.80 35.01 11.71
915 44.44 25.34 151.15 26.13 24.28
916 44.39 47.54 127.72 34.18 18.90
917 44.52 7.39 100.34 18.43 15.42
918 44.44 55.12 88.52 38.83 16.07
919 44.37 57.66 61.15 39.71 15.60
920 44.59 20.49 124.03 23.48 20.02
921 44.63 32.13 145.73 27.59 19.20
922 44.48 95.29 20.68 26.86 9.14
923 44.60 91.78 43.28 29.63 10.58
924 44.62 50.06 117.30 37.35 17.48
925 44.81 52.68 84.92 35.28 14.55
926 44.75 64.25 49.83 38.03 13.52
927 44.81 29.20 146.32 29.52 18.73
928 44.79 36.44 130.68 33.22 20.62
929 44.72 44.75 119.10 34.52 18.10
930 44.78 68.74 45.31 39.38 13.14
931 44.87 34.25 134.63 29.20 18.79
932 44.58 75.99 30.47 42.35 13.47
933 44.84 12.02 103.16 21.81 15.49
934 44.89 38.98 128.52 33.59 17.91
935 45.13 10.23 95.49 19.88 14.53
936 44.98 17.40 113.73 22.09 15.73
937 45.06 75.25 44.27 36.16 11.90
938 45.03 85.43 62.29 34.87 10.63
939 45.08 23.21 147.33 27.58 20.11
940 44.92 70.96 47.07 34.90 13.67
941 45.32 87.75 102.85 33.29 9.08
942 45.20 14.47 95.16 22.83 14.52
943 45.19 79.87 56.17 37.65 11.32
944 45.21 42.42 108.36 34.34 15.67
945 45.23 56.74 46.30 37.06 14.48
946 45.54 61.32 41.10 41.62 13.65
947 45.41 89.87 114.84 31.03 9.86
948 45.41 73.03 50.75 38.12 12.21
949 45.68 92.83 106.84 27.47 8.42
950 45.45 46.23 96.20 35.15 16.15
951 45.48 27.54 115.51 28.18 16.08
952 45.49 66.34 44.00 35.19 12.83
953 45.58 48.49 65.97 32.83 14.26
954 45.64 30.65 113.15 30.51 15.34
955 45.72 21.29 113.08 25.96 15.44
956 45.63 54.50 48.52 35.15 13.61
957 45.67 82.62 116.60 36.16 11.92
958 45.80 19.12 109.72 24.03 14.09
959 45.73 25.21 117.96 27.50 16.45
960 45.68 50.76 61.96 40.28 14.22
961 45.29 67.73 32.60 48.40 14.00
962 45.73 76.71 85.40 39.93 11.72
963 45.75 5.21 66.70 18.15 9.07
964 45.78 40.22 92.33 33.30 16.89
965 45.69 78.08 93.40 38.58 11.60
966 45.85 32.80 97.34 30.15 14.15
967 45.83 37.44 93.14 29.68 15.38
968 45.81 63.58 43.53 40.06 13.90
969 45.98 70.97 48.67 39.34 13.03
970 46.03 35.01 92.70 30.51 15.07
971 46.12 44.13 58.07 33.84 14.32
972 46.17 16.09 77.77 23.03 11.99
973 46.32 9.09 64.47 20.34 9.48
974 46.23 12.73 74.04 21.88 12.14
975 46.33 74.56 113.38 38.16 12.24
976 46.37 23.05 85.30 26.25 12.92
977 46.41 79.66 170.91 38.34 11.99
978 46.43 29.10 79.61 24.86 13.23
979 46.17 62.45 29.93 44.71 13.93
980 46.51 85.34 175.60 35.04 10.58
981 46.44 58.79 46.34 40.53 13.73
982 46.64 26.69 92.98 25.99 11.97
983 46.49 46.46 52.79 35.55 14.08
984 46.55 42.03 55.99 29.97 13.83
985 46.57 66.25 66.08 38.30 12.34
986 46.62 48.84 43.82 39.82 14.27
987 46.36 50.31 30.88 49.12 13.25
988 46.79 94.37 79.62 27.00 9.90
989 46.98 18.19 68.70 23.89 11.37
990 46.81 31.76 71.63 32.96 12.71
991 46.72 63.57 56.35 38.71 13.31
992 46.91 69.48 103.82 38.47 12.99
993 46.80 88.51 180.40 29.55 9.21
994 46.88 91.18 172.17 30.83 7.88
995 47.10 20.55 66.50 25.89 10.41
996 46.92 51.51 42.87 40.89 13.67
997 46.81 37.34 51.59 31.61 12.73
998 46.90 39.61 51.58 33.01 13.38
999 47.03 72.31 77.42 39.68 12.10
1000 47.27 4.72 33.73 15.40 6.40
1001 47.03 77.01 194.44 38.89 11.65
1002 47.19 14.40 56.81 22.45 10.20
1003 47.18 24.58 58.71 27.27 11.32
1004 47.05 6.38 48.05 18.97 7.31
1005 47.08 34.90 44.19 31.16 12.07
1006 47.12 56.89 57.10 40.65 13.90
1007 46.98 49.97 34.12 46.56 14.62
1008 47.25 81.93 204.74 38.28 11.81
1009 47.26 44.17 44.12 32.63 12.38
1010 47.08 47.55 33.30 42.80 13.55
1011 47.47 61.82 117.37 42.50 14.22
1012 47.26 12.45 42.18 23.64 8.14
1013 47.52 7.23 40.93 17.49 7.54
1014 47.51 27.67 46.52 24.54 10.70
1015 47.50 59.32 101.36 40.73 13.26
1016 47.55 29.75 43.12 31.71 11.84
1017 47.42 9.34 39.72 18.72 8.06
1018 47.68 64.69 161.52 40.34 12.72
1019 47.45 10.78 33.00 20.94 7.91
1020 47.60 22.41 49.72 24.34 11.24
1021 47.56 41.54 47.72 33.01 11.74
1022 47.62 52.71 60.62 39.67 13.83
1023 47.81 54.80 95.23 37.25 12.61
1024 47.69 74.55 192.21 39.18 12.37
1025 47.72 67.51 201.22 40.40 11.51
1026 47.80 33.04 38.95 29.86 11.18
1027 47.58 46.64 44.25 33.02 11.70
1028 47.76 16.57 39.44 22.45 9.16
1029 47.93 85.36 172.15 34.88 11.12
1030 47.78 37.24 42.52 30.09 11.60
1031 48.03 89.06 187.28 31.98 8.82
1032 47.92 79.20 209.85 39.83 11.40
1033 48.10 93.10 133.01 29.28 8.56
1034 48.03 50.46 76.27 37.44 12.36
1035 47.98 39.21 44.45 32.57 10.78
1036 48.03 70.91 165.83 42.32 13.01
1037 48.10 25.76 38.83 27.21 11.35
1038 48.02 95.58 55.33 26.94 8.41
1039 48.05 35.14 38.41 29.83 11.24
1040 48.05 8.88 32.24 18.34 7.24
1041 48.25 57.46 180.23 41.66 13.22
1042 48.30 18.66 33.54 23.93 9.35
1043 48.15 42.98 52.25 33.25 11.66
1044 48.28 45.36 64.01 35.41 11.32
1045 48.40 76.99 217.35 39.33 10.98
1046 48.51 14.88 27.91 22.82 7.55
1047 48.47 23.40 32.91 25.70 8.25
1048 48.53 47.53 78.31 34.65 11.81
1049 48.70 11.59 26.93 22.12 7.75
1050 48.70 73.20 212.01 43.07 12.12
1051 48.50 6.94 25.78 17.41 5.92
1052 48.61 62.97 222.65 43.41 12.75
1053 48.81 29.45 46.06 28.90 10.31
1054 48.68 59.90 218.29 42.18 11.94
1055 48.68 21.13 32.31 23.19 8.00
1056 48.80 81.76 157.24 37.06 11.25
1057 48.78 40.64 79.47 33.76 11.43
1058 48.75 68.86 212.73 39.97 11.60
1059 48.69 9.75 24.39 24.47 6.72
1060 48.83 31.53 44.90 29.93 10.57
1061 48.78 65.95 210.12 41.92 13.61
1062 48.86 52.82 197.14 39.95 12.66
1063 48.91 37.73 95.89 34.02 10.54
1064 48.82 33.62 47.76 29.33 10.20
1065 49.01 26.82 43.59 27.42 9.77
1066 48.95 55.48 223.88 42.00 11.78
1067 49.07 87.47 131.58 35.03 9.69
1068 49.09 35.47 66.10 32.54 10.24
1069 49.21 50.07 202.28 39.45 12.19
1070 49.14 43.53 168.33 35.64 11.81
1071 49.03 24.82 38.96 24.62 8.09
1072 49.38 75.83 168.50 40.87 11.14
1073 49.18 93.94 53.32 27.82 9.67
1074 49.30 85.12 82.50 33.91 9.91
1075 49.47 5.61 28.62 16.84 4.56
1076 49.48 71.32 178.15 40.45 11.66
1077 49.49 90.90 81.33 31.11 8.11
1078 49.22 16.49 29.28 25.05 8.74
1079 49.35 19.16 34.19 23.13 8.19
1080 49.56 45.77 202.94 38.52 11.80
1081 49.48 61.62 221.24 39.29 11.46
1082 49.59 78.78 131.27 40.64 11.62
1083 49.57 57.50 235.53 40.23 12.14
1084 49.57 23.13 52.73 26.63 8.40
1085 49.57 13.85 40.02 23.49 7.94
1086 49.59 8.64 35.86 21.29 6.41
1087 49.76 10.50 39.97 20.13 6.88
1088 49.80 21.20 58.74 25.76 8.32
1089 49.79 47.99 225.36 40.76 11.49
1090 49.81 41.33 208.00 36.58 11.04
1091 49.78 32.40 116.14 31.42 9.33
1092 49.81 63.91 205.94 42.82 12.66
1093 49.90 29.82 135.24 30.74 10.38
1094 49.89 66.20 192.00 40.99 12.02
1095 50.00 27.68 138.35 28.55 8.99
1096 49.97 38.95 193.89 33.47 9.92
1097 49.92 54.63 235.71 41.34 12.01
1098 49.82 68.72 183.66 40.62 12.34
1099 50.03 59.75 214.78 41.92 11.84
1100 50.02 81.92 79.71 36.07 11.05
1101 50.15 95.19 31.49 25.74 7.00
1102 49.90 16.80 46.53 25.21 8.18
1103 50.13 25.28 123.70 28.40 8.43
1104 50.09 36.61 197.90 34.46 9.84
1105 50.06 52.22 229.93 39.05 12.32
1106 50.13 74.19 131.83 39.41 11.54
1107 50.18 34.35 166.57 30.79 10.19
1108 50.35 86.68 59.00 35.53 10.13
1109 50.32 43.63 221.86 40.42 11.13
1110 50.29 92.42 35.00 28.62 7.80
1111 50.49 19.24 106.57 24.92 7.83
1112 50.61 84.59 57.77 35.89 11.37
1113 50.87 7.87 102.30 20.16 5.70
1114 50.42 11.96 76.82 23.67 7.70
1115 50.72 14.30 130.59 24.04 7.50
1116 50.71 76.55 86.28 38.11 11.24
1117 50.72 49.53 212.35 39.48 11.47
1118 50.60 62.13 163.90 40.51 11.45
1119 50.66 72.34 103.16 41.36 11.50
1120 50.73 30.93 181.88 33.36 9.71
1121 50.78 56.03 174.46 38.13 11.04
1122 50.80 22.96 187.35 30.55 7.98
1123 50.78 69.84 113.49 40.78 12.10
1124 50.54 88.28 46.28 36.86 10.03
1125 50.82 46.71 215.57 38.40 11.66
1126 50.74 58.21 157.63 40.54 12.24
1127 51.03 10.46 106.07 22.52 6.88
1128 50.93 5.67 102.10 18.59 5.23
1129 50.99 67.44 136.33 40.90 11.43
1130 50.99 79.29 67.95 40.78 11.99
1131 50.91 89.59 36.46 36.47 9.20
1132 50.92 40.39 218.73 36.89 11.30
1133 50.88 64.84 126.72 40.59 11.54
1134 51.04 28.81 193.60 30.87 9.67
1135 51.16 53.89 182.00 40.09 11.26
1136 51.19 17.31 153.82 22.65 6.81
1137 51.13 37.44 212.13 33.14 10.42
1138 51.20 26.87 202.71 32.40 8.38
1139 51.20 51.64 186.78 42.12 10.93
1140 50.85 92.45 27.62 34.23 8.38
1141 51.18 32.81 197.32 33.44 9.06
1142 51.23 35.04 178.48 31.06 8.90
1143 51.37 44.77 178.74 38.44 11.11
1144 51.42 21.15 162.61 25.42 7.61
1145 51.40 60.43 115.12 40.26 11.40
1146 51.37 42.56 204.14 37.21 10.51
1147 51.36 82.37 49.70 37.57 11.85
1148 51.53 91.30 23.45 37.22 8.28
1149 51.54 24.71 200.35 28.73 8.27
1150 51.51 73.80 60.37 40.38 11.73
1151 51.39 95.11 14.25 29.56 8.38
1152 51.56 63.28 76.62 38.97 12.49
1153 51.39 86.59 34.44 38.98 10.73
1154 51.52 93.08 22.69 37.74 8.85
1155 51.67 71.35 54.89 42.67 11.35
1156 51.82 48.12 119.81 40.44 11.76
1157 51.82 30.21 184.77 32.64 10.36
1158 51.78 57.73 114.92 39.58 10.65
1159 51.99 38.82 165.86 33.01 9.89
1160 51.78 75.64 47.89 43.85 11.53
1161 51.66 89.98 23.05 38.05 10.82
1162 52.07 19.32 129.59 26.60 7.73
1163 51.64 87.78 27.64 41.09 9.00
1164 52.01 15.04 154.52 26.09 6.86
1165 52.03 65.86 72.10 42.93 12.18
1166 52.02 55.56 87.24 37.78 11.21
1167 52.45 79.72 36.10 50.90 11.27
1168 52.17 3.67 73.47 17.89 4.59
1169 52.07 50.29 89.21 38.04 11.14
1170 51.95 94.48 16.92 35.25 8.92
1171 52.32 31.88 166.69 31.41 8.62
1172 52.27 41.12 116.09 37.03 10.21
1173 52.04 68.73 55.43 44.64 12.41
1174 52.02 78.20 44.45 49.31 10.07
1175 52.26 33.84 169.69 32.91 8.68
1176 52.14 35.92 115.27 31.21 8.87
1177 52.08 86.07 32.92 37.30 10.20
1178 52.31 6.38 80.17 21.81 4.90
1179 52.20 11.50 72.37 23.88 6.29
1180 52.28 22.84 131.03 28.28 7.57
1181 52.31 26.27 138.34 32.15 8.01
1182 52.34 46.03 109.51 38.21 10.64
1183 52.05 76.73 39.47 50.32 13.00
1184 52.33 9.22 76.16 23.46 6.16
1185 52.29 53.02 79.04 42.26 10.57
1186 52.15 92.24 22.78 42.56 7.38
1187 52.39 28.28 140.29 31.43 8.43
1188 52.34 61.70 67.18 42.76 11.70
1189 52.16 87.83 24.89 42.16 9.89
1190 52.24 82.70 26.37 46.89 14.03
1191 52.46 43.31 100.53 38.04 10.26
1192 52.40 74.39 35.14 49.64 12.71
1193 52.32 89.00 28.58 42.39 8.29
1194 52.48 59.52 60.56 42.65 10.62
1195 52.45 1.52 41.11 16.38 3.92
1196 52.65 12.84 68.20 22.79 6.64
1197 52.66 17.22 98.07 24.40 7.27
1198 52.58 63.63 50.00 49.78 11.05
1199 52.58 83.92 29.92 46.50 11.44
1200 52.82 21.05 77.56 26.69 7.43
1201 52.65 81.49 28.22 49.37 12.88
1202 52.59 72.33 40.83 51.80 11.63
1203 52.66 77.32 33.69 52.48 14.65
1204 52.83 85.17 27.02 48.74 10.47
1205 52.48 91.28 20.36 41.36 8.91
1206 52.86 37.26 83.83 34.47 8.94
1207 52.85 94.47 17.11 42.90 8.41
1208 52.96 24.44 85.06 30.75 8.85
1209 52.90 57.37 48.80 42.78 10.83
1210 52.67 64.62 51.00 54.55 13.18
1211 53.10 48.73 56.75 45.96 11.64
1212 53.04 30.16 91.25 36.16 9.28
1213 53.04 51.04 50.38 46.97 11.22
1214 53.00 54.90 49.47 46.76 11.05
1215 53.01 69.03 43.31 51.31 11.69
1216 52.92 90.89 20.59 46.41 9.86
1217 53.18 96.51 11.29 34.89 7.42
1218 53.26 34.68 77.85 36.19 8.89
1219 53.21 39.70 60.42 38.73 10.57
1220 53.10 70.90 36.13 53.37 15.13
1221 53.34 2.05 25.48 15.94 3.13
1222 53.29 14.94 60.76 24.55 6.85
1223 53.37 44.22 59.09 44.93 11.03
1224 53.00 62.73 35.33 54.17 16.17
1225 53.20 65.34 33.62 49.49 13.69
1226 53.26 5.10 37.49 21.46 4.44
1227 53.40 89.50 27.99 54.14 9.23
1228 53.38 18.61 51.34 25.85 7.05
1229 53.11 72.41 29.91 52.55 14.00
1230 53.46 74.56 43.32 50.21 11.96
1231 53.19 83.16 29.89 54.03 12.00
1232 53.46 9.93 32.70 21.33 5.51
1233 53.37 26.51 58.95 32.56 8.48
1234 53.46 32.53 64.51 33.39 9.22
1235 53.52 46.56 51.32 45.66 11.00
1236 53.51 52.99 45.70 50.96 11.52
1237 53.52 59.21 41.41 53.14 11.48
1238 53.39 61.32 42.37 54.18 11.71
1239 53.34 78.21 32.14 56.36 12.53
1240 53.47 41.79 49.06 42.83 10.21
1241 53.58 67.45 38.97 54.20 12.45
1242 53.58 22.88 45.89 32.70 7.08
1243 53.37 76.70 33.37 56.05 10.21
1244 53.39 86.89 31.94 58.43 8.82
1245 53.58 11.54 34.29 24.51 6.08
1246 53.60 28.31 50.84 32.80 10.24
1247 53.70 56.55 41.69 55.43 12.56
1248 53.60 80.94 33.62 53.69 11.23
1249 53.82 38.03 41.45 40.36 8.77
1250 53.87 12.96 37.59 24.63 5.91
1251 53.86 20.62 41.09 28.78 6.67
1252 53.94 36.16 47.21 43.83 8.73
1253 53.77 72.17 44.02 55.78 11.14
1254 54.00 24.96 38.90 35.07 7.95
1255 54.10 69.80 57.75 69.68 12.84
1256 54.11 83.54 37.05 59.62 10.82
1257 54.06 30.34 37.49 38.87 9.95
1258 54.12 50.26 44.16 53.09 11.36
1259 53.96 3.44 18.38 25.29 4.26
1260 53.90 75.75 56.10 55.40 11.20
1261 53.96 48.17 41.00 49.46 11.31
1262 54.26 54.92 43.86 65.34 11.50
1263 54.28 77.81 71.22 62.64 11.10
1264 54.22 92.98 52.58 54.83 7.43
1265 54.21 6.28 25.36 24.84 5.32
1266 54.18 16.73 30.17 33.23 6.26
1267 54.43 66.06 45.75 63.19 11.96
1268 54.23 86.29 73.24 52.19 10.17
1269 54.39 96.84 18.83 34.60 6.38
1270 54.43 88.07 90.00 63.12 9.31
1271 54.32 18.31 32.27 34.16 6.23
1272 54.29 34.52 49.97 45.97 8.26
1273 54.52 40.24 43.59 54.32 10.73
1274 54.43 61.23 56.79 68.66 13.44
1275 54.29 26.73 34.90 40.82 9.95
1276 54.48 43.06 44.17 56.62 11.11
1277 54.37 90.44 81.33 54.51 9.04
1278 54.48 15.27 26.93 34.09 7.21
1279 54.61 1.76 13.45 24.07 4.51
1280 54.49 22.04 38.39 38.39 7.39
1281 54.45 32.66 41.10 44.73 9.15
1282 54.87 56.70 80.98 70.71 12.78
1283 54.44 47.94 39.71 54.91 11.06
1284 54.62 73.09 58.72 72.41 12.52
1285 54.67 4.49 20.05 27.56 3.82
1286 54.63 28.66 44.50 46.65 7.12
1287 54.58 10.78 21.09 31.83 6.70
1288 54.77 23.87 35.49 43.49 7.92
1289 54.80 75.37 131.20 66.16 12.50
1290 54.85 63.44 78.49 79.13 13.10
1291 54.96 13.67 25.39 34.90 6.50
1292 55.22 70.88 148.80 77.03 13.27
1293 55.00 68.21 104.61 69.03 12.77
1294 55.12 81.97 127.82 63.05 12.51
1295 54.87 30.72 40.67 49.25 9.29
1296 55.09 20.12 29.38 46.65 7.49
1297 54.96 8.47 22.63 31.06 6.88
1298 55.08 49.21 56.54 63.02 10.97
1299 55.24 85.81 126.90 58.36 10.77
1300 55.21 46.77 80.22 60.52 11.36
1301 55.20 83.59 144.08 71.16 10.18
1302 55.18 17.00 32.47 42.03 6.78
1303 55.19 33.65 66.18 59.56 8.69
1304 55.35 35.51 98.04 59.00 9.93
1305 55.24 51.21 58.29 66.37 12.89
1306 55.17 25.62 42.35 51.58 8.37
1307 55.37 79.55 151.25 82.50 11.36
1308 55.23 59.09 99.66 85.76 12.54
1309 55.32 54.04 135.38 77.01 12.76
1310 55.39 92.58 123.51 58.14 8.13
1311 55.19 95.33 76.18 48.46 7.44
1312 55.41 42.31 113.44 61.48 11.04
1313 55.64 27.26 95.02 65.77 8.83
1314 55.39 88.58 125.12 55.62 10.27
1315 55.39 10.70 21.50 32.83 7.02
1316 55.45 65.72 143.27 77.88 11.31
1317 55.67 96.12 60.70 44.69 7.49
1318 55.74 21.85 91.80 55.68 7.75
1319 55.53 38.98 105.99 61.93 10.69
1320 55.73 44.74 147.41 74.19 11.78
1321 55.53 61.46 144.71 76.72 12.54
1322 55.72 76.99 208.50 85.13 12.23
1323 55.69 3.75 17.61 38.88 2.87
1324 55.57 29.22 83.05 65.77 9.30
1325 55.73 31.96 101.40 58.70 8.55
1326 55.65 1.87 12.11 33.35 3.73
1327 55.41 13.35 26.14 39.43 9.86
1328 55.67 11.88 32.09 36.59 5.18
1329 55.74 23.94 85.73 54.42 7.96
1330 55.91 73.84 204.05 81.13 13.01
1331 55.66 89.79 136.39 59.61 9.06
1332 56.06 57.69 197.42 91.56 12.40
1333 56.07 63.66 183.73 82.20 12.67
1334 56.13 49.14 189.11 72.80 13.02
1335 56.19 67.67 199.92 89.54 11.39
1336 56.37 40.62 184.65 79.98 11.06
1337 56.26 17.58 84.49 48.79 7.32
1338 56.26 36.65 159.13 79.50 9.46
1339 56.23 51.62 189.44 82.42 11.85
1340 56.41 55.92 198.35 90.83 12.73
1341 56.34 83.57 189.20 73.22 11.04
1342 56.21 19.76 79.38 55.33 7.77
1343 56.18 8.61 41.52 34.19 5.09
1344 56.39 33.99 170.88 77.62 10.05
1345 56.40 53.75 212.16 84.27 12.17
1346 56.13 87.43 161.52 61.60 9.72
1347 56.50 25.26 167.19 69.55 8.51
1348 56.37 30.31 118.81 73.02 9.37
1349 56.45 42.98 172.14 85.53 9.84
1350 56.37 46.96 199.52 87.93 11.49
1351 56.47 59.75 217.76 86.76 12.92
1352 56.27 96.85 43.67 34.54 5.96
1353 56.66 69.47 212.32 94.30 13.55
1354 56.25 6.69 36.33 39.42 4.67
1355 56.51 71.89 194.14 91.47 11.34
1356 56.60 81.16 207.78 83.04 10.54
1357 56.58 91.40 164.38 68.22 7.96
1358 56.60 10.85 57.97 43.92 5.82
1359 56.65 65.57 202.46 106.51 13.62
1360 56.78 94.59 76.35 57.50 8.43
1361 56.78 78.60 223.41 94.46 11.65
1362 56.58 85.01 175.64 77.11 9.89
1363 56.76 28.39 148.26 80.97 9.13
1364 56.83 61.96 220.78 101.29 12.82
1365 56.72 4.41 42.62 45.95 3.95
1366 56.81 38.47 186.01 88.15 9.85
1367 57.20 6.80 77.87 47.94 5.20
1368 56.85 22.96 185.40 69.27 8.33
1369 56.92 15.73 109.52 57.09 7.27
1370 56.67 86.08 182.90 70.10 10.15
1371 56.76 97.96 27.88 28.50 3.52
1372 56.91 75.84 224.13 101.95 12.31
1373 56.97 1.76 30.78 40.30 4.01
1374 57.05 32.10 189.18 80.39 9.94
1375 57.19 26.71 193.75 91.00 9.26
1376 57.05 9.02 70.96 43.88 6.10
1377 57.19 45.61 193.38 93.62 13.14
1378 57.25 20.75 171.06 77.33 7.32
1379 57.26 87.93 180.62 73.58 10.07
1380 57.28 35.18 186.58 101.37 9.29
1381 57.24 13.18 99.63 53.74 6.55
1382 57.47 18.45 157.09 67.57 7.21
1383 57.41 47.89 223.92 100.23 11.73
1384 57.32 50.29 197.16 94.56 11.99
1385 57.48 58.24 208.99 113.42 14.21
1386 57.44 63.88 189.64 107.97 12.89
1387 57.55 73.69 199.16 101.26 11.93
1388 57.58 36.85 191.73 101.36 9.51
1389 57.63 41.72 198.55 92.64 10.97
1390 57.52 52.48 206.91 105.24 11.63
1391 57.49 54.60 208.85 109.21 11.89
1392 57.47 43.73 206.65 99.77 10.93
1393 57.47 30.01 186.18 87.40 9.66
1394 57.51 66.88 190.63 105.57 13.01
1395 57.54 71.27 176.66 109.27 11.95
1396 57.60 84.40 187.78 69.44 11.20
1397 57.68 60.51 211.24 98.89 12.15
1398 57.85 39.74 195.54 108.62 10.89
1399 57.75 24.61 161.34 106.89 8.96
1400 57.92 56.53 189.00 117.09 11.74
1401 57.94 33.59 177.03 118.21 10.94
1402 57.96 4.80 81.75 55.69 5.14
1403 58.07 93.07 96.12 70.65 6.94
1404 57.81 96.09 40.79 51.82 6.35
1405 58.07 2.42 51.55 46.71 3.29
1406 57.97 69.17 180.05 113.81 12.86
1407 57.90 78.73 179.90 110.90 11.62
1408 57.98 81.31 154.00 88.28 9.85
1409 58.21 10.99 103.03 57.35 5.80
1410 58.04 27.93 167.06 103.55 9.19
1411 57.90 86.04 178.02 79.77 10.34
1412 58.09 15.77 131.28 79.81 7.06
1413 58.01 22.48 165.22 98.00 7.26
1414 58.10 76.18 167.42 107.86 12.00
1415 58.28 31.77 160.11 117.66 9.52
1416 58.28 8.84 112.98 66.04 6.24
1417 58.38 64.77 144.82 120.66 12.89
1418 58.45 26.04 161.09 111.38 9.39
1419 58.39 46.29 177.52 114.77 11.38
1420 58.31 49.32 161.80 105.01 12.53
1421 58.50 61.99 191.13 113.43 13.86
1422 58.55 13.27 117.50 81.23 6.95
1423 58.51 20.20 128.90 93.79 7.24
1424 58.46 37.80 158.64 123.52 9.61
1425 58.46 29.76 162.95 110.76 8.45
1426 58.52 35.55 156.82 122.32 10.64
1427 58.61 17.73 129.91 81.85 7.15
1428 58.59 52.20 146.28 111.87 13.46
1429 58.66 67.40 161.29 118.89 12.09
1430 58.62 43.84 149.02 113.86 11.83
1431 58.53 71.82 142.53 117.06 13.19
1432 58.70 54.80 140.15 130.32 11.84
1433 58.72 87.64 134.20 91.18 9.53
1434 58.63 90.13 131.24 91.24 8.85
1435 58.86 59.52 155.79 121.45 12.49
1436 58.83 41.39 128.65 110.87 12.07
1437 58.94 74.51 117.38 125.79 11.85
1438 58.89 84.18 123.33 90.02 10.31
1439 58.66 96.12 25.00 47.75 6.72
1440 58.95 24.13 109.10 127.90 8.87
1441 58.98 57.39 124.26 135.42 13.04
1442 58.99 1.55 33.34 61.00 4.34
1443 58.81 7.53 97.59 61.00 6.09
1444 58.98 78.75 125.34 100.91 12.09
1445 59.14 21.96 102.10 127.93 9.04
1446 59.16 5.89 92.99 73.18 4.70
1447 59.14 33.43 87.49 141.69 11.06
1448 59.17 39.30 78.54 138.04 12.51
1449 59.27 69.91 99.46 130.91 12.89
1450 59.40 81.22 107.86 100.04 11.75
1451 59.37 27.41 80.84 151.97 8.87
1452 59.52 92.36 65.83 95.10 7.54
1453 59.29 2.94 44.67 79.12 5.35
1454 59.38 31.10 106.14 150.52 10.35
1455 59.29 49.42 99.99 142.25 12.13
1456 59.48 47.29 81.97 137.49 11.12
1457 59.36 63.00 120.54 136.28 13.68
1458 59.41 65.75 120.73 143.68 13.89
1459 59.45 10.91 85.94 81.06 6.96
1460 59.39 29.10 100.32 147.04 9.59
1461 59.50 15.98 62.68 101.90 7.01
1462 59.59 51.51 83.16 143.11 12.30
1463 59.63 18.90 73.96 113.82 7.36
1464 59.55 45.13 76.63 144.22 12.71
1465 59.26 94.91 24.35 62.41 7.65
1466 59.55 95.94 19.67 53.94 7.23
1467 59.40 8.21 94.69 67.40 6.10
1468 59.60 35.41 69.12 162.12 10.01
1469 59.74 76.95 94.00 134.17 11.91
1470 59.43 93.99 39.04 73.40 8.36
1471 59.55 4.57 58.06 87.89 4.57
1472 59.64 12.68 88.50 94.00 7.48
1473 59.67 37.55 63.74 153.86 10.29
1474 59.66 53.91 95.09 150.99 12.97
1475 59.69 25.42 81.40 149.09 8.87
1476 59.66 72.29 84.81 134.87 12.67
1477 59.72 42.46 90.34 138.63 11.06
1478 59.91 56.24 75.43 151.76 13.46
1479 59.92 67.89 76.09 151.27 12.88
1480 59.91 85.97 81.71 109.58 10.28
1481 59.72 90.35 69.07 87.05 7.61
1482 59.98 60.62 86.85 147.03 13.06
1483 59.95 87.58 81.49 102.67 8.49
1484 60.03 9.22 47.77 94.39 6.04
1485 60.08 58.46 67.78 153.15 13.93
1486 59.91 88.90 79.21 87.21 9.97
1487 60.10 21.11 50.90 150.25 8.85
1488 60.18 23.35 67.35 138.33 9.28
1489 60.24 74.72 80.49 138.85 12.60
1490 60.10 32.35 52.86 151.29 10.61
1491 60.21 40.16 51.66 146.78 11.75
1492 60.21 64.49 72.58 149.58 12.15
1493 60.22 49.50 50.55 158.36 12.16
1494 60.51 14.02 34.36 132.11 7.74
1495 60.44 28.46 48.42 182.43 9.29
1496 60.52 30.31 44.24 176.92 10.46
1497 60.45 34.06 44.40 173.79 11.64
1498 60.48 82.87 68.90 114.55 10.87
1499 60.48 44.05 49.41 174.06 12.34
1500 60.37 70.18 61.14 147.88 13.27
1501 60.47 6.49 35.74 108.38 5.40
1502 60.47 17.15 37.39 127.49 7.76
1503 60.43 62.29 53.34 166.97 13.61
1504 60.47 3.56 24.12 100.99 5.37
1505 60.64 26.57 39.84 170.84 9.53
1506 60.67 94.49 28.11 84.85 8.44
1507 60.53 1.43 13.08 62.68 4.05
1508 60.57 52.53 50.72 165.80 13.39
1509 60.55 80.21 56.16 116.62 11.98
1510 60.57 36.15 41.51 172.93 11.47
1511 60.56 46.36 47.34 163.60 13.19
1512 60.82 19.45 37.08 149.54 8.00
1513 60.75 66.22 52.74 154.54 13.98
1514 60.69 90.92 54.95 102.43 6.73
1515 60.80 54.70 48.81 184.70 15.16
1516 60.92 10.64 29.72 125.64 6.06
1517 60.80 24.80 39.75 164.75 9.77
1518 60.81 72.64 53.87 154.72 12.03
1519 60.67 92.64 48.57 105.85 6.61
1520 60.86 38.32 41.83 178.57 12.29
1521 60.95 41.97 43.90 177.53 12.18
1522 60.68 86.74 54.64 116.68 9.82
1523 60.97 48.37 42.02 184.71 13.24
1524 60.97 56.93 52.69 183.31 14.04
1525 61.10 50.70 46.34 186.31 14.30
1526 61.14 68.15 42.41 160.43 14.28
1527 61.13 77.77 51.14 150.55 11.53
1528 61.06 88.56 46.90 98.60 10.25
1529 61.27 21.65 34.40 179.90 10.20
1530 61.19 32.33 39.27 187.27 10.59
1531 61.20 59.16 45.65 183.99 13.58
1532 61.21 84.97 44.23 131.34 10.14
1533 61.25 15.65 28.39 149.64 7.38
1534 61.24 63.83 41.54 180.04 14.42
1535 61.33 61.23 40.55 179.17 13.99
1536 61.28 96.23 13.09 59.77 5.28
1537 61.50 40.03 50.40 196.73 13.73
1538 61.42 70.64 45.55 179.52 12.94
1539 61.55 2.54 13.97 106.09 4.74
1540 61.49 74.94 45.71 152.55 12.62
1541 61.52 8.14 23.31 135.48 6.78
1542 61.52 82.64 39.83 134.69 11.22
1543 61.47 34.36 41.52 184.05 12.05
1544 61.48 44.23 49.00 180.48 13.61
1545 61.45 28.26 37.14 182.50 11.08
1546 61.55 30.56 43.56 202.39 11.54
1547 61.50 36.51 42.00 202.92 11.45
1548 61.60 5.45 19.47 139.95 4.89
1549 61.61 23.61 41.22 183.67 9.64
1550 61.65 47.04 64.07 198.43 14.35
1551 61.64 12.90 22.45 148.20 7.52
1552 61.72 17.82 27.57 174.13 8.68
1553 61.77 93.00 23.67 116.85 7.92
1554 61.70 52.56 69.51 204.11 15.41
1555 61.74 80.53 37.82 145.60 11.69
1556 61.78 25.96 38.74 187.86 10.27
1557 61.83 55.03 56.14 202.86 15.40
1558 61.92 65.69 45.76 171.49 15.72
1559 61.97 72.59 42.20 179.24 13.20
1560 62.12 19.88 43.19 187.32 9.69
1561 62.21 90.10 30.73 143.44 8.76
1562 62.12 38.23 79.14 204.77 13.80
1563 61.94 49.60 62.96 198.65 14.75
1564 62.05 57.35 48.46 202.17 14.40
1565 62.10 41.96 78.61 198.76 12.06
1566 62.11 96.03 10.17 59.52 6.57
1567 62.20 69.12 38.29 173.35 15.51
1568 62.20 11.08 23.07 140.89 6.36
1569 62.27 45.56 105.51 201.36 15.10
1570 62.19 63.30 51.66 196.28 15.75
1571 62.23 76.70 36.63 164.90 12.31
1572 62.27 15.71 27.29 173.71 8.00
1573 62.41 27.74 76.69 207.26 11.35
1574 62.36 29.60 68.47 196.37 10.47
1575 62.39 31.77 88.80 201.12 13.14
1576 62.40 59.20 67.95 215.08 14.92
1577 62.47 87.59 31.42 143.45 9.81
1578 62.37 61.21 56.79 198.44 15.40
1579 62.47 84.70 35.78 146.75 11.09
1580 62.49 9.51 26.82 138.94 7.00
1581 62.57 22.18 94.59 189.23 9.91
1582 62.55 33.85 103.48 201.03 12.14
1583 62.44 35.80 97.24 208.52 12.69
1584 62.65 24.46 92.88 204.93 11.03
1585 62.76 74.56 40.91 187.67 14.32
1586 62.59 53.37 164.27 219.94 16.65
1587 62.69 6.93 27.99 157.23 5.88
1588 62.70 13.40 33.31 162.70 8.54
1589 62.69 40.09 173.66 201.64 14.07
1590 62.70 50.88 123.33 208.67 17.51
1591 62.77 43.71 136.59 200.41 14.44
1592 62.78 67.15 54.58 193.43 14.78
1593 63.02 80.13 42.34 171.97 13.30
1594 62.76 4.03 20.04 148.28 5.44
1595 62.73 48.00 182.94 207.02 14.88
1596 62.87 56.04 144.23 206.87 15.85
1597 63.01 81.81 39.94 172.26 12.81
1598 62.94 17.61 44.41 173.54 8.18
1599 63.09 71.64 45.93 184.76 13.47
1600 63.00 94.65 13.63 99.92 7.21
1601 63.09 26.29 131.46 202.69 11.69
1602 63.06 64.92 79.65 207.84 15.37
1603 62.82 77.70 38.38 173.88 11.29
1604 63.02 37.39 163.20 206.16 14.38
1605 62.92 92.01 22.77 124.63 8.70
1606 63.20 19.78 90.45 194.67 9.42
1607 63.23 62.83 142.94 215.98 15.83
1608 63.33 42.31 200.43 196.02 16.98
1609 63.30 69.24 61.94 180.03 13.62
1610 63.32 32.56 151.91 218.87 12.84
1611 63.25 45.75 173.12 186.52 17.36
1612 63.33 78.71 43.47 185.73 13.60
1613 63.32 60.45 198.19 214.71 17.98
1614 63.37 29.88 147.52 208.12 13.19
1615 63.43 58.10 187.68 205.61 17.80
1616 63.59 89.71 36.40 165.09 8.39
1617 63.40 54.23 204.33 200.61 16.07
1618 63.48 10.69 53.60 165.40 6.98
1619 63.45 35.13 178.13 211.15 14.96
1620 63.54 49.64 200.90 202.44 19.50
1621 63.55 52.00 166.30 204.30 16.64
1622 63.67 12.47 55.39 158.02 9.41
1623 63.60 23.34 125.43 196.69 11.12
1624 63.62 28.05 157.21 199.26 13.74
1625 63.62 38.75 209.12 202.62 17.66
1626 63.88 83.77 54.95 175.48 13.05
1627 63.73 15.41 58.67 161.56 8.41
1628 63.65 8.31 54.47 164.03 6.08
1629 63.75 76.64 62.84 190.59 14.87
1630 63.79 21.34 113.91 195.42 10.69
1631 63.78 85.18 46.67 162.61 11.57
1632 63.86 5.89 49.87 158.00 6.10
1633 63.88 40.80 205.25 191.38 17.81
1634 63.86 47.30 188.00 196.85 22.58
1635 63.79 73.90 72.33 204.18 14.30
1636 63.89 86.71 46.33 143.09 11.06
1637 63.92 25.12 185.37 201.45 14.08
1638 64.00 56.20 219.60 193.29 18.35
1639 63.86 66.64 149.39 198.11 16.89
1640 63.98 31.29 188.19 208.50 15.88
1641 63.98 36.72 196.34 199.02 15.39
1642 63.92 91.66 27.14 165.58 8.00
1643 64.11 44.80 167.45 185.23 19.30
1644 64.10 93.18 21.93 124.79 8.68
1645 64.11 18.23 96.64 173.39 9.39
1646 64.14 33.64 157.77 209.00 16.66
1647 64.14 64.40 154.38 206.25 17.38
1648 64.19 62.18 211.67 196.93 16.44
1649 64.24 59.62 220.43 189.44 18.85
1650 64.20 70.13 163.59 193.95 15.22
1651 64.36 81.07 99.72 178.49 14.22
1652 64.52 26.86 185.67 197.91 16.92
1653 64.55 42.90 181.31 188.97 25.10
1654 64.46 72.27 186.70 195.33 16.09
1655 64.48 29.30 172.34 192.57 16.92
1656 64.37 53.74 211.04 186.30 21.84
1657 64.62 51.12 182.64 189.13 22.03
1658 64.57 49.09 176.52 181.91 24.22
1659 64.52 78.18 121.05 193.42 15.53
1660 64.60 10.09 93.01 167.13 7.95
1661 64.68 22.83 147.82 201.50 14.53
1662 64.68 68.02 215.93 191.27 16.36
1663 64.73 12.36 100.82 179.48 8.95
1664 64.80 35.42 166.52 194.00 23.35
1665 64.76 39.29 180.36 182.89 21.55
1666 64.64 13.96 109.84 176.64 10.75
1667 64.85 88.88 83.98 170.93 9.52
1668 64.93 57.57 196.48 189.79 29.66
1669 64.75 75.14 197.74 212.21 16.98
1670 64.88 20.65 158.59 189.05 12.32
1671 64.92 6.81 76.31 162.12 6.61
1672 64.98 15.87 112.28 161.08 12.34
1673 65.05 65.87 207.16 190.16 17.44
1674 64.87 86.20 92.16 170.99 10.73
1675 64.94 31.69 163.39 202.49 21.31
1676 64.96 47.25 169.54 183.97 29.99
1677 65.02 37.37 149.60 191.40 21.03
1678 65.02 24.74 158.79 198.70 18.43
1679 65.10 18.40 130.07 176.72 12.31
1680 65.22 45.20 170.49 191.76 29.70
1681 65.13 91.93 70.33 152.68 8.51
1682 65.05 4.94 58.71 140.38 5.62
1683 65.11 33.69 152.06 202.36 23.83
1684 65.22 55.32 151.29 197.00 28.90
1685 65.21 63.88 224.97 194.87 19.68
1686 65.30 41.20 139.43 180.42 34.51
1687 65.29 61.74 212.14 194.96 21.56
1688 65.34 52.98 173.46 178.06 26.56
1689 65.34 59.62 204.11 196.69 27.45
1690 65.25 70.26 216.56 178.63 16.40
1691 65.36 77.27 215.03 203.97 16.57
1692 65.45 83.32 167.44 187.82 13.84
1693 65.46 28.20 156.64 194.26 24.87
1694 65.42 79.76 198.11 189.66 16.26
1695 65.38 94.39 44.61 96.16 6.61
1696 65.57 30.21 136.32 194.32 30.10
1697 65.60 72.75 208.92 193.93 16.63
1698 65.69 10.58 99.04 163.80 9.95
1699 65.67 49.81 127.41 188.04 39.06
1700 65.78 12.79 114.23 168.61 13.94
1701 65.78 26.21 139.57 196.06 23.88
1702 65.81 43.46 120.71 183.87 34.75
1703 65.80 67.85 204.04 189.61 20.65
1704 65.86 8.56 83.62 156.92 10.40
1705 65.91 22.08 113.19 182.70 17.88
1706 65.97 75.05 191.61 192.88 18.22
1707 65.87 14.51 90.16 158.66 13.45
1708 66.03 34.75 130.05 187.10 33.62
1709 65.98 36.67 98.80 172.78 36.05
1710 65.95 38.84 98.06 163.76 33.78
1711 65.97 32.74 106.54 185.70 32.30
1712 66.09 19.66 106.36 175.54 18.50
1713 66.01 47.64 104.29 181.54 42.46
1714 65.99 89.40 104.82 152.66 9.56
1715 66.04 16.81 95.97 156.33 16.14
1716 66.07 24.20 126.51 191.30 30.44
1717 66.16 56.25 155.22 178.58 41.07
1718 66.25 58.52 155.23 192.42 36.96
1719 66.22 51.66 110.64 182.81 37.83
1720 66.34 63.61 181.12 195.54 29.16
1721 66.32 65.86 171.19 172.86 28.09
1722 66.37 92.55 79.35 133.15 7.79
1723 66.18 95.06 38.38 84.13 6.04
1724 66.41 45.68 111.04 185.41 51.14
1725 66.38 70.53 194.14 181.78 19.66
1726 66.30 80.69 198.06 172.52 15.81
1727 66.33 41.27 89.71 160.58 55.62
1728 66.41 61.13 156.13 185.10 29.57
1729 66.47 53.81 113.73 177.24 46.03
1730 66.52 29.40 101.62 183.61 40.10
1731 66.51 77.77 200.41 171.20 21.73
1732 66.44 84.56 188.16 173.21 16.96
1733 66.34 13.26 80.82 159.46 12.55
1734 66.64 27.29 95.27 188.71 38.15
1735 66.64 31.35 84.78 182.47 42.52
1736 66.70 82.24 188.09 194.51 16.65
1737 66.62 11.35 72.29 138.97 14.97
1738 67.02 74.04 168.60 193.38 23.98
1739 66.79 49.83 86.97 169.73 54.10
1740 66.92 43.30 67.30 163.00 47.33
1741 66.85 68.31 155.19 176.48 24.78
1742 66.88 9.99 57.06 129.79 15.47
1743 67.06 14.18 60.47 152.30 25.94
1744 66.98 37.77 59.86 158.98 64.02
1745 66.93 22.98 84.04 169.08 30.28
1746 66.95 25.29 84.67 176.43 48.81
1747 67.00 35.60 57.89 165.54 52.80
1748 67.01 39.64 58.56 161.30 67.53
1749 67.08 33.34 60.95 164.62 59.75
1750 67.02 47.77 78.22 166.86 72.57
1751 67.09 19.87 55.26 146.02 30.10
1752 67.01 7.20 48.73 130.03 10.24
1753 67.12 16.93 43.61 146.06 29.46
1754 67.19 55.45 81.02 164.59 53.16
1755 67.11 87.44 177.12 163.98 16.77
1756 67.13 90.41 121.36 167.08 10.98
1757 67.29 57.53 84.46 158.84 47.24
1758 67.30 59.91 133.45 193.30 41.89
1759 67.10 85.15 158.27 167.00 15.52
1760 67.29 51.73 61.61 152.28 57.65
1761 67.41 62.46 129.91 183.00 47.77
1762 67.47 45.02 59.30 163.06 66.00
1763 67.40 79.50 177.90 165.54 22.50
1764 67.40 64.88 130.49 172.93 38.31
1765 67.45 28.60 55.22 164.51 57.32
1766 67.48 41.56 47.59 142.62 75.72
1767 67.63 30.85 49.90 165.42 69.00
1768 67.63 67.34 107.67 174.84 45.24
1769 67.62 70.60 113.20 167.60 31.02
1770 67.66 11.96 41.78 121.62 29.47
1771 67.72 82.40 183.75 174.04 22.65
1772 68.00 93.14 45.54 101.84 8.59
1773 67.78 21.70 42.11 140.49 39.95
1774 67.99 26.66 53.22 152.43 60.55
1775 67.87 53.61 65.82 147.95 65.51
1776 67.79 8.96 37.00 119.08 20.45
1777 68.01 76.89 164.34 180.44 27.93
1778 67.96 24.35 51.36 137.73 53.83
1779 67.95 46.81 56.37 143.51 86.93
1780 67.86 49.32 52.31 143.33 85.49
1781 67.96 34.76 54.73 147.79 95.55
1782 67.99 17.67 36.59 119.83 43.55
1783 67.96 37.07 48.82 125.03 76.51
1784 67.90 88.13 106.68 166.45 14.68
1785 68.08 39.45 54.82 131.01 87.78
1786 68.04 73.96 137.83 173.91 36.60
1787 68.20 6.61 31.55 107.22 16.38
1788 68.52 85.99 134.85 166.25 22.25
1789 68.01 15.38 31.75 113.93 42.07
1790 68.26 32.89 47.97 128.97 96.94
1791 68.23 43.81 44.95 133.27 90.10
1792 68.04 10.26 30.28 104.06 20.39
1793 68.25 55.96 53.46 141.58 74.00
1794 68.32 61.18 62.49 162.51 58.96
1795 68.23 83.81 138.32 183.77 21.23
1796 68.31 51.64 56.24 136.98 91.43
1797 68.31 58.66 59.46 156.23 61.50
1798 68.46 90.17 81.77 153.89 12.95
1799 68.33 14.05 29.17 101.05 37.14
1800 68.32 63.76 74.52 154.74 48.49
1801 68.45 29.02 41.53 134.61 74.53
1802 68.50 66.34 78.95 153.69 35.51
1803 68.41 78.40 128.14 182.58 27.62
1804 68.56 19.86 40.10 111.83 54.70
1805 68.38 41.78 53.20 119.70 80.74
1806 68.54 69.06 101.44 152.20 37.88
1807 68.70 72.17 80.83 170.00 39.18
1808 68.73 80.77 124.20 177.32 28.06
1809 68.68 11.56 32.38 92.83 36.76
1810 68.66 31.01 48.57 130.02 85.04
1811 68.78 22.39 50.15 104.68 72.02
1812 68.72 35.91 63.70 124.78 118.92
1813 68.83 47.72 65.22 127.29 101.07
1814 68.86 45.60 63.46 132.94 123.42
1815 68.80 49.87 63.43 133.24 109.09
1816 68.91 24.94 56.04 117.33 82.20
1817 68.95 37.71 117.18 121.54 116.98
1818 68.91 54.30 64.15 129.78 98.55
1819 69.10 9.17 31.03 91.05 36.89
1820 68.98 16.33 41.14 88.81 48.89
1821 68.94 27.62 75.94 118.81 87.39
1822 68.94 17.86 46.59 98.05 65.38
1823 69.08 92.51 34.60 98.14 8.38
1824 69.16 34.05 86.72 107.50 116.72
1825 69.14 39.48 132.11 100.35 108.26
1826 69.11 41.49 129.22 103.65 117.82
1827 69.15 74.83 96.45 173.20 51.34
1828 69.20 14.12 44.40 93.61 52.63
1829 69.18 57.13 56.20 123.68 87.12
1830 69.15 51.76 126.20 120.56 127.71
1831 69.23 43.70 90.73 110.29 119.54
1832 69.25 62.59 54.11 157.21 62.11
1833 69.12 76.24 79.26 170.32 50.11
1834 69.37 83.60 104.90 157.25 30.22
1835 69.24 59.74 50.73 140.27 83.10
1836 69.31 65.40 49.64 151.42 56.50
1837 69.41 78.12 66.95 162.00 47.93
1838 69.43 32.09 98.13 100.69 125.67
1839 69.40 70.74 69.52 147.13 51.24
1840 69.49 30.01 95.53 102.56 106.29
1841 69.44 20.24 65.11 82.34 80.77
1842 69.81 89.96 63.44 131.12 14.95
1843 69.64 26.18 137.30 86.41 105.34
1844 69.63 35.97 193.61 86.21 124.43
1845 69.70 53.51 178.90 96.62 130.78
1846 69.59 68.28 46.63 134.47 47.93
1847 69.73 22.13 112.84 81.05 97.78
1848 69.66 49.63 173.52 88.34 137.79
1849 69.75 86.66 97.19 151.70 23.37
1850 69.75 55.68 145.60 117.60 109.53
1851 69.96 28.34 143.46 77.92 123.87
1852 69.85 45.60 189.52 86.21 127.53
1853 69.79 47.46 149.15 97.23 126.70
1854 69.76 17.97 91.12 66.33 80.43
1855 70.03 74.09 52.54 148.20 60.83
1856 69.99 24.24 154.22 71.57 100.62
1857 69.95 38.37 182.09 82.88 122.04
1858 69.93 41.31 190.82 82.38 117.90
1859 70.01 80.91 67.95 164.34 38.69
1860 70.01 61.31 56.96 130.83 97.04
1861 70.07 14.67 103.97 63.29 75.00
1862 70.23 92.80 26.07 74.73 7.79
1863 70.23 51.61 204.22 86.58 138.81
1864 69.98 58.30 115.48 115.83 110.93
1865 70.25 33.97 190.40 75.14 126.05
1866 70.14 43.60 210.97 89.76 131.03
1867 70.13 8.84 64.25 61.88 46.48
1868 70.18 63.75 52.79 121.52 86.73
1869 70.21 66.26 44.66 122.41 74.36
1870 70.47 11.65 97.71 53.56 62.16
1871 70.36 31.62 181.34 76.67 122.01
1872 70.46 70.95 51.51 126.29 76.30
1873 70.39 77.54 45.54 134.06 52.57
1874 70.70 84.83 70.67 141.33 33.58
1875 70.75 17.07 101.83 53.62 87.77
1876 70.51 19.87 112.49 61.88 99.33
1877 70.65 56.66 222.66 87.89 111.90
1878 70.58 36.56 190.16 68.69 133.60
1879 70.69 40.13 215.64 67.73 140.69
1880 70.64 59.77 172.04 89.91 115.01
1881 70.54 83.16 74.32 149.59 39.14
1882 70.69 49.36 223.50 78.49 138.05
1883 70.68 54.02 207.12 78.63 123.68
1884 70.65 69.00 52.03 132.99 78.94
1885 70.75 22.25 158.71 66.05 100.48
1886 70.78 26.77 165.85 70.47 112.79
1887 70.90 29.76 166.11 66.74 112.97
1888 70.95 47.33 221.24 76.78 154.81
1889 70.85 88.64 49.84 130.71 20.41
1890 71.01 45.09 215.33 68.26 151.68
1891 70.99 86.61 67.75 134.67 30.00
1892 70.91 62.14 119.89 111.11 119.62
1893 70.84 72.64 51.43 128.77 69.87
1894 71.07 42.56 204.08 63.88 136.18
1895 71.08 24.94 175.27 54.67 105.42
1896 71.18 90.95 23.90 93.99 12.92
1897 71.29 9.40 90.81 41.58 56.20
1898 71.24 38.14 169.54 59.54 140.09
1899 71.10 64.44 117.30 97.69 102.44
1900 71.13 74.07 48.64 129.30 78.50
1901 71.13 79.63 46.36 132.29 54.98
1902 71.12 67.05 83.34 108.76 97.64
1903 71.23 81.43 45.13 152.60 62.32
1904 71.31 33.31 180.86 58.66 152.07
1905 71.40 14.38 107.90 49.29 81.12
1906 71.31 51.65 232.91 73.04 154.49
1907 71.14 75.90 49.21 143.47 69.66
1908 71.40 35.63 178.13 58.93 127.27
1909 71.50 58.44 217.56 78.91 112.94
1910 71.57 19.08 110.96 47.97 93.96
1911 71.39 82.89 42.74 140.71 54.29
1912 71.55 77.32 44.78 132.51 63.86
1913 71.68 31.50 146.57 55.19 131.70
1914 71.65 54.84 222.58 66.37 125.60
1915 71.63 11.82 93.94 40.61 70.63
1916 71.69 27.88 150.40 52.12 141.90
1917 71.57 71.98 85.53 126.89 99.79
1918 71.82 60.54 207.43 74.49 115.68
1919 71.81 23.20 149.02 50.01 112.91
1920 71.62 69.01 109.04 99.43 91.37
1921 71.81 40.23 145.94 53.42 166.23
1922 71.91 56.56 226.22 71.24 122.34
1923 72.04 20.98 102.11 45.25 105.31
1924 71.89 49.87 211.23 61.11 145.59
1925 71.94 63.06 217.60 80.04 118.30
1926 72.04 46.22 194.43 58.56 157.93
1927 72.01 66.21 192.82 85.34 102.02
1928 71.87 79.47 41.90 125.26 62.59
1929 72.10 53.03 233.65 64.21 148.38
1930 71.94 85.01 33.21 116.10 41.39
1931 72.14 44.23 184.32 57.25 165.59
1932 72.31 29.89 133.80 49.50 134.12
1933 72.26 25.53 113.52 46.09 118.44
1934 72.22 42.25 145.28 49.39 148.27
1935 72.15 74.98 96.42 119.25 98.91
1936 72.26 87.79 31.59 116.86 36.20
1937 72.23 48.31 188.08 56.58 170.34
1938 72.09 90.24 17.79 89.94 15.85
1939 72.26 37.60 110.05 51.93 136.38
1940 72.34 70.82 199.08 89.54 88.79
1941 72.34 34.81 106.99 47.84 138.61
1942 72.37 81.08 45.42 105.07 71.54
1943 72.49 16.14 62.64 36.28 91.99
1944 72.60 32.81 100.07 45.19 143.48
1945 72.74 10.98 50.69 32.14 65.62
1946 72.71 68.66 196.80 78.42 104.78
1947 72.58 77.75 59.92 100.54 93.00
1948 72.79 51.56 173.78 55.54 158.08
1949 72.65 57.71 213.21 66.26 121.00
1950 72.81 73.25 189.13 87.68 111.28
1951 72.71 13.68 54.99 33.71 85.79
1952 72.82 27.62 108.96 43.48 118.08
1953 72.84 61.51 211.86 67.92 114.71
1954 72.85 64.66 224.76 74.48 127.44
1955 72.68 83.17 34.35 104.71 61.10
1956 72.91 40.43 87.75 45.32 133.06
1957 72.84 54.75 206.13 60.77 152.14
1958 72.92 19.00 70.60 32.28 101.76
1959 72.90 23.27 65.98 36.95 112.30
1960 73.06 47.33 130.76 51.49 159.29
1961 73.23 85.99 33.12 119.03 54.12
1962 72.89 89.93 16.70 81.94 17.33
1963 73.20 36.43 85.37 45.74 145.10
1964 73.26 45.33 147.18 45.21 151.01
1965 73.33 59.68 186.23 58.18 123.63
1966 73.37 31.79 65.87 42.59 118.83
1967 73.29 38.65 70.05 44.69 148.92
1968 73.29 43.09 86.54 45.65 139.92
1969 73.43 75.92 173.65 78.76 86.13
1970 73.24 81.17 56.35 94.30 78.02
1971 73.36 49.56 110.89 49.71 160.18
1972 73.34 66.91 214.03 69.78 113.36
1973 73.51 21.32 42.59 31.34 100.08
1974 73.43 34.27 59.49 42.10 128.52
1975 73.48 25.38 59.01 37.17 103.99
1976 73.51 29.52 59.32 40.71 116.05
1977 73.61 71.22 219.38 69.24 116.03
1978 73.66 78.95 129.82 97.76 100.54
1979 73.68 63.12 187.38 56.83 109.25
1980 73.63 15.60 33.06 27.50 80.18
1981 73.77 83.77 49.23 98.92 77.56
1982 73.71 88.44 21.07 80.18 30.45
1983 73.72 9.67 29.61 24.96 51.79
1984 73.79 53.49 123.83 52.83 146.37
1985 73.72 57.56 181.54 56.39 137.61
1986 73.79 55.53 162.00 56.11 151.06
1987 73.74 13.06 34.23 30.08 78.68
1988 73.95 51.28 115.13 48.49 138.27
1989 73.99 19.05 31.50 27.12 82.48
1990 74.08 69.05 217.27 60.94 111.89
1991 74.00 27.37 41.43 34.84 101.66
1992 73.97 40.96 47.76 41.34 99.97
1993 74.16 65.30 204.99 59.49 111.94
1994 74.18 23.11 33.08 29.57 92.39
1995 74.04 47.63 69.03 43.66 164.86
1996 74.23 73.60 209.10 65.89 104.87
1997 74.23 61.25 140.62 53.59 128.00
1998 74.16 38.05 43.36 40.59 128.70
1999 74.23 35.83 40.31 34.11 115.61
2000 74.26 43.19 60.11 42.94 126.05
2001 74.43 31.45 35.36 34.88 106.06
2002 74.42 45.58 71.38 39.63 131.46
2003 74.50 33.65 39.34 32.21 107.10
2004 74.54 29.36 36.38 31.95 107.78
2005 74.65 49.74 55.37 40.79 128.48
2006 74.62 59.19 114.65 54.42 145.20
2007 74.71 25.30 28.96 29.24 83.43
2008 74.65 67.23 181.58 55.56 108.02
2009 74.77 39.97 40.58 38.13 114.13
2010 74.87 78.29 189.46 68.12 104.86
2011 74.73 20.84 25.87 25.03 75.30
2012 74.91 75.98 212.96 68.34 122.93
2013 74.87 15.85 24.93 23.58 70.66
2014 74.83 52.48 70.48 44.74 130.90
2015 74.93 83.31 120.99 69.52 92.84
2016 75.03 88.36 35.35 62.84 28.74
2017 74.92 71.06 230.14 61.19 137.12
2018 74.87 56.87 86.00 45.08 135.94
2019 74.94 63.69 135.57 51.37 122.99
2020 75.04 10.87 19.46 19.67 45.90
2021 74.97 54.63 79.66 45.84 126.14
2022 75.07 80.85 163.29 63.06 104.41
2023 75.04 47.82 44.57 38.85 125.48
2024 75.18 38.02 39.08 34.09 101.08
2025 75.23 42.14 45.72 37.45 107.37
2026 75.18 44.26 47.40 38.48 130.78
2027 75.19 27.50 31.12 27.97 83.92
2028 75.33 23.19 29.44 24.91 66.95
2029 75.23 35.96 39.83 31.35 98.58
2030 75.40 18.26 33.24 23.24 61.64
2031 75.38 61.34 101.48 46.17 130.69
2032 75.44 68.83 147.78 56.63 122.26
2033 75.51 32.28 41.12 30.97 92.65
2034 75.51 30.12 37.07 26.74 84.26
2035 75.51 73.35 202.52 53.71 113.10
2036 75.67 85.80 128.66 61.78 63.95
2037 75.56 50.93 41.82 41.03 110.54
2038 75.65 66.38 122.55 49.52 121.25
2039 75.66 46.30 46.24 37.49 99.78
2040 75.69 34.41 50.27 31.36 88.11
2041 75.77 20.58 36.46 24.32 59.58
2042 75.69 58.85 51.86 40.60 111.44
2043 75.70 40.12 42.69 30.29 84.35
2044 75.90 13.04 23.12 17.58 48.00
2045 75.83 56.32 49.36 41.73 109.48
2046 75.92 25.41 48.15 24.93 57.49
2047 75.97 53.35 41.70 42.03 105.33
2048 75.98 11.64 18.73 17.05 40.64
2049 75.96 63.85 67.93 45.10 114.86
2050 75.91 14.61 36.91 20.43 48.34
2051 76.04 48.66 44.43 35.48 114.46
2052 76.07 79.75 160.23 52.09 95.05
2053 76.09 37.45 75.56 32.42 82.65
2054 76.11 44.56 57.44 35.27 93.65
2055 76.21 70.79 144.20 51.92 119.16
2056 76.18 76.46 186.35 51.22 107.71
2057 76.09 28.04 67.71 27.51 72.36
2058 76.20 82.99 159.99 56.26 95.59
2059 76.39 87.46 91.22 49.01 40.94
2060 76.30 15.48 44.64 19.64 48.14
2061 76.20 42.33 86.00 31.61 75.51
2062 76.31 22.93 64.45 22.18 49.16
2063 76.21 18.41 58.44 20.94 51.50
2064 76.48 61.60 50.88 40.38 105.75
2065 76.40 33.06 83.74 28.98 68.98
2066 76.57 35.84 131.91 28.72 62.91
2067 76.53 30.09 103.86 25.58 51.00
2068 76.47 39.83 120.94 31.27 60.11
2069 76.29 21.44 68.11 25.67 42.44
2070 76.49 50.96 35.11 36.30 94.41
2071 76.74 55.30 42.26 36.04 107.38
2072 76.60 68.33 71.90 47.56 122.53
2073 76.54 73.58 176.04 47.86 113.46
2074 76.58 46.81 89.91 34.41 84.46
2075 76.58 19.20 65.80 22.08 47.20
2076 76.79 26.90 105.20 25.83 47.83
2077 76.74 59.48 45.43 40.22 93.23
2078 76.87 57.34 41.46 40.10 98.33
2079 76.79 65.97 67.58 41.66 112.15
2080 76.80 20.48 74.14 22.12 53.84
2081 76.89 88.21 92.96 42.55 46.67
2082 77.23 17.72 90.09 19.65 41.36
2083 77.16 24.04 117.97 24.09 40.30
2084 77.10 78.72 186.43 48.52 108.93
2085 76.99 12.09 42.56 15.48 24.87
2086 76.93 44.79 160.00 31.35 64.52
2087 76.97 53.36 45.89 36.23 101.83
2088 77.13 38.15 168.42 30.44 57.84
2089 77.04 48.87 108.75 34.88 67.95
2090 77.01 63.69 48.42 40.82 98.63
2091 77.09 42.46 183.95 32.01 54.11
2092 77.31 81.80 141.06 44.62 99.32
2093 77.29 32.24 160.98 27.13 47.82
2094 77.43 84.87 124.70 44.53 76.48
2095 77.34 34.26 156.10 27.54 47.37
2096 77.41 72.19 96.76 44.37 116.31
2097 77.29 51.54 63.85 36.85 81.77
2098 77.56 21.34 127.85 21.83 35.55
2099 77.41 40.25 185.30 29.79 54.10
2100 77.47 69.74 60.75 40.32 110.47
2101 77.71 28.43 149.50 25.12 37.54
2102 77.61 46.71 193.01 30.58 57.29
2103 77.70 30.29 164.32 25.33 41.07
2104 77.71 36.64 201.71 27.33 44.29
2105 77.71 59.60 40.15 38.97 93.82
2106 77.65 61.84 39.20 37.39 99.56
2107 77.66 15.26 91.24 15.33 29.49
2108 77.90 26.13 154.55 23.51 33.98
2109 77.77 67.06 45.52 37.61 107.04
2110 77.72 54.99 89.42 36.84 79.84
2111 77.96 44.42 203.93 33.00 43.33
2112 77.96 53.27 152.47 33.94 63.87
2113 77.80 57.03 48.02 35.70 94.09
2114 77.91 64.69 36.20 38.39 91.05
2115 78.03 49.24 194.06 32.36 59.54
2116 77.90 75.73 139.71 44.67 113.76
2117 78.07 51.20 153.65 35.14 65.31
2118 78.28 77.95 136.96 45.55 108.66
2119 78.13 42.14 213.44 30.17 41.19
2120 78.34 39.60 211.71 29.93 39.41
2121 78.49 80.72 97.30 40.74 96.23
2122 78.40 35.09 210.46 29.22 38.01
2123 78.50 32.41 199.48 24.79 30.86
2124 78.54 17.00 122.47 17.60 22.19
2125 78.55 74.05 60.66 38.97 103.47
2126 78.57 63.29 41.84 33.31 89.68
2127 78.56 68.76 39.25 32.72 98.15
2128 78.69 83.18 92.69 39.03 90.34
2129 78.66 21.74 161.56 20.78 28.07
2130 78.66 24.47 160.87 20.62 26.48
2131 78.67 47.76 231.19 29.49 47.32
2132 78.54 71.02 38.21 35.90 93.84
2133 78.78 37.73 185.40 28.90 31.24
2134 78.73 55.19 162.94 31.22 60.17
2135 78.70 57.27 158.49 35.10 61.64
2136 78.86 14.97 101.96 19.78 15.88
2137 78.84 19.17 139.47 19.25 22.96
2138 78.85 45.72 222.91 32.92 38.28
2139 78.69 60.51 57.83 33.62 75.26
2140 78.66 72.47 47.25 36.19 102.38
2141 78.97 27.43 171.56 22.43 22.21
2142 78.94 29.97 174.90 25.06 27.11
2143 78.91 66.20 34.13 33.63 79.51
2144 79.13 43.80 218.93 29.61 30.54
2145 79.10 53.01 216.89 34.38 41.57
2146 79.10 41.64 225.44 29.00 31.97
2147 78.98 50.76 204.02 33.11 49.85
2148 78.98 75.96 62.21 36.21 94.14
2149 79.32 33.95 195.40 23.34 24.45
2150 79.43 39.82 193.46 28.25 26.87
2151 79.63 35.91 200.02 25.63 23.77
2152 79.43 62.19 82.52 35.46 52.39
2153 79.48 76.79 53.40 35.15 86.00
2154 79.43 64.53 49.89 30.32 72.57
2155 79.70 49.32 227.51 32.93 34.24
2156 79.51 59.56 157.93 33.27 51.78
2157 79.43 72.77 46.26 31.04 78.33
2158 79.62 79.14 58.11 38.21 98.02
2159 79.64 23.15 158.99 20.39 20.42
2160 79.76 31.89 169.06 22.71 22.34
2161 79.75 57.30 215.96 35.07 47.04
2162 79.53 68.15 40.00 35.47 73.11
2163 79.67 47.16 221.79 30.90 30.95
2164 79.64 70.67 39.11 33.87 85.91
2165 79.79 17.19 112.52 17.51 16.46
2166 79.71 73.91 41.66 33.91 79.48
2167 79.86 25.86 144.15 20.34 17.92
2168 80.16 81.37 42.53 31.89 87.10
2169 79.96 20.15 140.08 19.25 16.35
2170 79.90 55.17 206.67 34.14 37.50
2171 80.00 37.91 200.42 24.85 22.12
2172 79.96 51.44 222.71 29.73 32.04
2173 79.99 83.42 43.34 29.69 52.34
2174 80.06 28.97 165.95 23.44 18.76
2175 80.07 42.68 162.79 30.38 23.87
2176 79.99 66.41 71.17 31.37 63.59
2177 80.07 45.19 174.29 29.76 23.12
2178 80.16 15.02 86.26 15.28 11.49
2179 80.17 53.35 230.81 31.21 33.53
2180 80.36 61.29 161.04 31.29 40.47
2181 80.34 64.27 144.44 32.33 45.56
2182 80.41 33.99 155.34 24.91 18.58
2183 80.50 40.56 145.63 26.76 22.00
2184 80.44 68.72 94.49 31.95 53.55
2185 80.60 75.37 36.12 30.75 74.50
2186 80.58 59.20 206.12 31.16 34.69
2187 80.40 77.49 46.13 32.11 75.47
2188 80.60 72.57 44.76 29.75 76.28
2189 80.57 47.46 171.65 26.75 22.31
2190 80.74 22.34 145.28 20.03 14.50
2191 80.71 50.08 218.86 30.14 24.87
2192 80.92 56.85 217.65 32.42 30.78
2193 80.95 44.48 154.49 28.15 22.46
2194 81.01 18.17 98.78 15.67 12.24
2195 81.04 24.81 129.83 22.50 14.68
2196 80.90 31.38 138.51 19.27 18.26
2197 81.05 27.09 130.95 21.34 15.46
2198 81.19 36.15 122.25 25.44 18.67
2199 81.33 67.71 159.91 32.03 48.29
2200 80.97 38.37 148.74 25.60 17.62
2201 81.16 52.51 211.66 31.35 25.34
2202 81.06 54.72 212.47 30.34 27.89
2203 81.21 62.99 198.92 30.96 35.15
2204 80.94 78.12 34.23 31.14 68.16
2205 81.08 42.44 130.87 24.60 18.00
2206 81.17 16.00 64.31 13.84 8.39
2207 81.32 71.12 104.79 28.60 54.36
2208 81.22 82.89 20.08 25.80 42.05
2209 81.35 29.22 128.98 20.10 15.53
2210 81.30 46.18 133.98 25.40 19.98
2211 81.46 79.93 27.45 28.46 72.28
2212 81.60 20.29 89.42 17.00 11.02
2213 81.39 33.30 108.50 21.40 16.87
2214 81.50 48.42 181.91 28.83 21.97
2215 81.55 59.11 219.58 31.26 28.58
2216 81.72 61.09 200.83 33.01 30.46
2217 81.60 40.38 120.98 25.67 19.75
2218 81.67 50.80 203.56 28.83 22.20
2219 81.75 65.16 188.81 31.04 36.22
2220 81.68 74.34 44.20 28.06 69.54
2221 81.87 76.80 30.39 28.12 60.45
2222 82.14 34.85 100.85 23.47 15.84
2223 82.04 38.44 103.79 25.31 18.35
2224 82.12 55.34 193.55 28.70 21.92
2225 82.14 42.58 111.03 25.99 16.67
2226 82.32 44.80 100.52 27.31 18.47
2227 82.10 57.43 211.42 30.69 22.77
2228 82.36 17.44 53.96 12.76 8.49
2229 82.15 25.99 85.74 19.79 13.72
2230 82.24 31.23 88.78 21.01 14.77
2231 82.21 47.03 130.56 28.85 19.53
2232 82.28 53.46 136.39 26.80 19.96
2233 82.57 81.98 20.01 23.35 52.52
2234 82.37 49.69 140.75 28.44 17.25
2235 82.47 67.37 211.53 29.43 33.08
2236 82.16 69.58 172.10 27.57 42.95
2237 82.42 63.69 185.84 29.04 28.24
2238 82.54 28.67 71.15 19.19 12.55
2239 82.46 72.27 148.97 28.26 39.65
2240 82.59 36.68 70.62 23.13 14.89
2241 82.52 78.93 26.95 23.64 43.77
2242 82.61 40.55 79.42 27.29 15.64
2243 82.61 51.93 140.54 26.67 22.07
2244 82.66 20.81 59.28 17.33 9.12
2245 82.79 59.47 168.07 27.33 20.84
2246 82.74 75.00 96.73 26.62 48.27
2247 82.86 62.01 189.76 27.55 23.12
2248 83.03 33.46 79.02 21.29 14.45
2249 83.00 23.21 56.61 17.45 10.20
2250 83.16 57.18 155.62 29.89 20.86
2251 83.02 69.98 210.01 29.60 29.55
2252 83.15 38.51 57.71 22.30 14.93
2253 83.26 43.39 56.41 23.48 16.12
2254 83.23 46.20 68.50 23.85 16.69
2255 83.25 48.30 86.69 26.61 16.08
2256 83.23 65.48 193.65 27.39 20.41
2257 83.18 77.51 67.26 23.78 41.42
2258 83.35 18.82 34.90 15.58 7.85
2259 83.23 54.99 105.51 29.42 17.72
2260 83.35 50.76 95.39 26.47 17.83
2261 83.46 31.14 48.90 17.66 11.69
2262 83.54 40.79 44.55 23.07 15.53
2263 83.77 28.64 47.02 18.79 11.87
2264 83.49 35.79 58.92 20.59 13.69
2265 83.50 52.91 81.24 26.22 18.26
2266 83.81 67.94 210.30 26.59 21.46
2267 83.80 79.73 42.51 21.78 35.78
2268 83.72 72.99 177.03 28.16 25.13
2269 83.86 61.26 137.85 27.41 20.09
2270 83.68 81.76 23.49 19.27 27.27
2271 83.79 63.73 165.30 27.97 20.78
2272 83.90 75.50 170.63 25.00 31.82
2273 83.90 45.16 46.76 22.88 17.00
2274 83.98 59.09 110.36 25.05 17.94
2275 84.06 24.47 36.09 16.39 9.87
2276 84.17 37.93 46.50 23.22 13.45
2277 83.84 39.00 42.40 23.20 12.80
2278 84.23 22.42 28.63 16.18 9.80
2279 84.10 42.60 40.86 21.76 14.41
2280 84.26 70.74 222.92 25.41 20.02
2281 84.26 26.69 37.61 19.67 11.10
2282 84.27 33.29 39.03 19.88 11.98
2283 84.16 46.97 47.28 24.70 16.15
2284 84.23 54.02 65.49 23.67 17.40
2285 84.43 51.45 62.28 26.24 15.76
2286 84.26 20.89 27.79 12.87 7.57
2287 84.15 56.69 92.55 26.52 17.03
2288 84.47 35.84 40.73 20.76 12.09
2289 84.43 19.05 21.32 12.72 8.07
2290 84.50 65.94 161.95 26.33 17.68
2291 84.63 30.65 35.03 18.67 11.29
2292 84.47 40.41 37.53 19.97 11.73
2293 84.63 49.04 50.05 26.98 15.43
2294 84.86 77.84 103.42 22.48 23.27
2295 84.73 44.69 39.88 22.98 13.86
2296 84.71 62.90 89.15 24.69 19.04
2297 85.16 54.74 48.62 26.38 14.98
2298 85.04 72.83 190.68 24.08 18.84
2299 85.22 46.65 38.09 26.25 13.98
2300 85.09 58.97 65.92 27.74 15.10
2301 85.02 61.16 76.33 24.96 17.75
2302 85.05 57.05 70.01 24.55 16.23
2303 85.10 69.05 183.74 26.38 18.20
2304 84.80 37.83 35.33 30.50 11.50
2305 85.09 42.85 33.94 24.13 13.25
2306 84.99 24.94 22.67 20.27 8.07
2307 85.38 75.56 153.30 23.90 19.07
2308 85.12 23.44 20.75 15.50 7.67
2309 85.32 34.98 29.79 20.42 11.11
2310 85.16 40.18 32.62 24.49 13.46
2311 85.19 52.34 35.91 25.29 13.89
2312 85.14 64.53 111.54 25.51 14.79
2313 85.61 79.58 76.09 18.16 13.20
2314 85.44 48.73 33.35 24.32 12.81
2315 85.69 32.46 28.92 16.93 10.54
2316 85.63 29.70 25.28 17.72 9.51
2317 85.52 20.60 18.26 12.03 7.87
2318 85.39 37.73 31.36 21.02 11.93
2319 85.59 50.87 38.00 25.00 13.30
2320 85.72 65.10 106.29 25.26 15.53
2321 85.84 39.59 26.20 23.16 9.87
2322 85.94 53.29 36.66 23.63 11.68
2323 86.11 71.47 188.40 24.41 14.44
2324 85.97 56.90 45.90 25.10 14.41
2325 85.95 60.57 39.73 25.57 14.28
2326 86.11 62.93 49.98 22.28 13.06
2327 85.91 24.67 17.56 18.46 7.05
2328 86.49 74.63 156.36 22.34 13.49
2329 86.16 22.43 15.76 16.19 7.86
2330 86.16 67.09 146.50 24.45 14.73
2331 86.34 47.75 30.81 21.23 12.94
2332 86.15 50.10 31.13 22.13 12.50
2333 86.56 77.79 100.18 18.06 10.29
2334 86.41 28.67 21.39 17.82 9.56
2335 86.36 41.62 22.64 22.59 10.10
2336 86.58 55.53 35.71 26.67 13.65
2337 86.58 59.30 37.05 24.11 12.48
2338 86.59 69.42 156.05 24.50 12.91
2339 86.40 26.68 20.91 16.33 7.67
2340 86.60 37.96 23.60 18.81 11.44
2341 86.93 43.25 23.14 23.26 10.33
2342 86.60 24.27 15.29 18.00 7.79
2343 86.71 32.59 21.35 17.13 8.65
2344 86.77 49.62 30.17 22.46 12.71
2345 86.80 64.93 59.89 21.67 13.64
2346 86.86 23.06 13.35 16.76 7.09
2347 87.10 61.23 34.82 23.57 12.82
2348 87.26 58.20 31.24 23.94 12.40
2349 87.02 36.45 17.54 25.49 9.36
2350 87.14 34.31 21.41 18.07 10.07
2351 87.45 67.51 84.87 24.08 12.31
2352 87.28 72.66 138.27 21.90 12.19
2353 87.22 51.04 25.58 26.29 10.65
2354 87.35 40.52 19.46 22.51 10.54
2355 87.69 63.65 39.68 20.22 12.13
2356 87.40 23.73 12.90 15.29 6.33
2357 87.57 27.85 16.36 15.03 7.93
2358 87.40 32.90 16.59 23.07 8.15
2359 87.76 70.37 95.55 21.92 11.41
2360 87.59 49.10 25.93 21.53 11.37
2361 87.62 56.27 28.57 23.89 10.89
2362 87.55 24.70 14.24 15.35 8.18
2363 87.64 35.43 18.47 22.50 9.56
2364 87.70 54.30 27.35 22.87 11.19
2365 88.08 39.28 19.55 19.02 9.00
2366 88.00 43.27 19.27 22.17 9.98
2367 88.20 74.88 108.79 19.44 9.21
2368 88.10 29.88 14.10 18.29 7.19
2369 87.79 60.80 30.00 34.12 11.12
2370 88.22 50.71 21.98 25.16 10.88
2371 88.20 41.05 18.00 22.08 9.37
2372 88.22 23.67 11.02 14.73 6.00
2373 88.13 61.72 30.44 21.36 11.33
2374 88.34 36.19 15.87 20.09 7.94
2375 88.25 53.65 22.62 24.16 9.50
2376 88.38 67.15 46.82 21.13 10.12
2377 88.32 59.94 27.79 22.33 12.73
2378 88.71 58.46 25.81 22.92 11.22
2379 88.62 71.88 70.45 19.57 9.62
2380 88.46 27.34 13.51 17.56 6.85
2381 88.44 48.38 18.70 22.96 9.74
2382 88.54 52.23 22.17 22.29 9.05
2383 88.72 55.63 22.45 23.11 10.48
2384 88.79 25.33 12.01 14.97 6.70
2385 88.88 69.51 51.09 19.91 9.77
2386 88.65 32.88 15.22 20.84 8.04
2387 88.78 31.09 13.34 17.12 7.00
2388 88.80 42.17 16.03 23.14 9.43
2389 89.64 37.59 15.12 20.48 8.23
2390 89.15 28.64 12.74 17.66 6.32
2391 88.92 39.66 19.56 18.22 9.48
2392 89.07 49.47 21.20 21.95 9.07
2393 89.33 53.81 22.47 22.11 10.28
2394 88.92 43.67 14.73 23.18 7.55
2395 89.17 65.47 34.70 18.97 9.21
2396 89.28 63.24 27.67 22.16 9.32
2397 89.35 73.59 67.36 17.85 8.54
2398 89.49 47.54 16.06 23.19 8.58
2399 89.94 50.87 19.37 22.47 9.05
2400 89.63 67.66 36.67 19.48 9.17
2401 89.51 40.14 15.73 22.40 9.63
2402 89.56 71.20 41.39 16.82 9.73
2403 89.70 60.28 23.45 21.58 10.44
2404 89.75 44.92 19.00 18.41 8.69
2405 89.71 27.35 11.47 15.21 6.47
2406 89.91 43.19 13.81 21.90 7.65
2407 89.90 61.87 19.27 22.41 9.91
2408 90.02 41.39 15.42 20.79 8.02
2409 90.21 28.99 14.05 15.09 7.20
2410 90.04 52.75 20.14 18.36 10.59
2411 90.24 57.22 21.60 22.19 9.21
2412 90.41 69.83 36.51 18.24 8.26
2413 90.19 30.60 15.38 14.49 7.74
2414 90.24 32.94 12.37 18.06 6.74
2415 90.25 72.58 31.56 18.53 7.60
2416 90.02 59.00 21.67 27.33 10.67
2417 90.60 63.38 22.15 20.47 9.28
2418 90.38 47.99 16.19 21.02 7.60
2419 90.47 55.20 18.72 21.38 8.96
2420 90.51 65.15 24.72 20.88 7.98
2421 90.39 49.38 15.35 21.68 6.87
2422 90.15 62.55 18.25 27.75 8.25
2423 90.45 42.47 15.55 19.64 7.00
2424 90.63 43.73 13.86 19.43 7.70
2425 90.67 41.69 13.60 18.75 7.05
2426 90.79 61.00 19.04 20.54 7.46
2427 90.78 34.53 12.82 18.91 6.88
2428 91.07 32.75 13.76 17.25 6.93
2429 90.82 39.72 16.63 17.21 7.37
2430 90.85 40.75 13.73 18.64 8.09
2431 90.80 44.82 11.17 20.33 7.00
2432 90.95 50.27 18.48 20.20 7.80
2433 91.16 29.97 11.55 16.10 6.14
2434 91.12 38.64 14.61 17.88 7.85
2435 91.08 45.68 14.65 19.58 7.50
2436 91.21 57.43 19.59 21.21 8.29
2437 91.19 27.80 10.29 14.45 4.97
2438 91.09 52.33 19.13 19.47 7.73
2439 91.44 71.69 18.32 16.61 6.36
2440 91.36 66.58 19.09 20.96 6.14
2441 91.28 68.66 18.26 20.06 6.32
2442 91.37 41.18 12.68 17.72 7.48
2443 91.37 51.28 15.71 19.12 7.62
2444 91.73 47.68 15.33 20.31 7.43
2445 91.47 60.08 19.20 19.93 8.54
2446 91.59 44.60 13.88 19.63 7.10
2447 92.05 63.04 19.33 18.65 8.11
2448 91.66 70.34 18.34 22.02 5.84
2449 91.64 39.70 13.50 19.15 7.50
2450 91.65 54.51 14.82 20.38 7.94
2451 91.66 64.61 19.48 21.63 7.58
2452 91.75 49.48 16.57 20.82 7.73
2453 91.70 32.81 11.12 17.60 6.77
2454 91.96 56.38 19.64 18.28 7.38
2455 91.90 52.53 18.63 18.37 8.20
2456 92.02 58.26 17.44 20.11 7.50
2457 91.92 69.05 17.47 20.53 6.26
2458 92.23 46.52 13.49 20.62 6.62
2459 92.15 59.73 19.61 19.37 7.14
2460 92.23 34.40 13.72 17.59 6.54
2461 92.25 42.44 13.40 17.04 5.90
2462 92.21 50.96 16.53 19.36 7.32
2463 92.10 67.83 20.04 18.81 6.65
2464 92.11 31.69 13.40 16.20 5.50
2465 92.68 40.46 14.53 17.18 6.70
2466 92.61 30.69 10.19 13.60 5.59
2467 92.34 65.93 17.39 20.02 7.25
2468 92.28 53.70 14.50 21.86 9.21
2469 92.44 28.83 9.68 15.18 5.45
2470 92.53 32.91 10.46 15.32 6.78
2471 92.57 48.79 17.83 16.93 6.05
2472 92.57 43.35 12.75 18.58 7.17
2473 92.74 55.91 15.84 18.35 6.88
2474 92.66 35.50 12.86 15.57 6.10
2475 93.05 53.93 15.00 18.55 6.85
2476 93.10 67.88 13.52 20.02 6.29
2477 93.07 64.11 14.19 17.44 6.67
2478 92.80 66.04 14.55 21.55 6.91
2479 93.05 38.25 13.98 16.89 6.33
2480 92.99 51.27 16.09 16.41 6.02
2481 93.07 59.27 17.45 17.60 6.89
2482 93.12 44.29 13.21 18.60 7.12
2483 92.92 33.83 11.67 17.33 3.67
2484 93.23 47.19 13.97 18.24 7.35
2485 93.33 34.89 12.32 16.02 5.80
2486 93.49 55.17 13.37 19.26 7.40
2487 93.28 56.05 20.00 12.88 5.12
2488 93.40 36.71 15.50 14.06 6.25
2489 93.77 65.69 13.62 16.15 5.48
2490 93.70 49.82 17.31 16.71 7.29
2491 93.48 51.91 14.67 21.50 6.50
2492 93.93 43.49 12.55 15.99 6.08
2493 93.94 56.77 17.09 18.28 6.98
2494 93.86 60.66 14.17 19.78 5.67
2495 93.84 63.30 14.46 17.51 5.43
2496 93.98 52.45 16.08 17.22 6.49
2497 94.16 37.23 11.70 15.96 5.60
2498 94.00 47.31 14.88 17.15 6.30
2499 93.89 35.72 12.14 13.86 6.00
2500 94.13 58.66 15.79 17.38 6.39
2501 94.43 45.60 15.04 18.07 6.31
2502 94.36 55.12 14.82 17.00 6.74
2503 94.59 34.87 10.66 15.93 5.79
2504 94.54 38.70 10.18 16.79 5.13
2505 94.65 41.26 10.88 17.97 6.30
2506 94.47 66.99 10.17 19.33 4.50
2507 94.76 61.34 13.92 16.66 6.32
2508 95.01 63.83 13.29 16.53 5.36
2509 94.98 42.62 12.36 14.70 5.57
2510 94.95 57.61 15.62 17.24 5.64
2511 95.11 33.47 10.03 13.41 5.08
2512 95.20 46.80 14.13 15.00 5.74
2513 95.56 40.11 11.08 14.08 5.55
2514 95.56 59.95 16.48 15.05 4.98
2515 95.64 42.12 10.98 14.57 5.65
2516 95.82 38.69 11.18 16.12 5.22
2517 95.64 51.24 12.00 20.40 4.60
2518 95.94 55.18 12.88 15.10 4.81
2519 95.88 47.08 13.82 17.52 4.76
2520 95.85 43.80 12.18 15.18 6.09
2521 95.96 58.92 12.07 17.75 5.68
2522 96.11 51.57 13.64 16.91 6.30
2523 96.26 45.68 12.33 16.55 5.87
2524 96.35 48.83 11.89 14.37 5.11
2525 96.25 60.82 11.76 15.12 4.80
2526 96.67 42.00 9.78 14.11 4.84
2527 96.54 40.24 9.97 14.61 4.55
2528 96.61 43.89 12.63 14.51 5.39
2529 96.56 59.34 11.64 15.76 4.40
2530 96.86 51.61 11.12 16.02 5.80
2531 96.87 39.32 8.00 14.33 5.06
2532 97.06 45.56 9.22 16.07 4.91
2533 97.04 55.61 11.57 14.17 4.46
2534 97.30 53.96 14.64 13.14 4.77
2535 97.38 57.19 11.35 14.43 4.11
2536 97.96 49.93 9.91 13.14 5.05
2537 97.43 52.57 14.05 12.52 4.48
2538 97.63 47.65 9.18 14.23 4.48
2539 97.58 50.95 9.00 14.00 3.71
2540 98.06 51.86 8.78 15.47 4.25
2541 98.36 46.95 8.67 14.37 4.30

