#<Embryo name> <Cleavage cycle> <Temporal class> <Genes>
rf4 14A 3 even-skipped Kruppel hunchback

#Quantitative data
#<Nucleus number> <A-P coordinate> <D-V coordinate> <Fluorescence intensity: channel 1 - eve, channel 2 - Kr, channel 3 - hb>
0 2.11 45.48 7.91 14.72 37.06
1 2.88 50.83 9.09 14.83 63.77
2 3.02 47.80 9.78 17.41 72.41
3 3.62 45.06 11.33 20.10 81.88
4 3.87 54.72 9.15 14.78 71.41
5 4.08 51.59 11.82 15.94 82.42
6 4.03 49.03 11.31 18.27 78.28
7 4.67 46.66 13.85 20.89 105.35
8 4.57 43.21 12.27 21.78 92.51
9 4.91 53.30 11.92 15.31 89.60
10 5.00 56.28 11.81 13.54 84.33
11 5.33 49.14 12.84 18.75 92.95
12 5.40 41.21 12.40 22.60 92.10
13 5.56 44.68 13.69 20.61 92.31
14 5.65 38.73 12.22 22.61 95.36
15 5.89 51.42 12.93 17.22 101.06
16 6.16 53.92 13.03 16.34 97.84
17 6.24 47.26 14.42 19.53 104.00
18 6.22 56.66 13.00 15.99 100.30
19 6.48 42.42 13.74 22.73 97.16
20 6.39 59.22 11.77 13.78 99.33
21 6.68 39.93 14.31 22.54 100.59
22 6.86 49.76 14.76 19.09 110.99
23 6.94 45.09 14.86 21.20 97.23
24 7.13 61.12 11.42 12.88 93.19
25 7.47 52.24 14.67 17.32 110.38
26 7.34 55.00 14.42 16.13 111.44
27 7.47 37.74 13.35 22.73 106.60
28 7.56 57.76 13.86 16.45 114.09
29 7.66 47.50 15.87 20.88 125.60
30 7.81 43.00 16.27 23.83 106.42
31 8.01 40.28 15.96 22.91 124.27
32 8.16 34.73 12.72 21.66 113.62
33 8.22 49.66 16.68 18.63 122.41
34 8.22 62.56 13.11 14.07 103.51
35 8.37 45.31 15.51 21.95 120.56
36 8.48 59.85 13.85 16.00 116.81
37 8.60 54.38 15.82 17.46 123.98
38 8.75 37.43 14.64 22.13 121.40
39 8.74 57.04 15.02 18.42 124.59
40 8.92 51.72 16.87 20.19 120.62
41 9.09 42.35 16.86 22.34 122.95
42 9.38 48.74 17.37 22.31 134.68
43 9.37 39.99 16.23 22.55 119.10
44 9.49 46.06 16.70 22.56 124.70
45 9.43 62.93 13.91 15.64 127.57
46 9.34 34.78 13.44 23.09 121.33
47 9.78 55.33 16.74 18.80 139.21
48 9.75 60.50 15.21 16.60 138.37
49 9.93 57.95 16.67 17.98 144.33
50 9.84 66.38 12.73 13.16 116.02
51 10.12 43.79 17.23 22.88 130.29
52 10.09 52.77 16.98 20.58 141.82
53 10.12 36.71 15.27 22.02 124.36
54 10.29 33.48 14.73 20.76 119.10
55 10.54 50.23 16.28 22.90 140.92
56 10.46 64.23 14.49 15.72 150.34
57 10.46 39.16 16.91 21.78 130.19
58 10.56 47.34 17.59 23.47 148.38
59 10.85 41.70 17.03 22.40 136.58
60 10.95 61.86 17.58 17.85 149.03
61 11.02 68.18 13.10 13.14 126.90
62 10.98 58.83 16.36 18.71 143.13
63 11.07 55.20 17.52 19.78 146.80
64 11.28 32.08 12.98 20.71 130.15
65 11.39 45.02 18.42 22.98 152.00
66 11.46 65.82 15.43 15.62 147.65
67 11.55 34.88 15.72 21.46 123.43
68 11.50 52.56 17.27 20.86 156.66
69 11.54 37.29 16.06 22.58 128.92
70 11.69 47.99 17.38 24.71 160.20
71 11.54 57.43 18.32 19.04 151.71
72 11.95 29.97 12.43 19.70 122.97
73 11.68 39.26 16.97 21.31 144.69
74 11.91 60.16 18.20 19.54 150.44
75 12.04 50.25 18.57 22.65 168.85
76 12.12 63.25 16.77 17.51 144.12
77 12.07 40.40 16.83 21.79 136.62
78 12.12 56.61 17.60 19.69 159.09
79 12.25 42.85 17.87 22.02 149.23
80 12.46 67.70 16.27 15.42 145.89
81 12.54 54.45 17.63 20.43 162.57
82 12.31 31.91 15.72 21.72 139.06
83 12.61 33.09 16.30 21.21 132.00
84 12.68 46.33 18.30 22.41 166.08
85 12.82 58.21 18.40 20.38 168.72
86 12.81 71.21 13.95 13.17 120.56
87 12.87 37.29 17.62 22.11 143.00
88 12.99 51.77 18.51 21.98 175.21
89 13.04 61.02 19.10 19.57 175.64
90 13.09 65.26 17.91 18.31 161.28
91 13.18 48.76 18.55 21.79 168.56
92 13.32 35.08 18.09 21.55 143.12
93 13.25 39.76 16.96 21.39 147.81
94 13.40 30.38 15.25 20.70 136.90
95 13.40 44.54 17.84 22.48 176.73
96 13.55 68.95 16.00 15.35 139.77
97 13.68 42.14 18.31 21.18 163.54
98 13.76 56.10 18.58 20.45 172.78
99 13.72 62.89 21.16 20.22 194.10
100 13.85 53.42 19.59 21.22 178.62
101 13.98 28.48 14.31 19.26 133.71
102 13.87 32.62 15.42 22.59 147.98
103 13.96 58.99 19.89 20.05 171.24
104 14.04 72.24 13.34 12.67 109.86
105 14.28 26.09 12.18 17.41 120.74
106 14.37 47.66 19.02 22.34 178.94
107 14.27 50.38 19.32 22.82 177.40
108 14.32 37.56 18.07 22.17 149.49
109 14.41 65.93 18.98 17.81 160.31
110 14.53 45.11 17.94 21.94 178.22
111 14.72 40.35 19.45 21.55 170.74
112 14.70 68.01 19.19 16.45 154.61
113 14.82 34.63 16.94 21.38 150.65
114 14.76 60.84 19.62 20.48 163.86
115 14.94 54.21 19.38 21.43 184.33
116 15.00 57.54 20.13 20.62 181.32
117 14.94 63.65 20.23 18.15 173.80
118 15.14 43.00 18.89 21.62 181.31
119 15.20 32.05 16.33 20.20 140.34
120 15.27 71.90 18.50 15.11 136.81
121 15.20 28.81 15.32 19.89 146.42
122 15.36 51.68 20.08 21.66 182.95
123 15.49 24.66 12.48 16.19 131.82
124 15.52 69.38 21.80 16.79 154.30
125 15.59 46.19 19.36 22.09 188.01
126 15.61 36.86 18.01 19.96 159.30
127 15.72 49.01 19.86 21.98 180.13
128 15.79 55.72 20.19 22.37 187.90
129 15.93 39.61 17.99 20.33 170.42
130 16.08 26.94 14.89 18.99 148.56
131 15.98 59.21 20.45 20.25 176.56
132 15.96 61.68 21.43 20.47 176.88
133 16.00 66.64 21.53 17.62 152.16
134 16.35 34.09 17.46 20.65 145.12
135 16.32 42.11 20.31 20.18 182.07
136 16.31 64.12 23.07 19.66 172.66
137 16.43 52.98 21.34 21.63 193.28
138 16.43 30.06 16.57 18.81 145.35
139 16.44 74.12 17.84 12.93 118.62
140 16.70 44.29 18.95 22.30 181.71
141 16.54 70.66 21.91 15.80 147.77
142 16.88 50.57 21.40 21.71 190.61
143 16.77 46.88 20.97 23.86 181.85
144 16.77 37.44 18.45 20.81 168.53
145 16.94 57.56 22.70 21.62 184.54
146 16.95 55.10 22.89 22.33 189.45
147 17.17 68.12 22.56 18.86 154.10
148 17.40 23.80 14.36 16.38 133.92
149 17.16 61.54 23.33 20.19 178.01
150 17.18 76.48 18.34 13.00 111.62
151 17.31 32.04 17.42 20.89 155.25
152 17.42 26.25 15.99 18.69 147.43
153 17.33 40.44 19.58 22.73 178.02
154 17.43 72.24 22.69 14.98 139.64
155 17.38 65.13 22.75 18.62 167.22
156 17.72 59.29 23.08 20.75 175.33
157 17.67 48.44 21.79 22.02 189.57
158 17.67 28.96 17.40 20.16 157.71
159 17.79 36.30 18.74 19.67 164.67
160 17.84 52.60 22.55 21.50 180.32
161 17.91 42.82 20.42 22.42 193.62
162 17.98 45.58 21.05 21.71 193.16
163 17.84 74.26 23.61 15.41 141.94
164 18.18 33.93 18.78 20.35 162.14
165 18.13 69.86 24.88 18.11 158.72
166 18.29 38.90 20.66 22.85 177.38
167 18.07 55.41 23.06 22.03 187.12
168 18.34 62.05 24.32 20.99 180.17
169 18.39 76.96 21.52 14.07 127.76
170 18.49 50.08 23.11 22.32 194.49
171 18.49 67.03 26.03 19.14 164.71
172 18.61 57.44 25.98 21.56 188.42
173 18.57 64.40 24.90 18.21 174.35
174 18.66 31.05 17.90 18.44 157.82
175 18.53 74.49 24.98 16.47 146.83
176 18.83 25.12 16.34 17.63 149.48
177 18.99 28.29 16.88 19.40 147.58
178 18.93 71.82 28.50 17.48 152.70
179 19.14 41.44 22.30 22.07 191.74
180 19.02 47.16 21.73 22.44 193.23
181 19.04 59.88 24.55 20.37 176.91
182 19.05 43.79 23.94 22.09 197.19
183 19.01 53.51 23.74 21.60 191.86
184 19.22 36.19 20.02 19.88 173.01
185 19.32 22.31 15.59 17.13 137.63
186 19.49 33.32 19.61 19.91 167.05
187 19.50 77.70 24.22 13.38 124.95
188 19.48 39.07 21.44 21.43 194.83
189 19.54 51.26 25.17 21.99 193.43
190 19.56 55.70 24.86 22.73 196.02
191 19.49 68.67 27.76 18.22 155.92
192 19.73 62.61 25.53 20.89 171.62
193 19.63 74.14 26.33 15.12 142.35
194 19.70 65.41 26.88 19.55 170.29
195 19.94 48.95 23.26 22.51 192.35
196 19.97 44.80 25.22 22.36 196.23
197 20.02 58.10 27.14 21.27 188.50
198 19.97 30.49 19.41 19.31 169.55
199 20.15 24.98 18.16 18.36 145.37
200 20.19 71.13 28.91 17.57 151.90
201 20.31 53.66 27.11 23.32 196.62
202 20.40 27.83 18.52 18.76 157.62
203 20.37 60.47 28.81 21.90 186.53
204 20.39 79.43 26.21 13.43 123.06
205 20.41 37.47 22.04 21.39 187.27
206 20.44 40.58 22.62 21.98 194.14
207 20.47 20.64 15.28 15.27 133.56
208 20.64 75.76 31.47 15.99 152.60
209 20.67 46.87 23.50 22.33 197.79
210 20.61 34.45 20.84 19.39 175.25
211 20.76 67.37 30.24 20.56 174.33
212 20.80 51.27 26.52 23.51 191.55
213 20.92 56.13 29.18 22.25 191.06
214 20.80 64.82 31.26 20.20 183.94
215 21.19 42.33 25.09 22.64 187.28
216 21.19 23.27 19.17 17.70 143.87
217 21.14 31.55 19.70 19.37 162.39
218 21.22 72.58 32.26 17.60 152.48
219 21.24 69.51 31.12 20.83 172.45
220 21.26 62.10 30.39 20.86 184.19
221 21.28 44.75 25.70 22.67 200.34
222 21.39 48.90 27.45 22.62 188.42
223 21.54 77.78 32.48 14.90 142.26
224 21.41 59.06 29.07 21.93 182.72
225 21.58 26.32 19.46 17.94 157.52
226 21.56 36.65 24.22 21.11 178.58
227 21.58 39.26 23.85 21.63 189.16
228 21.58 53.60 29.49 23.38 197.03
229 21.67 80.50 27.41 13.59 114.38
230 21.68 29.10 20.21 18.77 157.20
231 21.76 19.31 15.87 15.01 121.36
232 21.89 33.78 21.49 20.04 164.01
233 21.94 64.60 33.89 20.54 180.67
234 22.08 74.55 35.64 16.97 144.71
235 22.20 46.71 27.98 24.34 199.48
236 22.11 51.11 27.54 23.65 195.96
237 22.18 67.54 33.21 20.04 166.62
238 22.10 56.17 32.95 23.34 196.34
239 22.30 70.86 34.90 19.10 157.25
240 22.03 21.32 19.16 16.24 128.92
241 22.49 41.36 26.05 21.98 191.50
242 22.48 44.01 28.19 24.18 197.95
243 22.50 22.38 19.58 17.71 136.80
244 22.61 62.46 33.67 23.40 186.33
245 22.65 31.13 22.51 19.05 164.97
246 22.61 58.26 30.83 23.32 196.43
247 22.72 60.32 32.63 23.34 192.52
248 22.78 24.82 20.72 17.91 149.88
249 22.78 48.69 28.23 23.30 190.99
250 22.78 36.22 23.33 20.75 177.83
251 22.82 38.95 25.70 21.98 186.39
252 22.80 53.94 30.22 24.06 196.80
253 22.82 27.83 22.57 18.69 155.76
254 22.90 77.12 37.12 17.77 139.96
255 23.06 79.11 37.22 16.40 137.22
256 23.05 65.46 38.06 20.91 179.22
257 22.98 75.65 37.77 16.28 146.98
258 23.16 33.72 24.42 20.38 176.97
259 23.31 19.76 17.69 16.94 138.91
260 23.35 51.72 30.20 23.76 191.73
261 23.20 72.79 37.27 19.81 151.53
262 23.38 81.67 33.46 13.63 121.71
263 23.43 56.34 33.70 22.13 190.12
264 23.47 45.80 29.97 23.60 193.64
265 23.60 42.64 27.72 24.66 197.56
266 23.53 70.10 39.04 19.35 160.53
267 23.65 67.89 37.92 19.89 166.70
268 23.75 49.61 30.43 22.61 195.40
269 23.90 30.14 24.44 20.23 166.72
270 23.85 63.52 36.87 22.13 187.99
271 23.96 22.35 20.68 16.94 136.63
272 23.86 37.39 26.97 22.18 184.64
273 24.00 40.26 28.98 22.50 192.13
274 23.93 58.61 36.10 22.84 199.10
275 23.90 61.14 39.43 23.96 194.07
276 23.99 54.04 35.27 22.91 200.73
277 24.06 74.87 46.03 19.06 153.81
278 24.05 27.68 22.32 18.72 155.61
279 24.18 25.15 22.59 18.24 149.16
280 24.27 32.52 24.38 20.19 171.41
281 24.41 35.03 27.26 20.69 183.84
282 24.29 17.86 19.05 16.58 126.42
283 24.37 47.77 34.32 24.15 202.55
284 24.34 77.48 48.11 17.22 143.83
285 24.46 65.58 41.92 22.39 187.40
286 24.40 71.81 47.03 19.36 163.42
287 24.49 43.59 29.47 23.75 190.60
288 24.74 79.94 45.78 16.13 140.75
289 24.69 82.33 44.03 15.92 135.94
290 24.64 55.86 37.47 24.35 199.45
291 24.77 52.33 35.34 23.27 194.76
292 24.88 45.74 34.01 23.11 190.56
293 25.00 50.06 37.79 24.47 198.64
294 24.97 38.27 27.13 21.05 181.01
295 24.94 62.25 45.54 21.72 191.12
296 25.01 59.79 41.01 22.64 191.04
297 25.06 69.35 48.61 19.74 164.85
298 25.22 15.62 20.23 14.75 120.82
299 25.36 21.28 21.76 17.03 144.52
300 25.19 40.99 29.67 21.95 189.95
301 25.20 30.47 23.72 19.91 157.30
302 25.28 57.50 41.69 24.02 205.22
303 25.33 23.98 24.54 18.02 148.60
304 25.33 66.92 51.53 21.75 184.09
305 25.33 73.17 54.19 20.10 163.42
306 25.32 27.17 25.59 18.16 158.09
307 25.60 18.97 21.75 15.70 139.76
308 25.59 36.06 29.15 22.13 176.94
309 25.51 64.08 49.34 23.93 200.00
310 25.70 33.22 29.62 21.63 174.21
311 25.67 54.54 41.00 23.52 203.74
312 25.75 77.95 60.03 18.61 149.00
313 25.65 43.18 32.65 23.94 192.88
314 25.67 48.07 38.01 23.99 197.88
315 25.83 83.53 53.42 14.01 114.30
316 25.91 52.25 40.82 23.64 200.47
317 26.09 39.03 33.00 22.61 192.99
318 26.05 45.52 34.83 23.75 187.79
319 26.10 61.66 51.62 22.94 189.45
320 26.21 70.97 65.15 19.80 171.54
321 26.15 59.23 47.98 23.22 202.45
322 26.22 80.43 66.86 17.64 137.08
323 26.29 28.76 28.25 19.45 167.80
324 26.31 68.08 67.97 21.60 182.49
325 26.34 56.35 44.68 25.85 200.74
326 26.45 25.85 27.03 18.49 154.19
327 26.39 65.24 61.86 24.06 192.74
328 26.55 41.17 34.01 23.48 191.40
329 26.60 31.05 29.56 20.54 170.92
330 26.59 50.96 42.42 24.59 197.21
331 26.72 17.20 22.46 15.23 126.94
332 26.78 23.13 26.73 18.34 145.27
333 26.61 73.81 73.55 20.78 159.04
334 26.68 35.00 31.05 23.02 178.62
335 26.84 20.07 25.27 16.34 139.68
336 26.89 37.31 33.65 22.95 194.02
337 26.76 48.75 39.05 24.53 197.05
338 26.98 43.66 36.72 23.56 182.73
339 27.04 53.57 45.62 24.22 191.19
340 27.05 46.39 37.98 24.01 189.01
341 26.97 77.14 76.36 20.06 146.44
342 27.12 62.33 68.71 22.99 196.36
343 27.10 82.19 73.83 16.54 128.91
344 27.20 33.00 33.32 21.87 181.06
345 27.17 58.62 59.95 24.92 207.07
346 27.26 69.74 86.35 22.49 182.50
347 27.49 67.06 85.17 22.39 183.81
348 27.42 56.08 58.16 24.67 204.48
349 27.46 64.52 77.37 23.08 189.42
350 27.51 28.57 30.47 19.65 170.31
351 27.71 38.99 39.76 22.55 192.42
352 27.65 25.84 32.12 19.50 159.18
353 27.61 41.43 39.97 23.72 192.04
354 27.83 72.08 96.10 20.72 165.95
355 27.84 79.49 95.66 19.39 145.37
356 27.76 84.41 72.36 16.07 119.72
357 27.70 14.06 26.06 14.23 119.46
358 27.70 50.69 46.64 23.34 199.55
359 27.79 74.51 98.40 21.16 166.87
360 27.91 60.30 73.15 23.16 196.84
361 27.93 31.13 36.57 21.38 180.74
362 27.85 48.15 45.34 23.20 190.89
363 27.97 34.63 38.42 21.57 182.04
364 28.03 21.97 32.62 17.71 146.47
365 28.15 19.38 30.52 17.67 148.00
366 28.19 16.94 29.64 16.95 134.63
367 28.09 45.31 44.35 23.22 196.36
368 28.22 54.52 63.07 24.38 202.99
369 28.20 76.76 103.84 20.78 157.16
370 28.34 36.75 39.88 22.99 182.04
371 28.24 57.66 72.89 25.06 198.95
372 28.36 43.10 46.03 24.79 187.24
373 28.43 52.36 58.84 24.08 199.26
374 28.40 62.58 89.41 23.86 193.00
375 28.40 81.57 95.70 17.94 139.66
376 28.50 65.26 102.89 23.78 190.78
377 28.45 69.74 112.40 21.60 182.96
378 28.57 24.35 33.11 20.50 156.38
379 28.69 27.68 37.60 20.65 168.24
380 28.70 40.73 46.62 24.64 193.22
381 28.76 67.56 120.99 24.15 199.34
382 28.96 32.78 43.02 23.05 182.76
383 28.89 49.83 60.52 24.67 195.50
384 28.76 86.38 78.49 14.28 100.98
385 28.78 47.21 52.43 22.70 188.30
386 28.91 13.25 34.57 16.06 124.20
387 28.96 30.17 41.21 21.52 174.62
388 29.05 38.56 42.54 22.28 186.17
389 29.03 74.17 123.30 21.75 158.68
390 29.03 83.74 94.30 16.91 135.08
391 29.08 60.33 103.87 25.48 205.13
392 29.20 55.37 77.29 26.07 193.40
393 29.23 35.03 42.92 22.38 182.58
394 29.32 71.46 126.50 22.75 172.52
395 29.29 20.84 41.14 19.19 150.98
396 29.35 44.50 56.93 23.51 192.55
397 29.30 57.90 94.72 25.16 198.34
398 29.27 77.66 116.72 19.25 149.32
399 29.37 15.75 43.40 16.30 133.03
400 29.49 63.74 117.57 23.49 186.95
401 29.66 26.15 40.13 19.86 158.49
402 29.54 52.74 79.24 24.87 197.83
403 29.65 42.09 57.20 24.65 190.76
404 29.77 23.46 44.05 18.99 154.68
405 29.61 80.69 114.38 18.95 148.01
406 29.78 66.11 146.51 25.44 193.80
407 30.01 18.13 48.31 17.21 134.78
408 29.78 68.90 150.96 22.74 187.91
409 29.75 86.78 91.42 15.95 102.09
410 29.76 47.26 70.78 23.90 185.77
411 29.84 88.43 74.08 14.43 92.63
412 29.98 28.88 47.33 20.52 180.33
413 30.06 37.74 56.35 22.65 192.12
414 29.98 61.58 133.43 28.51 208.28
415 29.96 50.49 84.18 27.14 198.19
416 30.06 31.30 50.26 21.05 182.80
417 30.15 39.98 63.55 24.79 193.66
418 30.23 72.83 153.38 25.49 184.44
419 30.26 75.48 129.18 22.80 158.84
420 30.31 35.66 55.00 22.03 191.26
421 30.22 83.95 99.69 18.42 128.53
422 30.30 56.45 106.83 25.73 193.83
423 30.32 58.99 130.85 26.21 200.29
424 30.48 33.40 56.73 22.14 188.59
425 30.37 54.17 104.45 25.24 196.69
426 30.47 14.52 56.25 17.24 123.02
427 30.48 78.35 124.43 21.74 148.96
428 30.53 43.51 75.39 25.99 199.02
429 30.53 20.52 59.64 19.53 147.58
430 30.60 45.87 89.95 25.16 193.71
431 30.62 48.53 96.53 25.96 199.17
432 30.62 63.57 155.98 26.74 211.48
433 30.86 86.27 92.96 17.99 114.72
434 30.86 25.44 64.65 20.43 168.56
435 30.76 67.10 159.76 25.08 192.91
436 30.87 81.36 116.20 20.17 142.57
437 30.93 51.98 117.13 26.11 192.19
438 30.89 69.57 167.72 24.80 185.79
439 31.05 22.80 66.81 20.19 153.87
440 30.99 27.96 66.16 22.29 175.21
441 31.00 41.29 82.04 24.64 192.41
442 31.05 89.10 72.08 14.83 84.13
443 31.06 60.84 166.54 28.08 208.85
444 31.20 31.26 72.26 23.25 186.29
445 31.24 37.05 74.66 24.27 195.96
446 31.24 71.66 167.77 24.71 186.63
447 31.48 16.81 74.87 19.09 130.07
448 31.40 49.88 134.81 27.47 191.36
449 31.43 64.94 174.73 25.70 193.69
450 31.44 39.11 89.72 25.63 193.66
451 31.40 56.64 147.20 26.23 189.88
452 31.44 76.36 135.35 23.02 165.29
453 31.48 34.81 79.11 23.58 175.00
454 31.47 58.73 159.88 26.47 205.01
455 31.63 19.44 77.70 19.45 137.85
456 31.47 54.28 144.02 27.16 190.85
457 31.64 13.45 76.85 16.95 121.75
458 31.66 73.85 140.80 24.81 167.97
459 31.57 44.89 107.24 24.91 182.52
460 31.74 83.57 106.60 20.59 136.03
461 31.66 47.20 122.40 25.67 193.77
462 31.78 79.09 128.37 23.67 155.45
463 31.76 62.46 176.69 28.33 206.45
464 31.85 42.74 108.55 24.68 194.86
465 31.98 29.60 85.17 23.02 179.71
466 31.88 67.05 175.60 25.72 190.29
467 32.10 24.50 90.69 22.08 156.04
468 32.07 27.04 89.36 21.59 164.91
469 32.10 32.82 98.27 24.37 185.90
470 32.08 86.39 88.25 19.28 118.43
471 32.22 40.57 119.50 26.85 195.13
472 32.19 69.29 166.76 25.68 193.47
473 32.28 21.90 94.77 21.04 147.01
474 32.32 89.45 67.47 17.83 92.26
475 32.35 50.94 162.29 26.76 189.40
476 32.31 60.05 189.31 27.83 204.50
477 32.44 53.05 178.59 27.93 197.64
478 32.32 71.48 176.72 28.86 217.96
479 32.46 80.96 105.82 21.48 146.07
480 32.43 37.71 116.55 25.29 190.29
481 32.50 48.71 160.92 26.86 194.24
482 32.48 55.49 174.50 27.70 194.81
483 32.63 35.36 120.99 23.85 180.98
484 32.63 57.68 185.86 28.17 199.14
485 32.56 63.61 180.15 28.45 196.85
486 32.72 44.24 143.58 26.91 190.29
487 32.71 76.68 127.39 24.22 158.81
488 32.84 16.52 100.50 19.00 125.50
489 32.87 46.50 153.04 28.11 183.59
490 32.85 65.63 176.18 27.92 194.83
491 32.85 13.84 101.68 17.92 129.12
492 33.00 19.36 112.59 20.25 135.24
493 32.95 31.02 116.04 24.77 182.45
494 32.92 73.56 133.16 26.95 173.65
495 32.98 61.44 198.60 28.50 201.90
496 33.27 11.53 102.88 16.62 118.50
497 33.20 85.09 86.93 23.55 132.21
498 33.18 26.50 122.97 24.23 174.68
499 33.22 28.79 124.61 22.73 180.18
500 33.18 41.79 155.57 25.81 193.67
501 33.25 67.88 160.98 26.18 191.99
502 33.28 33.37 139.43 24.70 181.64
503 33.29 39.34 144.90 27.51 182.46
504 33.26 83.15 92.91 22.96 142.04
505 33.37 87.72 71.41 19.85 108.16
506 33.44 24.34 123.71 22.05 161.34
507 33.38 70.49 150.34 27.64 180.40
508 33.57 22.08 116.22 22.03 152.78
509 33.43 51.39 175.67 29.63 195.94
510 33.48 78.87 108.80 24.58 150.35
511 33.54 81.70 105.93 24.96 145.90
512 33.63 8.94 97.49 15.37 101.10
513 33.42 54.41 186.65 29.80 200.81
514 33.60 36.98 156.27 26.25 187.68
515 33.60 58.79 188.55 29.45 207.95
516 33.65 48.65 166.33 27.18 187.76
517 33.89 90.25 58.69 19.92 93.06
518 33.71 63.45 176.45 29.05 198.99
519 33.78 75.42 131.43 25.73 161.64
520 33.95 56.50 187.14 29.73 198.86
521 33.78 43.76 159.26 27.21 184.22
522 34.08 46.01 160.58 28.31 183.16
523 34.02 61.08 182.31 29.11 204.72
524 34.04 65.69 160.64 28.46 195.46
525 34.09 72.90 135.64 28.99 182.77
526 34.14 14.73 109.27 19.20 124.03
527 34.17 17.67 113.15 20.26 129.28
528 34.08 31.64 142.54 24.66 176.22
529 34.17 34.82 164.94 25.22 179.16
530 34.22 40.95 175.11 27.13 194.93
531 34.41 20.30 123.17 21.50 142.14
532 34.39 26.95 140.30 24.42 171.65
533 34.31 53.26 180.28 27.99 197.42
534 34.38 29.31 141.64 24.25 170.93
535 34.37 68.19 136.42 28.47 182.10
536 34.32 85.24 88.57 24.14 130.88
537 34.51 11.49 102.28 17.76 116.17
538 34.52 38.74 169.83 27.84 187.06
539 34.55 77.54 107.53 27.71 158.76
540 34.54 80.43 99.76 29.06 157.02
541 34.56 50.61 161.40 27.60 180.54
542 34.53 70.76 128.80 29.13 182.32
543 34.66 24.55 132.58 23.79 155.61
544 34.69 59.30 169.41 31.37 210.21
545 34.86 83.12 90.62 27.54 135.20
546 34.59 86.42 74.29 25.26 127.66
547 34.80 88.38 78.51 24.48 116.82
548 34.80 42.96 169.92 26.79 190.71
549 34.77 63.13 162.18 29.66 197.52
550 34.87 47.95 157.82 27.17 179.10
551 34.95 36.64 170.58 27.42 190.99
552 35.07 32.82 165.75 27.00 180.36
553 34.98 55.18 164.22 30.49 201.32
554 35.03 74.76 118.44 30.44 163.95
555 35.20 22.33 123.78 21.60 149.68
556 35.18 65.11 137.13 30.38 195.90
557 35.26 57.70 164.00 31.95 210.16
558 35.34 30.60 153.86 26.70 180.22
559 35.34 45.36 151.06 28.52 171.11
560 35.33 61.21 141.49 30.74 200.36
561 35.40 14.03 112.40 20.76 124.79
562 35.43 16.76 117.55 21.47 127.92
563 35.50 67.12 125.96 31.56 197.33
564 35.42 52.36 146.39 29.31 187.27
565 35.47 69.60 118.39 31.40 187.79
566 35.55 34.76 170.01 28.22 189.67
567 35.50 40.77 159.20 28.13 183.08
568 35.53 72.45 118.74 28.58 169.73
569 35.58 90.81 56.70 23.68 83.48
570 35.64 28.35 140.86 25.29 159.42
571 35.67 19.42 119.61 22.19 136.12
572 35.76 26.07 131.54 24.31 152.47
573 35.69 78.81 99.01 31.33 152.81
574 35.79 11.11 96.37 19.27 105.24
575 35.74 85.30 94.00 30.18 133.44
576 35.81 38.49 154.81 26.86 181.85
577 35.72 50.01 142.23 28.52 181.68
578 35.93 81.50 93.93 31.07 139.06
579 35.94 76.12 105.06 32.22 160.09
580 36.05 87.65 85.62 30.39 120.66
581 36.00 43.17 147.41 27.46 168.61
582 36.03 63.09 128.94 31.88 199.42
583 36.04 56.20 137.14 29.63 194.45
584 36.11 47.49 138.84 28.81 173.34
585 36.25 23.82 122.38 24.00 151.47
586 36.14 53.89 127.03 29.36 181.57
587 36.18 59.76 131.64 33.71 205.84
588 36.42 33.19 152.04 27.76 184.04
589 36.43 36.52 163.57 30.73 201.73
590 36.47 65.42 113.87 32.16 190.54
591 36.52 21.32 118.74 25.35 147.16
592 36.46 30.85 148.65 27.16 176.35
593 36.45 68.42 107.01 30.68 188.75
594 36.52 71.02 107.21 32.58 177.58
595 36.62 73.78 106.33 32.89 162.99
596 36.60 83.16 107.62 33.26 131.55
597 36.72 45.32 134.10 29.57 177.49
598 36.73 89.58 78.25 31.55 107.52
599 36.71 17.04 100.99 23.38 118.80
600 36.63 40.69 157.80 32.08 207.42
601 36.76 14.21 97.45 21.95 119.10
602 36.85 57.82 121.29 31.69 198.38
603 36.96 52.11 126.79 31.49 181.50
604 36.86 27.93 135.35 26.95 167.15
605 36.76 49.59 133.28 31.08 177.28
606 36.93 79.49 97.78 34.24 140.57
607 36.96 61.81 118.69 33.89 201.47
608 37.04 76.64 104.82 35.00 157.53
609 37.07 11.28 78.66 21.55 113.30
610 37.00 84.43 101.37 37.39 133.13
611 37.23 25.40 113.84 24.84 155.82
612 37.20 38.53 130.17 29.58 181.41
613 37.15 43.08 118.80 28.16 164.17
614 37.08 55.05 108.36 30.51 177.15
615 37.24 34.75 133.41 29.43 186.36
616 37.47 19.72 100.44 24.74 134.80
617 37.31 86.51 96.05 33.61 114.98
618 37.36 66.92 107.09 35.36 187.23
619 37.48 47.48 126.21 30.08 179.74
620 37.49 63.90 110.14 36.45 189.23
621 37.50 29.96 124.29 28.52 165.58
622 37.53 59.78 109.20 33.91 193.54
623 37.53 69.50 110.08 36.60 178.52
624 37.54 22.72 105.72 27.47 152.79
625 37.64 8.02 61.44 18.75 101.57
626 37.58 72.14 108.69 39.19 174.70
627 37.73 32.38 114.58 30.04 171.13
628 37.64 81.76 111.93 39.75 136.29
629 37.80 41.03 117.89 30.06 180.40
630 37.90 36.60 111.14 31.14 180.58
631 37.86 74.52 112.57 39.33 163.47
632 37.81 89.90 81.58 36.76 99.95
633 37.85 49.94 130.92 31.96 176.53
634 37.95 56.52 98.95 34.33 182.49
635 37.98 16.93 86.85 25.40 129.57
636 38.13 45.59 113.41 31.42 172.67
637 38.08 53.96 105.61 33.48 176.91
638 38.11 13.97 75.31 22.24 115.03
639 38.12 27.07 106.02 28.09 151.27
640 38.08 77.82 118.58 39.58 147.60
641 38.24 61.70 104.96 36.95 198.85
642 38.02 83.16 97.44 41.56 131.06
643 38.42 92.17 62.04 38.89 70.87
644 38.28 43.33 103.75 30.54 174.98
645 38.34 65.63 112.01 39.13 192.04
646 38.33 10.67 66.23 22.66 113.28
647 38.42 84.88 106.38 44.15 125.52
648 38.39 38.88 106.48 30.27 174.64
649 38.42 51.78 118.22 34.66 182.19
650 38.45 24.11 90.75 28.75 145.21
651 38.45 34.39 99.11 31.02 176.52
652 38.46 87.79 98.96 41.34 114.90
653 38.41 58.51 109.00 37.31 201.81
654 38.47 68.11 104.30 39.12 182.10
655 38.65 80.32 120.81 45.90 145.32
656 38.60 21.38 98.28 32.90 189.61
657 38.53 29.96 105.14 30.11 172.32
658 38.63 70.86 111.93 44.98 176.90
659 38.75 48.19 114.51 35.97 176.84
660 38.82 63.51 105.17 40.26 188.94
661 38.89 18.71 73.48 26.35 127.27
662 38.83 75.73 126.44 46.96 161.48
663 38.96 73.29 114.35 44.65 159.65
664 38.99 41.15 98.43 33.16 169.57
665 39.15 32.34 91.26 31.70 168.62
666 39.24 82.71 108.42 47.95 119.77
667 39.28 8.55 52.50 20.92 102.24
668 39.14 37.02 96.66 30.93 171.43
669 39.06 55.72 98.20 35.57 176.39
670 39.18 60.26 103.43 39.00 190.86
671 39.25 27.86 89.44 31.13 154.66
672 39.24 12.60 59.72 25.18 114.36
673 39.32 15.91 68.56 26.69 122.35
674 39.37 25.46 82.38 31.32 147.81
675 39.36 53.14 96.24 38.50 175.18
676 39.37 43.85 92.99 33.93 170.16
677 39.44 46.13 100.86 35.09 175.10
678 39.42 50.41 105.58 36.17 180.91
679 39.43 66.72 105.73 42.92 178.54
680 39.36 77.92 132.70 49.69 144.11
681 39.48 58.00 93.49 40.19 188.45
682 39.60 89.74 89.21 46.11 88.17
683 39.57 69.14 111.55 45.59 173.71
684 39.70 22.87 78.06 32.16 140.46
685 39.61 34.90 86.96 33.99 177.54
686 39.73 92.68 65.81 47.61 70.33
687 39.63 86.55 104.15 51.94 106.24
688 39.68 30.35 81.97 33.77 168.00
689 39.76 39.45 89.42 34.58 166.53
690 39.75 64.59 109.16 43.93 187.61
691 39.79 20.46 70.10 31.25 131.96
692 39.87 62.09 103.73 43.58 179.64
693 39.92 71.76 122.71 50.27 163.51
694 39.95 75.06 130.91 54.17 151.14
695 40.05 80.13 122.92 52.74 132.80
696 40.07 48.05 90.74 37.43 172.85
697 40.25 18.04 66.40 30.68 134.54
698 40.13 41.92 87.79 35.74 169.76
699 40.10 55.58 99.14 41.28 174.77
700 40.26 14.13 58.02 28.15 121.15
701 40.41 11.20 50.85 26.27 101.90
702 40.34 37.46 83.23 34.92 168.32
703 40.40 83.32 114.56 57.93 123.82
704 40.38 28.56 77.14 33.67 164.60
705 40.42 33.13 78.99 33.57 162.60
706 40.49 26.28 69.90 35.15 153.83
707 40.44 53.21 96.66 41.35 173.54
708 40.53 44.46 88.32 37.99 162.36
709 40.52 50.97 97.29 40.61 167.80
710 40.47 57.91 101.62 45.00 178.91
711 40.60 77.43 125.43 57.71 136.09
712 40.67 8.23 47.03 24.85 100.25
713 40.72 60.26 101.27 47.84 174.92
714 40.64 67.21 122.14 51.17 163.90
715 40.71 23.90 71.35 36.03 149.86
716 40.67 69.52 120.78 56.21 160.13
717 40.75 85.78 102.87 54.25 107.16
718 40.82 30.67 68.38 34.81 152.40
719 40.84 35.55 79.30 39.14 165.62
720 40.80 64.84 118.73 52.24 175.99
721 40.90 73.85 113.50 60.01 141.00
722 40.98 89.72 90.46 59.58 80.97
723 41.04 16.06 64.41 35.35 143.07
724 41.01 20.30 65.32 36.21 137.62
725 40.96 62.56 114.16 49.40 176.63
726 41.08 39.55 81.08 38.94 167.36
727 41.15 92.64 62.32 60.14 61.86
728 41.04 49.01 98.61 44.54 174.33
729 41.14 46.42 89.81 41.13 171.98
730 41.10 71.50 119.52 61.89 155.15
731 41.19 81.28 113.28 65.38 121.50
732 41.18 42.03 84.22 39.76 165.07
733 41.20 55.43 101.10 47.17 175.42
734 41.49 13.02 52.57 31.48 107.23
735 41.60 22.26 66.25 37.62 135.28
736 41.45 58.38 101.01 49.91 174.43
737 41.53 27.86 70.01 40.45 160.07
738 41.64 78.99 109.37 65.52 121.13
739 41.66 87.21 95.70 63.38 89.28
740 41.63 75.93 110.68 68.55 127.82
741 41.62 32.27 69.51 40.92 159.84
742 41.64 53.17 108.17 46.73 176.80
743 41.76 18.27 59.89 35.58 122.65
744 41.70 25.46 69.23 40.51 149.46
745 41.72 34.42 77.38 41.51 161.88
746 41.74 37.23 74.56 42.58 164.92
747 41.72 50.89 102.79 43.76 164.30
748 41.74 9.07 53.85 30.30 104.43
749 41.73 44.10 87.59 44.34 171.57
750 41.75 66.52 119.62 62.34 169.29
751 41.92 10.56 50.58 31.23 99.94
752 41.81 69.48 121.89 68.74 160.34
753 41.98 83.14 97.48 67.95 101.76
754 41.92 64.07 116.78 59.87 161.90
755 42.03 30.05 70.82 42.87 156.13
756 41.96 61.49 110.08 57.26 160.20
757 41.98 72.88 112.40 71.42 148.54
758 42.02 48.00 98.66 45.85 159.43
759 42.11 56.63 104.90 51.35 165.06
760 42.25 15.61 56.21 36.20 115.83
761 42.24 41.48 88.64 47.19 167.23
762 42.33 39.29 89.35 47.12 173.14
763 42.55 90.99 70.80 68.11 59.12
764 42.54 6.85 46.57 34.31 98.09
765 42.46 59.09 113.92 59.75 161.87
766 42.63 85.72 88.45 77.32 85.92
767 42.49 23.71 64.18 45.38 138.11
768 42.56 45.88 98.72 50.51 169.26
769 42.56 54.59 109.56 58.09 171.77
770 42.57 93.26 53.97 66.77 43.58
771 42.76 21.19 66.42 43.56 127.03
772 42.65 67.90 115.65 75.85 158.14
773 42.69 27.65 74.49 48.94 156.32
774 42.80 12.79 55.22 37.72 107.13
775 42.73 35.08 83.39 45.73 160.68
776 42.67 49.95 114.11 52.15 155.78
777 42.68 88.80 76.51 74.60 75.17
778 42.84 52.27 117.95 57.47 166.96
779 42.81 71.22 111.23 80.18 138.53
780 42.81 76.27 102.01 79.90 120.92
781 42.81 32.47 80.17 44.90 150.49
782 42.85 78.74 102.73 79.08 113.60
783 42.89 18.58 65.86 42.50 126.18
784 42.82 43.30 94.49 51.99 167.64
785 42.92 73.84 99.38 84.35 129.94
786 43.02 81.15 89.95 80.75 94.30
787 42.95 65.50 114.40 73.49 157.88
788 42.96 37.43 87.90 49.89 153.25
789 42.99 63.05 115.06 73.39 155.70
790 43.08 25.65 73.07 50.08 147.62
791 43.17 9.87 51.32 39.80 96.56
792 43.17 60.57 110.50 71.22 162.93
793 43.18 29.55 78.08 48.99 148.78
794 43.17 56.73 111.55 62.48 161.18
795 43.22 47.96 110.96 58.08 163.14
796 43.27 88.05 76.80 81.69 68.82
797 43.35 69.51 111.67 89.40 152.52
798 43.39 83.58 88.05 84.25 81.33
799 43.44 15.45 56.89 43.32 114.21
800 43.39 40.01 91.94 56.81 167.31
801 43.79 23.46 72.13 55.11 126.98
802 43.66 44.58 101.37 56.18 151.93
803 43.67 54.36 106.75 68.15 163.86
804 43.71 50.38 113.94 66.69 162.15
805 43.80 58.55 110.03 75.85 162.79
806 43.81 31.18 83.81 54.67 143.67
807 43.85 42.24 98.93 59.19 163.71
808 43.87 7.00 47.48 42.85 87.67
809 43.79 35.40 89.45 54.99 148.61
810 43.90 67.62 97.30 95.11 140.01
811 43.91 20.43 78.35 65.77 161.20
812 43.89 72.28 96.48 97.88 121.12
813 43.94 77.27 93.93 93.19 102.04
814 43.97 62.01 111.76 87.17 158.86
815 44.11 85.99 79.39 87.08 64.94
816 44.05 11.58 50.78 47.69 98.49
817 44.06 17.79 61.38 50.66 118.06
818 44.09 33.32 82.56 52.16 135.60
819 44.11 74.80 97.67 102.66 114.35
820 43.88 84.67 76.60 90.47 72.07
821 44.15 89.81 65.64 89.77 56.17
822 44.15 92.60 53.35 81.78 47.16
823 44.08 46.65 104.18 64.22 151.09
824 44.11 52.40 107.44 68.26 154.31
825 44.08 65.54 100.27 87.20 129.99
826 44.16 37.70 86.89 62.07 142.23
827 44.18 26.10 77.62 58.66 135.42
828 44.32 28.43 79.66 56.93 130.75
829 44.31 79.51 83.70 97.99 81.84
830 44.19 87.43 67.19 86.48 58.38
831 44.32 56.53 108.73 82.81 156.31
832 44.35 81.98 89.29 98.92 72.41
833 44.39 70.03 96.65 103.57 126.63
834 44.56 13.88 49.85 50.02 92.38
835 44.45 48.90 110.41 71.71 143.00
836 44.53 63.67 98.22 95.31 141.55
837 44.55 40.05 88.76 67.60 148.20
838 44.59 60.02 106.81 89.03 150.76
839 44.76 21.98 71.92 65.63 120.14
840 44.78 44.52 100.82 68.38 139.20
841 44.97 9.58 47.05 51.88 84.38
842 44.88 54.69 108.92 87.58 147.96
843 45.00 5.78 42.95 49.82 75.73
844 44.90 30.80 87.38 66.38 134.76
845 44.96 35.64 89.65 67.20 133.26
846 44.77 83.36 75.07 97.14 66.79
847 45.01 42.09 94.61 70.12 138.85
848 45.05 50.91 105.35 82.51 137.07
849 45.09 16.41 56.34 57.77 95.93
850 45.04 72.82 90.79 108.69 95.80
851 45.14 95.11 30.74 70.95 17.16
852 45.13 19.38 59.62 62.12 102.84
853 45.16 68.10 93.57 114.93 109.83
854 45.16 76.29 85.05 110.53 80.81
855 45.22 25.33 75.10 68.82 117.76
856 45.25 33.33 89.41 69.44 125.67
857 45.21 47.13 105.71 82.97 139.93
858 45.22 58.06 102.39 100.34 137.50
859 45.22 65.84 93.96 110.99 121.74
860 45.34 61.70 99.43 108.88 133.19
861 45.26 84.78 72.29 97.58 57.40
862 45.51 92.13 53.81 92.47 36.21
863 45.30 52.83 93.86 87.82 132.15
864 45.32 38.12 86.31 72.88 128.43
865 45.38 88.03 64.01 95.18 44.34
866 45.51 81.31 75.76 100.34 59.88
867 45.60 23.21 68.03 74.81 115.19
868 45.52 27.62 79.46 73.92 117.90
869 45.54 70.50 87.50 118.07 100.62
870 45.62 78.75 72.92 106.87 62.22
871 45.62 49.30 96.87 94.48 135.80
872 45.68 63.72 92.40 123.11 128.07
873 45.80 14.10 49.91 63.42 85.85
874 45.75 55.96 88.59 102.65 128.91
875 45.93 40.29 86.54 83.20 119.65
876 45.84 43.46 92.39 81.77 121.71
877 45.87 29.91 82.69 79.19 119.00
878 45.86 74.20 82.03 122.02 82.16
879 46.04 11.05 46.02 63.01 76.58
880 45.95 59.93 94.49 113.30 115.79
881 46.06 7.56 42.43 61.04 70.84
882 45.99 45.57 93.81 91.36 123.07
883 46.18 20.91 58.09 78.64 95.84
884 46.10 35.71 83.46 83.94 115.32
885 46.13 17.79 52.32 76.45 94.47
886 46.21 32.64 83.41 86.19 115.85
887 46.29 67.83 86.26 139.35 97.68
888 46.34 85.90 66.88 99.06 42.30
889 46.32 53.24 96.70 111.29 114.34
890 46.37 57.82 91.79 119.90 108.04
891 46.40 83.08 78.38 108.60 47.94
892 46.50 24.33 69.65 89.36 95.02
893 46.46 37.95 77.56 86.61 104.28
894 46.52 51.11 90.74 115.12 111.09
895 46.37 65.82 85.84 125.80 97.64
896 46.47 95.81 24.42 69.35 10.21
897 46.47 72.03 95.24 156.42 94.03
898 46.54 26.64 73.42 92.93 101.37
899 46.52 48.95 87.17 105.74 113.64
900 46.61 77.36 83.67 134.01 64.19
901 46.57 89.75 57.27 93.20 31.68
902 46.65 42.17 84.32 100.44 110.07
903 46.70 69.76 86.00 148.40 88.34
904 46.81 4.91 35.17 69.17 57.15
905 46.75 47.02 85.57 108.65 112.05
906 46.70 61.60 85.20 137.61 108.24
907 46.76 55.22 91.42 128.64 112.85
908 46.71 63.74 88.45 140.23 100.24
909 46.78 74.92 82.80 137.32 64.10
910 46.84 80.27 76.86 115.85 47.06
911 46.82 30.80 71.05 95.50 101.84
912 47.04 93.43 48.52 92.92 23.56
913 46.97 13.14 45.93 77.95 70.63
914 47.01 16.40 44.99 83.02 74.01
915 47.01 34.53 81.46 117.35 124.61
916 47.15 28.77 78.50 118.52 107.90
917 47.06 44.59 81.35 110.99 104.90
918 47.11 9.39 39.90 69.32 62.94
919 47.14 59.57 86.37 144.64 94.21
920 47.21 19.44 52.36 89.51 73.49
921 47.30 22.29 58.03 99.82 84.03
922 47.33 39.12 70.19 106.19 96.60
923 47.31 57.20 83.26 143.05 89.44
924 47.43 86.63 68.73 105.74 34.32
925 47.47 67.98 89.48 156.76 78.20
926 47.44 65.53 81.37 154.41 79.79
927 47.52 71.30 83.93 151.04 64.41
928 47.55 83.14 76.31 118.78 38.02
929 47.62 32.32 71.60 111.16 87.36
930 47.58 41.31 72.59 120.00 97.86
931 47.55 49.61 83.16 133.65 92.75
932 47.65 53.77 85.46 136.18 86.23
933 47.71 36.76 66.79 108.67 79.87
934 47.63 51.75 74.12 127.62 80.23
935 47.59 73.58 90.56 149.78 59.59
936 47.76 6.37 36.01 76.64 54.58
937 47.72 24.52 53.98 102.94 70.42
938 47.68 78.17 79.10 131.28 41.98
939 47.76 26.83 62.71 114.05 77.83
940 47.72 47.59 76.20 129.75 93.54
941 47.69 63.01 83.42 162.13 86.00
942 47.92 95.67 31.13 75.14 9.63
943 48.01 14.72 41.23 92.68 62.50
944 48.12 90.86 59.72 104.15 25.37
945 48.11 12.00 38.41 89.09 58.82
946 48.05 43.50 74.01 126.50 84.24
947 48.05 55.84 85.96 154.12 84.33
948 48.05 61.02 82.15 159.48 76.34
949 48.10 75.75 88.15 143.36 46.42
950 48.10 45.73 74.40 136.30 87.27
951 48.12 80.68 79.01 125.36 35.80
952 47.94 88.92 65.84 104.32 28.87
953 48.14 17.64 42.05 98.25 59.22
954 48.23 30.20 62.86 120.42 71.28
955 48.25 20.80 48.51 104.47 62.19
956 48.16 34.47 61.27 117.86 79.09
957 48.18 58.67 83.05 156.76 72.80
958 48.26 69.75 86.28 163.82 61.60
959 48.38 93.18 49.27 98.27 19.59
960 48.34 9.14 37.03 85.70 50.21
961 48.33 66.38 81.87 159.34 64.89
962 48.39 87.85 69.68 111.44 28.42
963 48.39 39.24 68.51 125.71 79.21
964 48.62 64.31 84.38 165.38 63.38
965 48.54 72.78 84.03 150.59 46.09
966 48.56 84.44 77.58 116.66 30.48
967 48.56 50.02 70.81 142.03 63.99
968 48.71 28.11 53.16 119.34 60.88
969 48.85 23.19 50.59 119.50 57.31
970 48.71 41.76 67.90 141.08 72.94
971 48.72 52.39 73.82 148.46 62.69
972 48.83 25.70 49.21 115.29 57.24
973 48.82 77.99 85.45 137.71 37.65
974 48.88 32.41 59.49 127.79 60.21
975 48.87 47.67 73.22 143.52 66.98
976 48.94 68.01 80.53 168.84 53.32
977 48.86 6.06 30.55 89.84 40.84
978 49.03 37.32 59.61 134.77 63.05
979 49.01 62.51 87.82 170.56 62.16
980 49.03 54.45 76.52 157.33 56.94
981 49.06 56.54 70.27 161.16 59.75
982 49.04 44.91 71.88 149.62 68.35
983 49.16 81.87 79.89 123.91 28.54
984 49.11 60.63 75.07 169.76 56.99
985 49.15 71.25 89.13 164.46 46.82
986 49.25 16.45 41.38 111.57 49.57
987 49.16 19.05 42.80 112.58 48.92
988 49.19 95.16 35.37 82.88 8.25
989 49.30 13.60 35.14 98.30 41.17
990 49.14 74.98 87.93 156.01 38.51
991 49.25 35.09 58.74 134.21 61.13
992 49.23 58.57 72.29 166.07 53.98
993 49.37 89.80 66.06 106.20 21.17
994 49.43 10.82 35.83 93.93 38.77
995 49.36 86.64 76.40 114.26 23.56
996 49.44 30.13 55.63 138.52 53.85
997 49.56 21.29 45.11 124.68 45.34
998 49.50 39.70 59.48 148.06 57.88
999 49.51 65.92 85.11 170.36 48.24
1000 49.60 92.72 55.02 103.11 15.31
1001 49.60 7.94 33.45 95.10 34.40
1002 49.55 50.46 69.60 159.76 52.94
1003 49.72 69.42 84.99 171.62 39.47
1004 49.90 79.33 86.56 134.09 27.82
1005 49.73 41.86 64.43 151.27 56.48
1006 49.85 43.77 64.50 156.15 54.88
1007 49.82 52.72 71.87 169.02 49.00
1008 49.86 73.35 92.77 162.55 34.42
1009 49.87 27.80 55.63 137.76 46.70
1010 49.87 63.79 89.34 174.02 46.80
1011 49.91 76.74 88.96 149.39 29.90
1012 49.93 25.35 50.80 134.77 46.17
1013 49.95 48.34 70.67 161.26 53.30
1014 50.05 84.22 72.43 115.28 21.08
1015 49.97 33.25 54.17 139.29 46.06
1016 50.01 46.26 68.88 156.67 51.39
1017 50.11 54.91 76.22 163.96 44.48
1018 49.98 6.46 29.91 95.26 30.17
1019 50.09 57.28 86.89 173.29 46.80
1020 50.15 59.64 80.06 174.39 46.11
1021 50.29 23.23 49.32 137.86 39.23
1022 50.28 61.66 83.81 174.81 43.10
1023 50.32 38.06 58.77 153.89 47.19
1024 50.31 67.41 89.72 161.49 36.04
1025 50.32 15.58 37.98 116.63 32.55
1026 50.33 18.81 44.93 128.06 35.09
1027 50.36 35.70 55.95 146.33 43.44
1028 50.33 71.30 88.90 165.56 32.77
1029 50.53 31.27 56.87 140.62 41.23
1030 50.40 81.47 82.67 125.16 21.40
1031 50.50 94.69 41.36 96.76 9.29
1032 50.49 87.55 74.84 115.86 19.66
1033 50.54 9.78 31.94 103.93 26.89
1034 50.59 50.22 73.90 171.18 43.16
1035 50.66 89.93 61.70 109.28 17.24
1036 50.85 12.85 34.27 115.09 27.06
1037 50.62 40.45 61.68 158.31 45.44
1038 50.75 65.28 90.77 174.38 35.59
1039 50.82 74.70 88.64 152.90 26.82
1040 50.82 29.05 56.26 145.57 35.20
1041 50.80 52.16 73.30 171.32 37.83
1042 50.88 92.32 49.57 99.87 13.03
1043 50.79 44.86 72.60 172.76 45.55
1044 50.97 21.33 47.56 138.01 32.50
1045 50.87 42.68 65.03 162.26 42.96
1046 51.00 69.55 87.30 161.47 28.03
1047 51.00 6.86 31.95 109.63 25.76
1048 50.92 77.32 87.90 148.50 23.78
1049 51.01 26.52 51.46 140.12 31.97
1050 51.00 56.52 86.50 174.85 37.56
1051 51.01 63.13 84.46 175.35 33.89
1052 51.09 33.12 53.87 149.43 34.23
1053 51.08 48.37 77.97 175.17 42.74
1054 51.07 54.06 81.64 167.84 36.43
1055 51.15 59.17 83.16 182.58 38.49
1056 51.21 72.38 86.53 163.76 27.21
1057 51.32 85.29 71.88 117.56 17.74
1058 51.40 37.25 61.74 159.19 34.58
1059 51.41 23.99 51.15 148.14 29.75
1060 51.37 46.59 77.83 177.55 38.84
1061 51.44 79.37 78.24 136.39 19.17
1062 51.43 15.77 38.78 125.06 24.78
1063 51.46 18.56 43.43 134.28 27.82
1064 51.41 67.45 90.85 166.19 29.25
1065 51.45 82.47 79.08 138.50 20.41
1066 51.50 39.29 64.28 169.72 36.52
1067 51.61 35.02 54.99 152.73 32.63
1068 51.65 61.30 81.71 181.76 34.01
1069 51.64 9.92 32.10 111.38 21.10
1070 51.77 30.69 64.78 149.46 30.38
1071 51.72 50.76 81.71 174.86 32.97
1072 51.69 88.23 62.54 109.89 14.51
1073 51.77 41.44 64.11 170.61 34.65
1074 51.76 94.77 36.61 89.03 6.63
1075 51.86 64.11 80.83 171.36 29.95
1076 51.89 44.01 72.55 169.92 32.80
1077 51.90 76.35 84.78 152.22 20.50
1078 51.93 28.23 56.47 155.75 29.84
1079 51.90 55.09 86.22 172.19 31.49
1080 51.99 5.91 28.66 104.94 18.09
1081 51.97 57.49 83.97 175.58 28.52
1082 52.01 91.11 51.77 100.73 11.61
1083 52.08 52.79 80.34 174.05 29.84
1084 52.08 21.01 47.75 143.90 24.34
1085 52.12 66.15 88.40 171.36 25.85
1086 52.16 73.95 79.77 157.02 21.11
1087 51.84 93.45 40.62 95.25 6.50
1088 52.09 69.53 81.60 167.71 25.29
1089 52.28 12.46 34.99 120.00 18.98
1090 52.22 33.09 59.95 156.51 28.45
1091 52.23 48.85 77.51 176.84 30.33
1092 52.32 26.00 52.85 153.12 22.73
1093 52.27 71.64 88.75 166.08 23.11
1094 52.33 45.96 74.40 185.40 33.62
1095 52.36 59.59 83.76 178.75 28.81
1096 52.44 81.11 64.12 122.60 15.63
1097 52.41 39.71 67.22 169.60 28.58
1098 52.49 23.49 52.23 152.85 24.14
1099 52.36 84.67 63.85 116.59 14.89
1100 52.54 15.22 38.62 132.66 19.85
1101 52.65 17.92 42.12 128.72 17.92
1102 52.56 36.11 66.48 161.81 26.65
1103 52.57 62.51 80.58 167.01 24.77
1104 52.78 93.10 37.79 97.04 8.65
1105 52.63 78.43 68.48 135.77 17.29
1106 52.70 86.32 50.32 108.30 12.72
1107 52.76 42.40 67.34 174.17 27.37
1108 52.73 88.59 54.37 105.02 12.83
1109 52.89 9.48 33.99 112.66 15.02
1110 52.87 67.91 84.04 167.04 21.96
1111 52.90 29.05 56.20 160.32 23.87
1112 52.86 31.36 60.17 157.95 23.05
1113 52.87 47.41 79.72 188.00 27.68
1114 52.94 50.75 72.67 177.08 24.16
1115 53.09 95.80 24.17 86.24 4.37
1116 52.88 54.86 75.29 167.59 22.86
1117 52.92 57.17 78.00 176.51 23.30
1118 53.11 6.48 30.79 116.23 14.13
1119 52.96 65.19 81.34 169.66 22.45
1120 53.01 75.66 71.98 147.18 17.53
1121 53.07 38.17 63.67 163.27 23.87
1122 53.17 52.73 78.33 180.07 24.08
1123 53.21 83.08 59.23 115.81 14.13
1124 53.13 20.39 45.57 148.77 19.03
1125 53.15 44.58 65.18 170.91 24.93
1126 53.21 70.05 77.25 172.97 19.42
1127 53.31 61.14 78.92 176.74 23.07
1128 53.31 33.74 61.67 158.14 21.19
1129 53.25 98.21 8.21 43.04 0.62
1130 53.34 72.55 75.56 162.01 17.88
1131 53.37 40.48 67.38 170.53 23.91
1132 53.47 25.72 51.13 157.04 19.19
1133 53.54 12.35 37.30 116.31 13.56
1134 53.41 59.20 77.29 172.31 22.04
1135 53.57 22.90 46.65 152.47 17.54
1136 53.64 91.11 46.33 100.13 9.37
1137 53.58 79.91 62.88 124.54 12.74
1138 53.67 49.11 73.48 173.81 22.42
1139 53.61 63.29 78.15 172.29 19.45
1140 53.69 15.29 36.43 130.94 14.32
1141 53.70 36.24 58.63 163.09 18.49
1142 53.74 88.20 55.02 106.92 10.68
1143 53.76 27.82 51.32 162.38 20.34
1144 53.74 46.92 67.97 176.14 22.14
1145 53.88 17.99 39.77 133.09 13.47
1146 53.83 30.60 59.72 169.02 19.37
1147 53.94 77.34 70.71 137.52 14.16
1148 53.84 42.57 62.94 175.12 21.61
1149 53.97 85.30 58.85 111.58 10.69
1150 53.86 57.04 73.04 181.38 19.97
1151 53.86 67.53 74.78 175.94 19.59
1152 53.88 54.54 73.74 178.15 19.89
1153 54.00 74.82 70.89 153.65 14.39
1154 54.02 93.75 38.47 91.89 6.02
1155 54.00 65.34 74.69 173.83 18.74
1156 54.12 98.02 8.44 42.90 0.67
1157 54.11 8.21 31.74 121.16 12.14
1158 54.14 38.64 63.25 167.47 20.07
1159 54.12 52.08 70.73 176.43 19.34
1160 54.18 20.48 42.62 138.42 13.92
1161 54.19 44.87 66.32 173.45 20.72
1162 54.25 70.20 69.87 166.66 16.84
1163 54.34 82.22 62.53 125.74 11.65
1164 54.41 32.49 60.46 163.31 17.65
1165 54.40 34.49 59.57 163.55 16.65
1166 54.41 61.52 75.29 173.89 18.24
1167 54.57 95.89 24.93 76.42 3.09
1168 54.43 59.32 73.45 173.56 18.39
1169 54.45 72.63 66.17 160.51 14.67
1170 54.73 5.58 28.27 115.23 9.17
1171 54.57 10.88 34.48 122.58 11.57
1172 54.48 40.70 58.92 167.93 18.77
1173 54.55 24.87 47.45 158.40 15.00
1174 54.54 50.01 60.97 173.54 17.92
1175 54.68 29.06 53.10 163.68 15.06
1176 54.78 13.87 35.44 122.78 10.52
1177 54.74 47.24 68.12 172.57 16.26
1178 54.73 63.77 75.15 173.46 17.17
1179 54.74 79.37 68.93 127.82 12.73
1180 54.81 68.27 67.79 167.31 13.94
1181 54.79 22.33 42.00 144.78 12.77
1182 54.79 36.81 60.06 164.61 16.38
1183 54.75 56.54 68.96 178.24 17.70
1184 54.84 90.60 52.75 99.09 7.34
1185 54.94 16.73 41.12 136.05 11.32
1186 54.95 26.98 49.40 160.48 14.82
1187 54.89 43.03 60.64 170.67 16.83
1188 54.87 54.45 65.69 173.84 17.63
1189 54.88 88.36 56.25 99.86 9.18
1190 54.93 66.15 69.25 172.06 15.57
1191 54.90 86.94 63.27 103.11 9.16
1192 55.02 76.17 70.08 142.70 12.71
1193 55.22 19.34 43.13 145.70 12.08
1194 55.23 93.14 43.47 91.67 5.22
1195 55.13 52.13 65.81 172.58 15.76
1196 55.28 84.70 64.02 110.72 10.15
1197 55.30 30.74 54.62 168.81 14.53
1198 55.26 71.13 66.16 157.15 13.28
1199 55.29 38.91 56.87 163.93 16.13
1200 55.30 45.14 59.87 162.84 16.64
1201 55.36 8.75 30.04 111.38 8.04
1202 55.34 58.27 69.74 176.55 15.21
1203 55.42 73.75 67.76 143.06 11.94
1204 55.38 35.09 56.83 167.73 15.43
1205 55.45 48.65 65.41 181.30 17.39
1206 55.43 62.37 73.52 171.41 14.12
1207 55.54 60.27 78.74 174.89 14.45
1208 55.53 81.72 66.83 113.67 9.64
1209 55.55 32.85 55.18 159.99 12.97
1210 55.46 41.24 58.54 166.38 14.25
1211 55.64 50.50 63.02 182.32 16.02
1212 55.66 23.20 43.55 153.96 12.36
1213 55.78 11.91 33.50 116.38 8.74
1214 55.71 68.92 71.30 159.61 13.16
1215 55.74 78.43 74.36 128.70 10.60
1216 55.69 56.17 68.12 172.22 15.58
1217 55.52 94.50 38.64 89.36 3.45
1218 55.88 25.43 45.92 150.35 12.09
1219 55.95 95.46 28.58 69.52 2.59
1220 55.98 4.96 26.96 110.01 6.55
1221 55.96 14.74 40.96 122.65 9.61
1222 55.90 53.51 65.11 171.64 13.81
1223 55.84 66.02 80.52 185.34 15.90
1224 56.03 29.24 55.39 160.92 12.82
1225 56.08 46.94 61.18 166.12 14.16
1226 56.08 64.08 73.88 165.94 13.81
1227 55.93 90.52 61.05 87.80 6.85
1228 56.14 20.85 43.25 143.77 10.08
1229 56.15 17.32 41.94 131.65 9.42
1230 56.09 37.74 60.68 167.77 13.34
1231 56.15 87.23 66.76 100.24 7.92
1232 56.17 42.77 61.14 162.77 14.11
1233 56.20 76.06 73.19 129.57 9.22
1234 56.40 27.37 51.47 147.03 11.74
1235 56.29 71.59 72.05 152.76 11.49
1236 56.33 35.66 58.73 165.53 13.74
1237 56.31 44.93 61.15 162.81 12.98
1238 56.42 7.79 33.98 114.16 6.77
1239 56.40 40.09 61.96 162.00 13.52
1240 56.42 57.80 70.57 168.19 14.04
1241 56.67 92.96 55.89 82.66 4.57
1242 56.44 62.08 72.23 168.43 13.88
1243 56.46 84.17 76.82 104.97 8.34
1244 56.57 31.39 53.26 146.49 11.29
1245 56.52 49.56 67.22 171.62 12.99
1246 56.54 33.54 57.26 158.12 12.85
1247 56.55 55.04 69.96 171.86 13.95
1248 56.52 59.82 74.13 167.44 14.45
1249 56.60 67.10 76.10 158.70 12.01
1250 56.63 73.77 74.09 143.81 11.84
1251 56.58 81.09 83.71 112.33 9.49
1252 56.68 51.98 72.51 168.34 13.56
1253 56.67 69.39 81.93 157.37 11.93
1254 56.78 10.53 34.53 111.03 5.90
1255 56.73 23.32 49.91 149.13 9.74
1256 56.89 78.31 82.15 114.33 9.21
1257 56.82 89.42 75.20 85.82 7.01
1258 56.94 19.23 43.99 133.10 8.29
1259 57.01 13.80 39.24 117.33 7.00
1260 57.05 64.98 86.78 158.18 12.06
1261 57.10 37.89 68.20 158.06 11.49
1262 57.11 47.86 72.81 163.83 11.91
1263 57.13 5.71 28.28 106.68 6.14
1264 57.22 25.55 60.74 154.06 9.85
1265 57.26 95.07 39.44 68.92 2.87
1266 57.21 29.33 57.41 141.74 9.66
1267 57.25 41.55 67.76 160.49 11.51
1268 57.23 43.91 69.73 164.65 11.47
1269 57.34 16.39 45.50 119.70 6.94
1270 57.23 56.30 69.15 160.56 11.40
1271 57.20 45.90 68.26 157.13 11.87
1272 57.28 75.73 80.44 128.06 10.08
1273 57.30 61.03 82.16 161.73 12.29
1274 57.32 35.91 64.09 150.52 10.65
1275 57.38 53.80 74.46 160.22 11.97
1276 57.44 62.98 90.66 168.75 12.66
1277 57.38 86.06 80.81 90.58 7.89
1278 57.40 70.93 91.42 143.37 10.43
1279 57.52 39.59 70.85 153.59 10.90
1280 57.44 50.32 73.64 174.19 12.66
1281 57.47 58.71 72.72 155.42 11.60
1282 57.66 21.13 47.43 131.11 8.10
1283 57.52 68.38 91.41 147.02 10.48
1284 57.62 83.04 91.95 100.21 7.95
1285 57.58 33.57 66.51 148.86 10.20
1286 57.74 27.37 67.49 142.41 8.77
1287 57.71 72.94 87.32 131.79 9.34
1288 57.81 8.55 33.68 98.85 5.15
1289 57.68 80.00 90.92 106.36 7.57
1290 57.83 91.71 74.17 77.90 4.33
1291 57.81 31.10 65.60 141.87 9.32
1292 57.83 11.56 39.27 107.10 5.10
1293 57.75 23.48 54.79 139.24 8.09
1294 57.78 66.25 98.14 144.80 11.25
1295 57.86 89.02 93.28 86.49 5.64
1296 57.89 52.13 73.53 153.17 11.21
1297 58.02 18.48 49.02 119.77 7.04
1298 58.06 48.54 83.65 165.41 10.93
1299 58.06 56.89 74.98 150.35 11.27
1300 58.20 77.44 92.08 108.28 8.36
1301 58.10 42.92 77.68 160.78 10.57
1302 58.19 46.48 77.22 148.57 10.29
1303 58.34 14.08 43.31 103.60 5.25
1304 58.18 37.74 77.10 142.68 9.72
1305 58.26 54.72 83.63 153.00 10.63
1306 58.31 64.37 101.88 150.52 10.21
1307 58.30 5.41 30.91 95.52 4.26
1308 58.22 60.72 90.45 151.57 11.09
1309 58.34 75.15 92.91 119.73 8.29
1310 58.36 70.10 93.63 133.52 9.15
1311 58.38 35.49 67.85 140.85 9.99
1312 58.47 40.66 75.13 138.97 9.21
1313 58.51 93.89 57.06 64.20 3.38
1314 58.58 29.02 70.80 131.58 7.89
1315 58.49 86.40 90.95 82.15 6.29
1316 58.58 24.44 62.10 127.50 7.98
1317 58.51 32.53 69.48 137.14 8.83
1318 58.62 44.60 86.62 142.93 9.53
1319 58.54 50.32 88.28 166.74 11.89
1320 58.62 58.90 85.08 135.27 10.11
1321 58.52 67.82 95.35 130.59 8.55
1322 58.68 62.49 95.94 142.59 9.94
1323 58.64 81.60 103.79 95.11 7.89
1324 58.78 16.58 46.54 108.84 5.81
1325 58.69 26.43 65.73 132.17 7.35
1326 58.98 83.98 98.80 87.08 6.49
1327 58.79 22.12 59.07 128.04 6.71
1328 58.76 73.04 99.70 120.16 8.32
1329 58.86 52.62 90.26 141.16 10.54
1330 58.85 79.31 100.59 107.55 7.61
1331 59.01 19.63 53.81 115.19 6.00
1332 58.96 11.58 39.86 93.67 5.01
1333 58.92 56.88 90.04 131.67 9.28
1334 59.03 65.87 103.38 129.33 9.05
1335 59.11 89.88 84.56 68.81 5.17
1336 59.09 7.93 38.94 92.11 4.45
1337 59.02 9.87 35.78 91.56 4.92
1338 59.06 38.57 79.98 135.72 8.28
1339 59.09 47.70 89.26 137.19 9.83
1340 59.20 34.19 76.64 131.27 8.17
1341 59.13 42.58 80.70 128.94 8.30
1342 59.17 71.14 91.54 120.33 8.12
1343 59.46 92.38 66.61 58.31 3.02
1344 59.24 31.02 73.57 128.61 8.16
1345 59.35 54.75 93.55 134.45 9.64
1346 59.29 60.47 94.91 132.17 9.26
1347 59.43 36.55 72.29 125.65 7.83
1348 59.41 76.67 102.30 101.10 7.05
1349 59.46 4.99 34.23 85.07 3.53
1350 59.45 45.47 82.77 136.08 8.93
1351 59.48 49.69 87.11 128.83 8.80
1352 59.47 68.41 90.53 116.55 8.39
1353 59.63 14.10 46.17 90.92 4.28
1354 59.68 86.69 92.66 74.92 5.33
1355 59.61 27.00 62.64 116.06 7.11
1356 59.61 40.25 79.40 128.93 8.07
1357 59.66 74.32 115.22 106.90 7.36
1358 59.73 64.22 98.29 123.45 8.53
1359 59.67 24.15 63.55 111.49 6.20
1360 59.72 62.18 90.77 126.21 8.05
1361 59.74 81.71 105.79 84.47 5.99
1362 59.83 17.05 48.43 93.60 5.28
1363 59.78 52.26 93.38 129.46 7.67
1364 59.89 21.67 53.25 107.58 6.11
1365 59.89 29.27 69.49 115.43 7.03
1366 59.76 57.01 90.03 126.02 8.37
1367 59.97 32.85 72.20 115.65 7.51
1368 59.98 58.99 87.54 120.15 8.62
1369 59.94 79.17 102.67 86.24 6.21
1370 60.00 66.56 93.69 115.62 7.89
1371 60.16 10.80 43.03 80.65 4.28
1372 60.09 43.88 76.07 115.95 7.07
1373 60.07 70.18 90.71 106.63 6.63
1374 60.07 41.95 74.65 122.25 7.94
1375 60.37 94.00 55.79 55.61 2.34
1376 60.29 19.32 48.87 95.83 5.24
1377 60.12 47.08 89.05 121.32 7.76
1378 60.21 72.28 102.56 108.17 8.01
1379 60.26 38.54 68.92 120.37 8.23
1380 60.38 84.05 90.58 68.79 5.20
1381 60.38 89.02 77.32 66.05 4.48
1382 60.25 35.08 66.83 112.22 7.21
1383 60.25 50.55 81.88 124.12 8.84
1384 60.39 54.02 82.48 112.78 7.44
1385 60.48 76.04 110.01 91.83 6.07
1386 60.47 6.82 37.52 82.89 3.11
1387 60.49 31.08 63.97 104.95 5.83
1388 60.59 25.06 60.84 104.75 5.73
1389 60.58 56.22 78.95 116.80 8.20
1390 60.63 27.42 58.35 103.30 5.70
1391 60.59 48.50 78.02 116.51 8.81
1392 60.70 60.42 81.95 106.89 7.67
1393 60.63 62.42 90.16 116.91 8.19
1394 60.70 68.76 92.15 104.33 7.26
1395 60.79 91.61 62.87 58.13 3.16
1396 60.74 36.78 65.72 108.44 6.82
1397 60.78 13.37 44.06 79.78 3.86
1398 60.70 65.02 94.43 108.04 7.77
1399 60.78 40.41 65.75 103.66 6.85
1400 60.80 45.41 76.67 105.67 6.77
1401 60.91 16.47 48.30 82.05 4.26
1402 60.89 81.44 88.42 70.05 5.45
1403 60.92 22.10 54.37 89.48 5.04
1404 61.00 58.16 82.26 102.13 7.00
1405 60.96 73.63 104.01 91.56 6.10
1406 60.99 51.74 79.65 105.41 7.22
1407 61.03 78.71 93.47 75.35 5.31
1408 61.02 33.44 65.50 95.32 5.66
1409 60.98 42.65 68.80 104.83 7.13
1410 61.11 66.90 84.47 102.47 6.86
1411 61.22 29.12 57.55 92.82 5.72
1412 61.26 85.90 77.48 61.46 4.87
1413 61.28 70.52 90.46 98.54 6.94
1414 61.42 8.29 35.60 69.35 3.19
1415 61.34 49.58 80.42 97.00 7.18
1416 61.46 19.67 42.21 79.02 4.43
1417 61.42 63.78 87.40 97.72 7.21
1418 61.41 53.52 76.73 97.84 6.84
1419 61.43 31.38 59.02 86.21 5.34
1420 61.54 37.80 63.76 89.49 6.28
1421 61.51 47.21 69.56 93.38 6.78
1422 61.46 55.45 71.66 98.27 7.14
1423 61.64 88.48 71.28 52.36 3.73
1424 61.62 23.95 46.94 83.70 5.02
1425 61.56 35.21 63.97 91.39 5.47
1426 61.68 93.93 45.63 48.21 2.37
1427 61.57 10.13 37.03 67.55 3.03
1428 61.31 11.22 42.62 69.12 3.25
1429 61.56 26.12 54.25 87.43 4.79
1430 61.61 75.68 99.25 78.55 5.80
1431 61.66 61.92 84.74 96.57 6.87
1432 61.67 39.94 61.44 90.79 5.66
1433 61.70 44.71 67.69 91.31 6.12
1434 61.70 92.34 54.74 48.08 3.03
1435 61.84 14.29 41.47 68.95 3.60
1436 61.72 59.77 82.12 98.45 6.94
1437 61.80 11.57 33.92 62.77 3.06
1438 61.82 68.24 85.10 91.85 5.97
1439 61.84 72.28 97.57 85.55 5.97
1440 61.99 83.22 82.31 58.87 4.65
1441 61.87 42.30 64.12 86.83 5.72
1442 61.91 57.15 68.57 91.47 6.17
1443 61.90 65.56 84.51 88.47 6.54
1444 62.05 17.00 43.94 74.66 4.03
1445 61.98 81.00 82.55 62.05 5.05
1446 61.90 90.61 64.17 46.67 3.13
1447 62.04 51.36 72.12 85.95 6.53
1448 62.11 77.90 87.15 72.07 5.35
1449 62.22 21.92 48.13 73.29 4.00
1450 62.12 33.21 62.49 77.03 5.60
1451 62.23 27.94 54.89 73.72 4.70
1452 62.10 79.69 79.14 56.77 4.95
1453 62.33 30.22 59.85 73.99 4.71
1454 62.29 49.05 73.12 79.86 6.24
1455 62.38 53.83 68.93 82.26 6.71
1456 62.42 85.94 75.21 51.86 4.53
1457 62.50 70.48 96.88 79.34 5.45
1458 62.45 35.91 56.78 74.73 5.52
1459 62.47 74.20 87.90 77.30 5.51
1460 62.58 63.76 84.76 77.04 5.97
1461 62.51 40.55 65.44 73.77 5.29
1462 62.59 47.04 67.95 74.47 5.52
1463 62.51 61.18 79.63 83.16 5.86
1464 62.67 19.25 39.58 63.48 3.33
1465 62.57 25.89 50.08 68.80 4.22
1466 62.63 38.16 59.98 71.14 4.55
1467 62.59 58.63 72.79 79.47 5.62
1468 62.49 91.50 54.30 47.70 3.15
1469 62.65 55.72 76.62 80.17 6.32
1470 62.69 43.10 60.09 72.07 5.56
1471 62.64 45.01 60.47 74.04 5.41
1472 62.69 66.24 86.62 77.67 5.82
1473 62.90 8.80 33.55 51.65 2.34
1474 62.87 89.00 62.38 41.13 3.42
1475 62.83 11.89 39.36 57.37 2.62
1476 62.76 68.50 85.51 81.35 5.49
1477 62.95 23.86 47.36 66.03 4.21
1478 63.07 14.10 36.81 58.49 3.21
1479 62.97 32.14 63.86 66.94 5.09
1480 62.89 93.41 43.74 38.67 1.84
1481 63.06 76.97 80.19 57.89 4.62
1482 62.98 52.09 77.41 74.07 6.00
1483 63.10 79.83 74.94 50.23 4.19
1484 63.12 50.06 79.20 67.75 4.96
1485 63.17 72.28 87.68 64.08 4.75
1486 63.14 82.81 76.73 47.68 4.24
1487 63.35 16.88 38.78 55.32 2.95
1488 63.27 21.38 41.60 58.04 3.54
1489 63.30 34.02 58.85 59.15 4.37
1490 63.24 28.04 54.48 64.10 5.02
1491 63.26 62.18 82.54 67.98 6.37
1492 63.39 30.28 59.20 61.56 4.27
1493 63.35 57.36 75.51 67.76 5.03
1494 63.32 60.01 79.93 67.68 5.45
1495 63.41 39.76 61.90 58.85 4.62
1496 63.44 35.82 68.56 56.51 4.73
1497 63.43 41.71 64.36 59.48 4.75
1498 63.47 48.17 65.64 59.92 5.34
1499 63.60 91.65 56.52 33.51 2.52
1500 63.47 45.58 65.42 60.60 4.65
1501 63.62 85.96 75.14 42.21 4.00
1502 63.56 55.23 80.25 65.00 5.47
1503 63.67 65.35 86.58 64.77 5.68
1504 63.54 67.56 83.08 63.21 5.13
1505 63.55 74.56 82.48 62.16 4.55
1506 63.65 25.85 56.28 55.90 3.64
1507 63.65 37.70 64.30 53.69 4.21
1508 63.89 6.28 30.77 40.65 1.75
1509 63.77 53.24 83.60 59.88 5.66
1510 63.78 69.74 85.60 58.31 4.72
1511 63.80 43.55 65.08 54.68 4.98
1512 63.92 63.59 84.35 58.96 4.95
1513 63.87 11.09 35.50 43.46 2.73
1514 64.07 18.61 39.27 48.17 2.79
1515 63.95 23.43 51.21 48.12 3.62
1516 64.06 81.40 80.73 44.73 4.03
1517 64.03 50.99 77.49 54.14 5.58
1518 64.14 88.47 72.07 36.92 3.18
1519 63.94 13.52 43.50 44.28 2.61
1520 64.06 32.24 62.41 51.68 3.64
1521 64.14 28.89 60.85 48.18 3.86
1522 64.17 72.16 86.93 57.10 4.66
1523 64.27 76.21 78.47 49.26 4.49
1524 64.26 14.83 37.84 45.45 2.84
1525 64.29 20.74 44.33 47.15 2.88
1526 64.22 46.92 68.37 50.19 5.08
1527 64.24 59.50 83.00 57.19 4.81
1528 64.30 61.63 84.17 56.12 5.17
1529 64.31 78.44 78.97 47.44 4.10
1530 64.26 57.13 76.67 54.73 5.59
1531 64.56 93.65 46.59 29.42 1.22
1532 64.52 84.19 80.45 36.98 3.48
1533 64.43 40.87 70.15 49.76 4.37
1534 64.38 66.85 90.57 57.02 4.69
1535 64.45 34.23 66.26 45.33 3.75
1536 64.55 48.99 68.55 46.06 4.71
1537 64.50 38.83 67.06 49.23 4.18
1538 64.57 26.71 56.60 45.62 3.60
1539 64.55 36.26 73.26 46.24 4.14
1540 64.58 45.08 66.93 45.83 4.15
1541 64.53 54.94 90.97 51.25 4.95
1542 64.76 7.80 33.93 33.23 1.93
1543 64.72 42.76 70.17 45.32 3.92
1544 64.72 74.08 84.39 49.50 4.11
1545 64.66 9.38 33.84 35.00 2.16
1546 64.85 12.39 40.77 35.30 2.28
1547 64.80 30.75 64.46 42.96 3.92
1548 64.86 70.51 86.16 48.24 4.63
1549 64.82 24.56 60.93 40.23 3.69
1550 65.01 90.22 61.35 26.87 2.35
1551 64.90 16.89 41.23 39.39 2.75
1552 64.82 52.85 77.91 44.82 4.82
1553 64.97 63.78 98.83 49.12 4.24
1554 64.98 68.50 92.82 50.60 4.67
1555 65.11 86.79 79.72 33.61 3.40
1556 65.07 22.15 52.56 39.45 2.90
1557 65.08 28.31 62.48 41.73 3.52
1558 65.06 58.32 94.66 46.98 4.34
1559 65.10 65.64 95.39 47.73 4.37
1560 65.20 32.79 67.00 39.63 3.49
1561 65.21 51.16 81.63 41.34 4.20
1562 65.17 80.44 80.39 35.63 3.56
1563 65.20 46.88 71.45 42.46 4.45
1564 65.26 56.40 97.77 43.18 5.03
1565 65.35 61.87 90.76 43.67 4.17
1566 65.38 77.38 78.56 39.93 3.71
1567 65.37 37.63 70.29 38.56 3.24
1568 65.43 59.98 84.49 44.10 4.80
1569 65.62 19.80 45.51 30.03 2.53
1570 65.62 35.37 69.34 37.70 3.74
1571 65.57 39.64 70.42 38.71 3.85
1572 65.50 44.18 80.18 40.74 4.13
1573 65.64 72.32 88.92 40.30 3.85
1574 65.62 54.52 96.73 45.56 4.62
1575 65.48 81.86 80.17 33.50 3.61
1576 65.66 41.79 71.63 37.21 4.29
1577 65.64 75.09 83.21 40.04 3.79
1578 65.57 83.57 84.60 30.87 3.45
1579 65.80 9.22 39.29 27.09 1.89
1580 65.75 49.19 81.97 37.53 4.52
1581 65.77 26.75 61.11 37.90 3.00
1582 65.87 10.96 39.14 27.56 2.17
1583 65.73 14.20 39.02 31.15 2.49
1584 65.85 29.74 64.74 35.25 2.83
1585 65.79 17.53 45.33 31.00 2.43
1586 65.83 67.35 93.10 40.59 4.04
1587 65.97 92.47 57.55 25.18 1.28
1588 65.91 24.42 61.26 33.31 2.78
1589 65.99 69.95 96.14 43.29 3.61
1590 66.24 31.75 72.11 34.08 3.39
1591 66.20 33.60 66.47 35.98 3.53
1592 66.14 63.40 96.80 41.88 3.66
1593 66.20 65.39 92.23 41.11 4.18
1594 66.20 79.19 83.87 33.34 3.82
1595 66.01 85.62 77.58 27.94 2.94
1596 66.20 53.10 99.98 37.50 4.47
1597 66.07 87.51 77.83 30.70 2.57
1598 66.27 21.98 55.55 29.77 2.55
1599 66.21 47.44 80.46 38.54 3.93
1600 66.17 57.15 100.24 38.95 4.07
1601 66.33 45.63 84.55 33.55 3.46
1602 66.31 51.02 85.65 36.32 4.10
1603 66.24 90.31 65.96 27.48 2.58
1604 66.08 83.65 88.83 34.17 3.74
1605 66.37 37.01 72.46 33.39 3.19
1606 66.43 59.19 94.97 36.23 3.97
1607 66.35 61.04 98.35 40.35 4.25
1608 66.22 18.13 41.82 29.73 2.09
1609 66.63 81.79 89.49 28.65 3.10
1610 66.52 43.54 80.76 35.70 3.92
1611 66.61 39.14 70.60 32.81 3.37
1612 66.60 74.26 92.32 32.96 3.28
1613 66.68 28.30 70.87 34.01 2.81
1614 66.67 68.23 95.02 36.83 3.87
1615 66.77 13.69 43.09 23.98 1.94
1616 66.43 86.46 75.58 26.75 2.67
1617 66.68 41.37 76.85 32.24 3.59
1618 66.85 76.93 84.07 31.45 3.39
1619 66.64 16.22 46.35 23.85 2.45
1620 66.76 55.10 96.98 37.02 4.16
1621 66.79 71.82 94.28 34.43 3.65
1622 66.85 25.93 65.54 30.07 3.00
1623 66.99 34.76 68.06 30.45 3.10
1624 66.87 48.69 81.14 35.25 3.84
1625 67.11 8.59 36.49 23.38 1.65
1626 67.00 17.33 46.12 26.59 2.04
1627 67.12 20.05 48.50 25.83 2.17
1628 67.06 84.53 84.92 24.64 2.85
1629 67.01 10.41 41.23 23.00 1.84
1630 67.03 14.88 44.13 25.97 1.97
1631 67.08 62.14 96.96 36.28 4.04
1632 67.17 30.38 71.64 30.71 3.17
1633 67.20 23.35 61.14 27.26 2.56
1634 67.22 66.52 95.87 34.95 3.51
1635 67.22 88.85 70.15 21.39 2.09
1636 67.19 57.43 104.13 34.13 3.90
1637 67.17 64.33 98.17 36.34 3.71
1638 67.20 91.79 61.92 20.07 1.44
1639 67.21 52.57 87.00 32.65 3.77
1640 67.16 86.28 76.74 24.69 2.23
1641 67.23 93.34 52.81 18.33 0.91
1642 67.39 32.55 66.50 30.85 3.51
1643 67.39 69.70 101.00 31.87 3.55
1644 67.42 50.22 89.68 31.52 3.32
1645 67.42 36.68 74.56 31.29 3.16
1646 67.48 79.60 82.59 26.31 3.41
1647 67.41 59.79 101.61 32.26 3.45
1648 67.48 42.82 81.25 27.80 3.27
1649 67.42 45.34 75.97 30.47 3.48
1650 67.57 39.99 78.55 27.35 3.14
1651 67.68 47.51 83.87 29.29 3.01
1652 67.67 74.37 92.57 28.79 3.28
1653 67.74 28.41 67.92 28.87 2.68
1654 67.73 54.89 86.33 31.01 4.08
1655 67.81 82.34 86.88 24.72 2.56
1656 67.98 18.02 44.38 22.78 2.22
1657 67.93 25.91 64.99 26.51 2.40
1658 68.13 38.28 71.75 26.33 2.97
1659 68.03 72.14 97.91 28.77 3.08
1660 68.10 15.12 42.02 21.29 2.20
1661 68.15 76.60 95.07 26.75 3.10
1662 68.06 63.04 106.89 32.41 3.44
1663 68.07 67.70 99.79 30.05 3.47
1664 68.14 35.05 75.73 27.17 2.73
1665 68.10 57.16 92.08 28.55 3.75
1666 68.13 12.78 39.76 18.86 1.76
1667 68.19 23.29 59.80 24.03 2.54
1668 68.20 51.53 90.38 26.90 3.68
1669 68.17 65.22 103.36 29.82 3.76
1670 68.29 86.60 88.81 22.93 2.49
1671 68.26 60.97 109.51 29.44 3.56
1672 68.26 30.57 69.92 26.20 3.08
1673 68.17 83.95 80.10 22.55 2.38
1674 68.43 90.96 64.46 17.47 1.42
1675 68.46 88.54 81.39 21.68 1.93
1676 68.30 20.15 50.06 18.31 2.25
1677 68.38 44.22 78.09 28.20 3.38
1678 68.42 49.25 84.40 29.13 3.28
1679 68.43 59.04 100.80 28.59 3.44
1680 68.41 33.21 71.09 26.30 2.80
1681 68.40 41.80 81.06 27.62 2.92
1682 68.71 21.19 50.62 25.00 2.61
1683 68.53 69.83 101.13 28.77 3.17
1684 68.41 85.16 81.11 22.00 2.59
1685 68.61 53.38 86.19 27.34 3.84
1686 68.72 78.93 92.71 22.81 2.94
1687 68.62 46.58 77.94 26.23 2.93
1688 68.80 36.45 69.29 24.27 2.59
1689 68.76 55.37 85.98 25.54 3.64
1690 68.77 28.43 62.24 25.03 2.84
1691 68.96 81.46 89.52 20.07 2.28
1692 68.81 40.20 72.86 25.21 3.43
1693 69.06 74.01 101.47 25.46 3.24
1694 68.99 25.96 60.30 23.71 2.18
1695 69.02 17.22 40.94 19.62 1.85
1696 68.95 18.77 45.43 21.81 2.16
1697 69.14 13.69 41.71 18.78 2.00
1698 69.12 63.84 107.33 28.83 3.03
1699 69.15 57.43 95.50 25.71 3.34
1700 69.16 61.89 106.81 26.77 3.08
1701 69.17 65.78 104.45 28.67 3.10
1702 69.16 67.76 100.01 25.62 3.33
1703 69.17 31.78 66.98 24.59 2.88
1704 69.19 71.51 101.92 25.29 3.79
1705 69.27 10.33 38.06 18.11 1.43
1706 69.14 51.09 82.02 26.15 3.40
1707 69.31 83.97 80.94 18.88 2.18
1708 69.20 23.35 57.54 21.87 2.29
1709 69.27 48.43 80.65 25.74 3.23
1710 69.35 38.47 72.11 23.65 2.79
1711 69.36 42.85 77.17 23.50 3.14
1712 69.40 59.94 107.68 26.14 3.25
1713 69.47 76.41 99.38 22.30 3.22
1714 69.39 45.18 78.42 24.72 3.12
1715 69.55 33.75 68.71 23.64 2.77
1716 69.63 29.78 65.30 23.34 2.19
1717 69.46 86.05 79.38 17.82 2.00
1718 69.67 88.34 73.45 17.25 1.67
1719 69.52 90.54 68.84 15.57 1.41
1720 69.62 53.51 85.49 25.26 3.39
1721 69.81 8.26 39.46 15.56 1.15
1722 69.82 35.86 73.76 22.30 2.40
1723 69.82 55.58 85.76 25.39 3.03
1724 69.88 27.66 64.08 24.92 2.29
1725 69.86 40.59 76.55 23.89 2.76
1726 69.84 69.45 96.49 24.83 3.00
1727 69.91 19.04 43.31 20.22 1.85
1728 69.96 79.20 95.84 19.63 2.62
1729 70.11 12.73 38.76 18.30 1.61
1730 70.19 15.94 40.75 18.91 1.74
1731 70.08 22.02 51.60 21.41 2.11
1732 70.02 46.73 71.83 23.57 3.22
1733 70.01 51.03 79.67 24.75 3.84
1734 70.14 91.18 62.09 13.97 0.97
1735 70.05 24.88 58.07 20.10 2.53
1736 70.08 58.63 97.31 24.64 3.56
1737 70.16 82.08 82.22 18.12 2.60
1738 70.09 63.19 104.13 26.00 3.36
1739 70.24 71.88 101.22 22.22 3.21
1740 70.26 48.93 76.90 25.06 3.39
1741 70.15 65.48 100.03 25.82 2.90
1742 70.36 74.30 97.68 20.00 3.07
1743 70.40 31.44 67.00 22.41 2.74
1744 70.27 61.02 99.04 24.65 3.47
1745 70.35 37.81 65.05 22.23 2.72
1746 70.38 42.58 75.18 23.85 3.32
1747 70.42 44.68 74.08 22.76 3.20
1748 70.45 67.55 101.89 24.60 3.06
1749 70.56 85.73 81.54 16.90 2.06
1750 70.56 52.95 83.42 24.29 3.44
1751 70.66 33.46 72.18 22.15 2.70
1752 70.61 56.82 85.03 22.18 3.20
1753 70.78 76.86 99.25 18.95 2.90
1754 70.84 89.32 69.17 13.12 1.15
1755 70.76 26.57 62.73 22.12 2.23
1756 70.82 29.08 66.45 21.76 1.99
1757 70.90 18.28 47.29 21.01 1.99
1758 70.88 35.49 69.40 22.08 2.64
1759 70.87 40.04 67.47 21.30 2.79
1760 70.94 69.92 99.92 22.09 3.01
1761 71.07 54.75 90.04 24.33 3.33
1762 71.01 63.74 102.02 23.12 3.10
1763 71.03 21.11 46.25 18.24 1.90
1764 71.06 23.79 53.73 19.47 2.01
1765 70.94 87.71 72.55 14.12 1.80
1766 70.97 46.84 73.94 21.85 3.22
1767 71.07 59.11 97.28 23.25 3.34
1768 71.03 79.82 88.17 15.62 2.63
1769 71.14 51.09 86.34 22.66 3.75
1770 71.17 13.13 40.02 15.71 1.70
1771 71.17 61.54 103.48 22.64 3.28
1772 71.27 66.01 104.74 23.16 3.06
1773 71.20 10.25 36.19 16.81 1.56
1774 71.33 48.94 77.18 23.38 2.85
1775 71.32 83.19 84.10 16.35 2.21
1776 71.35 72.23 95.44 19.33 2.92
1777 71.40 37.60 73.66 21.30 2.88
1778 71.35 42.25 73.81 22.87 3.05
1779 71.30 81.31 83.61 16.33 2.72
1780 71.59 16.29 37.82 17.45 1.67
1781 71.30 20.08 41.94 15.75 2.25
1782 71.39 44.73 76.18 22.71 3.14
1783 71.60 74.81 98.78 18.49 2.58
1784 71.57 30.85 67.15 20.48 2.12
1785 71.55 56.84 87.35 22.67 2.95
1786 71.57 68.21 100.23 20.45 2.42
1787 71.81 53.30 89.57 21.82 3.26
1788 71.75 26.18 60.62 19.01 2.01
1789 71.68 33.08 72.91 21.14 2.44
1790 71.83 77.98 91.65 18.41 2.86
1791 72.07 86.76 71.92 14.16 1.73
1792 71.98 28.35 60.96 19.05 2.17
1793 71.93 35.41 69.52 21.01 2.78
1794 71.91 39.50 71.40 20.78 2.71
1795 71.94 46.64 71.32 21.01 2.89
1796 71.98 60.25 95.63 22.39 3.15
1797 72.13 19.06 41.56 16.05 1.62
1798 71.96 64.48 99.39 21.05 3.32
1799 72.09 62.52 103.20 22.26 2.59
1800 72.23 89.28 62.28 11.73 1.06
1801 72.24 21.63 48.59 17.70 1.88
1802 72.14 24.01 52.52 18.30 1.91
1803 72.20 43.68 73.79 21.18 2.68
1804 72.10 70.32 91.82 18.12 2.48
1805 72.32 14.13 40.29 16.40 1.65
1806 72.22 51.51 90.53 21.48 3.27
1807 72.18 58.22 97.30 22.25 3.16
1808 72.32 55.53 89.21 22.46 3.07
1809 72.34 41.36 75.44 21.00 2.68
1810 72.30 80.72 81.11 15.63 2.33
1811 72.37 49.13 77.84 21.13 3.34
1812 72.42 73.01 94.11 18.00 2.81
1813 72.44 11.32 39.61 14.39 1.47
1814 72.43 67.01 97.63 19.83 2.90
1815 72.54 37.44 71.90 20.29 2.73
1816 72.54 83.75 72.80 14.08 2.38
1817 72.64 30.36 65.44 18.84 2.37
1818 72.75 32.70 67.35 20.15 2.61
1819 72.52 13.06 44.11 16.72 1.83
1820 72.81 75.98 93.33 16.53 2.42
1821 72.80 26.46 54.25 18.44 2.28
1822 72.98 35.04 66.93 19.32 2.77
1823 72.95 45.23 77.04 21.78 3.19
1824 72.88 61.56 98.91 22.68 2.42
1825 72.86 64.88 105.24 21.22 2.93
1826 72.95 47.46 73.64 18.64 3.06
1827 73.01 69.42 100.40 18.79 2.67
1828 72.99 78.63 95.61 15.42 2.42
1829 72.98 53.43 90.48 20.97 3.91
1830 73.04 59.67 95.67 20.12 2.95
1831 73.16 39.93 69.19 19.36 2.77
1832 73.14 50.87 84.77 20.88 3.61
1833 73.14 57.54 96.70 20.58 3.41
1834 73.17 23.51 51.48 17.20 2.30
1835 73.24 42.37 75.22 20.50 3.12
1836 73.50 9.83 31.69 12.77 1.29
1837 73.57 12.66 41.08 14.29 1.42
1838 73.38 20.51 45.20 16.61 1.64
1839 73.47 28.24 54.04 17.47 2.43
1840 73.44 71.70 96.07 16.93 2.41
1841 73.28 86.43 57.12 11.90 2.00
1842 73.45 88.63 57.63 11.30 1.16
1843 73.35 55.53 89.38 21.67 3.25
1844 73.48 63.28 103.54 19.58 2.55
1845 73.50 37.80 67.88 18.73 2.77
1846 73.50 73.98 87.30 17.11 2.54
1847 73.61 84.86 68.66 12.74 1.42
1848 73.48 67.66 99.23 19.91 2.39
1849 73.81 81.13 82.40 13.93 2.18
1850 73.88 18.14 41.18 15.04 1.91
1851 73.81 30.27 61.55 18.29 2.44
1852 73.76 65.69 95.00 19.34 2.69
1853 73.92 15.27 42.27 14.29 1.68
1854 73.72 49.06 82.06 20.06 3.49
1855 73.78 25.80 50.52 16.80 2.33
1856 73.92 44.04 76.83 20.68 3.88
1857 73.70 32.33 59.32 17.91 2.65
1858 73.93 46.54 77.36 20.39 3.51
1859 73.92 34.25 60.75 17.98 2.84
1860 74.04 52.27 82.99 20.88 3.27
1861 74.02 61.19 97.61 19.13 2.95
1862 74.00 58.86 96.38 20.11 2.34
1863 74.16 54.40 88.19 20.73 3.27
1864 74.08 78.10 91.73 14.87 2.37
1865 73.93 23.01 43.26 15.68 2.79
1866 74.20 36.26 62.05 18.97 3.13
1867 74.35 70.53 93.04 16.19 2.65
1868 74.19 39.77 59.44 18.98 3.06
1869 74.27 56.84 100.22 20.88 2.71
1870 74.33 75.61 86.70 15.81 2.16
1871 74.26 42.03 67.49 19.64 3.46
1872 74.34 22.19 42.73 17.04 1.53
1873 74.56 27.18 48.96 16.38 2.14
1874 74.57 63.32 98.91 18.88 2.45
1875 74.55 67.90 93.10 16.84 2.29
1876 74.61 50.07 78.83 19.86 3.03
1877 74.62 87.81 54.54 10.70 1.01
1878 74.74 11.59 31.66 12.75 1.18
1879 74.78 19.89 41.58 14.35 1.95
1880 74.73 73.31 82.97 15.74 2.60
1881 74.80 84.45 65.09 10.57 1.45
1882 74.70 65.35 97.74 17.32 2.41
1883 74.75 45.43 69.25 19.61 3.15
1884 74.90 29.37 48.65 16.92 2.42
1885 74.95 38.04 61.26 20.08 3.57
1886 74.94 47.86 70.72 18.29 3.27
1887 75.00 33.56 53.89 18.55 2.83
1888 74.90 59.64 92.21 18.90 2.93
1889 75.04 24.23 42.51 16.13 2.09
1890 74.93 82.14 72.94 12.16 1.87
1891 74.94 18.30 38.67 14.48 2.41
1892 75.21 16.08 36.34 13.10 1.89
1893 75.34 51.67 80.26 19.00 3.73
1894 75.24 53.82 81.59 19.39 2.93
1895 75.27 55.86 86.41 19.78 3.23
1896 75.26 78.75 80.87 13.21 2.35
1897 75.19 36.19 53.14 17.89 3.23
1898 75.32 39.95 59.58 18.60 3.31
1899 75.34 61.53 97.73 18.36 2.72
1900 75.49 31.19 48.89 18.27 3.10
1901 75.30 42.43 60.78 19.27 3.94
1902 75.37 57.75 91.13 18.75 3.05
1903 75.33 69.86 92.95 16.95 2.36
1904 75.30 80.99 72.88 12.78 2.52
1905 75.63 22.00 41.62 14.93 2.13
1906 75.29 35.19 55.83 14.50 2.50
1907 75.52 75.88 87.00 13.77 2.36
1908 75.67 26.56 40.88 15.78 2.73
1909 75.58 65.92 91.55 18.65 2.58
1910 75.81 63.34 92.18 17.51 2.43
1911 75.84 72.80 90.84 15.63 2.50
1912 75.79 87.63 53.13 9.48 0.75
1913 75.77 49.36 66.36 18.20 3.70
1914 75.87 67.82 94.86 16.14 2.36
1915 75.84 46.61 62.55 18.89 3.49
1916 76.15 13.75 30.55 13.04 1.70
1917 76.15 18.38 32.70 13.24 1.97
1918 76.03 59.58 85.88 19.15 3.14
1919 76.03 84.17 64.92 10.63 1.36
1920 76.08 28.55 39.34 15.72 2.49
1921 76.04 34.31 49.05 16.30 3.44
1922 76.06 37.15 46.06 17.63 3.30
1923 76.25 41.08 52.02 18.59 3.52
1924 76.25 52.99 67.11 17.98 3.10
1925 76.36 81.23 69.57 11.48 1.98
1926 76.29 55.32 70.91 18.74 3.53
1927 76.42 24.95 38.88 15.26 2.44
1928 76.37 57.49 79.95 19.45 2.71
1929 76.38 70.65 89.22 15.43 2.42
1930 76.47 32.24 47.35 15.89 3.31
1931 76.66 39.30 47.74 17.70 4.08
1932 76.43 65.05 82.02 16.44 2.74
1933 76.53 78.52 75.69 12.59 2.28
1934 76.45 44.59 56.51 19.91 4.57
1935 76.60 75.49 85.77 14.60 2.28
1936 76.62 61.31 72.88 17.75 2.82
1937 76.70 20.72 35.42 14.54 2.52
1938 76.66 50.88 62.79 17.68 3.83
1939 76.74 87.89 51.26 8.45 0.48
1940 76.85 29.77 44.14 15.91 3.35
1941 77.09 35.30 41.16 17.37 4.00
1942 76.88 42.81 53.04 17.57 4.70
1943 76.82 68.37 90.58 16.39 2.52
1944 77.11 26.40 35.34 15.86 3.20
1945 77.10 86.67 53.64 8.66 0.84
1946 77.05 63.06 76.86 16.64 2.95
1947 77.22 72.97 90.31 14.96 2.26
1948 77.26 83.96 63.91 9.95 1.60
1949 76.95 14.47 27.38 12.90 1.74
1950 77.17 53.84 60.97 17.99 4.22
1951 77.13 59.27 68.35 17.43 3.26
1952 77.23 37.29 42.39 17.15 4.91
1953 77.11 46.48 55.47 18.93 4.78
1954 77.02 48.51 60.68 17.15 4.20
1955 77.23 16.57 28.08 13.13 1.79
1956 77.41 56.88 60.70 18.15 3.61
1957 77.37 65.81 84.18 17.96 2.67
1958 77.44 33.00 40.19 16.83 4.77
1959 77.50 41.40 49.25 17.69 4.41
1960 77.26 18.48 28.50 13.17 2.58
1961 77.40 44.38 48.97 18.03 4.56
1962 77.53 70.66 82.64 14.80 2.38
1963 77.80 81.64 72.26 10.34 1.85
1964 77.66 51.70 54.69 18.00 4.15
1965 77.68 30.83 40.92 15.89 4.25
1966 77.75 75.70 72.97 12.84 2.19
1967 77.54 78.32 79.84 11.63 2.12
1968 77.77 20.25 31.13 13.31 2.70
1969 77.72 49.41 53.27 18.66 4.83
1970 77.73 17.54 29.49 13.94 2.34
1971 77.88 68.02 76.26 15.30 2.29
1972 77.94 28.34 35.29 15.28 4.04
1973 77.90 39.32 42.77 17.31 4.81
1974 77.96 61.60 67.66 15.84 3.12
1975 77.92 63.91 72.52 17.47 2.69
1976 78.00 79.42 79.84 12.66 2.05
1977 78.35 24.53 32.16 14.41 3.53
1978 78.02 46.43 52.04 17.90 4.75
1979 78.12 55.23 55.29 17.29 4.25
1980 78.16 14.17 24.08 12.19 2.02
1981 78.32 15.29 25.36 11.81 2.69
1982 78.09 59.40 60.93 15.65 3.29
1983 78.14 22.55 29.81 13.29 2.90
1984 78.08 53.33 51.36 18.06 4.56
1985 78.36 42.94 46.71 17.44 6.59
1986 78.34 34.69 42.81 16.09 5.81
1987 78.30 12.77 21.91 11.53 1.88
1988 78.34 36.92 40.84 16.34 6.80
1989 78.21 16.31 27.86 13.50 2.32
1990 78.48 73.24 73.06 12.84 2.08
1991 78.55 32.36 43.00 15.41 6.26
1992 78.55 70.37 76.01 13.98 2.45
1993 78.57 30.51 39.78 15.12 5.31
1994 78.64 40.77 46.00 17.10 5.86
1995 78.44 65.74 70.62 15.06 2.65
1996 78.54 18.29 28.08 12.53 2.52
1997 78.65 48.16 50.77 16.55 5.31
1998 78.78 27.13 36.47 15.23 4.71
1999 78.60 50.60 52.21 17.75 4.70
2000 78.70 21.21 31.14 14.05 3.24
2001 78.74 56.52 57.35 17.14 4.68
2002 78.92 82.70 57.67 9.44 1.72
2003 78.83 44.94 49.07 17.92 6.14
2004 78.89 63.36 64.40 16.01 3.19
2005 79.04 58.29 56.27 15.86 3.56
2006 79.09 80.18 67.47 10.93 1.88
2007 79.15 84.12 56.47 8.55 0.81
2008 79.05 60.66 57.83 16.36 4.09
2009 79.08 38.57 46.03 17.39 7.15
2010 79.08 53.34 47.95 17.20 5.29
2011 79.08 68.28 67.73 14.61 3.06
2012 78.88 19.51 30.81 13.38 2.24
2013 79.06 29.46 39.54 14.92 4.77
2014 78.94 66.26 67.78 15.17 2.94
2015 79.47 75.07 58.58 12.59 2.26
2016 79.35 34.01 50.11 16.38 8.89
2017 79.40 36.15 53.69 16.73 9.34
2018 79.48 46.75 46.52 17.80 6.51
2019 79.54 51.36 50.77 16.61 5.98
2020 79.55 41.96 49.54 16.96 8.05
2021 79.56 71.06 56.78 12.93 2.36
2022 79.38 20.05 30.30 14.61 3.57
2023 79.62 48.91 48.86 16.97 6.32
2024 79.73 65.19 60.26 15.18 3.11
2025 79.68 19.02 29.74 13.04 3.00
2026 79.59 31.29 43.40 16.43 7.44
2027 79.62 55.01 50.30 17.93 6.04
2028 79.60 85.75 42.64 7.68 0.58
2029 79.65 44.10 46.39 17.21 7.70
2030 79.75 39.96 51.34 17.48 9.26
2031 79.77 62.43 54.55 15.84 3.48
2032 79.95 28.82 39.56 14.30 7.31
2033 80.18 21.21 34.66 13.06 4.01
2034 79.94 59.55 50.30 15.23 4.75
2035 80.07 67.31 58.42 14.04 2.72
2036 79.95 37.58 52.98 16.35 10.04
2037 80.25 73.24 55.04 12.41 2.36
2038 80.28 52.92 49.83 15.79 6.22
2039 80.13 77.93 57.84 10.84 2.26
2040 80.24 82.90 55.57 8.50 1.17
2041 80.14 56.79 48.95 15.46 5.43
2042 80.15 14.67 28.15 10.38 2.59
2043 80.45 79.93 57.58 10.37 1.61
2044 80.58 17.28 29.32 11.44 3.81
2045 80.36 45.81 48.90 16.37 8.15
2046 80.42 50.36 51.25 16.61 7.78
2047 80.55 69.77 54.46 13.65 2.75
2048 80.47 33.05 51.39 15.99 11.18
2049 80.23 54.97 48.20 17.20 4.70
2050 80.20 16.78 31.75 10.00 4.50
2051 80.63 24.06 38.56 13.08 6.16
2052 80.50 76.64 59.09 10.78 2.17
2053 80.76 30.59 49.04 14.72 8.93
2054 80.63 41.49 58.92 17.61 9.98
2055 80.35 48.36 50.25 16.81 7.56
2056 80.82 35.63 57.02 16.01 12.62
2057 80.36 36.16 57.67 15.33 10.67
2058 80.81 61.29 48.59 14.80 4.72
2059 80.73 63.66 52.68 15.41 4.03
2060 80.84 38.74 58.93 14.85 11.29
2061 80.75 58.44 42.68 15.02 4.95
2062 80.60 47.59 53.47 17.13 6.87
2063 80.90 26.33 41.08 13.98 6.91
2064 80.75 82.13 56.68 8.72 1.04
2065 81.01 18.54 33.74 13.13 4.49
2066 80.87 56.22 46.06 17.65 7.06
2067 81.14 54.14 49.14 15.42 7.03
2068 80.77 19.65 33.33 13.00 4.42
2069 81.09 74.90 55.19 10.93 2.31
2070 81.08 22.16 37.35 15.31 7.35
2071 81.29 67.63 57.38 15.44 3.39
2072 81.47 72.43 48.19 12.31 2.56
2073 81.16 46.56 54.70 17.15 9.38
2074 81.56 21.08 38.18 12.70 6.19
2075 81.56 28.81 45.10 14.61 9.73
2076 81.47 51.90 51.68 15.80 10.01
2077 81.55 33.28 54.27 15.64 13.12
2078 81.43 49.89 54.17 17.51 10.32
2079 81.45 59.91 48.17 15.40 5.13
2080 81.55 75.94 48.41 10.20 2.15
2081 81.65 42.36 57.94 16.80 12.73
2082 81.78 78.97 45.03 10.03 1.77
2083 81.58 83.51 39.25 7.84 0.67
2084 81.72 16.68 30.83 11.93 3.90
2085 81.71 24.28 37.27 13.83 8.28
2086 81.80 57.53 49.89 15.91 7.45
2087 81.76 69.80 48.57 12.71 2.91
2088 81.92 81.91 39.36 8.36 1.08
2089 81.75 63.06 50.27 14.27 5.51
2090 81.79 35.07 54.87 14.40 14.73
2091 81.95 37.30 63.16 15.64 16.93
2092 81.90 47.77 60.14 17.09 10.34
2093 81.95 39.63 60.59 15.83 16.23
2094 82.15 30.88 52.20 13.70 12.00
2095 82.03 55.52 53.39 15.56 9.02
2096 82.22 53.60 53.60 15.76 11.24
2097 81.97 15.33 31.67 11.42 3.54
2098 82.42 46.01 63.74 18.34 14.35
2099 82.30 61.17 48.44 14.86 7.48
2100 82.28 18.71 33.52 11.31 5.57
2101 82.54 41.51 65.17 16.15 16.95
2102 82.50 58.99 50.95 14.69 10.06
2103 82.57 65.21 51.05 13.90 4.56
2104 82.70 67.55 48.88 12.23 4.06
2105 82.21 24.87 41.50 15.50 13.00
2106 82.35 16.14 32.69 11.69 2.92
2107 82.56 21.75 36.12 12.59 8.01
2108 82.36 35.42 55.45 14.82 16.23
2109 82.71 49.60 69.40 16.12 12.71
2110 82.60 51.73 60.54 16.38 11.83
2111 82.64 71.23 43.02 11.90 2.80
2112 82.71 43.96 58.48 16.80 15.62
2113 82.58 72.89 44.83 11.37 3.22
2114 83.02 63.25 54.09 13.76 8.56
2115 82.94 27.93 45.19 13.54 12.34
2116 82.93 56.43 54.78 13.96 10.91
2117 82.91 78.41 43.36 10.39 1.95
2118 82.98 23.80 41.04 13.49 10.49
2119 82.88 47.59 66.92 16.84 13.74
2120 82.75 81.18 34.79 7.59 1.18
2121 82.90 39.43 66.03 14.93 19.79
2122 82.95 69.73 42.46 11.35 4.10
2123 83.12 34.99 60.56 14.21 18.78
2124 83.11 32.71 53.08 15.51 17.90
2125 83.16 17.13 36.36 10.88 7.02
2126 83.30 37.26 67.39 15.08 20.76
2127 83.22 53.88 54.42 16.87 13.63
2128 83.47 18.75 35.52 10.64 8.49
2129 83.32 30.47 54.15 13.22 14.32
2130 83.35 60.92 53.83 14.86 10.95
2131 83.28 80.45 37.03 9.67 1.67
2132 83.32 42.05 68.35 15.50 19.33
2133 83.53 45.92 61.50 16.14 15.06
2134 83.23 72.78 45.00 11.33 2.33
2135 83.46 58.65 60.69 13.71 13.33
2136 83.57 51.05 64.98 15.50 13.17
2137 83.52 25.50 42.44 14.66 13.66
2138 83.44 65.58 52.40 12.55 6.30
2139 83.84 74.12 42.25 10.58 2.71
2140 83.89 43.89 66.22 15.09 19.18
2141 83.85 76.22 38.87 9.95 2.10
2142 83.93 21.87 42.56 12.54 11.21
2143 83.97 39.45 69.89 14.60 20.86
2144 83.92 49.17 65.24 15.41 15.39
2145 83.92 55.24 63.78 15.54 14.93
2146 83.92 72.24 44.32 10.45 3.36
2147 83.96 28.49 48.68 14.79 13.74
2148 84.07 33.32 54.52 14.64 19.87
2149 84.04 66.17 52.47 13.11 6.36
2150 83.99 27.07 45.77 13.92 13.15
2151 84.19 57.29 65.43 14.75 13.87
2152 84.18 71.01 45.92 10.80 3.60
2153 84.20 23.25 41.42 12.83 11.88
2154 84.24 41.78 66.90 14.86 19.33
2155 84.34 52.47 68.13 14.96 17.49
2156 84.16 25.48 43.09 13.18 13.24
2157 84.33 35.87 58.29 15.00 22.71
2158 84.28 63.57 54.35 13.29 9.69
2159 84.29 68.63 47.16 12.49 6.01
2160 84.43 30.65 55.62 13.58 17.70
2161 84.40 60.54 58.41 13.66 13.71
2162 84.53 45.73 65.11 15.86 20.54
2163 84.40 37.53 60.29 15.71 17.57
2164 84.62 47.88 66.09 14.09 16.44
2165 84.93 18.32 36.13 10.47 9.65
2166 84.51 28.77 52.24 12.76 17.05
2167 84.87 50.31 64.80 15.17 17.20
2168 84.84 54.23 62.36 15.25 16.39
2169 85.02 75.05 42.19 9.28 3.12
2170 85.06 27.18 43.72 12.56 15.66
2171 84.94 38.00 55.79 15.18 22.14
2172 85.20 32.15 52.31 14.26 17.86
2173 85.15 58.92 57.52 13.52 13.57
2174 85.22 73.11 41.72 9.80 3.15
2175 85.19 23.93 43.28 12.49 14.50
2176 84.87 69.27 41.06 11.82 5.41
2177 85.14 42.74 59.87 13.73 21.66
2178 85.15 67.03 52.76 12.53 6.63
2179 85.28 78.15 34.82 7.93 1.36
2180 85.12 21.57 43.12 12.00 13.17
2181 85.17 56.42 63.47 15.03 17.93
2182 85.10 62.00 58.69 13.15 12.96
2183 85.24 71.21 43.73 10.25 4.13
2184 85.16 25.36 41.48 12.32 14.48
2185 85.35 34.43 49.98 13.96 19.30
2186 85.30 29.04 46.76 13.27 13.98
2187 85.42 44.54 58.93 14.46 20.51
2188 85.49 64.28 57.38 12.35 8.88
2189 85.21 47.73 62.65 15.44 17.65
2190 85.41 52.58 58.78 14.14 18.63
2191 85.52 40.30 55.41 13.86 21.23
2192 85.80 30.20 42.94 13.81 17.70
2193 85.54 69.24 47.05 10.81 4.81
2194 85.86 36.49 48.05 14.31 21.28
2195 85.69 48.87 56.69 15.10 20.24
2196 85.94 60.86 58.41 13.19 12.56
2197 85.74 57.41 59.00 13.90 13.10
2198 86.12 21.09 32.94 11.23 12.86
2199 86.03 38.80 51.47 15.25 21.41
2200 86.09 55.36 58.81 13.83 17.84
2201 85.90 25.82 42.30 12.15 17.00
2202 86.01 50.99 55.23 13.88 20.48
2203 86.17 69.67 46.69 11.45 4.92
2204 85.89 27.27 44.00 13.60 16.20
2205 86.21 28.46 42.19 12.76 16.67
2206 86.16 42.35 51.96 13.96 20.88
2207 86.23 23.03 32.33 11.77 11.09
2208 86.35 32.73 43.90 13.86 21.31
2209 86.39 53.56 60.26 13.41 18.56
2210 86.52 75.74 40.77 8.52 2.65
2211 86.29 57.86 51.40 13.22 18.33
2212 86.58 47.30 47.58 14.48 19.33
2213 86.44 44.56 49.85 13.23 21.47
2214 86.55 63.42 59.47 12.70 9.33
2215 86.77 34.60 38.51 13.77 20.83
2216 86.51 49.41 50.98 14.74 21.30
2217 86.47 19.78 28.93 9.68 13.18
2218 86.87 24.72 34.43 11.76 14.69
2219 86.77 36.89 44.51 13.51 22.08
2220 86.94 52.40 48.36 13.80 19.69
2221 87.08 40.00 45.68 13.36 22.46
2222 86.82 60.39 55.58 12.84 12.79
2223 87.36 27.60 32.89 11.96 15.94
2224 87.25 55.39 50.59 13.67 17.13
2225 87.01 59.00 53.78 12.40 16.07
2226 87.35 62.00 59.58 12.38 11.98
2227 87.21 68.10 51.32 11.44 6.22
2228 87.52 71.05 46.14 10.18 5.09
2229 87.42 32.21 34.80 13.51 20.54
2230 87.51 65.41 55.32 11.55 8.77
2231 87.46 45.47 37.61 14.43 20.61
2232 87.72 73.97 44.12 8.91 3.88
2233 87.52 42.73 35.95 13.08 19.87
2234 87.71 48.12 37.51 13.14 18.27
2235 87.86 37.19 35.62 13.28 19.78
2236 87.73 68.95 50.36 10.32 7.11
2237 87.88 57.69 54.15 13.49 17.18
2238 87.80 52.33 40.08 13.06 18.85
2239 87.96 59.70 56.40 12.47 15.77
2240 87.96 76.12 36.45 7.79 2.43
2241 88.32 33.94 27.93 12.98 17.91
2242 88.32 39.58 29.85 12.42 18.14
2243 88.19 54.37 44.80 13.73 18.73
2244 88.30 63.85 53.55 11.92 10.62
2245 88.31 50.29 35.49 13.32 17.91
2246 88.38 44.11 30.43 12.42 19.36
2247 88.69 28.00 24.86 10.57 15.82
2248 88.59 66.99 52.54 10.90 7.82
2249 88.80 61.50 48.37 11.89 11.77
2250 88.80 56.64 42.91 12.36 17.66
2251 88.95 69.99 44.37 9.84 5.88
2252 88.65 72.51 42.39 8.70 4.14
2253 89.19 25.90 21.03 10.56 12.58
2254 88.91 31.00 23.05 11.60 16.49
2255 88.68 41.06 29.70 13.15 15.90
2256 88.73 29.63 24.94 12.56 12.12
2257 89.15 59.27 47.23 12.37 14.30
2258 89.01 42.08 26.80 12.73 21.47
2259 89.18 50.80 29.89 12.79 19.65
2260 89.52 37.90 22.96 12.91 17.01
2261 89.12 36.35 25.14 13.09 17.32
2262 89.23 43.56 24.06 13.47 16.62
2263 89.12 71.32 46.18 8.27 4.55
2264 89.18 24.36 19.79 9.59 15.59
2265 89.25 46.91 27.48 13.42 13.27
2266 89.34 72.53 40.50 9.69 4.31
2267 89.36 40.33 24.02 13.12 17.81
2268 89.41 34.75 23.15 12.69 14.93
2269 90.11 63.72 43.15 10.42 9.72
2270 89.92 29.18 20.18 11.77 14.22
2271 89.95 45.40 24.82 12.21 18.82
2272 89.75 49.25 25.31 11.77 14.29
2273 89.79 32.61 21.88 11.42 17.10
2274 89.93 27.09 17.99 11.62 16.16
2275 89.97 66.36 46.37 9.94 8.56
2276 89.96 47.85 24.68 11.44 17.85
2277 89.99 51.99 27.15 12.41 14.95
2278 89.90 57.98 36.39 12.23 16.05
2279 90.00 42.88 22.53 11.70 19.10
2280 90.22 56.10 31.71 12.04 17.62
2281 90.06 68.36 47.77 9.96 7.25
2282 90.00 61.18 42.30 11.63 13.61
2283 90.04 69.84 42.55 8.74 5.81
2284 90.27 39.62 21.87 12.62 18.27
2285 90.17 53.98 28.88 11.45 12.48
2286 90.28 71.75 38.54 8.04 5.03
2287 90.30 31.08 19.18 11.03 18.45
2288 90.11 35.25 17.83 13.67 20.33
2289 90.70 60.08 32.68 10.89 11.98
2290 90.45 33.93 20.26 11.68 13.32
2291 90.27 36.31 18.15 10.85 17.60
2292 90.67 51.09 23.80 12.17 15.23
2293 90.72 26.49 15.97 10.22 16.06
2294 91.08 46.64 21.64 11.37 13.43
2295 91.05 44.66 22.02 11.60 15.59
2296 90.88 27.79 15.18 11.46 16.00
2297 90.82 36.35 20.89 11.89 14.94
2298 90.96 40.80 21.41 11.55 11.24
2299 90.87 65.91 36.38 9.12 9.32
2300 91.06 32.24 18.67 11.02 11.39
2301 91.12 38.45 21.38 12.62 12.27
2302 90.92 47.59 22.14 12.14 16.57
2303 90.97 29.04 16.79 11.07 14.07
2304 91.43 42.65 20.65 11.56 15.62
2305 91.17 64.33 37.11 8.87 9.83
2306 91.20 62.15 35.10 10.92 9.48
2307 91.34 68.38 36.56 8.51 6.46
2308 91.23 52.42 22.81 12.50 13.19
2309 91.48 66.71 33.73 9.33 6.97
2310 91.56 35.43 19.23 10.98 13.07
2311 91.57 53.67 23.41 12.05 12.41
2312 92.17 60.39 26.66 9.70 10.28
2313 91.66 61.23 31.25 9.70 8.70
2314 91.96 40.38 18.30 10.37 15.15
2315 92.06 30.77 15.33 10.49 11.49
2316 91.96 63.89 32.54 9.33 10.07
2317 91.87 70.23 31.42 6.97 5.61
2318 92.02 32.38 16.27 10.27 12.40
2319 92.10 38.28 19.09 11.73 11.64
2320 92.16 46.28 20.59 11.69 11.41
2321 92.21 34.95 19.28 11.83 8.06
2322 92.36 55.34 22.75 9.47 12.67
2323 92.14 67.98 27.66 8.17 7.90
2324 92.20 44.20 20.00 11.24 16.71
2325 92.26 65.75 27.98 8.67 7.50
2326 92.35 52.72 21.76 11.18 12.12
2327 92.48 43.33 19.33 11.07 12.47
2328 92.77 34.21 17.06 10.25 11.87
2329 92.76 50.51 20.16 11.29 7.16
2330 92.89 44.83 18.04 12.00 9.30
2331 92.76 41.06 17.41 10.97 11.00
2332 92.91 36.63 16.97 11.03 11.06
2333 92.82 53.61 21.79 10.90 11.36
2334 92.95 38.58 18.65 9.55 13.00
2335 93.23 48.56 19.17 11.51 10.10
2336 93.13 58.22 21.80 9.12 10.34
2337 92.92 66.13 26.96 8.83 8.91
2338 93.13 46.65 21.47 10.90 10.03
2339 93.15 43.25 17.71 11.14 7.31
2340 93.21 60.85 21.70 9.98 8.94
2341 93.16 41.84 17.36 10.91 14.91
2342 93.24 52.64 19.89 9.79 9.46
2343 93.31 55.70 21.05 11.12 11.83
2344 93.44 40.52 17.60 10.54 9.73
2345 93.59 50.74 18.79 9.79 9.49
2346 93.56 64.73 20.54 7.98 8.44
2347 93.62 62.86 20.41 7.98 9.32
2348 93.78 56.94 19.32 10.51 8.29
2349 93.73 38.29 16.86 9.79 9.36
2350 93.65 42.50 18.22 11.44 6.00
2351 93.92 44.12 17.38 10.59 10.74
2352 93.89 34.90 14.21 9.87 10.59
2353 93.92 52.50 19.71 10.08 6.24
2354 94.21 46.40 17.79 10.08 12.26
2355 94.38 40.96 15.97 9.81 10.24
2356 94.55 53.46 19.54 9.61 11.41
2357 94.63 42.66 15.85 9.85 8.80
2358 94.70 44.87 16.82 8.73 6.36
2359 95.06 51.14 16.97 9.94 10.05
2360 95.04 47.21 18.10 9.80 7.88
2361 95.33 43.57 14.94 9.71 7.80
2362 95.24 45.48 15.14 10.05 6.44
2363 95.66 40.09 14.25 10.12 3.85
2364 95.83 38.39 12.88 8.94 9.39
2365 95.69 46.82 14.85 9.08 8.62
2366 96.20 52.39 14.90 8.81 6.58
2367 96.30 45.58 13.57 9.54 8.20
2368 96.52 47.60 15.20 8.21 6.89
2369 96.48 43.53 13.25 8.85 5.87
2370 96.87 41.69 12.48 8.79 7.94
2371 97.15 45.25 13.32 8.98 5.34
2372 97.55 49.99 12.74 8.10 8.38
2373 97.18 43.08 12.00 9.20 5.96
2374 97.66 54.80 11.33 8.18 6.95

