#<Embryo name> <Cleavage cycle> <Temporal class> <Genes>
mn4 14A 5 even-skipped Kruppel hunchback

#Quantitative data
#<Nucleus number> <A-P coordinate> <D-V coordinate> <Fluorescence intensity: channel 1 - eve, channel 2 - Kr, channel 3 - hb>
0 2.44 43.82 15.92 13.60 71.14
1 2.52 46.91 15.40 13.20 75.26
2 2.96 51.68 15.65 13.84 76.18
3 3.36 41.50 15.72 13.92 71.00
4 3.73 45.50 17.41 14.32 86.44
5 3.97 48.42 17.34 14.70 87.47
6 4.23 51.09 16.03 15.68 88.76
7 4.19 39.00 17.21 15.29 76.26
8 4.63 43.38 17.37 15.73 89.10
9 4.97 36.64 15.14 15.55 81.64
10 5.03 40.63 18.38 15.79 89.66
11 5.14 53.41 15.20 16.67 95.03
12 5.25 46.00 18.53 15.75 101.50
13 5.50 48.51 17.98 16.53 101.96
14 5.49 56.77 14.95 15.61 81.08
15 5.80 50.78 18.10 14.95 109.41
16 5.99 38.21 16.89 17.83 98.27
17 6.36 35.28 15.15 17.14 89.42
18 6.25 43.79 17.64 17.17 98.38
19 6.34 54.95 17.67 19.45 112.69
20 6.70 40.61 18.22 18.43 115.44
21 6.80 47.14 19.48 20.01 110.57
22 6.91 52.41 17.29 18.00 116.96
23 6.88 57.52 17.00 15.49 103.42
24 7.41 49.75 17.65 19.37 118.10
25 7.58 37.85 18.63 20.49 108.60
26 7.61 59.84 15.56 14.62 105.66
27 7.65 42.76 19.27 19.99 117.29
28 7.69 54.72 18.33 16.39 123.20
29 7.82 35.61 17.00 21.83 106.20
30 7.92 45.27 20.24 21.18 129.22
31 8.22 40.04 19.30 20.08 124.25
32 8.30 57.16 17.44 15.15 122.68
33 8.55 33.57 16.82 23.30 114.81
34 8.53 47.70 18.82 21.46 128.70
35 8.58 51.66 18.72 19.91 140.01
36 9.00 53.86 18.50 18.98 136.58
37 9.19 59.02 17.92 15.85 134.05
38 9.09 41.91 19.52 21.19 133.15
39 9.28 31.45 13.70 19.64 104.97
40 9.36 64.19 13.37 12.55 101.26
41 9.23 35.84 16.93 20.62 124.14
42 9.39 61.60 17.39 15.54 123.79
43 9.63 49.72 20.81 20.43 135.90
44 9.50 38.64 18.74 22.31 124.48
45 9.44 44.64 20.22 22.67 134.01
46 9.70 55.93 19.02 19.39 139.73
47 10.03 46.93 19.11 22.50 156.16
48 10.29 33.17 17.78 22.41 116.79
49 10.46 53.17 18.85 19.01 150.54
50 10.40 41.70 19.24 23.18 138.30
51 10.50 35.99 17.75 23.83 131.66
52 10.61 58.53 19.02 16.72 145.86
53 10.65 61.32 19.86 14.30 125.06
54 10.78 30.47 15.60 17.91 108.25
55 10.81 64.26 16.87 13.16 116.35
56 11.00 39.09 20.57 25.95 142.92
57 11.11 50.67 20.75 21.41 166.78
58 11.09 44.60 20.05 24.16 140.82
59 11.04 56.13 20.49 18.29 162.94
60 11.22 47.72 19.27 21.83 160.41
61 11.45 66.83 13.19 10.65 100.44
62 11.79 32.23 17.98 21.80 111.14
63 11.79 34.46 18.95 25.41 139.90
64 11.78 36.90 18.54 26.22 143.74
65 11.84 41.55 20.86 24.00 157.28
66 11.76 60.02 20.34 17.81 155.07
67 11.86 62.93 20.11 15.83 157.40
68 12.18 54.64 20.98 20.99 173.92
69 12.07 52.49 21.26 22.32 181.76
70 12.26 29.73 16.76 18.27 118.50
71 12.41 48.55 19.92 21.87 171.50
72 12.50 57.21 18.65 18.11 178.65
73 12.50 27.15 12.59 14.34 77.32
74 12.55 43.45 21.21 24.08 161.61
75 12.61 39.31 19.76 25.49 160.76
76 12.68 45.97 21.36 22.15 171.49
77 12.99 64.74 18.34 15.43 159.93
78 12.79 67.08 17.67 14.10 132.71
79 12.97 50.77 21.49 25.03 189.28
80 13.12 59.36 22.09 18.07 184.75
81 13.14 61.67 21.02 17.39 181.66
82 13.16 33.78 19.06 21.33 140.41
83 13.26 37.18 19.38 25.85 146.92
84 13.40 31.36 17.70 18.93 127.45
85 13.49 69.12 16.88 12.71 124.60
86 13.50 28.29 14.97 17.14 132.46
87 13.65 41.41 21.68 24.74 166.34
88 13.80 53.49 20.08 20.80 192.59
89 13.94 55.81 20.43 20.00 187.26
90 13.98 44.28 21.50 25.21 186.72
91 13.87 48.66 20.92 25.04 190.49
92 14.26 35.42 18.67 23.40 165.58
93 14.28 58.17 20.96 20.20 192.49
94 14.37 62.81 22.75 18.20 181.19
95 14.48 26.22 13.18 15.87 118.30
96 14.52 46.67 20.94 24.52 200.40
97 14.38 51.22 22.10 24.86 213.87
98 14.39 67.15 20.54 14.34 152.46
99 14.71 29.16 16.78 19.38 145.83
100 14.73 33.37 19.74 21.36 162.89
101 14.77 60.42 21.95 18.51 194.48
102 14.67 37.88 20.68 24.51 177.70
103 14.90 40.16 20.65 24.63 183.93
104 14.82 64.63 21.02 16.08 182.81
105 15.09 69.69 16.95 12.07 125.86
106 15.20 42.58 20.71 23.86 192.31
107 15.30 31.38 19.69 20.67 161.80
108 15.37 49.15 23.68 26.68 208.52
109 15.42 56.87 22.04 18.61 196.93
110 15.63 54.38 23.29 22.29 208.75
111 15.69 45.00 21.74 25.91 201.90
112 15.71 51.90 23.18 28.50 209.58
113 15.86 65.83 21.04 15.96 176.08
114 15.88 36.70 19.72 25.39 171.05
115 16.04 27.15 15.56 17.26 154.57
116 16.10 24.75 14.40 14.30 128.93
117 16.17 62.88 20.38 16.95 168.84
118 16.08 71.67 16.80 11.30 112.29
119 16.09 59.71 22.74 19.48 193.76
120 16.34 74.30 12.81 9.19 73.91
121 16.39 67.86 21.36 14.80 151.43
122 16.38 47.21 23.88 26.48 212.00
123 16.31 33.84 17.66 20.87 182.12
124 16.33 39.99 21.41 24.99 194.07
125 16.58 29.36 17.62 19.44 169.24
126 16.67 42.86 20.06 25.42 196.33
127 16.80 49.63 24.34 24.67 205.95
128 16.75 57.12 21.23 20.55 205.62
129 16.93 31.64 19.42 20.49 171.24
130 17.06 69.64 21.79 14.04 139.80
131 17.13 52.20 21.28 22.76 211.90
132 17.31 35.81 21.01 23.10 180.32
133 17.26 23.10 13.50 13.89 126.20
134 17.32 38.20 20.56 23.97 193.16
135 17.36 54.83 21.74 22.36 206.78
136 17.25 60.87 23.04 18.95 192.45
137 17.40 45.25 23.72 24.12 209.88
138 17.41 65.34 20.05 15.37 167.97
139 17.62 26.20 17.37 16.10 158.73
140 17.44 72.70 15.59 11.87 100.72
141 17.75 41.04 21.94 26.59 199.42
142 18.02 62.92 21.02 17.19 176.07
143 17.98 58.35 22.69 21.13 205.55
144 18.02 33.65 19.64 23.03 183.63
145 18.12 28.43 17.67 16.70 171.89
146 18.02 47.46 21.96 23.84 213.01
147 18.26 30.89 18.48 19.28 170.45
148 18.35 43.18 23.48 22.94 212.54
149 18.29 67.44 21.67 13.62 151.18
150 18.30 50.08 22.40 21.61 209.13
151 18.22 70.67 19.16 13.56 142.82
152 18.56 21.09 11.28 11.59 107.08
153 18.54 24.20 15.79 13.38 154.42
154 18.50 53.00 23.06 21.27 208.68
155 18.73 56.42 22.60 20.71 206.89
156 18.65 39.09 22.44 22.32 186.28
157 18.64 60.44 22.64 19.01 194.18
158 18.94 36.52 21.00 20.24 181.16
159 18.88 75.17 15.99 11.66 98.99
160 18.94 72.77 18.48 13.26 131.24
161 19.18 44.88 21.98 22.15 203.25
162 19.12 64.37 21.74 17.68 173.79
163 19.29 69.19 22.24 15.27 153.64
164 19.45 27.55 18.35 16.67 167.54
165 19.46 41.41 22.19 22.08 191.60
166 19.38 33.92 20.23 20.52 186.27
167 19.49 47.46 22.39 22.08 207.73
168 19.55 30.93 18.80 19.07 171.48
169 19.65 54.86 23.53 20.95 204.02
170 19.67 58.38 24.73 20.94 185.73
171 19.78 49.90 23.21 20.43 208.62
172 19.77 61.59 22.67 18.61 185.33
173 19.86 52.29 23.09 21.05 208.44
174 19.81 66.56 21.42 16.15 162.83
175 19.92 24.72 16.76 16.21 177.06
176 19.96 21.96 15.59 13.49 135.30
177 19.99 38.77 19.37 21.25 197.07
178 20.13 71.23 21.28 14.37 148.55
179 20.17 76.51 17.56 11.09 99.99
180 20.35 74.06 20.89 12.35 131.38
181 20.54 43.25 22.40 22.19 197.76
182 20.53 45.72 23.89 21.56 201.57
183 20.80 36.46 21.10 20.20 188.23
184 20.77 63.68 24.12 17.77 177.72
185 20.78 30.53 18.71 18.18 177.26
186 20.69 33.85 19.89 19.56 183.26
187 20.86 56.47 22.54 21.02 192.38
188 20.83 26.70 17.17 16.74 163.30
189 20.87 59.11 24.98 19.84 192.77
190 20.83 68.67 23.25 15.90 162.12
191 21.04 41.14 21.84 21.00 190.13
192 20.97 48.33 22.58 22.19 207.97
193 21.05 54.04 23.81 21.28 193.65
194 21.14 19.82 13.35 12.59 129.68
195 21.12 65.91 23.16 17.01 170.26
196 21.19 51.52 25.18 21.60 204.65
197 21.18 23.55 16.19 15.45 158.68
198 21.38 61.09 24.79 18.68 184.33
199 21.41 38.96 22.90 21.55 196.70
200 21.40 72.24 21.46 13.84 150.01
201 21.63 29.10 19.13 17.82 178.20
202 21.50 77.99 16.70 11.72 107.78
203 21.79 75.17 20.75 13.07 136.61
204 21.80 32.65 20.50 19.80 191.42
205 21.77 44.80 23.30 20.64 191.56
206 21.98 70.04 24.21 15.46 160.51
207 22.21 21.90 15.03 16.06 170.08
208 22.27 35.23 20.08 20.19 196.03
209 22.17 47.08 24.81 23.05 213.84
210 22.22 49.66 24.81 22.11 212.01
211 22.08 56.76 25.75 20.75 190.10
212 22.33 42.73 23.53 21.64 182.97
213 22.06 58.09 26.43 21.00 194.06
214 22.36 67.54 23.85 16.20 154.02
215 22.36 26.96 18.88 18.18 185.11
216 22.36 64.75 24.17 19.12 163.97
217 22.37 54.36 25.85 21.25 174.94
218 22.49 62.18 24.58 19.33 177.02
219 22.57 24.51 18.82 18.04 185.72
220 22.42 80.47 16.25 9.89 82.46
221 22.61 37.89 23.83 20.69 200.40
222 22.62 51.76 24.47 23.12 200.42
223 22.77 40.55 23.08 21.90 199.06
224 22.85 19.41 15.26 13.74 158.55
225 22.83 59.45 25.45 19.01 181.26
226 22.85 72.83 25.16 14.94 151.37
227 22.89 77.55 20.56 12.44 115.83
228 23.02 31.96 23.30 20.62 205.84
229 23.11 29.52 19.96 18.41 182.62
230 23.23 44.68 24.02 22.04 199.90
231 23.27 56.16 25.91 21.10 191.14
232 23.22 70.18 25.33 16.46 165.27
233 23.38 75.23 24.54 14.39 151.00
234 23.33 47.87 26.37 22.41 210.44
235 23.59 34.42 23.13 19.64 202.13
236 23.56 66.50 25.80 17.88 171.60
237 23.76 21.29 17.03 15.57 176.88
238 23.65 63.76 25.99 19.04 169.66
239 23.73 52.49 26.44 21.44 209.42
240 23.83 36.83 23.24 21.39 202.28
241 23.76 79.88 22.53 11.69 120.23
242 23.87 26.77 18.46 17.48 183.59
243 23.91 23.89 18.55 17.81 196.40
244 24.09 50.03 26.85 22.37 196.18
245 24.04 41.73 24.02 22.01 199.44
246 24.00 61.26 24.58 20.80 184.57
247 24.17 39.21 23.62 21.86 211.72
248 24.00 58.58 26.35 22.18 189.72
249 24.24 17.78 14.00 12.45 122.46
250 24.26 68.82 28.50 16.43 161.60
251 24.39 54.15 26.34 21.88 205.60
252 24.30 71.98 28.25 15.67 152.10
253 24.36 46.72 26.55 22.68 209.35
254 24.46 32.50 21.72 20.76 198.04
255 24.51 77.39 27.96 13.17 137.33
256 24.47 29.53 21.51 18.32 183.04
257 24.49 44.13 24.95 21.51 206.30
258 24.67 82.15 22.35 10.91 81.23
259 24.57 56.55 27.96 21.96 195.63
260 24.70 74.80 28.71 15.05 166.91
261 24.93 19.71 19.09 13.80 170.98
262 24.78 65.54 28.89 18.39 175.03
263 25.04 35.25 23.69 20.70 208.17
264 25.07 63.03 29.49 20.03 179.83
265 25.09 25.55 20.28 19.26 180.79
266 25.10 60.02 29.46 21.17 187.19
267 25.30 22.67 18.91 16.24 171.15
268 25.25 48.56 27.69 22.53 204.94
269 25.31 52.12 26.02 21.18 198.74
270 25.19 79.70 32.18 13.16 130.88
271 25.42 37.57 25.54 22.56 208.53
272 25.39 67.67 29.72 19.72 169.71
273 25.44 42.58 25.39 22.13 212.36
274 25.56 70.16 28.33 16.95 156.35
275 25.62 39.89 26.32 23.48 204.87
276 25.70 28.33 20.64 19.25 187.49
277 25.60 31.16 22.65 19.51 201.96
278 25.53 45.60 28.06 22.83 209.41
279 25.60 72.82 34.18 17.69 159.80
280 25.76 57.66 28.35 21.57 194.76
281 25.62 55.23 30.07 22.69 202.78
282 25.84 17.39 16.32 13.06 141.63
283 25.86 75.89 36.19 14.80 152.34
284 26.05 33.55 23.73 20.67 207.96
285 26.07 50.03 27.16 23.44 219.80
286 26.10 65.42 31.53 19.77 180.20
287 26.19 81.59 35.70 12.17 104.69
288 26.24 20.51 20.93 15.31 174.84
289 26.32 62.39 31.03 20.13 181.75
290 26.33 78.54 41.74 13.77 138.44
291 26.26 59.92 31.43 21.36 193.13
292 26.58 25.57 21.03 17.44 181.66
293 26.50 53.61 31.39 22.64 204.51
294 26.57 35.83 24.38 21.01 201.21
295 26.53 41.54 26.46 22.75 218.44
296 26.59 46.91 28.81 21.91 205.48
297 26.66 44.26 27.29 21.91 215.50
298 26.77 67.93 40.13 18.04 172.18
299 26.86 23.12 20.58 17.51 173.90
300 26.69 71.27 42.73 18.86 152.64
301 26.93 73.85 49.65 16.33 154.18
302 26.95 38.18 25.56 22.38 196.90
303 26.99 51.54 30.40 21.67 204.06
304 26.92 30.90 22.64 19.72 188.55
305 27.01 55.57 33.55 22.73 209.87
306 26.96 28.13 22.87 19.09 192.35
307 27.20 57.93 35.81 22.12 194.88
308 27.15 18.49 22.57 15.18 173.50
309 27.15 64.19 43.58 20.48 183.67
310 27.12 76.32 53.35 15.81 153.08
311 27.17 49.05 28.57 24.16 223.03
312 27.37 83.35 57.07 12.07 90.44
313 27.47 16.07 21.83 12.88 141.37
314 27.46 80.40 70.01 14.47 136.23
315 27.43 33.46 25.97 21.02 202.86
316 27.37 60.24 43.69 21.67 198.65
317 27.54 40.16 29.16 22.07 215.45
318 27.63 69.62 62.21 19.74 178.78
319 27.69 21.06 23.10 15.02 162.27
320 27.83 66.20 69.38 19.72 183.82
321 27.77 42.61 28.74 22.45 211.08
322 27.81 45.00 33.41 24.03 219.80
323 27.93 62.11 53.93 21.34 186.45
324 27.94 77.86 91.80 16.03 139.66
325 27.87 36.11 27.81 22.41 205.88
326 27.88 53.14 35.05 23.22 201.15
327 28.03 47.14 34.28 22.75 208.82
328 28.01 71.97 78.13 18.93 157.51
329 28.17 26.72 25.07 19.19 180.40
330 28.21 23.91 25.36 17.93 178.83
331 28.15 29.42 25.59 20.64 197.69
332 28.11 56.23 44.61 23.47 198.98
333 28.31 74.89 75.73 16.83 149.65
334 28.34 13.48 20.38 11.31 98.69
335 28.41 31.83 27.19 19.42 203.94
336 28.25 49.73 37.15 24.48 195.44
337 28.46 38.37 29.37 22.67 208.74
338 28.53 18.63 27.21 14.28 149.20
339 28.58 64.21 107.10 22.62 188.91
340 28.59 82.40 72.00 13.68 107.00
341 28.51 59.35 70.71 22.85 205.93
342 28.69 67.86 125.46 21.22 188.27
343 28.78 34.28 29.89 21.54 199.67
344 28.75 41.14 33.47 22.78 204.35
345 28.80 86.33 44.40 11.16 64.57
346 28.89 15.61 27.00 13.36 146.06
347 28.90 79.70 93.10 16.11 140.25
348 28.90 51.83 49.47 23.12 213.09
349 28.96 54.70 59.29 24.24 209.74
350 28.96 21.42 31.54 16.75 169.58
351 29.00 44.69 37.72 23.40 205.77
352 29.24 69.95 152.36 20.08 165.22
353 29.12 57.43 77.86 24.23 208.75
354 29.23 47.32 42.03 22.53 207.98
355 29.39 72.34 128.58 19.67 164.16
356 29.27 61.32 120.13 24.07 200.24
357 29.31 25.57 32.50 19.02 188.67
358 29.34 36.61 31.05 22.36 208.45
359 29.38 77.22 101.76 16.53 148.11
360 29.41 28.80 32.35 19.71 194.05
361 29.43 49.52 49.29 23.37 208.58
362 29.61 65.75 178.78 22.02 176.24
363 29.60 74.41 119.90 19.75 156.98
364 29.61 39.11 39.47 23.25 193.89
365 29.83 84.65 70.43 13.86 97.47
366 29.61 12.70 37.70 10.92 86.09
367 29.61 42.58 41.00 23.89 210.89
368 29.77 17.69 42.49 15.26 156.11
369 29.69 31.60 34.81 20.34 197.46
370 29.86 63.44 190.45 24.55 195.13
371 29.80 81.85 81.80 15.25 117.66
372 29.91 22.93 46.10 16.99 180.13
373 29.88 53.28 104.26 23.18 215.54
374 30.09 33.98 39.14 22.72 201.88
375 30.12 58.87 150.99 23.96 195.67
376 30.17 20.45 47.82 16.90 150.75
377 30.20 68.05 188.04 21.61 172.70
378 30.11 56.26 147.85 24.64 212.58
379 30.15 45.98 61.90 24.30 219.29
380 30.25 50.81 104.43 25.10 205.68
381 30.29 15.00 58.22 13.22 146.13
382 30.35 79.69 112.60 19.15 134.69
383 30.35 40.95 51.23 23.20 216.01
384 30.44 36.35 47.11 21.85 213.70
385 30.53 43.91 72.79 24.70 215.50
386 30.51 25.08 55.81 18.75 187.38
387 30.57 27.59 49.63 20.66 184.63
388 30.59 70.69 153.84 21.84 172.10
389 30.59 75.63 131.21 18.96 151.34
390 30.59 48.17 106.93 26.82 210.34
391 30.52 61.39 204.09 25.55 195.22
392 30.79 30.16 55.44 21.68 199.08
393 30.81 38.87 64.61 23.69 217.31
394 31.13 12.46 95.30 11.47 116.63
395 31.01 54.27 207.86 25.95 210.36
396 30.97 66.29 202.68 23.93 171.00
397 31.06 72.94 149.77 21.30 172.82
398 31.03 18.55 95.31 16.88 157.90
399 31.14 63.94 207.06 25.79 170.64
400 31.13 32.29 66.33 22.12 202.20
401 31.13 85.17 70.52 15.92 111.02
402 31.21 51.87 190.39 26.19 210.49
403 31.28 77.76 121.88 19.19 144.67
404 31.27 23.01 102.41 18.28 169.02
405 31.37 59.26 202.11 26.05 187.33
406 31.32 82.71 83.40 17.98 132.16
407 31.31 56.74 208.65 26.10 202.17
408 31.42 15.83 109.34 14.36 145.76
409 31.35 34.85 76.03 23.11 203.29
410 31.30 42.15 114.79 25.29 212.73
411 31.32 46.01 146.23 24.78 212.38
412 31.40 49.59 176.38 27.18 222.76
413 31.71 20.55 126.66 18.44 170.26
414 31.67 69.20 162.55 22.59 170.36
415 31.70 37.32 114.77 24.29 215.87
416 31.83 80.54 85.19 18.09 140.20
417 31.77 87.63 38.66 14.39 76.57
418 31.70 61.60 217.64 25.60 185.61
419 31.88 25.52 128.87 21.07 175.20
420 31.76 28.20 104.18 22.39 202.12
421 31.86 39.94 149.00 25.26 209.93
422 31.96 75.07 122.84 20.83 151.85
423 32.10 43.99 179.02 25.95 220.20
424 32.11 66.95 192.69 25.43 190.38
425 32.29 71.83 133.64 22.61 167.34
426 32.16 52.98 217.77 28.81 205.76
427 32.35 30.21 146.76 22.11 190.71
428 32.27 33.17 139.88 24.03 209.31
429 32.30 55.32 208.99 27.75 200.98
430 32.36 48.56 209.56 26.33 202.30
431 32.48 13.43 142.32 14.52 138.14
432 32.46 64.83 187.99 26.74 187.29
433 32.39 18.25 162.72 17.80 158.58
434 32.49 57.85 207.08 27.70 200.42
435 32.50 46.23 198.94 25.38 205.69
436 32.50 84.42 69.39 17.46 127.94
437 32.73 10.92 120.08 11.85 88.76
438 32.54 22.74 171.87 19.30 164.63
439 32.54 35.69 159.52 25.41 211.20
440 32.65 41.65 196.72 27.05 200.22
441 32.63 50.87 207.34 28.29 206.31
442 32.55 78.11 80.58 20.88 146.84
443 32.78 16.03 169.69 17.04 151.02
444 32.76 62.50 183.47 25.76 190.49
445 32.84 60.13 195.69 27.55 200.99
446 32.80 38.60 189.50 26.27 212.80
447 32.90 27.22 167.80 21.23 179.13
448 33.07 70.00 109.36 24.72 178.37
449 33.05 73.83 113.61 23.96 171.68
450 33.23 20.53 178.03 18.40 167.03
451 33.20 81.01 70.36 20.62 140.82
452 33.27 86.85 58.91 18.62 118.01
453 33.37 24.83 187.20 20.12 166.33
454 33.35 31.39 183.49 23.99 197.81
455 33.25 53.83 187.75 27.25 220.40
456 33.29 67.48 132.65 25.51 180.40
457 33.24 76.17 85.03 21.43 164.22
458 33.35 43.77 208.61 27.21 210.70
459 33.48 34.23 191.57 25.21 203.64
460 33.54 47.82 190.30 29.42 216.19
461 33.58 56.22 171.93 28.54 204.06
462 33.69 28.65 184.97 23.96 186.80
463 33.69 36.84 196.64 26.36 210.68
464 33.67 64.28 138.48 26.28 194.12
465 33.79 14.54 149.18 16.88 151.10
466 33.87 45.84 185.45 28.95 218.92
467 33.87 49.79 165.87 29.29 225.81
468 33.87 18.41 166.99 18.69 145.03
469 33.84 39.55 191.62 27.56 208.08
470 33.87 51.75 182.02 29.59 222.10
471 33.83 58.46 150.50 27.63 210.77
472 33.86 84.10 72.81 21.38 135.65
473 33.77 77.10 72.41 21.80 132.29
474 34.06 12.09 129.86 14.30 124.16
475 33.98 41.79 194.68 26.88 220.37
476 33.99 61.27 125.44 27.10 204.43
477 34.14 72.08 77.31 24.85 174.55
478 34.03 22.56 180.86 19.38 171.31
479 34.34 78.93 72.24 23.74 149.66
480 34.31 74.68 83.12 25.24 176.67
481 34.43 66.72 93.38 26.96 187.87
482 34.38 69.37 82.18 26.41 186.23
483 34.48 26.66 186.32 22.75 184.59
484 34.44 32.43 179.46 25.70 201.37
485 34.35 53.91 135.13 28.43 213.66
486 34.65 81.54 84.81 24.30 142.89
487 34.60 9.50 76.54 12.25 82.59
488 34.60 29.93 188.57 24.26 197.28
489 34.63 16.21 154.52 17.78 158.95
490 34.62 35.02 192.94 27.79 218.34
491 34.79 44.59 160.06 27.21 218.56
492 34.85 86.87 87.94 21.46 117.08
493 34.77 63.41 90.36 28.62 196.15
494 34.82 37.77 191.12 27.20 208.97
495 34.87 48.78 139.20 29.39 227.20
496 34.99 21.06 134.23 20.04 163.22
497 35.04 24.08 155.52 21.97 174.30
498 34.96 56.98 94.20 28.66 208.94
499 34.91 59.35 93.30 28.53 216.32
500 35.08 42.61 147.56 28.57 221.12
501 35.24 76.76 84.56 26.75 163.80
502 35.16 40.31 146.70 27.00 223.64
503 35.25 46.84 125.52 28.92 228.07
504 35.11 51.50 110.75 29.28 221.78
505 35.23 54.88 98.21 29.74 218.66
506 35.29 18.19 133.37 18.25 169.76
507 35.43 90.70 56.17 17.12 44.76
508 35.33 12.01 97.21 13.61 127.44
509 35.42 83.98 114.97 25.66 140.51
510 35.44 65.74 75.13 29.72 204.04
511 35.41 71.18 71.02 28.46 182.23
512 35.55 61.10 74.61 29.30 201.98
513 35.52 73.96 76.34 29.26 174.61
514 35.73 28.40 121.71 22.91 184.14
515 35.76 15.04 94.35 18.20 156.33
516 35.76 33.35 118.46 24.50 205.37
517 35.65 31.04 137.35 26.09 207.53
518 35.71 68.28 73.65 29.01 188.84
519 35.79 25.94 122.87 20.99 179.72
520 35.76 35.85 153.82 28.27 215.15
521 36.22 78.76 124.34 29.60 149.76
522 35.99 38.85 117.51 27.90 219.83
523 36.04 52.87 82.47 31.23 213.46
524 36.10 63.73 71.78 30.49 203.05
525 36.25 88.65 122.97 26.51 105.41
526 36.16 44.76 97.44 28.92 218.94
527 36.03 49.79 91.77 29.42 224.89
528 36.14 58.15 71.48 31.19 210.46
529 36.19 81.23 127.14 26.59 138.01
530 36.13 20.27 90.02 19.87 162.51
531 36.35 85.65 146.46 27.56 118.08
532 36.32 22.75 92.43 21.97 160.30
533 36.22 42.07 98.80 28.06 209.10
534 36.59 9.94 59.32 13.56 114.48
535 36.29 55.50 71.37 31.38 221.58
536 36.40 47.18 88.16 31.13 227.07
537 36.54 13.29 77.72 17.84 156.75
538 36.64 17.44 80.14 19.85 154.84
539 36.61 70.28 101.14 32.58 197.68
540 36.67 75.72 109.26 31.30 150.96
541 36.73 61.71 70.15 32.91 198.28
542 36.74 72.61 108.48 33.35 181.49
543 36.52 19.26 104.22 21.78 159.52
544 36.80 30.09 85.75 25.38 202.11
545 36.75 37.03 92.64 29.26 219.16
546 36.75 65.87 75.99 34.24 206.02
547 36.92 26.39 76.08 24.18 186.17
548 37.10 34.61 82.29 26.52 206.85
549 37.04 83.15 138.74 34.72 147.59
550 37.28 91.29 83.25 26.45 57.03
551 37.04 51.19 70.84 32.54 221.48
552 37.05 59.59 69.86 32.66 207.58
553 37.10 68.14 94.16 32.72 199.74
554 37.26 32.25 79.96 27.29 205.71
555 37.24 39.69 79.00 30.41 220.79
556 37.28 48.88 72.44 33.56 222.22
557 37.18 53.98 65.35 33.66 218.40
558 37.44 24.21 67.71 23.59 172.02
559 37.34 56.67 63.58 33.84 209.52
560 37.34 41.93 78.08 32.02 223.76
561 37.46 44.21 70.07 32.55 221.88
562 37.51 15.40 58.87 18.78 157.35
563 37.51 12.04 54.89 17.18 144.19
564 37.58 20.26 58.98 20.95 161.85
565 37.65 28.41 67.68 24.32 198.08
566 37.54 63.62 71.31 34.32 203.42
567 37.60 46.40 69.59 32.82 222.85
568 37.89 80.85 154.72 37.52 127.88
569 37.74 88.04 133.05 32.44 108.27
570 37.83 78.16 160.81 38.17 147.89
571 37.93 73.38 165.78 39.47 168.63
572 37.90 84.94 141.94 36.66 123.61
573 37.95 70.48 165.12 38.83 180.77
574 37.86 37.31 73.96 28.50 208.80
575 37.97 65.82 93.78 39.30 196.98
576 38.18 75.77 153.08 39.26 160.43
577 38.12 17.98 53.69 21.84 157.35
578 38.03 52.34 72.73 37.21 224.71
579 38.04 58.36 88.02 37.72 218.47
580 38.15 61.19 86.46 35.98 215.02
581 38.27 22.18 53.93 23.57 172.41
582 38.48 8.83 32.03 15.61 94.21
583 38.32 54.87 79.76 36.91 216.43
584 38.47 26.63 55.93 25.08 191.16
585 38.62 30.09 58.72 27.88 199.28
586 38.43 34.79 67.08 28.80 208.53
587 38.46 68.00 139.91 43.47 206.76
588 38.65 50.07 70.93 34.77 217.48
589 38.67 13.79 47.61 20.97 158.83
590 38.43 42.24 71.44 33.81 232.16
591 38.45 47.93 70.56 35.85 230.72
592 38.71 32.20 63.22 28.50 201.90
593 38.67 39.76 69.33 30.83 213.06
594 38.64 89.92 117.31 39.41 91.73
595 38.66 11.30 42.15 18.63 146.03
596 38.92 44.36 76.90 35.41 217.32
597 38.88 63.33 114.22 43.11 209.50
598 38.97 24.29 54.37 24.60 171.38
599 39.03 56.76 115.74 38.65 212.43
600 39.13 15.96 46.69 22.42 158.69
601 39.04 59.34 123.56 41.69 218.64
602 39.08 85.72 149.64 48.02 123.38
603 39.09 37.48 75.88 32.10 210.94
604 39.05 72.03 184.40 51.68 191.60
605 39.34 83.01 140.93 49.60 120.99
606 39.20 65.93 154.29 45.25 210.02
607 39.30 46.41 88.19 37.11 230.36
608 39.16 52.15 96.71 39.78 233.02
609 39.38 20.65 55.05 24.50 167.42
610 39.33 77.86 157.58 50.14 141.79
611 39.40 69.38 175.82 53.11 195.72
612 39.43 74.56 173.35 54.98 157.19
613 39.51 80.54 146.49 53.26 128.22
614 39.48 18.35 50.27 23.95 162.47
615 39.70 87.82 132.55 51.35 103.61
616 39.57 28.21 60.51 28.72 192.31
617 39.55 54.14 113.64 40.91 223.03
618 39.67 41.61 81.58 32.97 204.11
619 39.76 61.36 161.22 47.83 214.42
620 39.67 33.49 68.81 32.67 218.01
621 39.72 35.70 76.39 32.61 216.15
622 39.90 48.45 123.03 43.44 217.93
623 39.92 90.63 94.02 50.22 75.53
624 40.07 9.32 51.38 17.86 110.69
625 39.96 11.86 56.20 21.92 142.34
626 40.11 22.63 61.18 26.87 172.59
627 40.15 25.44 61.63 27.84 186.24
628 40.19 39.41 87.17 36.21 219.80
629 40.13 50.83 134.69 42.70 229.58
630 40.23 93.22 39.50 49.28 38.55
631 40.14 58.51 167.48 50.35 216.94
632 40.16 64.26 194.74 54.41 215.98
633 40.34 14.31 61.98 25.01 165.70
634 40.16 55.84 162.18 52.11 214.30
635 40.28 43.59 122.03 44.10 231.05
636 40.34 67.31 180.66 56.50 191.95
637 40.16 71.55 181.49 62.95 199.80
638 40.57 30.08 80.71 34.98 202.29
639 40.54 32.17 83.63 33.73 209.29
640 40.45 76.14 153.16 63.39 141.99
641 40.46 45.79 135.88 45.18 232.25
642 40.79 85.36 116.47 61.60 95.96
643 40.70 36.97 110.15 37.20 215.68
644 40.73 16.60 78.05 25.79 160.32
645 40.74 52.82 177.99 51.46 224.96
646 40.70 79.33 131.49 71.33 134.94
647 40.81 19.21 69.94 30.66 165.18
648 40.94 73.31 152.83 72.57 168.22
649 40.84 27.59 94.83 34.25 201.07
650 40.97 82.55 112.51 67.64 107.93
651 40.98 34.59 108.86 39.36 214.36
652 41.04 62.21 205.14 58.42 209.49
653 41.04 88.26 102.42 68.01 96.33
654 41.16 70.31 179.36 71.84 185.50
655 41.13 41.57 138.63 45.21 220.38
656 41.18 49.39 182.86 49.51 218.38
657 41.15 59.83 196.44 59.51 218.32
658 41.17 54.99 187.97 57.23 230.43
659 41.24 57.29 202.92 60.70 225.36
660 41.33 47.07 193.86 53.66 217.61
661 41.35 21.40 96.60 32.72 164.08
662 41.22 91.22 68.25 60.80 67.97
663 41.33 24.02 98.68 33.74 185.45
664 41.34 64.68 191.68 66.60 203.37
665 41.45 7.25 67.82 19.99 79.24
666 41.39 12.62 92.96 26.95 158.65
667 41.46 10.18 99.02 25.26 132.85
668 41.46 38.52 138.22 41.99 213.29
669 41.43 68.11 185.41 75.51 208.89
670 41.57 44.18 173.02 50.96 224.73
671 41.72 77.38 117.88 82.34 135.09
672 41.74 51.46 203.38 58.92 221.38
673 41.90 74.95 128.31 95.88 155.07
674 41.98 26.31 121.70 39.20 200.70
675 41.97 31.30 142.41 42.17 208.15
676 41.92 80.13 106.93 86.48 124.78
677 41.99 28.83 148.48 39.88 194.32
678 42.02 14.99 104.15 31.70 155.04
679 42.00 17.84 107.03 34.39 165.08
680 42.14 33.54 150.24 43.93 215.74
681 42.10 66.37 186.36 86.42 210.79
682 42.27 35.86 162.02 44.15 206.73
683 42.11 53.77 204.76 67.45 224.72
684 42.34 84.67 76.22 88.86 97.67
685 42.22 40.49 165.22 53.75 219.40
686 42.30 93.94 19.39 58.37 24.00
687 42.37 60.45 197.48 82.61 216.86
688 42.42 72.58 120.48 100.86 152.15
689 42.35 58.31 204.24 81.66 224.65
690 42.43 62.69 187.77 81.70 205.64
691 42.41 89.55 68.98 88.91 86.42
692 42.37 91.73 46.40 85.59 60.72
693 42.54 87.45 69.69 98.40 90.99
694 42.48 56.02 209.46 80.93 220.84
695 42.49 48.30 198.54 63.43 215.81
696 42.39 70.16 152.73 95.68 185.19
697 42.48 45.73 204.74 62.18 223.17
698 42.67 81.96 76.94 104.31 111.75
699 42.57 22.75 136.99 40.97 165.14
700 42.67 20.17 145.47 43.02 160.54
701 42.68 42.57 197.48 59.16 212.45
702 42.73 8.82 94.82 32.32 125.75
703 42.69 37.99 187.14 57.79 220.19
704 42.82 50.46 201.13 78.78 224.43
705 42.73 11.99 95.20 31.36 137.77
706 42.96 64.85 151.79 104.88 204.54
707 42.90 68.04 167.05 114.69 197.23
708 43.07 78.14 75.86 111.76 121.71
709 43.09 25.23 154.72 49.66 190.13
710 43.08 52.86 197.87 86.19 232.66
711 43.07 29.81 171.56 52.84 212.86
712 43.21 75.65 78.58 118.28 129.33
713 43.17 16.89 131.40 43.78 167.91
714 43.42 14.31 123.89 45.28 157.46
715 43.42 32.39 175.04 61.85 188.34
716 43.58 27.53 167.56 58.35 195.56
717 43.48 94.97 11.18 55.49 11.43
718 43.48 44.51 196.02 82.63 217.46
719 43.66 34.67 180.46 64.14 204.79
720 43.53 39.82 189.79 66.82 212.52
721 43.65 54.82 179.37 108.60 222.01
722 43.49 57.74 180.87 104.09 206.94
723 43.59 60.45 158.69 115.33 206.53
724 43.63 46.95 182.18 87.74 225.42
725 43.63 70.28 100.41 126.86 158.89
726 43.63 91.95 41.28 93.40 55.88
727 43.72 73.26 79.57 130.73 133.96
728 43.76 62.84 148.54 122.93 193.94
729 43.80 37.10 194.09 64.07 204.06
730 43.85 80.09 61.09 119.50 87.78
731 43.80 84.25 54.66 116.71 69.01
732 43.93 18.88 136.86 58.53 166.39
733 43.89 86.78 59.35 117.05 72.38
734 43.81 89.70 42.80 102.13 53.07
735 43.90 23.61 146.67 59.23 187.83
736 43.90 49.18 165.24 102.41 218.22
737 43.97 42.10 194.87 77.31 214.71
738 44.14 21.22 128.78 63.24 162.40
739 44.16 9.42 91.42 44.70 114.17
740 44.10 11.83 109.31 49.35 142.04
741 44.02 67.71 112.38 133.33 177.19
742 44.01 51.90 165.28 114.32 217.76
743 44.08 65.56 111.72 132.47 181.46
744 44.09 82.62 64.52 117.77 82.90
745 44.27 7.01 58.55 35.63 67.90
746 44.15 30.04 162.47 71.15 199.22
747 44.49 56.31 133.39 134.78 211.58
748 44.46 75.89 72.38 143.86 108.54
749 44.52 16.67 116.23 64.40 158.52
750 44.70 26.13 137.29 73.00 170.95
751 44.60 93.66 26.36 88.42 23.67
752 44.69 58.96 107.77 141.26 192.05
753 44.66 43.85 160.92 104.59 214.72
754 44.63 71.41 78.69 150.72 124.75
755 44.41 88.80 56.72 94.80 57.04
756 44.71 46.37 151.03 116.03 220.20
757 44.84 14.36 100.62 55.60 132.25
758 44.88 31.63 144.71 85.55 184.16
759 44.90 38.16 163.98 93.67 204.71
760 44.80 40.30 151.25 99.89 212.11
761 44.81 54.03 114.49 134.80 202.67
762 44.84 61.37 87.05 146.90 180.90
763 44.87 33.93 157.74 88.85 202.54
764 44.89 63.88 84.97 154.59 165.68
765 44.85 50.57 123.63 140.30 220.22
766 45.02 78.39 61.59 133.21 76.02
767 44.97 36.13 148.40 94.53 204.14
768 45.12 68.92 72.52 161.76 140.10
769 44.94 91.30 45.40 109.23 45.61
770 45.05 28.41 129.51 92.34 187.42
771 45.03 80.89 69.85 132.90 73.29
772 45.05 23.48 121.23 80.98 165.37
773 45.26 48.28 113.29 142.66 198.70
774 45.26 73.68 72.17 159.97 102.16
775 45.27 84.43 63.78 127.64 56.38
776 45.20 87.14 57.36 119.71 54.77
777 45.25 19.38 97.49 75.25 144.39
778 45.24 89.85 58.47 125.29 48.97
779 45.30 66.44 71.97 159.87 145.71
780 45.30 95.63 19.77 63.18 8.01
781 45.39 82.18 60.58 127.89 53.22
782 45.53 7.89 53.03 59.31 89.63
783 45.51 12.01 85.22 75.57 128.31
784 45.47 57.04 86.05 168.91 189.67
785 45.59 42.03 111.44 133.98 187.69
786 45.62 52.62 93.62 156.51 199.42
787 45.73 16.38 75.64 80.85 126.97
788 45.66 44.87 120.23 146.28 208.12
789 45.91 21.62 86.95 90.71 133.40
790 45.93 29.92 100.72 111.01 162.16
791 45.85 71.17 80.37 169.48 104.82
792 45.88 76.02 70.42 154.04 75.84
793 45.81 93.58 53.63 101.45 24.96
794 46.02 5.35 24.02 47.28 29.65
795 46.00 32.63 105.46 115.44 169.32
796 46.16 9.87 55.45 70.42 104.98
797 45.89 39.28 108.94 124.42 191.34
798 45.97 50.58 78.03 161.70 186.17
799 46.07 24.72 83.81 106.86 152.96
800 46.19 54.76 65.30 170.66 158.17
801 46.16 58.76 65.89 182.96 149.97
802 45.99 61.12 63.51 172.50 132.49
803 46.12 27.17 85.71 123.30 165.29
804 46.07 63.80 63.32 170.11 132.21
805 46.08 35.34 103.91 123.26 176.98
806 46.16 88.57 86.92 136.63 45.98
807 46.26 79.89 75.18 148.40 61.81
808 46.39 46.35 79.93 167.44 186.56
809 46.40 68.51 72.09 178.66 112.30
810 46.56 14.40 57.77 94.08 116.07
811 46.54 18.40 57.76 100.44 121.85
812 46.52 66.09 71.94 184.79 117.66
813 46.50 85.04 96.10 143.99 50.19
814 46.58 91.75 96.24 119.29 32.81
815 46.65 37.58 80.90 143.06 161.18
816 46.58 48.68 71.99 172.97 173.58
817 46.39 73.34 104.06 173.56 84.03
818 46.62 43.27 78.02 170.14 160.41
819 46.66 56.72 65.11 190.45 150.70
820 46.85 82.30 99.10 140.74 44.22
821 46.59 86.45 90.34 143.77 38.40
822 46.89 77.17 86.02 156.07 59.47
823 46.79 40.73 77.95 164.92 158.40
824 47.00 12.10 46.01 101.79 93.93
825 46.92 7.39 28.67 78.88 55.28
826 46.95 53.06 69.65 184.48 143.57
827 46.87 74.13 94.43 169.46 76.07
828 46.96 71.54 108.26 186.63 84.82
829 47.08 22.93 51.77 126.74 121.23
830 46.97 33.79 71.11 150.31 161.51
831 47.16 20.54 52.50 114.07 118.01
832 47.10 28.62 60.43 145.92 133.12
833 47.12 31.03 61.52 140.79 137.30
834 47.14 60.36 70.54 196.96 115.31
835 47.13 62.69 77.00 196.53 112.73
836 47.19 94.56 57.47 94.45 11.02
837 47.17 50.91 66.46 187.39 144.04
838 47.22 25.64 54.08 140.58 113.81
839 47.25 4.66 11.15 46.99 13.35
840 47.24 89.74 138.27 129.74 32.30
841 47.38 16.56 46.54 120.32 105.14
842 47.56 69.47 117.97 196.52 79.83
843 47.58 9.31 32.32 102.72 64.62
844 47.50 44.70 71.82 190.40 134.80
845 47.68 35.48 63.38 164.53 131.97
846 47.47 47.27 71.18 202.87 141.49
847 47.59 58.15 79.22 201.86 109.22
848 47.70 64.83 87.25 195.94 85.56
849 47.79 67.09 99.47 194.86 79.62
850 47.63 79.84 135.25 156.53 40.78
851 47.67 55.59 72.20 202.59 110.93
852 47.66 87.55 143.85 151.84 34.58
853 47.82 39.78 66.38 175.60 128.46
854 47.81 96.45 25.45 56.27 2.50
855 47.88 37.53 58.99 170.93 119.31
856 47.87 42.23 64.89 190.23 116.25
857 47.91 74.46 147.11 178.50 57.92
858 47.73 92.85 108.08 120.72 18.33
859 47.81 84.42 133.20 146.14 37.25
860 47.94 14.15 40.27 118.85 77.77
861 47.97 32.60 55.69 171.80 122.43
862 48.01 49.25 75.58 207.76 123.14
863 48.11 19.06 42.58 133.38 87.78
864 48.09 6.32 19.22 89.40 30.48
865 48.13 77.09 152.58 166.01 42.65
866 48.20 27.70 47.81 162.38 99.06
867 48.11 53.33 96.54 206.08 116.63
868 48.18 71.64 134.42 184.86 60.39
869 48.34 11.13 34.89 118.22 61.33
870 48.35 30.10 51.24 170.81 97.42
871 48.29 22.01 43.03 137.20 85.31
872 48.39 51.32 102.85 214.71 109.94
873 48.31 62.66 148.45 208.18 86.01
874 48.40 90.44 167.32 131.68 20.46
875 48.35 60.20 117.26 198.34 75.75
876 48.38 25.08 45.00 154.15 86.71
877 48.36 45.84 80.59 210.75 110.08
878 48.69 82.10 148.56 145.93 27.38
879 48.63 16.29 40.56 143.00 68.05
880 48.73 57.12 123.92 207.85 78.90
881 48.83 4.45 15.58 63.22 10.81
882 48.74 34.06 63.46 193.20 104.76
883 48.88 93.84 96.10 114.07 12.03
884 48.76 69.07 172.82 198.93 59.73
885 48.78 54.93 133.25 209.06 89.45
886 48.97 43.15 85.92 203.74 84.97
887 48.91 47.67 109.85 204.91 85.64
888 49.07 7.77 31.39 105.86 39.06
889 48.95 79.03 171.56 169.75 33.45
890 48.94 40.47 78.82 195.95 84.01
891 48.99 38.02 74.77 202.56 94.71
892 49.06 84.64 165.34 142.82 26.54
893 49.06 64.32 177.79 200.89 61.12
894 49.04 72.88 196.87 184.04 46.32
895 49.13 13.49 46.12 136.42 55.18
896 49.13 87.84 170.71 141.23 24.25
897 49.29 35.96 82.31 193.94 85.57
898 49.23 66.94 187.22 201.86 56.71
899 49.24 23.55 53.86 166.48 68.76
900 49.23 31.86 68.34 198.20 90.72
901 49.28 58.86 179.79 209.80 65.05
902 49.28 75.57 191.81 176.54 37.37
903 49.24 49.74 137.63 216.20 84.09
904 49.36 26.72 69.59 177.93 72.82
905 49.38 18.81 48.45 149.32 58.35
906 49.31 45.19 129.25 211.30 86.22
907 49.43 52.47 162.17 217.12 68.72
908 49.42 61.47 201.54 212.04 60.83
909 49.34 91.96 111.34 134.34 16.85
910 49.53 29.39 80.43 187.78 74.93
911 49.64 21.35 57.08 160.28 58.21
912 49.63 11.17 50.49 144.26 45.84
913 49.60 90.79 142.79 129.98 18.70
914 49.81 70.10 211.58 201.97 42.20
915 49.79 15.67 64.12 157.38 50.32
916 49.80 55.05 201.22 208.48 59.10
917 49.99 80.09 153.65 166.26 24.03
918 49.94 33.99 117.98 206.90 70.71
919 49.90 41.54 128.94 210.78 65.41
920 50.22 89.07 126.29 141.68 15.91
921 50.04 38.69 117.91 209.19 62.89
922 50.05 46.87 191.12 213.86 61.87
923 50.11 8.76 52.64 128.04 33.11
924 50.17 65.31 206.43 205.21 43.44
925 50.22 77.50 191.14 173.42 26.26
926 50.26 82.88 145.77 145.68 20.38
927 50.15 5.69 34.29 87.46 13.57
928 50.13 72.40 209.97 182.47 34.10
929 50.18 86.07 159.40 142.65 18.38
930 50.25 57.43 207.66 210.67 47.12
931 50.28 62.84 220.41 208.34 46.46
932 50.27 24.62 96.61 188.14 50.49
933 50.30 48.93 213.45 213.39 54.02
934 50.28 94.24 66.71 118.64 9.55
935 50.37 51.03 212.69 216.71 56.45
936 50.33 44.60 190.37 217.15 57.45
937 50.34 60.08 219.38 211.43 46.46
938 50.46 17.76 94.93 169.29 41.21
939 50.41 31.69 114.96 204.20 59.56
940 50.50 68.09 212.25 196.54 37.36
941 50.44 13.43 81.72 141.76 38.02
942 50.57 74.84 189.87 182.37 27.59
943 50.61 36.19 156.42 201.86 52.03
944 50.47 27.11 108.15 183.34 51.95
945 50.73 91.60 80.15 137.13 13.57
946 50.66 53.05 220.49 213.91 49.46
947 50.74 20.30 102.50 168.59 42.05
948 50.72 29.52 133.60 197.94 52.48
949 50.88 42.66 201.73 208.68 52.10
950 50.97 10.54 93.18 142.24 26.48
951 51.04 22.64 114.06 178.94 37.80
952 50.96 40.61 177.26 214.46 48.75
953 50.94 55.08 221.89 208.48 38.05
954 51.28 7.62 81.41 124.14 20.94
955 51.01 33.99 171.91 209.58 49.69
956 51.11 38.21 181.29 213.20 46.20
957 51.11 70.71 185.04 195.20 30.46
958 51.25 80.29 101.65 163.53 19.93
959 51.18 46.93 211.34 217.40 47.32
960 51.29 66.34 175.16 213.08 33.76
961 51.23 85.11 94.34 154.62 14.82
962 51.51 4.80 45.10 86.31 7.05
963 51.39 16.14 119.46 166.16 30.03
964 51.35 61.61 194.55 217.59 37.99
965 51.30 59.24 205.20 215.67 34.44
966 51.41 63.98 179.56 213.28 31.74
967 51.44 73.29 146.44 202.72 25.23
968 51.45 25.33 149.70 186.28 36.02
969 51.42 49.35 214.44 206.71 36.95
970 51.43 77.63 134.07 179.29 20.79
971 51.53 87.93 80.06 137.21 14.57
972 51.55 13.92 135.78 166.71 27.61
973 51.51 56.93 206.34 218.07 35.43
974 51.44 44.43 206.76 208.55 40.07
975 51.59 27.67 168.36 199.82 38.84
976 51.57 32.12 173.62 204.24 38.51
977 51.54 95.18 26.75 97.27 4.80
978 51.68 51.92 204.48 222.12 39.25
979 51.70 93.24 42.71 129.84 10.32
980 51.70 18.61 134.54 162.00 28.81
981 51.86 82.68 77.66 151.39 15.69
982 51.89 97.46 7.68 51.77 1.12
983 51.84 68.28 149.06 193.44 25.38
984 51.95 29.94 178.52 205.52 33.98
985 52.05 11.86 135.80 152.15 20.91
986 51.99 90.67 58.27 146.19 12.17
987 52.11 75.22 99.74 186.72 19.91
988 52.01 34.88 173.08 197.83 31.56
989 51.96 54.28 189.74 217.17 32.57
990 52.12 37.19 172.41 210.03 31.92
991 52.00 39.58 178.24 209.04 34.67
992 51.92 98.76 5.45 32.60 0.10
993 52.23 20.59 133.78 169.11 23.19
994 52.30 41.78 167.01 208.68 28.13
995 52.33 23.11 135.27 181.69 23.97
996 52.24 71.67 118.76 194.93 22.01
997 52.23 46.81 187.51 215.36 32.64
998 52.50 9.67 112.30 155.10 17.91
999 52.35 50.20 193.58 226.65 34.54
1000 52.38 59.21 156.66 220.02 28.86
1001 52.41 65.42 107.64 202.78 22.64
1002 52.51 61.50 126.15 219.85 25.41
1003 52.44 85.33 66.53 143.79 13.95
1004 52.41 44.50 193.92 216.49 31.51
1005 52.67 7.00 77.28 133.32 13.32
1006 52.68 80.04 62.58 153.74 14.53
1007 52.58 25.72 139.76 193.38 25.03
1008 52.63 57.06 155.34 221.91 27.69
1009 52.71 69.60 96.05 201.64 22.58
1010 52.62 17.06 130.63 173.16 22.40
1011 52.76 77.57 71.89 172.90 17.34
1012 52.75 28.14 145.88 205.22 24.84
1013 52.70 32.26 175.75 208.26 26.71
1014 52.61 95.12 21.66 100.22 4.52
1015 52.83 14.49 118.46 160.95 18.40
1016 53.51 3.16 24.04 57.07 2.51
1017 52.88 52.39 142.47 222.59 25.96
1018 53.00 63.49 99.90 221.63 23.56
1019 52.95 48.40 152.42 219.25 27.37
1020 52.89 87.44 54.62 135.88 11.58
1021 52.97 54.92 125.87 221.93 26.59
1022 53.05 93.27 34.80 126.61 8.69
1023 53.17 73.50 76.60 189.42 17.80
1024 53.20 67.65 77.62 201.60 20.04
1025 53.14 34.20 159.66 211.14 24.61
1026 53.16 36.70 138.55 207.51 25.11
1027 53.12 39.01 147.49 214.74 26.38
1028 53.23 30.28 134.05 202.92 21.42
1029 53.22 82.64 55.48 147.82 13.35
1030 53.21 43.12 141.25 213.45 25.56
1031 53.30 18.92 105.83 173.96 17.61
1032 53.41 91.03 43.25 135.97 9.90
1033 53.20 88.86 44.55 132.69 9.45
1034 53.43 11.91 92.79 158.08 16.01
1035 53.37 46.03 113.44 212.98 23.37
1036 53.59 97.05 9.26 61.95 1.59
1037 53.46 50.42 130.49 222.77 23.62
1038 53.54 21.38 99.73 175.65 16.52
1039 53.57 24.80 103.84 184.56 16.81
1040 53.49 59.74 89.39 221.06 20.68
1041 53.55 71.25 74.27 201.78 17.99
1042 53.65 75.56 60.34 182.72 15.34
1043 53.70 9.07 63.30 144.84 12.11
1044 53.66 40.65 111.12 213.72 23.42
1045 53.63 65.40 75.34 214.11 20.85
1046 53.67 85.77 47.00 135.29 11.00
1047 53.74 27.17 105.21 200.93 20.28
1048 53.81 57.56 82.14 218.10 20.51
1049 53.86 62.24 73.10 220.51 20.25
1050 53.86 53.62 91.84 219.53 20.82
1051 53.85 16.43 75.96 162.86 14.66
1052 54.02 32.33 99.47 205.30 18.30
1053 54.16 14.15 67.97 157.14 12.66
1054 54.01 35.27 107.52 213.06 19.14
1055 54.18 77.80 50.72 166.83 13.26
1056 54.02 48.37 84.44 222.65 20.37
1057 54.10 55.71 76.66 220.93 20.46
1058 54.34 80.15 46.73 151.12 11.80
1059 54.30 6.77 44.30 135.68 8.33
1060 54.24 44.28 80.89 212.17 19.64
1061 54.27 23.16 80.85 194.67 15.28
1062 54.25 29.20 81.98 197.20 16.94
1063 54.30 51.46 80.53 216.88 20.19
1064 54.33 69.68 60.32 198.93 15.79
1065 54.29 88.00 45.22 129.71 8.97
1066 54.33 38.29 92.40 212.20 19.41
1067 54.32 83.01 46.29 147.66 11.63
1068 54.49 94.09 25.08 110.86 6.06
1069 54.73 3.38 17.12 70.31 2.08
1070 54.36 42.07 74.52 218.80 19.17
1071 54.42 67.29 59.11 207.27 16.34
1072 54.49 73.03 58.31 183.44 13.66
1073 54.53 18.63 57.77 165.74 11.33
1074 54.55 46.61 71.00 223.65 19.60
1075 54.55 60.73 67.12 216.36 18.92
1076 54.41 98.72 4.75 30.88 0.44
1077 54.80 97.20 8.67 57.73 1.24
1078 54.66 64.74 65.49 216.75 17.64
1079 54.62 91.91 34.68 122.19 6.92
1080 54.82 11.52 45.42 169.73 10.33
1081 54.82 26.75 62.38 192.58 13.93
1082 54.66 89.32 41.71 134.29 7.40
1083 54.92 58.62 69.63 215.16 16.80
1084 54.93 30.94 64.42 204.07 15.93
1085 55.02 21.27 55.43 179.16 12.36
1086 54.97 33.94 67.35 204.81 15.47
1087 54.99 9.24 44.17 151.27 10.44
1088 54.96 36.43 74.39 211.94 16.79
1089 55.02 49.24 64.41 214.27 16.16
1090 55.13 75.39 56.36 165.59 11.70
1091 54.98 85.55 48.81 141.32 10.46
1092 55.07 40.36 67.37 217.07 16.20
1093 55.06 54.74 66.97 223.22 16.56
1094 55.08 52.91 71.32 222.29 18.04
1095 55.13 62.88 66.16 204.56 13.58
1096 55.15 90.75 46.56 125.87 8.53
1097 55.20 24.49 51.49 190.14 12.14
1098 55.18 56.70 70.58 219.23 16.43
1099 55.30 16.43 44.54 160.70 10.10
1100 55.34 71.03 74.29 196.97 12.84
1101 55.41 13.99 40.46 160.70 9.41
1102 55.32 45.15 65.47 215.06 16.12
1103 55.39 42.56 64.65 213.35 15.04
1104 55.53 28.91 55.38 200.74 12.69
1105 55.45 68.46 74.39 201.94 13.71
1106 55.60 77.67 65.96 161.52 11.30
1107 55.55 66.13 72.79 204.90 14.39
1108 55.51 83.02 55.24 147.17 9.05
1109 55.66 51.36 75.51 220.91 15.48
1110 55.94 98.12 10.58 41.92 0.42
1111 55.63 6.44 28.52 115.92 5.17
1112 55.65 60.53 79.85 214.52 15.79
1113 55.74 80.41 55.35 155.42 9.80
1114 55.79 38.82 67.55 213.48 14.78
1115 55.76 3.73 13.22 75.40 1.76
1116 55.81 32.43 53.99 203.41 14.52
1117 55.70 47.38 72.70 211.02 16.30
1118 55.86 88.48 58.66 129.01 8.40
1119 55.81 18.89 41.20 167.82 9.77
1120 55.81 93.47 42.40 120.82 6.56
1121 55.92 73.15 99.29 175.96 10.72
1122 55.93 95.64 20.84 83.42 3.18
1123 55.98 36.73 59.93 212.13 12.93
1124 56.15 26.96 51.88 191.91 10.91
1125 56.10 8.66 31.04 134.63 8.02
1126 56.24 64.41 89.97 203.02 12.20
1127 56.17 21.41 44.54 166.56 8.91
1128 56.21 34.66 60.07 201.77 12.52
1129 56.18 58.76 104.17 216.07 13.58
1130 56.34 10.74 36.50 154.97 7.66
1131 56.23 43.79 90.90 204.90 12.41
1132 56.22 85.35 83.91 128.28 8.11
1133 56.23 49.84 97.79 220.57 15.27
1134 56.19 53.79 118.06 212.92 15.00
1135 56.16 56.38 113.80 212.68 14.25
1136 56.29 62.33 94.58 203.66 13.89
1137 56.36 91.16 62.16 123.35 7.14
1138 56.27 24.38 45.27 176.86 9.98
1139 56.32 41.16 77.20 211.43 12.69
1140 56.39 30.58 56.06 198.13 12.01
1141 56.49 13.12 40.37 158.15 7.93
1142 56.54 68.73 101.99 191.56 13.20
1143 56.61 16.21 49.33 149.58 7.39
1144 56.56 70.90 116.41 194.49 11.48
1145 56.79 74.64 135.14 172.30 10.12
1146 56.66 45.96 119.59 206.37 12.11
1147 56.71 66.63 113.78 198.59 11.79
1148 56.78 48.29 115.41 216.25 13.80
1149 56.79 82.47 86.40 143.92 8.44
1150 56.85 77.05 121.86 157.44 9.47
1151 56.92 51.52 171.37 210.27 13.68
1152 56.93 79.59 91.81 156.99 9.83
1153 57.09 28.78 62.80 185.40 9.32
1154 56.99 32.93 80.10 194.83 9.78
1155 56.97 37.32 110.24 208.88 12.46
1156 57.09 60.25 159.12 199.62 11.92
1157 57.07 39.41 116.05 201.39 11.37
1158 57.10 55.50 154.97 204.14 11.57
1159 57.19 18.48 66.52 158.66 7.60
1160 57.08 57.76 163.16 204.12 12.72
1161 57.14 86.61 116.32 129.75 7.51
1162 57.25 93.28 77.67 106.90 5.22
1163 57.21 95.96 45.59 88.66 2.40
1164 57.33 7.93 37.70 135.78 6.03
1165 57.17 23.20 62.83 177.11 9.18
1166 57.17 89.11 113.08 111.16 7.55
1167 57.33 25.94 67.35 170.32 8.23
1168 57.39 20.90 78.38 161.05 8.72
1169 57.41 41.61 146.06 200.60 11.28
1170 57.33 43.83 144.23 195.48 11.42
1171 57.40 53.58 182.90 201.95 11.39
1172 57.44 35.41 111.68 194.98 10.45
1173 57.47 62.21 159.38 187.51 11.14
1174 57.51 72.10 157.48 168.52 10.19
1175 57.43 64.60 138.74 192.98 11.24
1176 57.54 13.84 60.81 140.34 6.46
1177 57.65 31.13 108.38 183.00 9.42
1178 57.65 10.51 56.58 136.64 5.98
1179 57.68 69.53 164.73 181.46 10.58
1180 57.69 47.02 174.73 192.73 11.52
1181 57.72 49.62 175.25 200.93 10.77
1182 57.90 84.12 146.46 124.87 7.47
1183 57.88 67.09 156.24 185.49 10.80
1184 57.93 80.95 147.40 133.34 7.94
1185 57.79 89.67 112.18 113.40 6.63
1186 58.02 77.96 149.14 158.62 9.31
1187 58.01 5.70 36.29 96.42 3.08
1188 58.03 16.21 76.78 139.99 6.56
1189 58.10 27.68 119.83 182.58 8.33
1190 58.23 75.50 158.82 138.20 7.85
1191 58.00 51.93 197.59 201.67 10.86
1192 57.97 57.25 184.42 197.56 11.19
1193 58.13 33.52 131.71 187.69 9.00
1194 58.10 37.78 143.50 181.86 9.62
1195 58.31 91.32 126.08 101.89 5.88
1196 58.28 44.84 151.85 184.90 9.93
1197 58.19 59.32 156.14 196.95 11.78
1198 58.31 23.70 119.09 156.33 7.19
1199 58.29 40.17 157.28 191.86 10.45
1200 58.40 86.89 139.82 106.44 6.87
1201 58.55 12.16 94.03 146.89 5.84
1202 58.41 19.08 103.56 153.97 6.50
1203 58.42 55.48 176.27 202.28 10.80
1204 58.48 63.22 167.87 181.63 9.81
1205 58.49 73.18 181.25 162.74 8.91
1206 58.59 29.58 129.51 156.84 7.87
1207 58.50 42.63 170.54 183.21 9.62
1208 58.56 21.49 125.26 149.30 6.53
1209 58.73 93.82 95.07 87.48 4.54
1210 58.55 65.36 177.63 189.14 9.93
1211 58.68 25.81 125.05 164.05 7.64
1212 58.65 35.38 133.26 177.61 8.05
1213 58.71 61.02 148.26 181.24 10.06
1214 58.73 7.87 74.08 121.57 4.05
1215 58.74 48.63 166.74 177.29 9.57
1216 58.69 53.68 174.92 195.39 11.30
1217 58.82 46.47 157.16 180.33 9.42
1218 58.76 68.94 150.75 171.62 9.07
1219 59.05 88.66 131.97 98.41 6.00
1220 58.87 50.68 160.36 177.74 9.26
1221 58.96 71.13 157.22 163.86 8.50
1222 59.04 14.27 101.70 136.68 5.47
1223 58.88 31.75 127.68 161.66 7.78
1224 59.11 10.15 98.41 129.77 5.09
1225 59.04 81.46 139.63 130.29 7.79
1226 59.06 57.36 143.52 175.00 10.13
1227 59.16 84.30 128.05 123.25 7.28
1228 59.18 16.81 105.52 123.14 5.48
1229 59.18 78.66 165.03 127.99 7.97
1230 59.20 37.29 127.39 173.89 8.96
1231 59.25 39.32 131.47 177.79 9.01
1232 59.37 67.19 129.58 170.54 9.52
1233 59.52 27.50 114.75 148.68 6.59
1234 59.41 41.82 130.88 169.37 8.42
1235 59.53 33.85 97.87 155.06 7.81
1236 59.46 52.85 123.03 177.23 9.77
1237 59.52 59.28 114.20 172.36 10.04
1238 59.55 44.42 116.71 175.57 9.02
1239 59.59 91.24 105.94 91.34 5.65
1240 59.73 24.27 96.26 132.34 5.37
1241 59.62 74.18 140.74 144.49 7.78
1242 59.75 76.54 128.91 137.70 7.98
1243 59.57 95.48 46.19 69.72 2.28
1244 59.61 19.31 100.82 128.60 5.96
1245 59.59 62.57 119.35 177.36 9.80
1246 59.60 64.86 130.72 168.87 8.85
1247 59.70 21.93 98.45 137.84 5.81
1248 59.72 55.14 107.11 174.91 9.00
1249 59.78 29.82 79.42 141.06 6.49
1250 59.73 47.53 110.43 166.37 9.04
1251 59.89 86.79 92.03 95.60 6.18
1252 59.86 7.96 81.42 109.37 3.80
1253 60.00 35.91 69.74 155.70 7.40
1254 59.95 69.40 105.36 141.92 8.72
1255 59.94 51.26 96.42 173.34 9.39
1256 60.16 12.60 79.73 116.12 3.99
1257 60.11 32.09 82.24 138.80 6.64
1258 60.03 92.42 79.45 91.64 3.95
1259 60.21 49.42 89.07 163.53 9.11
1260 60.27 72.23 109.96 138.93 7.91
1261 60.26 61.05 86.69 160.10 8.54
1262 60.14 82.36 91.17 111.22 6.44
1263 60.18 57.01 82.31 156.51 9.10
1264 60.25 40.58 81.15 152.70 7.47
1265 60.33 15.45 76.86 111.49 4.70
1266 60.34 38.27 71.62 141.64 7.81
1267 60.44 79.72 85.36 114.02 6.62
1268 60.52 9.92 82.35 106.95 4.30
1269 60.35 45.97 84.79 146.66 8.04
1270 60.48 42.80 76.71 140.34 7.80
1271 60.56 26.03 67.62 137.90 5.82
1272 60.49 66.41 88.54 150.35 7.84
1273 60.53 53.38 78.56 151.33 8.22
1274 60.72 84.79 68.98 91.43 5.28
1275 60.63 18.48 57.30 102.30 4.42
1276 60.63 59.13 73.10 147.39 8.06
1277 60.57 63.84 83.03 146.64 8.53
1278 60.95 6.62 44.25 79.51 2.53
1279 60.40 93.55 66.00 85.60 3.20
1280 60.75 28.30 55.54 117.95 5.91
1281 60.82 21.33 49.40 105.14 4.78
1282 60.82 33.98 58.69 123.96 6.28
1283 60.96 75.20 76.69 121.04 6.90
1284 61.08 77.68 66.61 112.27 6.52
1285 60.75 94.47 47.93 74.24 3.27
1286 61.00 30.86 48.42 101.54 5.51
1287 60.99 70.47 74.06 138.25 7.07
1288 60.87 90.24 69.85 88.99 4.81
1289 60.81 92.54 53.40 73.43 3.94
1290 61.00 48.24 61.74 139.49 7.12
1291 61.13 55.20 60.27 132.54 7.77
1292 61.13 68.29 68.43 142.35 7.88
1293 61.13 23.88 45.15 101.60 4.82
1294 61.06 44.52 66.93 132.50 7.54
1295 61.05 51.04 62.55 139.01 8.01
1296 61.13 36.23 52.78 122.80 6.88
1297 61.00 87.63 66.22 92.32 5.40
1298 61.30 57.31 56.22 129.79 7.27
1299 61.29 40.27 52.13 116.28 6.32
1300 61.37 61.48 61.51 133.42 7.76
1301 61.37 11.89 51.64 91.29 3.40
1302 61.48 81.87 56.31 93.99 5.14
1303 61.52 16.63 44.24 97.55 3.87
1304 61.56 38.07 46.59 98.75 6.47
1305 61.51 72.71 67.02 116.24 6.26
1306 61.60 14.23 44.23 87.15 4.42
1307 61.57 46.74 56.05 114.68 7.00
1308 61.61 63.57 57.01 121.89 7.24
1309 61.55 65.94 64.21 135.52 7.76
1310 61.67 52.55 54.69 108.75 7.33
1311 61.72 42.54 53.84 103.97 6.14
1312 61.72 91.75 50.33 79.25 3.94
1313 61.85 26.51 39.53 89.16 4.52
1314 61.77 29.19 38.36 90.32 4.87
1315 61.74 59.45 58.33 119.46 6.18
1316 61.89 8.55 37.83 76.18 2.89
1317 61.84 19.58 40.98 84.72 4.40
1318 61.91 32.57 41.12 85.53 4.94
1319 61.53 87.03 67.56 99.00 4.33
1320 61.99 94.36 29.74 62.90 2.88
1321 61.94 34.67 51.17 101.93 5.99
1322 61.86 49.53 55.05 112.30 7.12
1323 61.83 84.29 65.29 86.85 5.96
1324 61.77 88.18 53.00 81.67 4.56
1325 62.11 21.70 34.06 81.93 4.20
1326 62.11 45.10 54.05 96.71 6.49
1327 62.40 10.61 31.49 69.10 2.74
1328 62.20 79.53 56.52 85.85 5.54
1329 62.18 70.57 54.63 106.57 6.71
1330 62.27 76.48 59.86 98.13 6.31
1331 62.24 54.17 55.77 99.84 6.63
1332 62.30 74.15 60.88 106.28 6.23
1333 62.32 67.91 52.65 107.27 6.19
1334 62.30 24.11 39.27 77.19 4.47
1335 62.34 56.41 52.48 106.31 6.74
1336 62.38 89.53 51.36 76.26 4.46
1337 62.31 39.99 51.06 84.39 5.49
1338 62.53 36.48 54.19 81.14 5.58
1339 62.20 85.34 53.55 85.95 5.27
1340 62.57 6.24 19.90 49.25 1.75
1341 62.57 17.66 34.51 68.11 3.78
1342 62.61 30.61 45.51 75.34 4.65
1343 62.56 47.59 59.84 85.64 6.07
1344 62.68 58.45 51.46 95.54 6.09
1345 62.66 62.82 50.72 95.26 6.70
1346 62.58 65.31 53.38 96.83 6.23
1347 62.67 13.04 33.82 62.91 3.27
1348 62.74 50.28 63.60 83.16 5.65
1349 62.80 60.69 53.72 89.93 6.56
1350 62.73 86.87 49.76 71.60 4.66
1351 62.75 28.08 44.02 67.72 4.06
1352 62.83 83.14 46.99 67.70 4.65
1353 62.91 41.71 67.97 67.09 5.10
1354 62.99 15.36 36.79 64.06 3.38
1355 62.89 44.05 57.30 80.30 6.29
1356 62.95 52.49 62.13 83.83 6.15
1357 63.04 38.28 67.57 67.96 4.97
1358 63.06 34.25 60.21 65.13 4.73
1359 63.19 91.61 35.99 70.81 3.63
1360 63.21 24.81 51.27 63.49 3.77
1361 63.23 72.22 49.07 79.30 4.90
1362 63.18 69.42 54.36 83.48 6.00
1363 63.25 77.80 50.56 73.16 5.37
1364 63.32 19.41 39.85 56.74 3.22
1365 63.36 93.85 21.44 53.72 2.51
1366 63.40 8.51 24.70 50.51 2.52
1367 63.27 55.36 66.04 76.13 6.07
1368 63.39 21.87 48.14 53.44 3.40
1369 63.41 31.97 64.13 59.02 4.15
1370 63.49 80.38 47.08 65.75 5.17
1371 63.46 74.84 48.90 76.12 5.38
1372 63.57 45.69 75.11 63.53 6.00
1373 63.57 66.33 52.30 79.90 6.31
1374 63.36 89.39 37.37 69.19 4.21
1375 63.56 47.73 91.26 63.73 5.63
1376 63.66 39.84 87.24 53.97 4.81
1377 63.62 63.96 50.62 79.64 6.45
1378 63.69 26.70 62.81 54.73 3.98
1379 63.69 57.22 67.78 82.60 6.34
1380 63.73 11.35 33.47 46.21 3.13
1381 63.83 5.36 13.76 26.77 0.95
1382 63.82 29.77 79.11 51.11 4.02
1383 63.74 50.72 99.33 62.94 5.84
1384 63.84 85.48 43.41 58.54 4.05
1385 63.95 88.55 38.72 56.72 4.22
1386 63.80 36.50 90.68 50.73 4.75
1387 63.83 43.06 97.35 56.55 5.36
1388 63.81 53.80 78.55 68.54 6.01
1389 63.92 13.81 38.50 48.58 2.83
1390 63.90 61.50 61.03 72.95 6.25
1391 63.97 59.19 63.49 75.17 5.80
1392 64.02 17.07 49.47 43.49 3.07
1393 64.18 67.97 65.74 72.23 5.24
1394 64.14 82.14 46.38 56.62 4.43
1395 64.16 34.16 89.92 49.71 4.41
1396 64.17 70.83 54.82 70.54 5.76
1397 64.38 49.04 134.16 51.90 5.19
1398 64.41 24.09 78.85 41.32 3.37
1399 64.42 27.90 82.21 45.63 3.68
1400 64.48 41.14 112.44 49.08 4.94
1401 64.37 76.77 53.44 60.43 4.77
1402 64.52 52.45 95.43 56.34 5.82
1403 64.52 73.59 56.35 60.33 4.92
1404 64.60 7.22 25.84 33.33 1.66
1405 64.73 21.98 79.04 39.18 2.75
1406 64.67 38.43 115.29 47.50 3.73
1407 64.86 90.24 33.68 53.95 3.21
1408 64.62 92.93 23.75 47.88 2.64
1409 64.69 19.54 70.58 37.00 2.77
1410 64.61 31.76 110.63 42.37 4.18
1411 64.70 55.11 100.23 55.88 5.77
1412 64.60 9.78 35.06 38.37 2.27
1413 64.74 43.94 136.29 50.61 5.05
1414 64.61 79.74 51.59 53.29 4.87
1415 64.56 83.52 43.42 57.33 4.79
1416 64.80 45.77 122.40 52.85 4.84
1417 64.69 63.66 74.53 64.01 5.45
1418 64.91 57.34 97.10 59.41 5.10
1419 64.92 65.73 79.97 58.22 5.54
1420 64.96 12.25 57.84 37.90 2.63
1421 64.77 91.60 28.33 58.38 3.38
1422 64.97 36.45 122.30 39.99 4.49
1423 65.00 25.73 90.56 39.36 3.38
1424 64.97 61.34 88.50 56.41 5.62
1425 65.06 69.12 77.59 60.11 5.24
1426 64.93 84.74 45.82 57.29 4.18
1427 65.08 14.72 76.65 36.60 2.67
1428 65.15 85.82 42.00 51.85 3.94
1429 65.21 16.96 80.39 36.61 2.98
1430 65.19 47.34 146.69 48.72 5.30
1431 65.22 50.98 137.90 50.26 5.49
1432 65.23 59.18 84.02 54.63 5.48
1433 65.35 71.62 89.22 48.55 4.52
1434 65.35 28.77 109.19 36.69 3.61
1435 65.25 34.15 122.43 41.90 3.89
1436 65.18 75.66 77.45 51.72 4.38
1437 65.46 42.02 159.81 43.62 5.10
1438 65.43 81.00 57.55 39.84 3.97
1439 65.40 77.75 67.16 45.62 4.24
1440 65.52 82.25 48.66 47.50 3.34
1441 65.65 39.87 150.31 40.96 4.46
1442 65.29 83.57 46.73 44.07 4.00
1443 65.64 49.27 138.89 47.25 4.68
1444 65.68 52.86 128.00 50.21 4.95
1445 65.89 8.94 54.11 25.52 1.96
1446 65.63 31.52 124.76 36.15 3.83
1447 65.76 67.39 115.12 51.86 4.72
1448 65.86 6.60 33.87 19.05 1.17
1449 65.74 62.94 100.64 52.00 5.02
1450 65.65 74.90 84.52 46.07 4.56
1451 65.75 78.92 61.75 49.23 4.79
1452 65.91 91.55 26.61 41.34 2.45
1453 65.94 21.02 96.76 31.59 2.74
1454 65.91 54.90 138.44 47.34 5.34
1455 66.01 18.69 90.40 28.05 2.42
1456 66.12 93.18 24.25 31.76 1.98
1457 66.14 23.44 96.43 30.81 3.00
1458 65.96 26.59 113.41 33.34 3.16
1459 66.06 10.96 70.56 29.18 1.99
1460 66.10 56.92 138.64 49.72 4.62
1461 66.14 35.97 146.40 36.24 4.02
1462 66.12 43.59 144.31 41.61 5.10
1463 66.13 45.85 133.29 42.88 4.96
1464 66.21 65.08 120.27 47.45 4.73
1465 66.17 83.72 58.62 38.81 4.41
1466 66.32 13.44 79.28 25.59 2.18
1467 66.22 60.68 115.56 47.99 4.93
1468 66.28 38.09 147.30 36.15 4.01
1469 66.32 72.90 103.40 45.20 4.17
1470 66.22 89.66 34.32 43.62 3.61
1471 66.30 69.90 105.24 47.36 4.25
1472 66.25 85.09 56.83 40.52 4.26
1473 66.38 33.58 129.52 32.81 3.74
1474 66.42 16.26 83.56 26.93 2.33
1475 66.40 30.23 112.26 33.16 3.56
1476 66.47 76.29 98.56 43.82 4.37
1477 66.39 48.16 125.04 42.94 5.10
1478 66.42 87.04 48.11 36.66 3.55
1479 66.66 58.63 130.88 43.81 5.22
1480 66.61 81.39 76.26 35.27 3.57
1481 66.78 27.99 102.54 30.24 3.74
1482 66.71 51.08 131.58 40.29 5.12
1483 66.62 7.30 36.21 17.21 1.46
1484 66.76 41.62 108.96 33.78 4.46
1485 66.94 78.94 96.05 35.82 3.97
1486 66.82 52.94 139.18 40.74 4.99
1487 66.90 62.98 124.78 44.03 4.77
1488 66.92 67.56 144.02 43.19 4.57
1489 67.06 39.60 106.22 33.94 4.09
1490 67.07 91.20 40.73 32.97 2.58
1491 67.01 25.40 101.43 28.47 3.45
1492 67.08 44.57 110.32 35.78 4.13
1493 67.07 86.23 61.91 33.73 3.27
1494 67.20 18.80 80.71 24.79 2.85
1495 67.22 21.49 103.53 26.92 2.81
1496 67.24 54.67 128.34 40.75 4.80
1497 67.48 83.82 85.22 33.97 3.37
1498 67.35 10.32 66.18 21.60 1.77
1499 67.11 92.93 32.03 28.49 2.15
1500 67.38 46.89 100.76 34.25 4.17
1501 67.29 73.76 100.23 38.23 3.84
1502 67.30 36.86 111.60 33.03 3.86
1503 67.33 49.29 114.57 35.06 5.04
1504 67.38 56.71 146.51 40.88 4.66
1505 67.38 61.01 142.72 40.30 4.84
1506 67.42 70.33 142.69 37.67 4.31
1507 67.51 15.54 83.19 23.05 2.44
1508 67.45 30.95 78.28 30.00 3.08
1509 67.51 32.95 97.87 29.96 3.60
1510 67.22 87.84 54.75 33.81 3.38
1511 67.47 64.78 143.98 40.14 4.51
1512 67.40 8.09 41.14 15.86 1.22
1513 67.53 89.04 56.28 33.21 3.16
1514 67.62 13.18 67.75 21.61 1.99
1515 67.78 34.94 84.96 28.90 3.87
1516 67.77 76.42 116.80 35.50 4.11
1517 67.88 23.74 76.16 25.20 2.94
1518 67.84 42.95 94.76 33.16 4.40
1519 67.80 5.90 17.40 10.74 0.53
1520 67.92 29.12 75.12 26.57 3.03
1521 67.86 58.72 139.11 38.72 4.80
1522 67.99 66.52 178.54 36.59 4.55
1523 67.97 81.22 103.46 32.63 3.88
1524 68.05 26.18 72.71 25.19 3.00
1525 68.19 41.12 69.69 30.18 4.44
1526 68.07 38.90 83.73 33.07 4.48
1527 68.28 50.96 90.57 33.39 4.96
1528 68.02 52.97 94.23 37.08 4.86
1529 68.32 92.64 41.28 20.03 1.67
1530 68.06 8.06 33.95 15.93 1.64
1531 68.18 45.18 73.45 32.06 4.96
1532 68.39 19.18 71.30 22.19 2.35
1533 68.29 62.93 143.94 35.96 3.94
1534 68.36 16.92 71.03 21.67 2.31
1535 68.44 71.21 143.27 35.68 4.24
1536 68.46 86.43 90.84 28.02 3.24
1537 68.42 68.33 166.52 36.19 3.95
1538 68.34 55.30 97.56 35.65 4.65
1539 68.33 48.89 78.85 33.47 4.27
1540 68.52 73.60 115.38 33.06 3.90
1541 68.55 78.70 101.80 31.56 3.58
1542 68.44 11.60 52.23 19.62 1.71
1543 68.53 21.69 62.72 24.10 2.97
1544 68.53 36.92 62.95 30.47 3.93
1545 68.52 60.70 133.84 37.96 4.54
1546 68.59 47.20 66.26 32.23 4.39
1547 68.73 31.15 60.63 27.56 3.07
1548 68.74 27.60 57.49 26.31 3.08
1549 68.78 88.68 80.86 26.93 2.50
1550 68.86 14.60 56.82 20.05 2.22
1551 68.73 33.40 62.27 27.19 3.18
1552 68.93 57.10 100.75 33.62 4.96
1553 68.54 83.23 96.06 25.12 3.44
1554 68.77 5.45 7.84 9.84 0.45
1555 68.93 64.87 144.01 34.98 3.87
1556 68.82 91.01 61.03 23.91 2.61
1557 69.15 8.42 29.73 13.39 1.48
1558 68.94 43.18 63.27 33.05 4.45
1559 69.03 83.56 99.62 29.99 3.39
1560 69.10 75.63 104.36 30.61 3.61
1561 69.10 58.98 110.18 34.33 4.50
1562 69.05 24.43 50.63 23.93 2.99
1563 69.06 39.59 61.81 31.12 4.51
1564 69.07 53.06 72.41 33.60 4.76
1565 69.35 81.04 118.48 28.61 3.56
1566 69.24 45.37 62.96 31.34 4.55
1567 69.30 35.39 58.52 29.46 4.20
1568 69.25 49.40 71.09 33.17 4.62
1569 69.69 7.26 17.60 10.81 1.06
1570 69.52 12.77 46.79 16.31 1.95
1571 69.37 29.21 63.00 26.41 3.55
1572 69.44 68.93 141.77 34.30 3.95
1573 69.51 17.68 56.73 19.78 2.43
1574 69.51 61.96 101.89 34.95 4.61
1575 69.35 89.94 74.72 21.77 2.81
1576 69.51 55.23 77.87 32.12 4.71
1577 69.63 37.36 58.64 28.55 3.69
1578 69.63 41.50 60.92 30.69 4.29
1579 69.71 66.57 121.03 31.36 4.04
1580 69.66 71.12 134.57 31.80 3.92
1581 69.77 77.97 85.37 28.18 3.83
1582 69.53 5.61 6.50 9.94 0.28
1583 69.74 51.14 73.30 32.53 4.58
1584 69.77 21.85 49.51 21.62 2.73
1585 69.82 26.53 60.68 22.22 2.53
1586 69.76 47.12 80.73 30.69 4.54
1587 69.87 15.76 50.74 16.91 2.27
1588 69.96 19.59 52.09 19.44 2.41
1589 69.91 85.97 96.50 25.08 2.94
1590 69.81 33.32 64.22 27.70 3.27
1591 69.88 10.49 34.94 16.36 1.62
1592 69.79 90.91 67.00 20.70 1.91
1593 69.58 9.38 41.00 15.60 1.20
1594 69.95 31.04 69.48 25.72 3.61
1595 70.08 73.25 105.46 28.37 3.95
1596 69.96 43.81 65.90 28.63 4.64
1597 70.05 88.09 83.31 23.75 2.54
1598 70.14 24.48 57.93 21.93 2.99
1599 70.07 59.69 86.17 32.53 4.33
1600 70.09 63.97 92.98 32.78 4.16
1601 70.14 39.49 67.37 28.63 4.21
1602 70.19 57.36 65.77 29.92 4.59
1603 70.17 52.84 63.59 30.62 4.27
1604 70.37 83.13 97.97 24.88 3.28
1605 70.27 49.02 85.61 30.03 5.33
1606 70.37 75.77 97.00 29.37 3.36
1607 70.33 89.36 77.51 22.02 2.02
1608 70.52 13.54 42.50 15.37 2.07
1609 70.55 79.90 89.50 23.19 3.04
1610 70.47 28.83 73.72 25.22 3.49
1611 70.56 34.88 77.35 26.59 3.90
1612 70.54 54.77 63.75 33.85 4.83
1613 70.38 91.17 59.91 16.91 1.83
1614 70.60 68.44 77.77 30.24 3.80
1615 70.70 45.80 91.85 29.45 4.31
1616 70.54 18.14 55.73 19.88 2.54
1617 70.85 11.72 33.88 14.22 1.52
1618 70.74 37.16 83.55 26.03 4.03
1619 70.69 61.41 74.95 30.56 4.70
1620 70.60 14.72 44.56 18.70 1.96
1621 70.87 41.59 82.12 28.50 4.95
1622 70.71 81.30 86.48 25.95 2.90
1623 70.77 23.92 61.48 20.85 2.41
1624 70.86 65.86 73.55 29.01 3.90
1625 70.89 70.92 81.36 27.30 3.68
1626 71.06 22.22 69.17 20.34 2.80
1627 70.90 31.95 86.25 27.50 3.72
1628 71.03 17.47 58.98 18.77 2.67
1629 70.94 43.40 86.06 31.51 4.29
1630 71.13 50.35 100.56 31.00 4.75
1631 71.08 26.56 78.56 22.45 3.24
1632 71.14 85.70 81.72 20.99 2.82
1633 71.15 19.89 64.41 20.14 3.03
1634 71.22 48.01 102.62 28.84 5.35
1635 71.22 77.38 82.12 25.28 3.42
1636 71.20 39.30 99.17 29.26 4.13
1637 71.15 58.96 60.25 30.18 4.69
1638 71.24 63.24 65.52 30.31 4.17
1639 71.23 15.98 59.70 17.48 2.36
1640 71.26 52.41 87.66 31.11 4.37
1641 71.18 56.66 58.59 31.33 4.54
1642 71.31 73.84 70.67 27.11 4.06
1643 71.15 88.05 78.11 21.32 2.32
1644 71.56 29.10 98.69 22.77 3.71
1645 71.62 33.94 110.63 26.41 3.71
1646 71.73 82.32 74.88 23.51 3.07
1647 71.71 44.84 117.42 29.56 5.05
1648 71.70 54.29 89.90 30.64 4.74
1649 71.69 67.70 62.48 28.84 3.88
1650 71.81 24.25 83.88 20.67 3.23
1651 71.74 88.59 67.56 18.31 2.38
1652 71.89 79.51 74.27 23.66 3.45
1653 71.78 36.19 116.74 26.95 3.96
1654 71.89 13.58 53.87 15.36 1.71
1655 71.79 60.88 60.04 29.12 4.16
1656 71.93 70.27 65.69 28.05 3.75
1657 72.05 10.82 44.41 13.51 1.41
1658 72.01 46.72 123.99 29.56 4.73
1659 71.88 90.25 52.00 15.79 2.26
1660 71.85 12.13 48.52 15.84 1.97
1661 72.02 31.34 105.56 25.06 3.94
1662 71.96 65.19 59.77 27.99 3.80
1663 72.18 17.61 73.87 18.50 2.87
1664 72.06 40.76 116.25 29.47 4.92
1665 72.17 43.08 111.46 27.48 5.03
1666 72.21 75.40 60.83 24.78 3.62
1667 72.20 26.65 95.33 22.62 3.55
1668 72.19 56.41 83.64 30.95 5.20
1669 72.21 8.90 28.40 10.09 1.15
1670 72.31 49.95 125.55 30.07 5.01
1671 72.18 58.68 72.07 27.07 4.06
1672 72.29 38.33 119.83 27.12 4.41
1673 72.38 72.80 58.31 24.94 3.40
1674 72.43 19.96 80.75 19.52 3.22
1675 72.36 62.90 62.97 29.59 4.21
1676 72.46 22.04 88.45 20.51 3.17
1677 72.38 52.08 118.76 28.83 5.62
1678 72.62 87.38 51.50 17.62 2.61
1679 72.83 33.14 110.74 24.57 4.76
1680 72.80 48.14 137.94 30.40 5.28
1681 72.78 29.29 91.09 21.77 4.47
1682 72.86 35.22 105.03 25.59 4.94
1683 72.90 66.82 70.05 27.22 3.63
1684 72.86 68.95 79.18 27.72 4.60
1685 72.69 84.39 57.82 18.00 2.92
1686 72.98 15.39 69.97 16.06 2.42
1687 72.96 60.51 79.93 28.94 4.49
1688 72.96 77.24 46.68 23.28 3.28
1689 72.67 80.69 59.88 22.46 2.46
1690 72.86 54.15 106.61 29.52 4.79
1691 72.98 9.07 28.84 10.97 1.22
1692 72.96 41.79 120.87 26.26 5.46
1693 73.03 45.42 122.33 30.55 5.21
1694 73.23 64.60 73.00 26.24 3.84
1695 73.02 24.10 75.46 21.91 4.04
1696 73.27 71.34 57.11 26.14 3.77
1697 73.29 39.55 115.71 27.49 5.75
1698 73.30 37.23 107.39 25.67 4.95
1699 73.27 56.48 118.85 29.57 4.74
1700 73.45 13.30 54.65 13.99 2.45
1701 73.30 25.97 86.31 23.16 5.00
1702 73.52 10.86 43.23 11.87 2.19
1703 73.32 18.79 80.76 17.52 3.29
1704 73.38 31.17 93.13 24.42 4.75
1705 73.38 58.61 109.68 29.22 4.72
1706 73.45 74.22 54.90 23.51 3.40
1707 73.30 81.14 51.74 23.63 3.15
1708 73.39 51.41 118.73 29.02 4.74
1709 73.37 62.46 86.52 28.13 4.38
1710 73.60 43.49 114.45 28.69 6.20
1711 73.63 82.58 47.34 20.61 3.01
1712 73.72 27.99 82.76 22.77 4.87
1713 73.77 85.17 46.70 17.90 2.29
1714 73.47 7.43 11.32 8.26 0.55
1715 73.66 22.93 72.37 18.93 4.35
1716 73.89 46.78 132.07 29.27 6.22
1717 73.80 49.13 154.79 30.67 5.57
1718 73.94 17.76 68.32 17.52 3.68
1719 73.66 83.75 52.38 22.19 3.19
1720 74.05 87.38 39.30 16.13 2.18
1721 73.88 20.79 68.72 18.91 4.12
1722 73.85 54.34 121.72 28.41 4.78
1723 73.85 16.54 68.49 15.57 3.46
1724 74.02 41.36 98.43 26.81 6.61
1725 74.02 69.08 78.76 26.44 3.77
1726 74.15 33.12 81.50 24.36 5.63
1727 74.12 66.37 89.39 27.16 4.11
1728 74.12 35.50 82.46 25.72 6.28
1729 74.21 75.70 59.43 21.89 3.72
1730 74.29 61.53 113.77 27.30 4.53
1731 73.97 80.30 51.17 21.00 3.08
1732 74.39 29.89 68.02 23.05 6.24
1733 74.45 14.84 54.41 15.24 2.85
1734 74.36 38.00 75.65 27.82 7.75
1735 74.40 57.12 123.05 27.33 4.99
1736 74.45 44.72 101.17 26.90 7.05
1737 74.50 71.36 84.14 24.37 3.72
1738 74.44 9.42 21.40 10.36 1.06
1739 74.53 25.40 64.91 21.00 6.42
1740 74.53 50.66 132.29 28.04 5.96
1741 74.60 52.53 114.67 29.14 5.53
1742 74.55 59.53 121.74 29.29 4.69
1743 74.62 63.57 96.77 26.02 4.29
1744 74.72 81.70 47.73 19.49 2.84
1745 74.67 12.13 40.48 12.87 2.41
1746 74.51 79.87 54.28 21.33 2.87
1747 74.74 18.88 58.80 18.37 4.64
1748 74.81 23.14 53.07 19.98 6.20
1749 74.87 74.07 71.67 22.98 3.41
1750 74.79 40.03 78.96 26.38 7.46
1751 74.99 83.71 41.76 19.55 2.24
1752 74.97 85.41 41.10 16.40 2.27
1753 74.93 48.39 120.74 28.75 7.04
1754 74.90 54.71 120.64 27.72 5.20
1755 75.03 42.61 77.37 27.62 7.73
1756 75.10 27.50 52.84 21.40 8.44
1757 75.06 20.76 44.84 17.80 5.85
1758 75.09 68.34 118.71 24.24 3.95
1759 75.12 31.59 54.26 24.21 8.96
1760 75.20 36.26 52.68 24.73 9.06
1761 75.17 65.44 127.24 26.63 4.54
1762 75.33 46.44 104.03 28.48 8.31
1763 75.39 79.55 64.07 20.30 2.82
1764 75.31 33.92 51.38 23.79 9.09
1765 75.38 16.46 45.86 15.69 5.38
1766 75.42 76.07 71.51 22.27 3.73
1767 75.33 77.42 67.76 20.15 3.50
1768 75.60 56.51 128.47 27.31 5.57
1769 75.61 58.81 113.52 28.26 5.28
1770 75.62 61.86 113.96 26.26 4.43
1771 75.61 38.61 55.20 26.59 9.49
1772 75.69 44.48 76.13 26.40 10.29
1773 75.64 29.32 48.96 23.51 9.20
1774 75.77 72.80 97.79 23.19 3.83
1775 75.72 50.17 90.58 27.34 7.21
1776 75.86 12.54 25.29 12.60 3.56
1777 75.82 40.78 57.35 26.32 11.36
1778 75.95 52.20 94.73 26.05 6.33
1779 75.84 24.59 44.00 19.49 9.05
1780 75.78 26.09 42.50 21.95 10.35
1781 75.65 81.83 55.12 17.58 2.67
1782 76.06 70.15 119.13 23.78 3.88
1783 76.15 54.35 99.66 27.92 6.23
1784 76.15 67.38 143.76 25.09 3.70
1785 76.23 64.83 143.04 26.23 4.20
1786 76.27 36.78 50.26 24.26 13.27
1787 75.88 76.93 79.90 20.00 3.20
1788 76.03 80.67 64.85 17.07 2.96
1789 75.96 20.96 40.50 17.12 9.81
1790 76.31 48.54 73.66 27.71 9.24
1791 76.21 19.88 39.47 17.64 8.20
1792 76.20 22.77 39.50 19.48 8.94
1793 76.40 84.74 53.30 15.51 2.08
1794 76.21 31.66 52.20 23.00 14.24
1795 76.47 42.71 58.00 27.50 15.67
1796 76.40 34.88 46.59 24.57 17.38
1797 76.52 78.02 81.34 19.38 3.09
1798 76.26 18.02 35.49 15.97 6.49
1799 76.46 27.64 40.70 20.97 13.11
1800 76.59 75.38 86.34 20.75 3.69
1801 76.71 15.77 33.04 15.08 6.48
1802 76.57 60.72 118.36 27.18 5.45
1803 76.31 81.79 61.31 18.97 2.61
1804 76.58 46.43 68.77 28.04 13.29
1805 76.76 29.32 45.41 21.49 14.13
1806 76.62 33.20 53.83 23.26 17.26
1807 76.70 56.69 93.47 27.09 7.33
1808 76.81 38.58 55.57 24.90 21.01
1809 76.81 25.49 40.49 20.62 13.19
1810 77.03 12.26 16.83 11.88 3.66
1811 76.93 58.72 94.44 27.02 6.26
1812 76.96 63.26 128.11 25.59 4.89
1813 76.91 44.66 57.11 25.45 20.11
1814 76.77 72.12 110.11 23.55 3.65
1815 76.96 40.88 57.05 25.95 18.72
1816 77.06 51.08 69.81 27.04 9.66
1817 77.21 19.06 39.11 16.21 12.26
1818 77.15 79.65 91.09 18.78 2.62
1819 77.14 21.41 44.46 18.81 12.55
1820 77.21 53.22 65.54 27.41 8.95
1821 77.48 82.14 90.10 16.69 2.63
1822 77.27 68.28 125.87 24.93 3.63
1823 77.22 23.72 44.32 21.46 15.72
1824 77.32 47.63 60.69 29.23 15.50
1825 77.20 73.18 112.27 21.46 3.83
1826 77.20 30.73 53.74 20.61 15.45
1827 77.54 32.03 65.16 22.17 20.51
1828 77.46 55.18 66.38 27.97 8.64
1829 77.49 65.79 130.20 24.28 4.15
1830 77.25 26.70 49.85 19.35 17.50
1831 77.43 36.79 72.61 23.77 21.86
1832 77.62 70.73 122.75 24.49 3.75
1833 77.75 49.40 53.84 26.27 13.80
1834 77.70 61.59 108.14 25.72 5.76
1835 77.85 74.24 105.71 20.64 3.62
1836 77.93 77.54 108.32 19.73 3.26
1837 77.67 86.07 55.02 13.54 1.96
1838 77.82 34.40 69.51 24.39 24.08
1839 77.63 13.70 28.87 13.38 6.51
1840 77.69 43.23 58.47 26.07 22.86
1841 77.90 39.64 69.93 27.80 28.97
1842 78.04 84.37 71.18 14.47 1.86
1843 77.83 15.03 32.12 15.30 9.49
1844 77.79 27.52 64.40 21.64 20.09
1845 77.83 29.32 61.88 23.10 21.84
1846 78.04 59.63 80.86 25.44 7.47
1847 78.17 45.17 66.59 27.84 25.50
1848 78.12 57.17 52.78 26.81 8.80
1849 77.96 16.72 38.95 16.67 11.67
1850 77.96 23.92 46.50 20.32 15.14
1851 78.17 41.54 75.73 26.22 32.84
1852 78.34 12.35 18.76 11.90 4.61
1853 78.17 21.49 50.51 19.10 18.83
1854 78.50 63.37 89.49 23.89 5.40
1855 78.26 18.43 46.79 16.79 14.11
1856 78.57 19.31 56.60 18.38 15.54
1857 78.37 47.03 60.96 28.43 26.88
1858 78.51 51.04 51.24 27.77 18.40
1859 78.52 25.70 69.69 21.29 23.06
1860 78.21 17.51 43.67 15.83 7.67
1861 78.64 68.21 104.41 23.16 4.49
1862 78.70 36.44 106.36 26.63 34.77
1863 78.67 38.42 94.55 25.68 36.69
1864 78.59 55.12 49.93 25.57 13.07
1865 78.75 65.53 91.54 25.10 4.41
1866 78.87 75.98 116.34 20.69 3.42
1867 78.82 71.29 102.89 22.32 3.98
1868 78.93 15.91 49.08 14.80 12.25
1869 78.70 28.99 69.30 21.63 21.40
1870 78.78 23.03 65.96 17.52 21.75
1871 78.83 27.44 84.66 23.44 29.58
1872 78.89 43.16 91.56 27.80 35.12
1873 78.99 80.06 104.34 17.02 2.41
1874 78.90 48.77 57.02 27.00 25.00
1875 79.09 82.97 86.64 14.22 2.07
1876 79.07 34.46 104.77 24.40 39.58
1877 78.99 58.62 48.52 26.96 10.37
1878 79.10 61.37 62.17 25.99 7.33
1879 79.03 24.50 71.08 19.90 26.28
1880 79.08 32.35 97.62 23.22 35.00
1881 79.11 73.46 96.09 19.77 3.15
1882 79.31 20.43 73.05 17.19 25.15
1883 79.36 40.66 102.82 25.08 42.46
1884 79.57 18.32 73.38 16.41 22.11
1885 79.50 46.58 77.20 28.40 36.49
1886 79.58 53.08 53.90 27.76 22.80
1887 79.35 50.29 61.48 25.19 23.57
1888 79.85 44.65 98.72 28.38 38.30
1889 79.70 51.19 62.56 28.00 32.72
1890 79.75 55.25 50.63 25.73 20.19
1891 79.79 57.47 44.52 27.28 15.94
1892 79.78 30.21 105.58 23.07 40.40
1893 79.69 69.50 97.39 22.67 4.15
1894 79.80 66.11 63.81 24.46 5.35
1895 79.94 77.06 106.99 17.80 2.90
1896 79.95 28.39 108.95 22.75 39.35
1897 79.84 38.41 122.60 27.74 44.85
1898 79.72 74.67 95.61 18.44 2.64
1899 79.72 22.09 80.00 18.36 25.87
1900 80.01 60.02 50.09 25.63 11.56
1901 80.03 63.35 48.87 23.57 7.01
1902 79.79 83.46 72.83 12.00 2.03
1903 79.98 49.00 78.49 27.68 38.65
1904 80.09 25.96 99.30 21.83 35.82
1905 80.19 36.09 114.47 26.32 48.78
1906 80.04 42.41 111.04 29.12 47.91
1907 80.14 15.99 64.74 14.50 17.94
1908 80.06 71.87 83.21 20.77 3.30
1909 80.23 23.79 96.49 22.09 35.49
1910 80.23 33.83 125.70 25.11 53.19
1911 80.18 80.78 102.02 15.84 2.39
1912 80.59 31.90 122.87 23.14 47.66
1913 80.49 72.78 81.79 20.14 4.16
1914 80.24 78.16 96.82 19.29 2.71
1915 80.39 21.27 93.12 18.32 34.09
1916 80.67 39.69 129.17 26.95 54.00
1917 80.67 47.14 114.13 27.24 44.59
1918 80.67 51.92 94.18 26.93 39.67
1919 80.76 75.15 90.13 18.49 3.24
1920 80.86 13.78 37.30 11.62 7.08
1921 81.16 18.75 93.37 16.95 32.92
1922 80.73 67.02 48.49 22.09 5.01
1923 80.63 69.50 66.48 22.29 4.22
1924 80.93 54.06 73.57 26.23 30.22
1925 80.84 56.48 51.06 24.46 23.85
1926 80.94 61.76 44.82 23.19 13.09
1927 81.00 78.03 82.20 16.27 3.16
1928 80.89 58.98 48.69 24.85 19.52
1929 81.07 43.02 143.22 27.53 57.22
1930 80.99 49.77 109.56 26.95 48.44
1931 80.96 20.10 102.38 19.11 40.59
1932 81.14 27.78 112.76 21.47 44.67
1933 81.17 37.21 129.63 26.33 56.15
1934 81.16 64.36 42.51 23.78 8.61
1935 81.42 25.00 107.01 20.83 47.22
1936 81.31 30.07 123.32 23.99 50.64
1937 81.33 41.13 137.68 26.79 59.52
1938 81.37 44.91 128.32 28.68 56.40
1939 81.22 70.51 60.98 21.20 4.62
1940 81.10 82.42 72.60 13.09 2.14
1941 81.45 80.22 84.90 15.27 2.48
1942 81.62 21.71 100.85 19.00 43.39
1943 81.52 34.55 122.40 24.33 58.92
1944 81.32 17.32 87.78 15.28 25.78
1945 81.82 73.41 68.32 19.03 4.15
1946 81.55 67.30 41.61 23.00 5.89
1947 81.88 48.24 126.45 27.42 53.15
1948 81.92 58.22 74.42 25.61 27.03
1949 81.95 60.45 59.01 22.61 17.00
1950 81.62 69.38 47.45 20.55 4.70
1951 82.03 32.53 119.46 24.00 61.24
1952 81.90 51.19 119.80 28.06 51.93
1953 82.02 55.83 79.50 23.91 31.53
1954 82.04 38.59 139.67 25.89 62.75
1955 82.03 53.68 95.58 27.04 44.41
1956 82.29 46.20 155.24 26.99 62.92
1957 81.98 61.60 54.13 24.23 18.23
1958 82.27 63.22 50.23 24.75 15.20
1959 82.20 69.36 44.82 21.64 4.27
1960 82.47 78.40 60.50 14.92 2.70
1961 82.43 26.09 92.78 20.98 51.55
1962 82.48 36.05 107.77 25.12 60.54
1963 82.29 42.78 147.54 27.52 65.47
1964 82.34 19.89 94.88 17.26 44.18
1965 82.52 65.58 42.55 23.45 10.13
1966 82.84 76.30 50.88 16.77 3.80
1967 82.55 81.13 49.83 13.92 2.28
1968 82.34 23.74 105.71 19.25 53.32
1969 82.55 28.28 94.10 20.98 55.90
1970 82.61 30.41 110.38 22.85 62.49
1971 82.61 40.13 121.94 25.65 65.12
1972 82.84 17.54 76.07 14.73 29.30
1973 82.89 49.98 141.18 26.05 62.17
1974 82.97 44.63 147.84 26.49 68.77
1975 83.10 71.04 38.30 19.86 5.61
1976 82.97 52.70 117.97 24.56 52.92
1977 83.07 73.31 45.53 18.51 3.75
1978 83.06 59.34 88.64 24.82 28.94
1979 83.07 21.75 90.81 18.70 51.25
1980 83.19 47.72 144.22 26.65 66.23
1981 83.19 56.97 93.44 24.36 38.96
1982 82.99 33.25 91.79 23.55 67.61
1983 83.45 61.58 70.93 22.76 20.74
1984 83.52 34.95 91.03 23.80 67.56
1985 83.39 37.69 108.42 24.95 66.43
1986 83.31 41.71 127.68 26.80 74.49
1987 83.42 54.93 110.56 25.06 49.36
1988 83.50 24.10 90.00 19.88 69.09
1989 83.38 64.30 57.96 23.61 12.88
1990 83.46 26.15 80.79 20.68 72.30
1991 83.80 79.29 32.72 13.51 2.57
1992 83.86 28.25 71.41 20.72 62.77
1993 83.97 20.29 73.34 16.56 45.19
1994 83.92 51.50 141.81 25.31 64.39
1995 84.05 43.85 126.94 24.69 77.83
1996 83.99 66.53 48.91 21.30 9.46
1997 84.11 30.45 74.12 21.00 59.70
1998 84.10 39.73 105.42 27.14 70.19
1999 84.04 46.13 127.82 26.99 71.71
2000 83.84 75.56 32.81 16.11 4.28
2001 84.15 48.98 138.67 26.92 74.52
2002 83.84 70.15 34.42 19.64 6.31
2003 84.12 22.28 79.84 17.84 57.45
2004 84.28 58.20 118.71 25.05 36.72
2005 84.14 73.95 37.09 17.91 4.30
2006 83.93 68.54 37.50 16.64 6.93
2007 84.28 32.79 88.98 23.84 74.02
2008 84.46 53.43 125.68 26.37 60.12
2009 84.50 63.80 79.95 22.55 17.30
2010 84.55 36.79 92.17 24.40 81.03
2011 84.50 41.85 103.37 25.29 72.34
2012 84.38 69.36 33.10 18.33 7.43
2013 84.56 60.60 101.02 24.16 28.49
2014 84.56 71.73 35.17 18.67 5.69
2015 84.69 55.78 121.03 26.09 52.88
2016 84.47 76.10 30.87 15.43 3.38
2017 84.31 77.17 35.75 16.75 3.75
2018 84.77 24.85 68.73 18.47 70.87
2019 84.78 26.91 63.30 19.94 69.18
2020 84.94 34.71 72.10 22.42 70.89
2021 84.82 67.19 48.29 21.19 10.76
2022 84.99 50.57 123.61 25.14 70.93
2023 84.72 74.54 29.25 13.00 3.75
2024 85.03 47.55 111.09 25.06 80.07
2025 85.08 28.90 59.68 21.35 71.38
2026 85.08 45.02 108.25 27.45 89.74
2027 85.33 22.92 65.55 18.00 69.90
2028 85.22 68.57 49.50 21.84 11.08
2029 85.24 78.50 23.03 12.98 3.16
2030 85.19 38.68 78.42 22.69 71.63
2031 85.53 62.68 105.48 23.44 21.91
2032 85.47 65.47 58.99 21.51 15.80
2033 85.17 77.10 25.00 13.50 4.12
2034 85.58 32.50 70.33 22.54 73.98
2035 85.48 57.67 133.53 24.23 52.16
2036 85.72 60.10 133.41 22.96 32.67
2037 85.49 70.32 41.43 20.46 9.00
2038 85.53 40.87 83.69 25.12 84.60
2039 85.60 54.29 111.67 23.97 68.31
2040 85.67 43.03 82.05 25.21 81.56
2041 85.80 52.01 102.80 24.86 68.37
2042 85.68 73.62 30.23 16.56 5.24
2043 85.91 49.29 98.12 24.68 72.32
2044 85.90 36.92 65.08 25.10 81.30
2045 85.95 30.62 60.53 21.18 75.32
2046 85.93 46.71 95.55 24.97 81.00
2047 85.87 76.02 26.45 13.73 4.24
2048 86.19 24.52 52.04 19.97 74.84
2049 86.12 34.45 60.90 24.03 80.29
2050 86.29 67.56 61.33 20.72 13.60
2051 86.24 28.66 48.74 22.43 75.17
2052 86.17 39.18 64.78 25.46 79.12
2053 86.11 26.38 47.84 19.22 75.91
2054 86.39 72.03 48.33 18.02 8.13
2055 86.46 55.81 110.19 25.74 63.64
2056 86.44 44.81 78.54 26.86 93.78
2057 86.50 22.42 44.53 17.43 60.69
2058 86.68 64.08 90.20 21.63 24.84
2059 86.70 57.92 120.68 26.72 49.64
2060 86.69 41.08 54.15 24.49 82.88
2061 86.91 61.94 112.88 23.08 30.07
2062 86.70 73.73 42.24 15.98 7.96
2063 86.74 75.81 32.15 13.33 5.48
2064 86.84 51.11 75.61 26.08 75.16
2065 86.90 53.88 91.63 24.48 69.78
2066 86.97 32.33 49.35 23.78 80.47
2067 87.06 43.35 55.47 25.71 89.20
2068 87.03 36.07 52.95 24.65 85.46
2069 86.97 48.78 64.60 25.67 81.12
2070 87.06 66.08 79.36 20.75 19.55
2071 87.20 25.87 39.44 18.91 73.68
2072 87.09 46.77 65.36 25.98 85.50
2073 87.21 59.85 124.65 22.77 40.26
2074 87.27 30.30 42.19 21.74 74.44
2075 87.13 38.09 51.89 25.05 80.34
2076 87.54 28.30 36.39 20.81 71.41
2077 87.51 23.39 33.28 17.53 64.03
2078 87.51 75.60 37.67 14.39 5.06
2079 87.74 56.92 98.35 22.75 48.92
2080 87.89 67.64 84.79 19.35 17.17
2081 87.80 39.44 40.56 25.93 76.89
2082 87.74 52.66 72.49 23.64 63.63
2083 87.82 45.41 52.69 24.58 82.84
2084 87.61 65.54 82.19 18.06 18.00
2085 87.64 41.12 46.08 25.08 82.46
2086 87.87 42.23 44.76 25.26 81.07
2087 87.80 34.65 37.28 22.19 76.28
2088 87.91 49.97 55.19 26.10 88.09
2089 88.03 70.28 75.51 16.08 12.98
2090 88.15 72.31 71.04 15.57 12.00
2091 88.31 55.05 67.58 23.13 49.44
2092 88.11 62.97 96.75 22.49 29.90
2093 88.33 48.15 46.23 24.05 81.60
2094 88.29 32.95 33.40 21.57 77.92
2095 88.44 36.66 36.26 22.23 70.97
2096 88.27 26.59 31.38 17.68 73.93
2097 88.37 60.04 101.02 22.95 39.47
2098 88.33 74.88 53.06 14.26 6.96
2099 88.69 31.04 28.51 19.53 65.03
2100 88.64 65.06 92.69 19.36 25.79
2101 88.64 28.90 26.96 18.88 60.75
2102 88.77 44.57 40.82 24.48 75.11
2103 88.68 51.32 51.54 24.16 69.43
2104 88.81 40.41 36.60 24.15 73.02
2105 88.87 57.94 81.57 21.03 45.04
2106 88.89 42.61 37.79 24.17 69.24
2107 89.09 34.83 29.24 21.66 62.39
2108 89.10 46.76 41.04 24.09 81.28
2109 89.12 53.49 50.74 23.50 58.13
2110 88.97 66.94 96.94 18.58 21.55
2111 89.36 26.78 20.36 18.98 65.20
2112 89.34 38.52 33.70 25.00 65.62
2113 89.33 68.09 93.16 19.51 18.69
2114 89.72 72.08 78.80 14.85 14.02
2115 89.63 61.15 93.06 20.76 33.76
2116 89.61 32.82 26.14 21.89 64.32
2117 89.67 56.47 57.79 21.17 42.71
2118 89.72 48.83 31.23 22.19 57.02
2119 89.63 63.54 98.31 18.92 29.66
2120 89.43 28.61 23.30 18.70 58.50
2121 89.77 51.15 34.25 25.29 63.14
2122 89.85 69.26 86.15 14.15 15.49
2123 89.92 29.05 20.36 19.81 64.78
2124 89.98 37.00 27.94 21.78 54.39
2125 89.91 41.35 27.59 23.43 66.96
2126 89.96 43.98 31.59 23.16 58.33
2127 90.21 65.66 98.14 18.99 24.69
2128 90.09 30.99 21.95 20.49 56.96
2129 90.16 58.91 65.46 21.45 37.27
2130 90.13 54.76 44.61 22.75 48.11
2131 90.17 46.40 29.03 23.44 56.33
2132 90.32 34.98 23.91 20.62 57.77
2133 90.52 39.52 26.30 21.01 59.28
2134 90.61 52.97 32.85 22.04 48.79
2135 90.75 62.40 73.64 18.34 33.59
2136 90.83 67.39 91.95 17.02 23.41
2137 90.79 49.67 29.30 23.66 51.06
2138 90.96 70.25 85.33 14.27 17.32
2139 90.90 33.12 21.81 20.46 52.11
2140 91.08 57.28 44.04 20.68 39.78
2141 90.96 42.15 25.47 22.48 48.40
2142 91.04 29.59 17.91 17.94 52.58
2143 91.10 44.63 26.02 23.78 48.47
2144 90.87 34.30 22.43 19.86 58.14
2145 91.19 38.24 22.81 22.43 45.35
2146 91.36 46.98 26.06 22.50 50.47
2147 91.21 59.76 51.83 18.78 33.28
2148 91.34 31.28 19.44 18.38 50.61
2149 91.33 55.13 34.32 21.85 46.48
2150 91.27 36.70 23.97 22.21 45.26
2151 91.35 63.79 66.75 17.19 27.31
2152 91.51 51.66 27.69 22.66 50.32
2153 91.66 35.73 21.63 19.26 43.98
2154 91.83 67.79 66.96 15.83 25.92
2155 92.04 40.20 21.19 20.55 39.11
2156 91.89 48.85 23.14 21.14 51.05
2157 91.73 66.59 70.09 16.00 26.82
2158 92.16 42.60 20.47 21.00 39.36
2159 92.09 32.63 18.30 19.37 44.16
2160 92.05 62.08 47.99 17.42 27.38
2161 92.05 69.24 57.84 12.98 20.48
2162 92.01 34.16 19.32 18.60 48.70
2163 92.31 45.13 22.52 23.56 39.06
2164 92.37 54.52 26.36 20.18 40.87
2165 92.29 59.48 42.61 18.76 36.91
2166 92.33 57.26 31.78 19.63 38.57
2167 92.57 37.77 21.56 20.24 41.83
2168 92.51 52.01 24.50 21.07 39.69
2169 92.64 34.57 18.96 19.24 38.15
2170 92.92 66.31 50.76 15.39 26.14
2171 92.95 49.42 23.21 22.46 36.96
2172 92.96 60.59 33.06 18.92 38.89
2173 93.07 47.24 20.55 20.80 31.18
2174 93.19 36.19 16.90 17.62 42.56
2175 93.18 41.64 21.36 19.92 34.28
2176 93.19 33.10 19.09 17.92 37.34
2177 93.29 64.35 39.12 16.60 33.03
2178 93.39 44.20 20.66 21.95 35.23
2179 93.73 39.19 18.66 19.34 28.48
2180 93.52 56.43 22.16 19.17 41.40
2181 93.52 54.15 21.47 18.90 35.78
2182 93.63 58.49 25.73 17.01 34.48
2183 93.51 51.61 19.98 19.01 33.92
2184 93.84 62.44 32.40 16.78 34.31
2185 93.93 35.36 17.45 18.11 32.82
2186 94.06 46.15 19.39 18.39 24.11
2187 94.19 49.25 20.48 18.25 28.47
2188 94.28 42.58 19.80 19.54 29.00
2189 94.12 59.45 20.38 19.69 32.92
2190 94.65 51.63 19.11 18.22 28.41
2191 94.52 60.40 22.62 17.89 31.55
2192 94.57 53.94 16.83 19.63 27.69
2193 94.75 56.76 18.48 16.88 32.60
2194 95.00 39.53 15.70 16.91 28.61
2195 94.88 44.29 18.69 18.04 17.86
2196 95.08 48.13 20.09 18.80 25.41
2197 95.09 58.04 16.82 18.06 34.47
2198 95.31 42.22 17.15 18.95 23.99
2199 95.74 50.58 17.42 19.01 27.80
2200 95.65 58.98 17.02 16.00 28.27
2201 95.91 44.13 17.71 18.51 23.89
2202 95.95 41.21 17.60 16.68 25.55
2203 95.90 56.59 16.60 17.78 26.08
2204 96.07 53.72 16.58 16.68 25.53
2205 97.07 48.33 15.32 17.02 20.12
2206 96.77 43.61 15.43 15.65 21.04
2207 96.63 46.35 17.06 17.19 21.23
2208 96.77 50.71 15.53 16.62 26.17
2209 96.94 55.36 14.58 14.83 22.73
2210 96.89 52.97 15.22 15.00 24.33
2211 97.45 45.78 13.98 15.40 18.45
2212 97.46 53.67 13.54 14.89 21.08
2213 97.73 50.38 13.53 14.88 19.99
2214 98.51 51.93 13.14 13.95 7.54

