#<Embryo name> <Cleavage cycle> <Temporal class> <Genes>
ca3 14A 7 even-skipped Kruppel giant

#Data without background
#<Nucleus number> <A-P coordinate> <D-V coordinate> <Fluorescence intensity: channel 1 - eve, channel 2 - Kr, channel 3 - gt>
0 2.01 44.62 1.44 0.00 7.93
1 1.97 48.07 0.37 1.10 0.26
2 3.11 47.43 1.05 0.00 18.87
3 3.13 54.18 0.00 3.96 0.00
4 3.75 44.67 2.12 3.44 37.19
5 3.69 53.17 0.00 3.89 0.00
6 3.97 41.40 1.90 1.19 38.44
7 4.55 38.05 1.86 3.40 36.12
8 4.45 56.12 0.00 4.37 0.00
9 4.50 49.71 0.32 6.57 22.14
10 4.83 46.62 1.05 2.01 36.68
11 4.72 53.04 0.53 7.17 1.45
12 5.42 43.53 1.39 5.50 44.28
13 5.11 58.82 0.00 4.53 0.00
14 5.20 40.52 2.55 6.69 34.12
15 5.94 48.80 0.75 9.75 27.01
16 5.67 51.46 4.86 14.99 8.47
17 5.87 36.17 3.52 13.26 17.42
18 5.69 60.06 0.00 1.02 0.00
19 6.19 57.35 0.00 9.47 0.00
20 6.27 33.48 1.34 7.92 7.05
21 6.30 52.16 0.00 10.79 5.69
22 6.44 38.33 1.19 13.85 12.27
23 6.59 40.93 1.90 11.87 14.89
24 6.46 61.96 0.00 0.31 0.00
25 6.51 46.12 0.00 13.73 26.70
26 6.39 54.06 1.18 10.77 0.67
27 6.99 59.91 0.00 4.48 0.00
28 6.75 43.23 2.50 12.56 30.69
29 7.61 36.43 1.17 14.77 1.10
30 7.21 54.22 0.77 11.48 0.06
31 7.49 50.41 0.33 12.21 10.96
32 7.59 31.38 0.74 9.90 0.00
33 7.37 43.55 1.99 17.13 19.47
34 7.64 34.08 0.51 10.79 1.11
35 7.84 39.34 0.51 18.55 2.76
36 7.67 52.86 2.58 14.29 2.57
37 7.79 57.44 0.00 7.65 0.00
38 7.93 45.14 0.58 14.66 9.06
39 7.77 48.04 1.68 21.37 11.05
40 7.96 63.29 0.00 3.30 0.00
41 7.88 54.90 0.17 7.78 0.70
42 8.28 41.90 0.00 19.11 2.28
43 8.01 60.95 0.00 5.13 0.00
44 8.42 29.18 0.00 4.66 0.00
45 8.55 52.47 0.72 19.03 0.84
46 8.46 47.33 0.00 17.00 6.74
47 8.84 60.05 0.00 8.91 0.00
48 9.08 34.93 0.65 11.87 0.00
49 9.00 49.93 0.00 20.10 4.05
50 9.03 37.88 0.07 19.30 0.00
51 9.03 55.19 0.00 17.51 0.00
52 9.14 44.00 1.23 23.25 0.02
53 9.17 64.60 0.00 1.71 0.00
54 9.26 32.23 1.27 16.26 0.00
55 9.62 40.38 2.24 24.19 0.00
56 9.59 47.06 0.18 27.18 0.46
57 9.97 57.74 0.00 13.02 0.23
58 9.84 52.78 0.38 30.94 0.42
59 9.81 61.87 0.69 7.68 1.00
60 10.01 29.61 0.53 12.32 0.00
61 9.67 43.59 0.24 24.13 0.00
62 9.90 67.71 0.00 0.00 8.99
63 10.41 37.24 0.54 20.03 0.00
64 10.68 42.45 0.00 23.45 0.00
65 10.53 49.73 0.00 33.50 2.04
66 10.71 45.21 1.50 29.86 1.36
67 10.62 55.35 0.00 22.51 0.76
68 10.83 34.59 0.65 22.18 0.00
69 10.53 32.36 0.79 16.71 0.00
70 10.45 60.92 0.00 10.72 1.17
71 10.86 65.46 0.00 2.41 2.36
72 10.66 26.69 0.00 11.42 0.00
73 11.02 59.95 0.00 10.37 0.94
74 11.29 39.79 0.28 23.79 0.74
75 11.08 27.52 0.00 10.85 0.00
76 11.49 47.69 0.00 30.46 2.71
77 11.36 52.50 0.00 31.99 4.21
78 11.67 29.61 0.87 15.95 0.00
79 11.07 31.34 0.00 11.96 0.00
80 11.14 63.78 0.00 7.59 1.74
81 11.64 67.32 0.00 0.00 13.37
82 11.76 57.97 0.45 19.84 3.11
83 11.63 62.37 0.00 9.98 1.23
84 11.97 37.27 1.04 25.56 1.48
85 12.10 32.41 0.83 23.15 0.05
86 12.03 55.10 0.00 25.34 4.80
87 12.34 50.03 0.09 31.23 9.41
88 12.23 45.04 0.70 31.97 5.50
89 12.23 26.17 0.76 13.05 1.29
90 12.54 34.79 1.52 30.31 3.20
91 12.41 42.06 0.00 22.97 2.57
92 12.47 64.04 0.00 4.61 5.96
93 12.78 60.95 0.00 18.25 3.53
94 12.86 27.07 0.00 15.94 1.78
95 13.09 47.57 0.00 31.81 15.82
96 13.07 52.59 0.00 31.71 13.73
97 13.10 39.38 0.16 30.12 7.28
98 12.93 68.70 0.00 0.00 14.27
99 13.24 71.84 0.00 0.00 20.14
100 13.17 56.55 0.00 24.04 8.82
101 13.18 30.71 0.63 21.79 5.52
102 13.08 23.94 0.00 11.04 3.67
103 13.74 36.52 0.00 29.96 10.01
104 13.43 65.70 0.00 3.15 5.24
105 13.65 24.77 0.00 9.82 2.69
106 13.65 44.58 0.44 32.86 20.16
107 13.91 59.01 0.00 21.00 11.42
108 13.63 28.57 0.00 18.83 4.95
109 13.88 33.48 0.00 23.87 8.34
110 13.96 49.57 0.00 31.69 44.47
111 13.97 41.81 0.00 31.10 20.62
112 14.03 63.56 0.00 5.64 7.90
113 13.93 21.88 0.00 9.76 3.25
114 14.07 27.58 0.00 13.92 6.78
115 14.14 54.40 0.00 34.16 26.94
116 14.07 67.36 0.00 0.38 9.32
117 14.72 61.31 0.00 7.80 13.17
118 14.60 46.88 1.20 38.59 74.09
119 14.47 38.86 0.75 30.09 28.32
120 14.39 71.09 0.00 0.00 13.65
121 14.69 23.40 0.00 14.67 20.58
122 14.66 25.73 1.76 12.99 18.90
123 14.75 51.69 0.00 21.25 73.27
124 14.88 56.64 0.00 22.91 32.38
125 14.86 69.90 0.00 0.00 11.51
126 14.52 66.34 3.37 0.00 6.49
127 14.94 30.31 0.00 22.72 22.20
128 14.64 68.18 0.00 0.19 6.13
129 15.07 44.10 0.00 23.25 75.49
130 14.82 72.52 0.00 0.00 11.02
131 15.02 32.93 0.72 26.44 32.21
132 15.35 65.37 0.00 1.70 12.11
133 15.05 22.17 0.00 9.56 19.69
134 15.34 35.42 0.42 19.53 45.66
135 15.40 41.10 0.33 20.59 84.60
136 15.47 59.02 0.94 17.67 26.18
137 15.42 73.18 0.00 0.00 13.46
138 15.46 27.56 1.29 9.69 44.55
139 15.56 53.96 0.00 14.28 78.26
140 15.58 49.19 0.00 16.57 130.17
141 15.62 38.01 0.95 12.91 71.38
142 15.86 67.81 0.00 0.00 9.89
143 15.96 62.91 0.00 4.65 16.88
144 15.79 24.81 0.00 5.99 67.14
145 16.15 46.48 0.00 7.93 127.17
146 15.77 70.88 0.00 0.00 8.72
147 16.40 21.08 0.00 3.55 59.21
148 16.51 29.68 0.00 3.85 90.55
149 16.16 32.78 1.40 16.53 86.16
150 16.43 51.42 0.45 7.14 121.51
151 16.32 56.73 0.00 8.40 56.57
152 16.34 70.45 0.00 0.00 11.80
153 16.54 43.65 0.00 6.18 153.74
154 16.38 60.59 0.00 2.97 30.61
155 16.88 26.70 0.00 1.26 96.05
156 16.90 40.68 0.07 7.31 131.88
157 17.04 34.82 0.00 2.44 129.42
158 16.98 37.77 0.97 10.50 136.02
159 17.01 65.51 1.11 0.00 13.83
160 17.05 54.05 0.00 7.24 114.80
161 17.20 48.93 0.00 4.04 156.08
162 16.97 59.70 0.00 5.05 30.08
163 17.14 73.13 0.00 0.00 12.82
164 17.30 23.48 0.60 0.92 117.81
165 17.14 67.98 0.00 0.00 13.34
166 17.18 75.40 0.00 0.00 6.88
167 17.43 62.73 0.00 0.98 24.11
168 17.47 31.98 0.00 4.10 135.85
169 17.62 57.02 0.00 2.14 80.96
170 17.70 46.35 0.00 2.76 176.42
171 17.68 77.30 0.00 1.17 4.86
172 17.94 51.33 0.00 2.66 152.78
173 17.97 42.95 0.00 0.28 162.39
174 17.81 67.68 0.00 1.48 12.03
175 17.86 71.26 0.00 0.00 10.15
176 18.28 30.11 0.80 0.00 151.09
177 18.21 59.67 0.00 1.21 47.15
178 18.14 36.62 0.64 1.50 171.33
179 18.13 74.00 0.00 0.00 9.81
180 18.43 39.64 0.00 2.99 176.77
181 18.52 21.37 0.00 0.00 104.53
182 18.29 27.19 0.39 0.00 147.31
183 18.40 65.70 0.00 0.00 19.46
184 18.48 54.12 0.00 1.47 133.27
185 18.56 24.27 0.11 0.00 141.64
186 18.76 33.94 0.00 0.48 159.54
187 18.63 78.62 0.00 0.41 3.52
188 18.94 49.04 0.08 1.81 171.87
189 18.69 62.51 1.19 1.51 33.51
190 18.70 68.42 1.98 0.00 15.52
191 19.09 46.34 1.05 1.16 188.41
192 18.87 73.88 0.00 0.00 11.29
193 19.04 71.58 0.00 0.00 11.19
194 19.19 43.96 0.47 0.00 185.31
195 19.05 56.85 0.11 3.89 104.49
196 19.57 41.50 0.00 0.00 183.53
197 19.40 51.82 0.87 0.82 154.44
198 19.47 76.20 0.00 0.00 9.77
199 19.37 36.76 0.30 0.00 182.09
200 19.59 28.81 1.03 0.00 157.87
201 19.62 31.77 1.21 0.00 169.96
202 19.06 77.88 0.00 6.25 2.92
203 19.39 69.14 0.00 0.00 13.70
204 19.73 25.89 0.19 0.00 156.91
205 19.62 59.35 0.11 1.36 66.21
206 19.82 64.24 0.00 0.07 30.10
207 19.78 66.66 0.00 0.00 21.05
208 19.99 19.69 0.00 0.00 105.69
209 20.06 22.65 0.00 0.00 128.49
210 19.66 78.97 0.14 0.00 5.57
211 19.96 54.63 0.00 2.31 120.05
212 20.05 61.60 0.00 0.09 44.41
213 20.21 38.98 0.00 0.11 179.78
214 20.45 70.87 0.00 0.00 14.80
215 19.85 80.23 0.00 0.00 4.43
216 20.05 74.25 1.16 0.00 11.88
217 20.33 47.55 0.00 1.14 175.44
218 20.67 33.59 0.11 0.00 156.65
219 20.56 50.37 0.25 2.80 150.14
220 20.52 44.22 1.09 0.00 183.28
221 20.57 57.17 0.00 0.94 86.76
222 20.34 79.25 0.00 0.37 7.18
223 20.38 68.69 0.00 0.00 20.64
224 20.75 36.17 0.00 0.40 188.75
225 20.47 73.08 0.00 0.00 14.16
226 20.85 76.38 0.00 0.00 12.09
227 21.04 25.02 0.00 0.00 138.09
228 21.10 30.80 0.51 0.00 147.83
229 21.06 53.32 0.00 3.09 118.13
230 21.13 27.93 0.00 0.00 146.02
231 21.22 17.44 0.00 0.00 89.46
232 21.14 41.10 0.00 0.00 184.52
233 21.15 59.47 1.08 0.81 63.38
234 21.02 67.83 0.00 0.00 25.01
235 21.25 65.48 0.41 0.22 32.70
236 21.25 62.62 3.40 0.00 40.74
237 21.37 73.96 2.16 0.00 16.05
238 21.34 80.15 0.00 0.00 7.68
239 21.61 20.24 0.29 0.00 99.86
240 21.65 46.15 3.02 1.44 178.35
241 21.79 22.79 0.61 0.00 121.42
242 21.73 56.03 0.00 0.36 86.63
243 21.81 38.05 1.15 0.35 162.49
244 21.91 48.63 0.53 1.83 155.00
245 21.84 69.27 1.53 0.00 22.71
246 21.93 43.27 0.00 0.34 168.25
247 21.95 51.50 0.81 1.43 146.76
248 22.12 71.67 0.00 0.00 22.46
249 22.15 34.95 0.07 0.00 172.43
250 22.11 75.93 4.30 0.33 16.73
251 22.24 60.53 1.47 0.00 50.10
252 22.49 29.26 0.00 0.00 122.21
253 22.57 32.30 0.00 0.00 147.55
254 22.41 63.95 0.55 0.58 41.77
255 22.43 26.22 0.15 0.00 128.34
256 22.54 66.92 1.37 0.91 34.17
257 22.62 40.48 0.00 0.82 167.15
258 22.74 53.73 1.36 0.97 98.40
259 22.29 77.20 5.97 3.92 18.26
260 22.77 16.09 0.00 0.00 65.26
261 22.79 18.34 0.00 0.00 85.39
262 22.75 56.99 0.00 0.00 76.52
263 22.69 78.52 0.28 0.98 18.60
264 22.76 80.64 0.00 0.00 11.96
265 22.98 45.14 0.67 1.79 142.48
266 22.93 73.76 1.05 0.09 24.26
267 23.19 20.72 0.00 0.00 84.33
268 23.19 23.78 0.00 0.00 95.85
269 23.14 50.43 1.13 1.03 110.79
270 23.34 37.70 0.96 0.25 155.90
271 23.42 47.51 0.57 0.52 122.64
272 23.19 69.69 1.80 0.00 29.25
273 23.30 59.39 2.20 3.69 62.27
274 23.51 42.75 0.00 0.00 148.07
275 23.62 35.15 0.00 0.00 133.74
276 23.45 61.99 1.09 0.00 49.50
277 23.45 82.77 0.00 0.98 16.60
278 23.61 76.49 1.76 0.00 24.53
279 23.77 30.33 1.04 0.00 118.89
280 23.62 64.76 0.68 1.14 41.85
281 23.92 79.54 1.83 1.20 24.04
282 23.78 27.13 0.00 0.00 100.44
283 23.99 54.79 0.00 0.00 88.79
284 24.03 15.11 0.00 0.00 46.99
285 23.94 67.35 3.49 0.00 39.69
286 23.91 72.43 3.14 0.00 30.15
287 24.19 32.75 1.99 0.00 111.07
288 24.09 40.10 1.89 0.00 135.10
289 24.06 52.28 1.32 0.00 102.89
290 24.02 57.26 1.55 0.46 71.34
291 24.24 18.33 0.00 0.00 62.96
292 24.38 22.01 1.37 0.00 81.83
293 24.41 49.39 3.09 1.76 97.77
294 24.53 44.92 2.42 0.90 111.71
295 24.55 24.64 0.11 0.00 91.04
296 24.51 69.78 2.25 0.00 39.32
297 24.57 59.52 2.53 0.00 60.72
298 24.56 74.84 7.23 0.09 35.44
299 24.59 62.54 1.51 0.04 56.70
300 24.67 82.43 3.75 1.09 26.49
301 24.94 37.38 3.33 0.26 116.64
302 24.91 28.52 1.05 0.00 110.71
303 24.94 47.07 3.83 0.04 109.86
304 24.88 65.12 2.68 0.38 50.32
305 25.07 42.47 3.99 1.10 116.09
306 24.97 77.08 15.30 1.00 40.95
307 25.11 34.73 0.79 0.00 102.28
308 25.08 72.38 9.34 0.00 43.36
309 25.25 13.81 0.00 0.00 44.46
310 25.19 56.20 1.66 0.00 73.23
311 25.31 67.39 8.26 0.00 55.53
312 25.31 19.98 2.48 0.00 69.72
313 25.40 31.18 0.00 0.00 106.98
314 25.26 51.39 2.34 1.80 81.39
315 25.39 53.73 2.45 0.16 77.46
316 25.34 16.94 1.25 0.00 56.05
317 25.21 79.92 15.28 0.00 36.98
318 25.39 39.98 2.19 1.79 107.31
319 25.61 26.27 0.00 0.00 81.64
320 25.50 60.39 6.53 1.16 75.29
321 25.68 85.26 5.89 1.77 32.91
322 25.81 49.06 4.46 0.20 81.75
323 25.77 62.78 2.88 0.00 66.09
324 25.75 23.03 2.03 0.00 76.05
325 25.70 74.64 35.76 0.00 49.85
326 25.81 69.64 20.49 0.48 57.53
327 25.77 82.48 22.38 0.19 47.06
328 26.09 44.06 1.70 0.23 88.07
329 26.02 57.70 3.07 0.79 69.84
330 26.08 77.96 106.03 0.00 41.31
331 26.17 28.89 2.40 0.00 86.47
332 26.14 46.47 3.77 1.87 92.66
333 26.18 65.04 12.73 0.00 75.38
334 26.29 33.27 2.20 0.00 80.80
335 26.28 35.98 3.13 0.00 89.18
336 26.31 38.46 3.19 2.40 102.70
337 26.18 71.69 50.75 1.09 64.22
338 26.49 14.97 1.65 0.00 51.24
339 26.50 18.03 0.60 0.00 56.81
340 26.53 41.17 1.99 0.00 89.60
341 26.62 20.51 2.93 0.00 63.72
342 26.48 51.50 3.23 0.00 74.93
343 26.53 54.82 3.89 0.00 79.45
344 26.55 67.25 49.59 0.06 73.91
345 26.92 80.68 155.29 2.18 60.85
346 26.63 59.95 7.32 0.00 86.53
347 26.77 75.47 163.63 0.59 58.02
348 26.79 83.84 63.74 0.98 40.75
349 26.85 25.58 0.81 0.00 72.19
350 27.10 72.78 189.64 0.81 71.23
351 27.10 30.82 2.52 0.00 76.42
352 27.03 22.99 2.49 0.00 69.49
353 26.92 48.30 5.94 2.48 83.72
354 26.95 62.35 14.42 0.00 89.12
355 27.18 69.56 172.57 2.12 73.34
356 27.16 45.45 4.43 1.46 89.23
357 27.19 57.23 8.54 0.61 93.28
358 27.30 28.24 4.96 0.00 79.70
359 27.34 42.83 5.30 1.69 85.30
360 27.25 64.48 46.97 0.00 93.14
361 27.40 52.79 8.45 0.07 87.35
362 27.48 35.48 5.74 0.27 82.71
363 27.45 38.19 3.30 0.44 89.63
364 27.61 33.07 4.41 0.31 82.34
365 27.57 77.66 175.39 1.85 78.96
366 27.63 50.13 8.20 0.98 83.54
367 27.75 16.26 4.26 0.00 60.23
368 27.65 13.40 3.40 0.00 46.00
369 27.74 19.05 3.51 0.00 64.96
370 27.68 66.61 184.13 1.35 77.45
371 27.88 54.85 12.17 0.39 100.37
372 27.66 59.75 29.26 0.00 106.76
373 27.85 40.49 2.98 1.44 84.74
374 27.81 85.11 73.81 2.05 76.84
375 27.99 47.34 9.33 1.50 95.79
376 28.10 21.33 5.14 0.00 72.38
377 28.15 26.55 4.23 0.00 68.96
378 28.07 61.96 78.76 1.49 127.55
379 28.23 82.76 116.74 2.59 91.52
380 28.25 23.90 4.69 0.00 68.44
381 28.20 74.44 185.86 1.38 100.75
382 28.18 44.51 9.44 0.00 102.70
383 28.25 57.04 30.42 0.00 114.89
384 28.45 63.89 176.95 2.56 121.80
385 28.37 71.29 193.52 2.85 99.02
386 28.50 79.85 131.53 2.15 89.15
387 28.41 29.40 5.25 0.00 81.71
388 28.50 36.87 7.08 0.40 88.07
389 28.46 52.20 24.91 0.00 109.47
390 28.65 68.79 218.03 2.20 118.96
391 28.60 31.77 7.71 0.00 83.95
392 28.68 41.97 6.74 0.16 101.60
393 28.75 34.43 6.79 0.44 92.33
394 28.73 59.66 198.76 1.91 125.42
395 28.81 12.45 15.92 0.00 68.11
396 28.81 15.10 15.46 0.00 74.01
397 28.86 38.85 9.80 0.87 103.67
398 28.75 49.39 19.12 0.22 108.95
399 28.88 77.17 113.70 4.00 110.60
400 28.89 18.68 12.91 0.00 75.66
401 28.91 65.98 207.54 2.17 132.71
402 28.95 87.53 18.45 2.43 63.99
403 28.97 46.69 18.16 0.00 115.39
404 29.08 54.97 85.60 1.30 158.19
405 29.32 61.86 232.28 3.79 149.93
406 29.33 27.80 14.82 0.00 88.09
407 29.25 43.97 17.23 0.50 116.88
408 29.22 57.51 201.24 0.50 152.23
409 29.24 21.86 15.78 0.00 83.93
410 29.29 25.14 12.49 0.00 87.12
411 29.45 74.81 115.16 3.71 112.83
412 29.48 84.67 29.43 2.54 99.03
413 29.39 52.84 127.68 0.47 148.14
414 29.56 72.18 125.97 3.20 143.02
415 29.69 50.47 126.27 1.62 164.74
416 29.68 81.72 61.82 3.36 110.25
417 29.63 17.01 50.19 0.00 98.76
418 29.60 30.40 15.87 0.00 93.95
419 29.63 40.43 23.03 0.26 122.33
420 29.60 36.05 17.95 0.00 103.53
421 29.71 32.99 20.26 0.00 102.38
422 29.88 78.79 40.39 1.96 99.36
423 29.89 11.54 104.86 0.00 78.22
424 29.98 64.37 211.63 3.13 172.32
425 29.83 67.20 199.00 4.47 150.31
426 30.07 69.63 131.77 1.23 142.32
427 29.88 48.08 55.27 0.84 148.66
428 29.86 45.43 45.83 0.00 148.13
429 30.07 14.23 127.80 0.00 100.07
430 29.97 19.98 72.19 0.00 103.86
431 30.12 59.57 221.65 3.00 172.79
432 30.07 38.07 41.67 0.00 141.20
433 30.20 56.70 228.70 2.68 184.17
434 30.09 87.63 7.61 4.54 54.50
435 30.11 23.48 43.01 0.00 119.51
436 30.31 54.04 226.22 1.60 176.18
437 30.24 26.60 41.25 0.00 113.16
438 30.53 29.24 115.91 0.00 123.23
439 30.58 76.38 42.19 3.30 98.15
440 30.52 61.89 209.69 4.34 198.42
441 30.69 51.63 222.88 1.70 187.06
442 30.56 35.95 192.40 0.74 146.89
443 30.87 85.35 15.68 5.50 93.63
444 30.62 33.94 61.02 0.00 147.18
445 30.64 43.77 161.51 1.67 153.47
446 30.70 31.66 81.49 1.06 136.49
447 30.73 46.18 220.67 2.56 159.21
448 30.69 17.13 159.05 0.00 126.07
449 30.69 39.99 161.24 0.00 155.80
450 30.73 73.65 74.61 4.95 121.17
451 30.95 22.05 191.87 0.00 135.47
452 30.94 82.34 22.13 3.59 88.89
453 31.03 49.32 227.62 1.80 197.07
454 31.04 24.99 193.91 0.00 135.16
455 30.92 66.45 126.51 3.76 187.96
456 31.19 71.10 91.70 4.30 135.12
457 31.13 79.37 26.12 3.23 92.18
458 31.27 12.57 146.34 0.00 114.33
459 31.15 19.67 190.81 0.17 154.45
460 31.20 58.33 198.34 5.00 217.05
461 31.30 27.61 204.23 0.18 135.05
462 31.26 37.92 216.82 2.87 169.32
463 31.27 55.52 218.89 2.98 223.14
464 31.38 41.76 223.77 5.14 178.31
465 31.38 63.71 129.50 1.79 194.29
466 31.54 87.94 4.73 4.86 64.78
467 31.67 68.63 52.15 3.31 169.74
468 31.61 15.45 145.09 0.00 136.95
469 31.62 60.81 145.85 3.13 223.44
470 31.65 35.04 217.12 2.08 180.35
471 31.68 53.17 200.56 4.18 225.87
472 31.76 32.58 216.37 1.89 177.75
473 31.67 47.27 236.18 1.78 214.48
474 31.69 44.33 224.32 2.84 196.03
475 31.89 30.05 200.68 0.87 182.24
476 31.94 76.71 20.56 4.42 93.14
477 32.03 73.66 30.01 3.80 101.65
478 32.01 23.86 202.94 0.13 186.64
479 32.10 39.80 217.83 3.68 214.57
480 32.05 66.07 57.35 3.52 179.86
481 32.18 11.03 85.92 1.74 104.83
482 32.18 18.40 171.43 0.77 174.50
483 32.27 51.20 168.85 5.04 228.01
484 32.26 83.24 8.95 5.50 68.66
485 32.26 56.40 173.07 4.68 233.49
486 32.31 80.62 8.13 5.02 66.65
487 32.45 21.30 157.42 0.84 193.23
488 32.38 27.09 192.56 1.50 196.09
489 32.38 37.06 201.47 1.24 218.05
490 32.38 58.85 105.20 4.79 223.01
491 32.46 85.86 5.98 4.72 48.11
492 32.52 48.84 192.86 4.73 236.75
493 32.47 62.59 75.70 4.01 197.03
494 32.58 70.44 17.39 3.74 105.90
495 32.54 89.37 0.66 5.55 24.87
496 32.59 42.58 175.60 5.44 224.38
497 32.60 45.75 150.14 4.56 224.71
498 32.77 13.52 103.46 1.66 156.05
499 32.81 54.15 119.46 3.13 236.69
500 32.81 78.38 7.42 3.41 57.39
501 32.92 16.33 97.26 1.49 179.23
502 33.01 31.76 172.28 2.29 216.44
503 32.92 34.55 158.41 2.71 230.95
504 32.99 64.56 31.71 3.54 165.98
505 33.11 67.44 24.40 4.71 145.73
506 33.26 60.95 39.62 5.13 183.73
507 33.23 75.54 5.20 4.87 74.16
508 33.06 24.36 136.45 0.46 210.76
509 33.27 29.40 145.70 1.60 221.30
510 33.23 72.52 9.85 3.88 83.83
511 33.29 39.61 135.19 4.06 232.00
512 33.41 56.63 55.70 2.13 219.36
513 33.46 83.85 10.88 5.81 52.20
514 33.41 87.16 9.09 5.32 37.64
515 33.58 18.86 86.52 0.00 167.75
516 33.43 37.05 121.61 3.68 235.37
517 33.55 49.94 119.62 5.14 229.52
518 33.59 52.19 80.13 3.91 228.43
519 33.58 44.45 146.52 4.37 228.85
520 33.52 47.33 89.62 2.96 234.85
521 33.61 58.93 49.39 3.06 208.19
522 33.72 11.23 40.72 1.74 113.57
523 33.59 26.86 115.23 3.27 215.76
524 33.68 42.00 152.06 3.53 232.77
525 33.66 80.77 7.19 4.50 48.41
526 33.84 21.45 82.27 0.00 181.71
527 33.97 68.98 7.92 3.78 107.63
528 33.98 33.14 148.69 3.71 230.91
529 34.09 62.69 14.30 3.70 158.61
530 34.03 15.62 49.62 2.09 162.65
531 34.04 54.78 38.21 4.75 222.97
532 34.10 65.17 13.66 5.61 143.51
533 34.10 77.93 6.54 5.09 50.11
534 34.11 24.09 74.88 0.89 204.89
535 34.25 8.10 21.02 2.74 76.36
536 34.34 35.29 93.77 1.91 226.16
537 34.47 73.27 4.18 2.34 65.67
538 34.48 70.84 4.98 6.07 77.29
539 34.53 13.20 24.82 2.27 123.89
540 34.49 31.04 75.94 3.20 216.83
541 34.45 38.05 86.56 2.49 221.09
542 34.22 85.05 34.04 6.60 37.58
543 34.48 40.45 72.58 6.03 226.70
544 34.52 28.77 97.04 2.85 212.87
545 34.58 45.84 58.21 3.39 227.27
546 34.81 87.77 104.02 8.39 14.90
547 34.67 75.58 5.12 5.26 50.61
548 34.60 48.54 51.49 3.65 217.96
549 34.64 57.95 13.94 3.17 173.34
550 34.76 60.63 11.19 4.50 151.02
551 34.85 50.96 45.51 5.00 213.63
552 34.85 66.55 4.93 5.26 98.26
553 34.74 81.98 30.79 6.04 30.65
554 34.78 26.02 53.50 1.23 204.32
555 34.84 43.25 38.85 5.64 213.64
556 34.87 90.87 55.73 10.57 4.20
557 34.84 17.78 32.95 1.37 149.79
558 34.90 53.21 24.61 5.41 206.94
559 34.61 80.29 16.17 5.23 38.26
560 34.94 79.17 14.08 5.99 40.64
561 35.24 20.11 22.68 1.25 145.71
562 35.07 22.74 36.08 2.02 176.89
563 35.15 10.36 18.48 1.30 100.94
564 35.23 56.13 14.22 2.65 179.92
565 35.30 33.22 37.63 3.71 194.99
566 35.22 63.74 5.38 4.58 102.57
567 35.42 84.09 127.62 8.24 19.85
568 35.48 15.27 16.59 3.18 132.91
569 35.40 36.41 60.44 6.61 206.60
570 35.49 68.62 9.31 6.16 80.20
571 35.60 40.99 20.87 4.85 209.44
572 35.68 38.73 25.64 5.54 192.37
573 35.64 27.51 28.33 2.51 197.36
574 35.74 29.98 24.50 2.87 192.38
575 35.57 47.27 21.47 5.50 179.04
576 35.58 76.85 13.68 8.06 37.18
577 35.83 45.04 14.69 5.43 188.32
578 35.89 49.54 14.94 8.36 196.02
579 35.81 71.13 8.42 6.59 56.66
580 35.84 12.84 16.48 2.36 121.42
581 35.80 58.94 7.48 5.80 132.68
582 35.80 73.70 11.96 6.02 46.49
583 35.99 79.91 109.37 7.44 19.26
584 35.98 61.29 6.48 5.82 110.86
585 35.97 24.83 18.69 2.13 154.52
586 35.90 54.30 8.76 5.33 162.75
587 36.14 51.93 9.19 6.52 162.93
588 36.25 8.37 4.05 3.42 74.76
589 36.13 66.13 8.00 5.86 70.27
590 36.17 89.91 84.75 12.24 5.45
591 36.27 42.81 11.22 4.78 161.50
592 36.16 17.76 9.78 1.70 127.65
593 36.24 22.20 12.93 1.22 142.71
594 36.39 35.11 36.09 6.16 190.18
595 36.37 31.82 17.81 4.61 181.32
596 36.36 86.49 153.97 12.49 10.91
597 36.37 63.59 10.05 4.63 78.67
598 36.46 56.82 8.60 5.45 128.80
599 36.71 74.57 77.59 7.64 22.22
600 36.72 82.24 161.41 11.08 13.07
601 36.65 10.34 4.94 3.85 96.07
602 36.76 77.48 110.44 11.05 21.53
603 36.86 19.96 6.96 2.38 122.35
604 36.75 37.56 15.18 4.78 169.63
605 36.82 47.40 13.50 5.91 141.94
606 36.67 68.58 22.93 9.43 50.34
607 36.71 27.51 11.97 3.03 147.85
608 36.84 40.34 12.38 4.95 153.57
609 36.92 15.24 6.64 2.34 109.47
610 36.87 71.21 64.05 9.77 30.32
611 36.92 59.04 19.96 8.32 97.52
612 37.02 44.84 9.26 4.44 132.16
613 37.23 29.54 11.98 4.24 147.50
614 37.09 49.92 14.29 7.76 149.06
615 37.06 54.48 13.91 8.46 115.32
616 37.21 33.80 14.19 7.53 147.35
617 36.97 61.62 25.28 6.87 78.37
618 37.16 25.11 10.23 2.94 129.02
619 37.15 64.95 42.39 6.29 50.86
620 37.07 11.37 3.24 3.35 93.79
621 37.41 52.23 16.78 7.21 117.39
622 37.44 88.07 138.31 18.45 4.18
623 37.46 84.80 157.21 16.29 6.98
624 37.45 90.89 60.31 17.75 0.93
625 37.45 22.52 8.36 2.61 128.48
626 37.53 67.23 139.60 6.46 26.82
627 37.66 13.21 5.51 2.82 85.95
628 37.60 17.49 6.29 1.89 93.63
629 37.54 42.65 14.02 8.32 123.96
630 37.78 79.72 165.62 14.34 9.76
631 37.78 7.27 3.53 5.24 52.51
632 37.71 31.70 10.20 5.27 114.65
633 37.49 56.47 31.12 10.41 89.39
634 37.88 62.45 162.77 9.62 33.01
635 37.85 36.34 15.48 10.09 118.20
636 37.77 38.72 13.87 6.65 128.80
637 37.67 60.20 91.25 11.24 53.64
638 37.97 69.77 185.10 12.61 18.14
639 37.88 72.83 176.28 10.77 16.91
640 37.90 76.22 181.11 10.84 13.11
641 38.20 9.77 10.30 5.28 64.47
642 37.96 27.15 12.73 6.74 102.73
643 37.93 48.36 26.32 7.95 112.93
644 38.20 93.14 16.75 21.02 0.00
645 37.93 45.72 19.18 8.14 100.83
646 38.11 58.02 189.81 11.24 42.17
647 38.21 20.04 11.39 3.95 88.02
648 38.15 40.80 29.92 5.62 94.80
649 38.24 82.35 133.90 22.71 6.99
650 38.33 64.88 194.31 10.80 21.92
651 38.30 24.65 10.80 6.60 103.28
652 38.37 34.03 18.72 5.85 99.09
653 38.53 15.14 14.10 4.58 61.88
654 38.54 29.31 16.40 6.65 94.02
655 38.57 55.72 185.98 12.63 40.47
656 38.59 22.28 19.41 6.52 85.18
657 38.57 43.37 100.96 9.64 72.99
658 38.78 88.80 96.00 29.75 2.37
659 38.66 85.66 107.50 23.34 2.59
660 38.82 60.11 221.87 12.91 28.50
661 38.96 67.26 198.67 17.88 14.84
662 38.94 91.35 46.75 30.84 0.79
663 38.79 12.08 23.95 5.22 58.95
664 38.77 17.81 32.08 5.99 61.02
665 38.83 45.91 124.65 10.27 52.32
666 38.78 38.55 57.79 7.90 79.72
667 38.91 48.58 156.04 9.78 57.20
668 39.07 53.38 195.71 12.91 39.18
669 38.85 31.47 27.45 7.36 80.19
670 39.01 35.92 77.38 10.43 72.37
671 39.06 71.64 180.60 17.07 8.88
672 39.01 74.54 173.22 18.94 8.69
673 39.06 77.77 137.83 21.60 5.45
674 39.06 26.56 63.16 6.94 57.39
675 39.20 50.89 197.33 15.57 38.89
676 39.21 41.03 123.99 13.23 46.14
677 39.24 62.46 215.33 16.60 18.47
678 39.41 80.39 98.56 24.48 4.96
679 39.35 69.24 166.29 19.76 9.57
680 39.46 20.94 77.30 6.21 43.98
681 39.35 24.06 74.82 7.26 52.56
682 39.43 57.91 210.89 15.60 19.66
683 39.36 33.39 77.59 9.79 64.97
684 39.50 83.60 85.95 34.10 2.42
685 39.85 10.16 89.54 9.54 28.80
686 39.49 13.75 95.53 5.08 29.35
687 39.69 15.69 90.06 6.39 27.53
688 39.66 28.48 122.20 10.73 42.97
689 39.73 38.09 183.18 15.17 38.74
690 39.86 43.34 189.95 15.72 29.10
691 39.60 65.05 183.67 19.76 11.52
692 39.82 18.74 98.29 8.68 31.28
693 40.04 92.73 4.00 50.32 0.00
694 39.97 7.49 54.38 8.18 16.50
695 40.01 31.01 162.18 11.45 31.36
696 39.84 55.77 192.87 21.19 18.32
697 39.92 12.68 100.17 8.02 29.27
698 39.90 46.27 174.31 15.78 27.96
699 39.89 86.80 67.34 44.64 1.59
700 40.16 48.98 215.60 20.48 27.31
701 40.12 75.51 119.74 35.90 3.81
702 40.12 60.22 192.79 17.87 11.03
703 40.17 35.76 168.27 11.81 30.86
704 40.29 72.86 122.06 30.89 3.02
705 40.36 25.84 174.13 11.18 23.49
706 40.40 77.88 72.10 38.26 2.28
707 40.51 90.27 17.74 63.34 0.31
708 40.33 40.53 201.36 19.77 25.63
709 40.50 23.01 146.67 7.61 22.35
710 40.54 33.32 192.40 15.43 25.69
711 40.50 51.22 209.41 23.46 16.87
712 40.37 53.67 196.54 20.29 16.22
713 40.41 63.08 187.00 27.09 8.54
714 40.42 67.82 141.09 31.17 5.06
715 40.43 70.44 117.57 33.25 3.82
716 40.52 82.24 53.50 46.05 0.67
717 40.63 57.57 177.06 22.99 8.20
718 40.80 20.34 139.54 11.32 16.37
719 40.85 84.72 54.35 56.77 1.02
720 40.68 65.36 168.58 31.59 5.26
721 40.93 17.12 145.49 11.47 14.31
722 40.90 28.51 168.42 15.80 20.49
723 40.83 14.52 114.95 9.12 12.38
724 40.97 44.64 182.12 26.72 14.27
725 40.89 80.31 44.81 52.33 0.75
726 41.05 13.06 120.79 13.77 13.73
727 41.00 47.30 166.51 27.63 14.85
728 40.99 38.27 193.42 20.37 15.09
729 41.19 6.50 63.55 12.16 6.26
730 41.15 61.72 136.15 35.55 4.94
731 41.20 54.87 159.20 27.35 7.60
732 41.24 10.99 101.68 11.23 10.91
733 41.25 41.88 171.45 31.66 12.18
734 41.39 30.89 181.01 23.15 14.09
735 41.41 59.67 128.18 38.85 5.39
736 41.37 74.39 70.27 55.25 0.48
737 41.31 92.61 2.21 72.79 0.00
738 41.37 35.55 189.16 23.49 13.89
739 41.54 88.31 18.66 73.60 0.20
740 41.37 86.14 18.90 69.81 0.73
741 41.50 51.95 157.08 30.90 8.22
742 41.59 69.38 92.08 60.69 1.34
743 41.59 71.85 74.04 61.29 1.11
744 41.42 79.35 35.80 61.70 1.30
745 41.89 8.17 87.32 17.21 6.26
746 41.58 66.73 102.65 57.03 1.47
747 41.71 49.25 150.64 32.76 6.84
748 41.71 23.63 134.72 20.97 9.91
749 41.70 26.21 171.91 20.65 10.00
750 41.76 63.98 112.64 52.64 2.62
751 41.87 77.13 33.10 75.65 0.79
752 41.76 33.07 153.58 25.40 12.41
753 41.72 57.58 116.50 48.22 3.68
754 41.94 39.69 148.43 37.38 9.41
755 41.95 82.59 26.99 83.47 0.64
756 42.00 21.06 137.52 20.82 6.82
757 42.11 15.56 118.11 20.74 6.69
758 41.85 90.68 10.33 77.43 0.88
759 42.12 37.35 155.14 33.70 5.66
760 42.00 46.49 133.45 40.79 6.93
761 42.20 18.39 135.66 21.05 4.32
762 42.10 43.64 129.43 39.55 6.27
763 42.13 29.10 168.41 32.06 9.83
764 42.17 55.46 124.45 52.97 5.06
765 42.46 10.36 101.28 21.71 3.47
766 42.40 13.08 104.08 25.38 3.99
767 42.25 61.67 97.19 61.58 2.46
768 42.31 85.06 20.63 95.05 0.94
769 42.48 52.96 131.74 51.78 2.29
770 42.73 41.43 108.28 59.49 3.16
771 42.57 79.99 19.81 103.53 0.42
772 42.67 34.38 142.20 34.46 6.22
773 42.70 68.38 50.67 101.54 0.00
774 42.81 50.57 107.43 78.09 4.22
775 42.86 59.75 67.94 87.64 1.95
776 42.84 72.88 27.08 94.16 0.96
777 42.87 75.04 26.81 111.37 0.63
778 42.74 88.42 21.37 109.13 0.85
779 42.85 31.77 146.02 40.83 3.96
780 42.81 65.66 50.92 93.10 0.44
781 42.94 24.89 120.64 41.02 4.13
782 42.82 27.28 131.82 49.37 4.26
783 42.70 90.91 9.29 101.84 0.15
784 43.03 57.48 75.18 91.85 1.95
785 42.95 70.68 26.43 106.48 0.22
786 43.13 22.52 113.36 37.54 2.39
787 42.97 48.09 94.84 74.35 3.98
788 42.82 92.73 6.15 89.37 0.00
789 43.08 45.10 83.64 69.79 3.34
790 43.14 63.55 55.36 99.13 0.36
791 43.19 38.86 102.28 59.76 2.31
792 43.30 36.20 92.69 58.22 2.81
793 43.21 77.32 14.59 119.35 1.01
794 43.29 16.85 91.64 38.64 1.98
795 43.33 20.01 84.27 43.33 2.51
796 43.45 29.55 115.36 61.86 2.48
797 43.36 54.96 73.15 99.17 2.31
798 43.28 82.63 16.30 107.08 0.24
799 43.50 8.34 64.85 36.07 2.17
800 43.41 94.85 4.99 80.81 0.00
801 43.60 13.75 74.76 40.19 0.93
802 43.60 61.69 34.15 127.29 0.95
803 43.57 85.90 25.96 118.87 0.71
804 43.79 43.00 55.64 107.60 2.80
805 43.47 92.81 16.07 92.54 0.00
806 43.80 11.19 74.29 43.64 1.13
807 43.78 67.67 22.22 121.73 0.00
808 43.84 52.52 45.48 108.49 3.34
809 43.91 79.59 15.62 119.61 0.90
810 43.73 91.10 29.14 92.10 0.49
811 44.10 34.10 75.92 79.01 1.79
812 44.02 88.97 36.66 131.91 0.18
813 44.16 6.43 28.71 48.42 0.00
814 44.12 26.85 65.96 69.90 0.84
815 44.05 46.58 31.62 104.71 2.06
816 43.99 65.28 23.61 135.21 1.23
817 44.11 71.14 14.90 128.31 0.11
818 44.21 31.78 90.11 83.63 1.23
819 44.11 49.42 35.60 125.23 1.83
820 44.16 59.61 22.03 148.10 1.60
821 44.03 73.98 17.69 134.62 0.00
822 44.15 40.41 40.24 108.29 3.00
823 44.09 15.16 70.89 57.44 0.93
824 44.44 24.34 69.68 68.23 0.79
825 44.37 57.61 26.92 125.39 0.89
826 44.47 18.77 63.37 63.15 0.42
827 44.38 37.18 49.37 92.97 1.72
828 44.44 77.11 21.07 128.09 0.00
829 44.48 84.20 55.56 131.67 0.86
830 44.67 21.64 40.37 89.46 0.00
831 44.50 55.46 25.61 131.38 0.82
832 44.54 63.43 23.83 153.59 0.00
833 44.57 81.61 34.00 137.11 1.21
834 44.73 93.90 58.03 97.46 0.00
835 44.65 16.46 44.24 73.58 0.05
836 44.77 29.50 39.40 103.67 1.74
837 44.72 68.93 20.22 164.99 0.52
838 44.86 44.22 20.92 140.89 2.31
839 44.87 51.30 22.88 142.73 1.79
840 44.89 86.41 122.22 132.02 1.04
841 44.95 60.92 20.54 155.18 1.10
842 44.97 66.29 31.67 166.45 0.00
843 45.06 8.40 16.25 60.69 0.00
844 45.33 91.66 117.69 94.49 0.08
845 45.07 10.87 23.57 74.71 0.68
846 45.05 47.33 22.46 145.08 1.68
847 45.20 53.67 23.85 138.74 1.21
848 45.17 13.97 20.23 71.98 0.00
849 45.21 41.76 24.11 152.38 1.81
850 45.18 75.37 49.77 154.74 0.42
851 45.20 38.73 19.75 128.31 1.45
852 45.11 72.68 34.56 147.44 0.06
853 45.17 88.97 144.68 107.17 0.64
854 45.32 32.99 27.26 124.37 1.01
855 45.38 35.75 21.49 123.32 0.69
856 45.39 27.19 23.87 121.72 1.33
857 45.46 58.55 41.98 176.13 1.19
858 45.47 70.55 51.61 177.66 0.42
859 45.61 49.62 40.75 172.92 1.96
860 45.64 79.98 109.81 140.91 0.25
861 45.51 82.90 131.27 140.42 1.23
862 45.51 62.47 45.06 181.05 0.66
863 45.69 23.23 17.00 117.39 0.00
864 45.72 77.60 113.22 146.87 0.59
865 45.65 56.18 41.99 163.97 1.88
866 45.71 64.65 112.21 181.85 1.07
867 45.66 17.41 14.92 98.89 0.00
868 45.79 30.28 18.20 133.93 0.02
869 45.75 96.25 32.35 60.03 0.00
870 45.77 20.12 11.57 100.99 0.00
871 45.89 45.17 33.81 177.63 1.88
872 45.89 68.14 126.61 188.95 0.09
873 45.91 85.72 201.41 113.06 1.13
874 46.15 6.30 3.99 74.81 0.00
875 46.13 25.45 15.93 136.56 0.30
876 46.06 52.30 55.62 171.71 2.63
877 45.91 93.59 80.69 106.80 0.00
878 46.10 74.18 141.41 146.90 0.00
879 46.10 39.48 28.56 170.51 0.86
880 46.17 60.04 159.29 180.59 1.45
881 46.15 47.53 59.92 185.33 2.17
882 46.22 11.73 11.14 96.60 0.27
883 46.38 66.36 229.12 182.38 0.13
884 46.25 8.81 9.59 89.08 0.00
885 46.36 71.88 206.37 150.94 0.46
886 46.52 89.89 168.23 112.58 0.68
887 46.39 94.38 63.56 99.50 0.00
888 46.48 37.09 42.94 167.19 0.53
889 46.34 41.63 51.54 181.11 1.69
890 46.39 34.48 23.12 167.43 0.23
891 46.34 62.47 197.00 174.44 0.18
892 46.52 27.65 24.50 151.63 1.37
893 46.53 31.96 34.88 160.92 1.19
894 46.46 54.79 116.68 191.76 1.66
895 46.57 14.95 20.41 115.13 0.00
896 46.60 21.48 17.79 149.46 0.12
897 46.56 57.26 180.09 168.29 0.70
898 46.54 81.87 200.68 128.02 0.48
899 46.68 43.65 104.37 191.89 1.37
900 46.69 50.32 200.14 177.95 2.84
901 46.75 69.73 223.41 173.67 0.04
902 46.82 79.19 198.94 137.86 0.29
903 46.84 76.21 194.86 131.39 0.08
904 46.74 17.85 28.06 125.70 0.00
905 46.95 64.18 235.31 168.94 0.00
906 47.00 24.04 32.14 151.99 0.00
907 47.01 29.50 55.02 180.78 0.28
908 47.02 84.64 191.14 120.70 0.84
909 47.17 87.34 196.22 109.93 0.80
910 47.04 96.27 14.80 58.79 0.00
911 47.06 45.81 141.36 209.53 2.39
912 47.09 48.12 184.68 186.85 1.11
913 47.19 52.55 219.75 166.32 1.44
914 47.13 39.33 121.28 189.48 3.41
915 47.27 59.08 238.16 165.69 1.82
916 47.18 61.39 238.13 177.24 1.39
917 47.18 73.91 215.82 142.67 0.25
918 47.38 19.63 41.79 144.75 0.04
919 47.44 68.15 227.77 172.62 0.00
920 47.40 7.51 22.34 112.05 0.19
921 47.40 10.16 26.14 122.38 0.06
922 47.56 4.81 20.77 102.39 0.00
923 47.47 35.24 157.80 169.27 0.70
924 47.46 41.64 191.17 183.77 1.69
925 47.42 54.97 236.33 171.21 1.89
926 47.37 12.31 35.13 118.95 0.02
927 47.50 32.97 113.96 181.98 0.62
928 47.58 93.63 39.84 104.42 0.00
929 47.60 26.15 75.29 167.21 0.58
930 47.49 14.04 46.31 129.80 0.00
931 47.76 37.47 206.50 170.95 1.27
932 47.75 65.74 202.38 187.28 0.00
933 47.87 82.76 140.51 137.54 1.17
934 47.74 43.99 218.06 176.45 1.08
935 47.79 71.99 212.37 163.27 0.00
936 47.91 57.12 226.58 177.21 2.12
937 47.80 16.62 80.78 144.40 0.00
938 47.73 21.94 74.20 155.44 0.00
939 47.83 30.77 145.64 183.65 0.64
940 47.83 49.70 226.02 169.38 1.83
941 47.94 77.71 149.50 151.36 0.50
942 47.83 89.36 146.23 114.39 0.42
943 48.06 28.16 154.95 168.78 0.99
944 48.09 46.84 223.28 184.45 1.80
945 48.11 62.95 214.30 182.46 0.36
946 48.34 80.36 111.46 130.42 0.94
947 48.37 97.21 0.00 52.89 0.00
948 48.29 23.86 160.26 158.32 0.00
949 48.27 39.82 210.55 183.19 0.96
950 48.34 75.04 169.98 153.65 0.00
951 48.47 85.50 96.71 119.20 1.07
952 48.55 70.21 181.74 174.11 0.54
953 48.29 12.45 88.02 129.01 0.00
954 48.44 19.18 146.31 157.75 0.84
955 48.60 51.69 200.57 182.80 1.23
956 48.43 60.46 199.75 182.33 1.12
957 48.50 90.36 58.19 139.16 0.00
958 48.51 14.41 132.39 138.07 0.00
959 48.56 53.95 210.76 183.65 2.12
960 48.64 8.54 115.74 136.21 0.66
961 48.60 33.01 184.52 170.76 0.24
962 48.62 35.58 204.79 176.09 0.69
963 48.62 67.55 144.73 178.42 0.76
964 48.51 10.87 92.20 128.99 0.00
965 48.74 42.33 206.50 190.40 2.02
966 48.76 21.64 168.50 179.06 0.00
967 48.90 25.68 177.32 162.65 0.00
968 48.80 44.72 210.44 188.27 1.14
969 48.80 94.73 6.66 107.93 0.00
970 48.94 6.17 83.54 126.07 0.00
971 48.91 30.34 206.04 168.13 0.11
972 49.04 58.42 153.26 192.50 0.00
973 48.95 64.66 125.41 195.36 0.40
974 48.99 16.94 144.91 142.49 0.00
975 49.16 55.92 140.80 190.84 0.59
976 49.01 48.64 170.38 178.17 2.03
977 49.02 92.72 13.86 107.65 0.00
978 49.26 38.38 174.29 181.15 0.62
979 49.13 72.83 99.80 169.26 0.00
980 49.16 3.99 42.52 98.41 0.00
981 49.16 78.14 76.18 164.91 0.31
982 49.36 27.77 158.25 174.99 0.10
983 49.24 82.80 57.03 139.35 0.66
984 49.43 62.30 104.15 190.83 0.49
985 49.34 87.39 42.59 122.81 0.06
986 49.56 98.02 0.00 41.41 0.00
987 49.63 10.22 115.23 127.37 0.44
988 49.69 46.29 144.69 182.95 1.40
989 49.74 20.23 151.21 162.15 0.00
990 49.68 40.99 138.63 178.88 0.26
991 49.60 14.18 140.24 152.23 0.27
992 49.67 66.47 103.34 182.12 0.00
993 49.70 75.89 56.14 171.08 0.00
994 49.90 90.79 21.91 143.85 0.12
995 49.65 12.33 107.56 141.82 0.08
996 49.91 33.97 121.36 176.82 0.37
997 49.81 36.16 149.47 196.36 0.67
998 49.79 50.98 115.04 186.53 1.29
999 49.76 68.97 56.77 187.04 0.16
1000 49.87 22.88 131.73 166.01 0.00
1001 49.98 31.75 124.58 187.61 0.05
1002 49.93 60.19 74.06 183.99 0.00
1003 49.99 81.00 36.30 140.55 0.00
1004 49.94 95.80 0.00 85.15 0.00
1005 49.94 53.42 79.57 202.48 1.26
1006 49.98 71.08 34.02 172.82 0.11
1007 50.14 43.85 88.13 189.14 2.28
1008 50.11 7.71 69.95 125.03 0.61
1009 50.25 25.20 117.37 187.27 0.00
1010 50.25 29.51 114.52 181.19 0.09
1011 50.26 64.34 46.72 186.86 0.00
1012 50.22 84.75 31.06 127.63 0.48
1013 50.25 15.36 82.76 141.60 0.00
1014 50.19 17.91 98.46 161.76 0.00
1015 50.29 48.78 83.04 194.93 1.70
1016 50.27 57.89 60.30 196.05 0.47
1017 50.18 93.64 0.00 99.82 0.05
1018 50.29 73.90 37.98 166.37 0.00
1019 50.25 78.36 28.51 151.37 0.00
1020 50.38 5.36 40.94 123.02 0.00
1021 50.40 55.39 45.51 201.14 1.20
1022 50.50 2.44 16.75 96.53 0.00
1023 50.60 37.75 60.03 193.13 0.83
1024 50.60 87.98 25.26 124.45 0.35
1025 50.80 39.92 60.00 198.76 0.69
1026 50.68 62.10 36.62 173.79 1.76
1027 50.98 97.65 0.00 46.66 0.00
1028 50.79 27.40 83.12 179.73 0.00
1029 50.76 12.64 49.46 144.17 0.45
1030 50.76 66.77 38.69 193.15 0.00
1031 50.88 42.30 47.47 208.23 0.62
1032 50.93 9.89 44.03 145.70 0.10
1033 50.90 46.20 41.46 187.83 1.38
1034 50.95 51.39 42.40 200.90 2.31
1035 50.92 69.03 30.21 176.64 0.00
1036 51.04 72.03 23.84 177.70 0.13
1037 51.08 35.28 49.01 197.15 0.50
1038 51.07 20.46 49.13 156.93 0.00
1039 51.16 83.17 14.43 137.57 0.11
1040 51.20 23.05 48.44 185.15 0.00
1041 51.12 32.43 46.09 188.54 0.00
1042 51.16 76.81 20.04 137.06 0.01
1043 51.16 91.87 7.27 126.28 0.00
1044 51.18 59.77 22.07 186.34 0.30
1045 51.18 94.54 0.00 81.82 0.00
1046 51.31 53.75 25.83 200.35 1.59
1047 51.26 56.85 27.03 193.46 1.19
1048 51.26 79.55 14.76 145.39 0.00
1049 51.27 17.50 38.69 168.58 0.00
1050 51.45 7.39 19.20 131.94 0.00
1051 51.36 15.06 41.55 144.89 0.00
1052 51.47 48.72 27.20 195.19 0.50
1053 51.42 64.74 25.99 189.57 1.02
1054 51.56 25.48 42.72 183.63 0.00
1055 51.46 29.73 33.29 196.07 0.00
1056 51.52 86.11 14.67 126.19 0.80
1057 51.62 74.50 20.39 170.97 0.00
1058 51.70 43.97 25.09 186.33 0.40
1059 51.72 88.91 12.79 142.45 0.49
1060 51.67 2.06 0.00 82.69 0.00
1061 51.64 4.85 10.32 119.76 0.00
1062 51.72 38.08 30.18 185.69 0.44
1063 51.81 62.58 21.40 184.90 1.47
1064 51.79 69.99 16.46 176.73 0.00
1065 51.87 41.04 19.74 187.32 0.94
1066 51.88 67.27 15.10 177.46 0.00
1067 51.94 10.91 18.25 136.36 0.00
1068 52.08 27.45 27.93 192.48 0.00
1069 51.98 46.17 23.63 189.18 0.00
1070 52.06 33.58 23.57 186.42 0.76
1071 52.22 50.73 31.38 192.55 1.60
1072 52.21 55.58 25.56 187.11 0.00
1073 52.14 18.99 15.85 163.51 0.00
1074 52.30 35.66 19.92 188.40 0.13
1075 52.22 58.34 21.05 185.53 0.06
1076 52.20 81.95 12.64 134.86 0.09
1077 52.19 13.42 14.87 148.59 0.00
1078 52.35 21.38 13.83 163.71 0.00
1079 52.39 31.38 21.79 179.75 0.22
1080 52.34 60.65 26.00 178.52 0.00
1081 52.26 93.55 0.00 99.32 0.00
1082 52.33 53.16 29.40 184.56 0.17
1083 52.31 72.09 17.77 158.92 0.00
1084 52.27 76.64 13.95 144.22 0.50
1085 52.40 90.95 5.36 123.92 0.00
1086 52.34 23.79 20.83 180.56 0.00
1087 52.49 79.21 20.17 144.30 0.00
1088 52.46 15.92 10.38 135.93 0.00
1089 52.50 64.74 27.18 181.44 0.00
1090 52.70 8.09 6.35 128.78 0.43
1091 52.67 29.20 18.03 193.86 0.77
1092 52.62 85.01 18.83 125.14 0.93
1093 52.76 42.37 23.63 184.68 0.03
1094 52.65 48.03 30.78 184.57 1.04
1095 52.89 39.81 28.62 173.35 0.00
1096 53.00 5.81 2.60 110.22 0.00
1097 52.88 37.55 27.08 191.86 0.00
1098 52.74 87.82 14.99 114.30 0.22
1099 52.89 69.54 27.64 167.41 0.17
1100 53.05 25.92 19.27 178.65 0.00
1101 52.97 45.16 40.61 192.35 0.70
1102 52.91 67.28 34.90 182.04 0.00
1103 52.92 74.43 23.61 147.46 0.00
1104 53.15 12.29 11.15 134.31 0.00
1105 53.08 62.50 52.74 172.12 0.00
1106 53.08 57.08 60.59 189.22 0.92
1107 53.16 18.53 13.24 148.14 0.00
1108 53.25 33.24 28.00 169.61 0.77
1109 53.27 51.87 89.83 164.51 0.17
1110 53.31 59.98 80.79 172.10 0.00
1111 53.32 77.08 45.95 141.70 0.00
1112 53.25 81.91 35.00 124.98 0.00
1113 53.40 23.49 17.68 166.76 0.00
1114 53.37 49.49 62.15 173.68 0.00
1115 53.37 71.94 72.26 154.27 0.00
1116 53.52 93.87 7.21 91.33 0.00
1117 53.56 20.91 18.32 153.10 0.00
1118 53.60 35.60 35.54 184.04 0.53
1119 53.40 65.01 76.63 176.45 0.00
1120 53.71 27.98 43.19 178.93 0.00
1121 53.60 30.57 33.72 172.15 0.00
1122 53.50 90.99 24.14 99.36 0.00
1123 53.59 16.16 22.49 142.13 0.00
1124 53.68 79.50 75.55 128.93 0.00
1125 53.72 43.04 50.74 175.26 0.00
1126 53.78 47.10 107.85 183.28 1.32
1127 53.83 55.42 195.95 123.50 0.00
1128 53.77 84.95 133.71 107.23 0.00
1129 53.67 87.63 87.97 102.00 0.01
1130 53.90 69.58 151.18 146.96 0.00
1131 53.98 40.75 97.38 178.38 0.26
1132 53.92 58.31 190.08 128.07 0.00
1133 53.88 66.94 160.30 141.84 0.00
1134 54.00 9.74 17.12 127.76 0.00
1135 53.86 38.05 68.24 170.98 0.00
1136 53.98 74.52 126.44 126.62 0.00
1137 54.04 7.44 9.71 107.13 0.00
1138 54.13 45.01 164.04 161.07 0.00
1139 54.13 64.21 208.83 126.36 0.00
1140 54.21 61.85 203.05 119.22 0.00
1141 54.37 5.24 6.66 91.49 0.00
1142 54.15 11.65 35.85 121.06 0.00
1143 54.25 25.75 68.14 166.35 0.00
1144 54.29 34.08 134.35 152.51 0.57
1145 54.21 52.10 215.06 110.85 0.22
1146 54.27 76.85 161.01 102.18 0.00
1147 54.26 82.11 161.26 99.84 0.12
1148 54.34 49.45 204.99 135.08 0.15
1149 54.27 72.24 149.34 126.11 0.00
1150 54.40 13.38 51.87 129.28 0.00
1151 54.35 18.55 58.00 135.43 0.00
1152 54.40 31.91 92.78 178.70 0.00
1153 54.47 89.77 144.03 82.75 0.00
1154 54.43 23.36 63.32 165.12 0.00
1155 54.55 15.76 98.87 158.11 1.82
1156 54.70 92.50 78.76 83.14 0.00
1157 54.78 36.36 189.35 139.05 0.00
1158 54.75 59.74 207.87 110.18 0.00
1159 54.60 21.04 66.90 150.04 0.00
1160 54.62 29.42 82.52 164.60 0.30
1161 54.69 38.81 200.09 140.05 0.40
1162 54.84 87.21 202.15 84.30 0.00
1163 54.80 42.72 195.19 130.76 0.00
1164 54.86 68.35 215.74 110.00 0.00
1165 54.81 79.38 174.87 85.14 0.00
1166 54.90 47.24 202.98 128.45 0.00
1167 54.98 54.13 227.36 103.57 0.00
1168 54.86 56.50 217.11 109.89 0.00
1169 54.99 94.81 28.00 62.95 0.00
1170 54.97 65.89 206.10 116.88 0.00
1171 55.06 27.28 155.38 141.28 0.00
1172 54.99 8.11 43.67 93.05 0.00
1173 55.06 70.92 214.27 101.42 0.00
1174 55.14 84.27 210.27 74.16 0.38
1175 55.19 63.63 236.65 113.47 0.00
1176 55.28 73.65 199.19 87.70 0.00
1177 55.31 40.61 221.56 123.23 0.43
1178 55.22 10.60 80.44 117.06 0.00
1179 55.33 44.77 207.43 121.36 0.00
1180 55.31 16.87 135.12 104.47 0.00
1181 55.26 24.45 162.06 125.17 0.00
1182 55.26 33.99 209.59 111.27 0.00
1183 55.26 13.60 116.66 105.45 0.00
1184 55.40 31.43 187.73 130.60 0.00
1185 55.41 51.72 211.22 104.51 0.00
1186 55.34 76.30 174.54 82.91 0.00
1187 55.45 19.50 130.68 114.03 0.00
1188 55.60 22.03 156.33 102.17 0.00
1189 55.64 49.51 185.78 98.86 0.00
1190 55.69 61.85 214.98 102.98 0.00
1191 55.61 81.42 200.04 79.35 0.00
1192 55.67 57.77 202.19 97.13 0.00
1193 55.66 29.40 185.41 113.25 0.00
1194 55.73 38.19 194.23 122.73 0.00
1195 55.82 90.25 155.56 67.69 0.00
1196 55.91 5.36 36.24 85.85 0.00
1197 56.11 26.00 175.24 108.83 0.00
1198 56.13 93.41 50.93 56.90 0.00
1199 56.07 36.04 181.95 103.58 0.00
1200 56.09 59.95 207.80 80.17 0.00
1201 55.96 69.63 208.69 88.09 0.00
1202 55.97 7.43 80.30 91.18 0.07
1203 56.07 46.80 147.09 93.37 0.00
1204 56.01 66.86 218.19 84.56 0.00
1205 56.07 78.57 193.49 78.58 0.00
1206 56.40 9.42 109.13 89.40 0.00
1207 56.16 42.33 200.61 101.61 0.00
1208 56.39 55.62 196.27 93.33 0.00
1209 56.13 86.79 187.60 62.37 0.00
1210 56.19 11.90 114.82 84.73 0.00
1211 56.24 53.30 202.19 86.32 0.00
1212 56.31 64.24 214.97 103.55 0.00
1213 56.33 14.95 109.42 102.67 0.00
1214 56.36 33.11 166.01 99.80 0.00
1215 56.37 71.95 201.22 77.34 0.00
1216 56.41 75.43 186.91 69.50 0.00
1217 56.60 17.83 98.95 90.59 0.00
1218 56.60 23.88 127.19 89.48 0.00
1219 56.50 83.77 178.26 67.15 0.00
1220 56.59 40.04 173.62 103.86 0.00
1221 56.59 20.43 101.48 103.92 0.00
1222 56.66 28.09 147.22 107.00 0.00
1223 56.63 44.55 160.29 101.53 0.00
1224 56.87 51.24 133.25 92.61 0.00
1225 56.88 30.73 132.92 91.70 0.00
1226 56.94 48.57 106.83 87.34 0.00
1227 56.83 80.80 144.84 68.87 0.00
1228 56.94 58.06 156.52 80.57 0.00
1229 57.25 37.78 103.83 88.54 0.00
1230 57.02 68.81 153.96 77.46 0.00
1231 56.97 91.74 72.08 54.56 0.00
1232 57.19 4.92 40.05 77.30 0.00
1233 57.08 61.21 128.58 76.77 0.00
1234 57.11 88.97 116.20 66.65 0.00
1235 57.21 35.26 94.52 98.71 0.00
1236 57.07 7.25 79.17 70.05 0.00
1237 57.20 73.46 153.13 75.20 0.00
1238 57.26 66.17 112.70 75.99 0.00
1239 57.26 77.87 173.40 64.31 0.00
1240 57.47 42.83 89.28 92.43 0.00
1241 57.47 46.06 56.60 85.47 0.00
1242 57.46 53.81 101.41 87.53 0.00
1243 57.53 63.75 83.58 80.19 0.00
1244 57.49 85.85 116.66 50.54 0.00
1245 57.59 11.53 68.21 68.80 0.00
1246 57.61 13.92 66.08 79.02 0.00
1247 57.63 22.09 53.93 88.79 0.00
1248 57.77 26.66 51.54 86.38 0.00
1249 57.66 33.19 70.22 91.83 0.00
1250 57.71 16.62 49.89 76.95 0.00
1251 57.75 71.12 73.37 73.31 0.00
1252 57.88 56.03 79.70 74.02 0.00
1253 57.98 9.29 69.57 71.26 0.00
1254 57.73 19.59 42.29 82.78 0.00
1255 57.77 40.25 59.98 92.62 0.00
1256 57.96 75.48 95.54 58.04 0.00
1257 57.88 24.48 50.57 85.12 0.00
1258 57.90 29.01 59.80 95.07 0.00
1259 57.90 82.80 89.19 50.68 0.00
1260 58.12 93.39 23.54 52.37 0.00
1261 57.96 49.92 42.13 80.90 0.00
1262 58.02 80.17 82.89 58.36 0.00
1263 58.03 58.62 54.22 70.10 0.00
1264 58.35 52.11 34.50 68.97 0.00
1265 58.22 68.31 33.61 80.43 0.00
1266 58.28 90.62 46.29 45.76 0.00
1267 58.30 31.15 28.57 81.27 0.00
1268 58.29 61.42 40.77 63.66 0.00
1269 58.38 47.52 24.69 75.15 0.00
1270 58.51 87.98 52.86 42.54 0.00
1271 58.40 36.36 31.45 74.91 0.00
1272 58.55 6.80 23.81 62.72 0.00
1273 58.56 65.95 28.72 63.54 0.00
1274 58.61 44.98 22.29 80.73 0.00
1275 58.64 77.95 51.61 55.77 0.00
1276 58.62 42.25 19.68 78.69 0.00
1277 58.80 73.51 40.57 61.46 0.00
1278 58.79 39.43 23.16 74.04 0.00
1279 58.71 18.09 16.27 70.51 0.00
1280 58.81 54.21 22.62 64.25 0.00
1281 58.77 84.95 57.11 48.93 0.00
1282 58.86 63.57 24.38 59.71 0.00
1283 58.85 12.41 25.37 56.19 0.00
1284 58.83 23.10 18.57 69.83 0.00
1285 58.84 33.37 23.67 80.49 0.00
1286 58.97 70.44 28.91 54.66 0.00
1287 59.01 20.52 11.64 61.01 0.00
1288 58.96 15.75 17.37 62.93 0.00
1289 59.04 25.67 19.01 62.18 0.00
1290 58.92 14.24 20.43 62.55 0.00
1291 58.98 28.35 20.10 69.24 0.00
1292 59.06 56.69 30.08 65.36 0.00
1293 59.01 59.39 20.26 57.07 0.00
1294 59.01 49.70 19.92 60.12 0.00
1295 59.19 81.25 33.73 49.34 0.00
1296 59.44 76.17 24.99 50.03 0.00
1297 59.36 9.39 9.00 49.62 0.00
1298 59.32 68.11 19.33 55.64 0.00
1299 59.41 91.83 8.99 41.74 0.00
1300 59.36 31.05 17.71 65.02 0.00
1301 59.40 35.06 19.54 59.20 0.00
1302 59.48 37.55 23.21 60.01 0.00
1303 59.42 47.25 24.63 64.12 0.00
1304 59.45 43.70 25.21 56.47 0.00
1305 59.44 51.94 24.46 56.44 0.00
1306 59.50 61.27 23.03 49.26 0.00
1307 59.57 41.40 24.95 60.01 0.00
1308 59.67 86.54 38.92 35.20 0.00
1309 59.67 65.91 22.36 47.03 0.00
1310 59.92 90.07 11.71 37.30 0.00
1311 59.83 6.27 3.73 44.01 0.00
1312 59.76 18.00 11.63 54.24 0.00
1313 59.81 45.42 58.30 38.20 0.00
1314 59.86 72.48 15.67 51.75 0.00
1315 59.82 58.15 75.27 31.00 0.00
1316 59.95 78.70 15.61 48.74 0.00
1317 59.78 22.05 17.38 48.27 0.00
1318 59.89 24.34 35.06 44.66 0.00
1319 59.87 28.98 42.03 53.28 0.00
1320 59.75 54.20 29.48 46.85 0.00
1321 59.93 83.11 19.47 43.65 0.00
1322 59.82 13.80 7.77 48.27 0.00
1323 59.92 26.83 28.75 49.69 0.00
1324 59.93 39.46 32.43 50.80 0.00
1325 59.95 49.40 84.08 28.45 0.00
1326 60.08 33.13 49.82 39.62 0.00
1327 60.34 64.06 64.79 33.48 0.00
1328 60.09 88.03 15.66 44.77 0.00
1329 60.12 11.31 7.83 45.45 0.00
1330 60.07 56.05 60.77 30.50 0.00
1331 60.00 84.68 16.88 41.31 0.00
1332 60.15 15.27 9.82 44.33 0.00
1333 60.06 70.31 15.04 42.94 0.00
1334 60.34 74.69 15.35 49.58 0.00
1335 60.26 35.51 48.26 39.95 0.00
1336 60.34 42.86 108.88 25.98 0.00
1337 60.49 61.94 110.73 26.28 0.00
1338 60.30 68.29 50.02 34.86 0.00
1339 60.34 20.11 23.26 42.20 0.00
1340 60.42 51.62 134.34 21.47 0.00
1341 60.52 59.77 157.90 25.58 0.00
1342 60.33 30.86 44.69 36.58 0.00
1343 60.52 47.52 132.64 23.27 0.00
1344 60.49 81.04 14.45 39.56 0.00
1345 60.45 93.25 0.00 33.97 0.00
1346 60.74 8.35 7.07 37.10 0.00
1347 60.52 37.65 60.72 30.69 0.00
1348 60.75 53.84 130.76 24.05 0.00
1349 60.84 40.35 128.77 22.16 0.00
1350 60.65 66.35 61.18 25.65 0.00
1351 60.62 22.51 63.11 19.69 0.00
1352 60.89 25.15 107.02 20.84 0.00
1353 60.85 27.89 112.43 22.89 0.00
1354 60.61 17.30 19.75 42.36 0.00
1355 60.73 76.56 12.89 44.89 0.00
1356 60.90 12.65 12.92 39.33 0.00
1357 60.98 45.22 182.60 20.14 0.00
1358 61.06 70.49 107.58 24.39 0.00
1359 61.00 86.11 13.58 40.63 0.00
1360 61.04 5.94 0.54 27.29 0.00
1361 61.30 57.99 191.28 17.60 0.00
1362 61.30 18.85 84.01 22.94 0.00
1363 61.16 79.01 15.79 39.20 0.00
1364 61.20 91.39 0.00 32.74 0.00
1365 61.34 32.87 145.43 19.00 0.00
1366 61.27 49.60 199.86 16.57 0.00
1367 61.10 83.05 17.50 41.26 0.00
1368 61.27 30.38 105.78 18.19 0.00
1369 61.30 55.82 196.97 18.24 0.00
1370 61.19 89.10 4.64 35.39 0.00
1371 61.46 16.05 58.26 27.27 0.00
1372 61.34 35.51 162.76 21.18 0.00
1373 61.56 21.38 120.04 15.02 0.00
1374 61.53 67.94 189.75 17.53 0.00
1375 61.51 42.44 197.47 16.16 0.00
1376 61.60 74.27 72.80 23.39 0.00
1377 61.58 38.15 165.97 20.25 0.18
1378 61.68 51.96 204.56 15.05 1.13
1379 61.70 60.62 222.69 18.67 0.00
1380 61.71 62.99 185.79 16.69 0.00
1381 61.71 76.50 56.23 26.22 0.00
1382 61.76 65.39 205.04 20.78 0.00
1383 61.62 93.20 0.00 22.92 0.00
1384 61.88 47.49 199.09 15.45 0.94
1385 61.72 80.96 21.01 27.12 0.00
1386 61.65 12.69 42.05 20.37 0.00
1387 62.06 23.56 121.63 13.36 0.00
1388 62.12 72.24 147.30 16.84 0.00
1389 62.10 26.23 154.08 9.37 0.45
1390 62.02 83.76 54.13 26.80 0.00
1391 62.16 28.73 170.25 15.06 0.89
1392 61.96 86.58 34.73 24.13 0.00
1393 62.16 44.88 194.42 14.08 1.91
1394 62.36 10.63 57.82 17.55 0.00
1395 62.24 54.12 181.40 11.93 3.79
1396 62.29 40.04 189.87 12.32 2.56
1397 62.08 78.56 29.98 24.85 0.00
1398 62.30 14.67 84.55 15.65 0.00
1399 62.41 69.85 206.83 14.33 0.00
1400 62.19 90.88 2.78 29.97 0.00
1401 62.53 56.57 205.16 12.66 4.74
1402 62.59 31.26 155.80 10.82 2.29
1403 62.48 34.03 161.32 10.77 3.20
1404 62.52 50.00 183.32 11.69 4.72
1405 62.74 88.39 60.87 19.17 0.00
1406 62.58 19.86 114.50 12.69 0.41
1407 62.64 59.09 197.93 13.85 6.36
1408 62.59 93.18 0.00 20.51 0.00
1409 62.67 37.00 175.84 14.18 3.66
1410 62.69 42.36 170.27 11.91 4.82
1411 62.69 66.96 213.23 10.91 0.83
1412 62.73 81.87 70.94 16.60 0.00
1413 62.96 17.38 107.53 10.99 0.73
1414 62.85 61.52 195.62 9.17 3.69
1415 62.94 79.43 87.81 16.91 0.00
1416 62.78 64.07 187.46 12.74 2.98
1417 63.22 8.55 40.97 13.26 0.00
1418 62.92 46.58 133.34 10.33 8.50
1419 63.00 52.30 158.53 10.27 9.66
1420 62.96 76.46 107.64 11.92 0.00
1421 63.15 85.48 118.03 17.02 0.00
1422 63.13 73.92 153.77 12.38 0.00
1423 63.29 24.08 132.72 7.26 1.96
1424 63.38 21.75 112.03 5.64 3.99
1425 63.40 90.78 49.86 18.21 0.00
1426 63.36 26.42 159.78 7.38 4.33
1427 63.43 48.72 147.43 9.59 20.65
1428 63.37 29.02 145.73 7.26 5.10
1429 63.45 44.32 110.67 6.03 11.13
1430 63.36 54.76 137.99 8.08 12.33
1431 63.43 39.39 107.61 8.93 13.36
1432 63.45 71.36 193.31 10.17 0.00
1433 63.68 12.35 95.41 10.56 1.72
1434 63.59 34.65 136.53 7.61 12.41
1435 63.52 68.77 183.83 8.43 5.08
1436 63.67 83.27 145.40 13.79 0.00
1437 63.65 57.61 140.47 9.53 15.52
1438 63.68 15.08 92.18 7.70 3.74
1439 63.65 65.88 189.52 8.75 7.70
1440 63.79 32.07 95.78 6.41 13.40
1441 63.79 37.04 99.70 9.11 19.09
1442 63.86 41.87 84.94 7.62 17.47
1443 63.79 63.11 174.34 7.52 11.77
1444 63.85 19.32 79.45 5.34 5.55
1445 64.00 50.78 110.98 7.45 20.22
1446 63.92 60.19 156.27 7.43 11.80
1447 64.05 80.61 164.89 13.04 0.00
1448 64.07 46.70 66.43 7.56 30.69
1449 64.18 75.20 183.24 8.79 1.74
1450 64.23 77.70 155.98 9.75 0.00
1451 64.17 87.63 135.22 13.49 0.00
1452 64.22 53.22 107.58 6.46 24.68
1453 64.55 7.27 44.55 9.55 1.21
1454 64.45 10.43 73.84 8.26 2.10
1455 64.45 30.00 92.88 6.46 19.90
1456 64.54 17.24 63.75 5.36 9.19
1457 64.60 25.10 75.56 3.57 16.38
1458 64.46 55.98 102.39 4.63 20.01
1459 64.58 72.88 186.21 9.13 3.53
1460 64.55 67.61 160.93 6.91 11.32
1461 64.59 22.71 81.14 3.52 14.74
1462 64.59 27.45 81.17 2.60 13.96
1463 64.62 40.37 66.75 5.20 39.50
1464 64.62 44.25 52.46 3.80 34.77
1465 64.61 70.40 174.18 7.18 8.76
1466 64.80 89.96 67.65 11.60 0.00
1467 64.76 33.56 47.40 5.18 28.56
1468 64.67 64.80 130.93 7.21 16.55
1469 64.84 38.33 50.68 6.26 33.01
1470 64.79 84.61 176.14 9.71 1.46
1471 64.87 48.80 45.38 6.56 34.51
1472 64.86 35.94 35.06 5.97 38.09
1473 64.87 58.67 89.66 3.74 20.93
1474 64.78 62.16 120.54 6.05 26.68
1475 64.88 14.07 49.04 4.23 8.47
1476 64.94 20.50 44.98 3.38 21.71
1477 65.25 42.26 32.99 3.57 43.07
1478 65.11 51.42 43.84 5.52 40.83
1479 65.16 46.52 39.56 3.18 53.25
1480 65.18 81.61 152.83 7.54 1.64
1481 65.30 31.61 33.10 2.72 32.09
1482 65.34 79.01 131.33 7.34 3.82
1483 65.26 54.19 47.47 2.38 41.84
1484 65.42 76.05 141.16 5.80 4.82
1485 65.49 87.84 124.67 9.39 5.45
1486 65.51 60.85 56.25 3.97 32.88
1487 65.59 12.09 34.78 5.74 10.97
1488 65.59 28.76 46.33 1.76 35.48
1489 65.64 9.46 31.68 4.42 5.72
1490 65.82 15.87 22.53 2.97 20.90
1491 65.58 18.21 29.55 2.20 21.92
1492 65.60 66.05 75.08 5.31 24.24
1493 65.67 56.85 44.85 2.47 38.31
1494 65.65 68.84 82.64 4.19 17.82
1495 65.79 23.44 28.33 1.21 28.40
1496 65.78 26.15 33.86 1.40 34.79
1497 65.84 71.29 88.71 3.71 13.42
1498 65.88 73.50 134.05 5.30 11.32
1499 65.94 44.60 20.77 2.03 61.66
1500 65.78 63.54 73.21 3.80 43.90
1501 65.95 34.65 26.63 3.25 56.07
1502 65.90 39.88 24.42 2.50 52.80
1503 65.98 85.46 146.25 9.54 4.84
1504 65.95 37.17 27.47 4.02 54.63
1505 66.08 49.71 25.90 0.85 62.49
1506 66.18 20.57 16.56 1.38 37.27
1507 66.22 47.23 20.13 0.13 70.95
1508 66.14 52.31 21.88 2.21 60.10
1509 66.26 59.41 27.23 3.38 57.76
1510 66.23 82.81 118.43 6.21 5.36
1511 66.48 90.30 45.34 8.69 1.18
1512 66.42 30.39 24.05 1.39 65.23
1513 66.42 13.88 16.07 4.63 26.26
1514 66.38 55.01 30.88 1.05 64.45
1515 66.54 32.73 24.66 0.72 72.36
1516 66.48 80.40 82.43 5.47 10.66
1517 66.40 42.51 29.54 2.78 76.90
1518 66.51 67.14 37.23 3.24 40.44
1519 66.51 77.95 73.36 4.60 12.19
1520 66.64 61.81 29.81 2.09 43.67
1521 66.74 75.24 64.93 2.98 19.67
1522 66.69 10.61 15.91 4.76 19.53
1523 66.84 27.93 37.67 0.53 70.67
1524 66.79 69.68 34.75 2.74 37.80
1525 66.84 25.42 28.69 1.55 58.80
1526 66.89 64.67 27.66 0.00 53.69
1527 66.87 87.82 62.48 6.68 3.90
1528 66.86 18.25 12.76 1.29 43.83
1529 66.88 37.91 62.84 1.21 74.64
1530 66.85 57.72 22.16 0.15 67.18
1531 66.97 22.57 14.08 0.00 60.61
1532 66.91 40.46 50.13 1.73 91.76
1533 67.00 45.60 54.63 0.80 83.70
1534 67.13 50.65 91.34 1.18 76.49
1535 67.02 35.33 40.05 0.47 79.23
1536 67.11 72.06 36.34 1.29 28.72
1537 67.15 15.48 11.23 1.32 42.27
1538 67.14 48.40 63.38 1.96 103.22
1539 67.13 53.25 30.79 1.16 87.20
1540 67.20 84.72 86.85 5.48 8.16
1541 67.31 42.40 127.75 0.88 83.06
1542 67.57 12.64 16.16 1.34 39.02
1543 67.41 30.78 63.60 0.59 81.01
1544 67.43 60.12 31.10 0.95 79.18
1545 67.52 81.98 53.37 3.95 15.44
1546 67.42 55.59 43.31 0.00 91.06
1547 67.59 20.17 29.89 0.50 63.10
1548 67.53 67.26 20.97 0.42 61.45
1549 67.63 33.50 95.12 0.00 71.46
1550 67.83 44.64 168.53 2.15 90.42
1551 67.59 62.91 27.36 0.00 76.02
1552 67.72 77.19 27.76 2.84 28.01
1553 67.77 38.93 152.48 0.00 79.06
1554 67.83 79.54 29.44 3.16 25.41
1555 67.88 9.61 11.91 3.64 22.83
1556 67.81 24.10 74.63 0.38 68.82
1557 67.86 74.39 30.33 1.31 32.23
1558 67.76 57.67 71.03 0.81 79.31
1559 68.04 26.48 113.92 0.48 79.93
1560 68.01 89.18 15.63 5.89 3.81
1561 67.95 36.22 135.32 0.00 90.09
1562 67.96 47.55 169.29 1.40 94.06
1563 67.97 69.69 18.62 0.69 58.63
1564 68.04 17.49 52.66 0.33 52.11
1565 68.09 28.69 115.79 0.63 89.08
1566 68.03 86.66 34.73 5.26 11.10
1567 68.07 52.58 169.98 1.36 83.33
1568 68.12 64.87 54.41 0.00 87.33
1569 68.26 21.96 64.02 0.00 69.86
1570 68.39 50.09 195.39 1.52 102.13
1571 68.28 14.79 46.69 0.80 50.84
1572 68.33 71.87 18.69 0.54 47.14
1573 68.45 42.51 208.08 0.77 103.54
1574 68.35 61.82 119.16 0.49 78.63
1575 68.42 31.40 166.52 0.00 78.95
1576 68.63 40.34 209.91 0.38 99.35
1577 68.40 55.16 167.41 0.58 89.66
1578 68.54 59.67 153.15 1.36 89.61
1579 68.46 67.37 54.35 0.00 90.04
1580 68.52 84.20 22.83 3.92 16.98
1581 68.85 34.37 171.38 0.00 89.46
1582 68.85 45.92 215.30 1.34 106.63
1583 68.80 57.56 204.08 0.61 97.82
1584 68.80 81.48 16.56 1.82 24.50
1585 68.81 19.49 105.80 0.53 67.06
1586 68.79 11.77 37.28 1.96 37.58
1587 68.90 37.79 204.26 0.00 95.12
1588 68.82 76.42 11.64 1.59 34.12
1589 68.96 24.12 133.73 0.00 73.55
1590 69.17 63.55 190.90 0.00 92.11
1591 69.11 78.78 15.77 1.99 37.63
1592 69.09 74.13 16.91 1.52 57.24
1593 69.18 47.97 199.10 0.84 110.93
1594 69.17 66.18 140.23 0.00 76.11
1595 69.09 69.29 87.93 0.23 63.32
1596 69.44 16.52 101.21 1.15 57.51
1597 69.29 52.85 211.32 0.49 99.61
1598 69.39 26.60 153.68 0.00 88.18
1599 69.33 29.27 153.71 0.00 85.19
1600 69.46 14.17 89.11 0.76 56.02
1601 69.49 43.76 206.61 2.36 122.16
1602 69.48 71.63 89.49 0.00 55.52
1603 69.60 21.87 149.20 0.00 73.20
1604 69.57 55.86 212.75 1.79 106.07
1605 69.71 9.77 43.99 2.82 32.18
1606 69.52 32.12 180.86 0.00 93.18
1607 69.59 61.21 197.73 0.03 98.35
1608 69.65 50.51 218.57 2.33 106.54
1609 69.91 36.35 191.84 0.42 104.19
1610 69.80 41.42 201.50 1.71 112.59
1611 69.76 84.28 16.29 3.18 29.86
1612 69.90 58.65 215.57 0.02 109.11
1613 69.91 76.16 55.08 0.68 47.70
1614 70.03 11.96 76.53 2.18 47.25
1615 70.06 39.10 193.08 0.00 112.90
1616 70.01 81.04 19.06 2.06 41.12
1617 70.10 67.97 177.84 0.00 72.86
1618 70.07 19.05 110.92 0.00 72.79
1619 70.21 45.77 172.82 0.41 107.94
1620 70.18 65.16 209.77 0.00 98.08
1621 70.25 23.95 127.95 0.00 90.12
1622 70.28 54.37 189.54 0.88 125.90
1623 70.27 34.13 161.52 0.00 92.93
1624 70.34 73.57 81.06 0.38 56.41
1625 70.32 78.18 46.04 1.13 46.73
1626 70.31 48.51 194.11 0.94 107.98
1627 70.54 28.28 141.13 0.00 83.72
1628 70.55 30.95 133.01 0.00 93.25
1629 70.69 52.36 202.25 0.99 112.04
1630 70.57 70.69 167.44 0.64 64.56
1631 70.72 63.11 221.45 1.02 97.88
1632 70.66 14.62 99.65 1.28 63.72
1633 70.72 43.02 176.64 0.24 114.18
1634 70.64 60.43 212.96 0.00 108.27
1635 70.89 25.84 130.49 0.00 85.78
1636 70.78 56.83 190.16 0.00 107.41
1637 70.87 83.51 25.54 2.63 54.65
1638 70.96 17.08 89.92 0.34 65.36
1639 70.95 86.05 8.11 2.30 28.38
1640 71.00 21.40 104.02 0.00 81.21
1641 71.03 50.44 171.20 0.00 116.44
1642 71.08 9.93 53.05 1.95 33.11
1643 71.20 38.16 108.34 0.14 111.31
1644 71.10 80.22 43.18 1.99 55.12
1645 71.23 40.59 107.48 0.00 105.18
1646 71.22 47.46 124.25 0.68 103.84
1647 71.23 75.79 122.67 0.56 55.66
1648 71.45 34.38 111.08 0.00 102.06
1649 71.25 65.89 200.02 0.48 94.63
1650 71.24 68.41 195.94 0.29 88.37
1651 71.45 12.20 95.69 2.53 47.23
1652 71.51 44.76 84.75 0.69 117.41
1653 71.47 58.93 184.72 0.00 113.73
1654 71.59 32.26 73.12 0.30 91.67
1655 71.66 19.21 81.38 0.28 74.33
1656 71.48 54.60 165.92 0.45 117.63
1657 71.50 72.97 184.81 0.25 64.43
1658 71.68 23.43 64.02 0.00 84.78
1659 71.83 36.40 72.71 0.00 93.85
1660 71.61 78.19 119.49 2.04 55.08
1661 71.82 29.95 58.14 0.00 97.71
1662 71.62 61.48 203.51 0.00 112.10
1663 71.85 82.69 83.80 1.69 53.57
1664 71.93 27.53 48.09 0.00 87.80
1665 71.91 70.38 217.85 0.00 79.67
1666 72.00 15.79 72.98 0.81 64.06
1667 72.02 52.20 109.17 0.00 95.21
1668 72.05 56.88 128.05 0.00 110.38
1669 72.14 13.98 64.37 1.64 55.04
1670 72.14 42.66 66.86 0.00 104.05
1671 72.03 64.06 184.82 0.97 109.29
1672 72.12 49.21 73.87 0.00 106.73
1673 72.33 25.27 53.13 0.00 82.44
1674 72.37 85.61 29.78 1.99 48.31
1675 72.29 46.32 55.27 0.00 104.85
1676 72.26 67.05 184.73 0.98 83.52
1677 72.56 80.19 154.17 0.74 76.77
1678 72.56 40.47 52.71 0.74 102.05
1679 72.42 75.15 159.88 1.51 63.53
1680 72.63 21.08 38.42 0.00 74.56
1681 72.64 38.35 33.61 0.00 85.25
1682 72.70 17.55 39.95 0.00 63.74
1683 72.67 59.14 121.55 0.00 104.68
1684 72.69 34.07 45.60 0.00 85.23
1685 72.68 54.70 79.26 0.52 102.28
1686 72.68 61.82 137.25 0.06 102.13
1687 72.75 72.52 208.36 1.07 76.67
1688 72.86 31.72 31.31 0.00 83.63
1689 72.94 77.94 177.03 1.88 76.28
1690 73.14 87.53 30.14 2.24 22.05
1691 72.95 28.93 30.66 0.00 78.28
1692 73.22 12.31 34.05 1.54 50.77
1693 73.20 44.75 24.67 0.00 81.26
1694 73.10 50.46 41.79 0.00 83.59
1695 73.09 69.45 182.82 0.00 86.01
1696 73.06 83.02 148.20 2.36 65.48
1697 73.20 64.83 122.90 0.00 98.42
1698 73.19 23.40 21.81 0.00 68.09
1699 73.31 36.01 24.98 0.00 89.26
1700 73.21 47.62 37.38 0.00 82.04
1701 73.36 52.85 52.09 0.00 88.41
1702 73.33 57.11 66.91 0.00 101.80
1703 73.37 26.47 19.82 0.00 70.65
1704 73.38 67.20 156.49 0.00 78.51
1705 73.45 15.15 24.89 0.74 59.37
1706 73.40 42.39 17.62 0.00 86.74
1707 73.61 85.23 90.88 2.94 38.98
1708 73.46 18.91 29.55 0.00 64.73
1709 73.64 76.10 176.22 0.50 80.10
1710 73.74 59.94 73.65 0.00 99.85
1711 73.85 40.18 22.43 0.00 78.77
1712 73.77 62.54 87.63 0.00 90.36
1713 73.89 73.85 174.54 0.89 78.32
1714 73.90 37.99 18.11 1.13 87.17
1715 73.97 71.27 184.90 0.82 81.70
1716 73.94 20.48 18.74 0.00 61.24
1717 73.89 30.75 17.67 0.00 70.06
1718 73.93 33.72 17.11 0.00 68.62
1719 73.95 55.12 26.42 0.00 79.14
1720 74.08 80.37 172.55 1.96 73.49
1721 73.96 17.81 18.82 0.00 64.59
1722 74.15 28.39 12.13 0.00 63.23
1723 74.30 48.66 13.95 0.00 65.82
1724 74.35 24.96 6.88 0.00 63.05
1725 74.22 51.19 18.93 0.00 72.66
1726 74.36 46.23 16.37 0.71 73.81
1727 74.31 82.73 142.40 2.06 59.24
1728 74.37 22.59 9.95 0.00 57.83
1729 74.56 78.02 171.97 0.58 73.26
1730 74.40 43.74 19.27 0.00 68.40
1731 74.50 66.72 97.46 0.00 72.53
1732 74.47 69.18 121.09 0.53 78.29
1733 74.52 12.97 4.90 1.60 39.13
1734 74.52 16.06 7.41 1.17 56.40
1735 74.48 57.88 30.28 0.00 82.80
1736 74.54 64.33 54.52 0.05 75.59
1737 74.61 36.41 33.05 0.00 76.18
1738 74.73 41.44 50.13 0.00 62.32
1739 74.80 53.28 15.53 0.00 72.20
1740 74.73 61.21 33.85 0.00 73.21
1741 74.83 32.01 29.60 0.00 60.72
1742 74.95 26.97 14.14 0.00 61.94
1743 75.02 75.34 150.62 0.00 77.03
1744 74.97 34.06 49.64 0.00 65.51
1745 74.99 55.59 13.65 0.00 75.48
1746 75.16 84.69 98.03 2.88 36.24
1747 75.11 18.18 5.67 1.02 48.11
1748 75.25 72.76 124.41 0.15 72.58
1749 75.09 29.60 16.67 0.00 56.95
1750 75.17 20.63 11.87 0.00 55.88
1751 75.17 50.84 23.19 0.00 71.56
1752 75.39 43.18 74.63 0.00 50.11
1753 75.41 45.56 61.48 0.00 55.03
1754 75.34 48.17 41.14 0.66 78.88
1755 75.51 59.14 12.30 0.00 67.50
1756 75.50 14.02 6.39 1.42 43.51
1757 75.38 23.54 15.52 0.00 50.42
1758 75.63 82.56 132.46 2.25 60.52
1759 75.65 79.92 172.03 2.15 75.57
1760 75.51 35.88 121.51 0.00 41.03
1761 75.64 63.37 25.96 0.00 68.60
1762 75.66 65.87 52.12 0.00 70.57
1763 75.71 70.62 68.59 0.00 66.62
1764 75.75 68.28 63.60 0.00 70.93
1765 75.91 38.36 186.29 0.00 40.90
1766 75.97 40.74 169.69 0.00 40.90
1767 75.89 56.95 11.88 0.00 65.85
1768 75.81 25.74 60.84 0.00 41.75
1769 75.83 31.16 90.08 0.00 39.41
1770 75.90 61.27 14.13 0.00 55.97
1771 75.97 28.34 86.52 0.00 41.51
1772 75.91 52.54 60.06 0.00 58.46
1773 75.97 54.48 27.15 0.00 58.16
1774 75.95 77.20 124.25 0.92 71.53
1775 76.07 50.23 121.07 0.00 49.54
1776 76.12 33.84 153.27 0.00 33.77
1777 76.05 21.12 41.68 0.16 35.93
1778 76.18 16.39 15.87 0.00 39.00
1779 76.20 47.43 127.64 0.00 43.28
1780 76.23 18.61 30.98 0.00 35.65
1781 76.42 74.65 71.73 1.13 76.92
1782 76.48 23.70 101.16 0.22 33.32
1783 76.53 42.94 198.87 0.18 40.04
1784 76.75 45.19 197.51 0.00 38.53
1785 76.64 13.40 22.85 1.56 24.70
1786 76.78 36.82 206.94 0.00 29.73
1787 76.75 84.89 57.70 2.44 31.30
1788 76.74 60.44 26.37 0.00 59.69
1789 76.71 65.15 16.81 0.00 56.57
1790 76.71 58.06 35.71 0.00 46.87
1791 76.83 72.46 29.18 0.00 55.99
1792 76.88 62.81 10.38 0.00 56.05
1793 76.88 81.78 98.41 1.95 54.21
1794 76.83 55.38 73.92 0.00 42.22
1795 76.97 69.96 23.75 0.00 59.68
1796 77.03 26.47 158.88 0.00 28.00
1797 77.04 29.40 161.33 0.00 25.44
1798 77.04 32.03 191.64 0.00 28.15
1799 77.05 52.37 160.94 0.00 30.99
1800 77.12 79.23 92.30 0.89 67.93
1801 77.07 49.46 202.66 0.71 38.22
1802 77.09 67.26 11.43 0.00 48.87
1803 77.10 20.99 113.73 0.00 26.04
1804 77.37 76.55 46.27 0.00 62.32
1805 77.28 15.92 65.14 0.93 22.26
1806 77.30 39.65 204.47 0.00 27.67
1807 77.48 18.36 92.87 0.60 24.40
1808 77.34 34.70 209.73 0.00 26.21
1809 77.55 47.27 223.62 0.00 30.00
1810 77.58 59.58 113.83 0.00 35.58
1811 77.72 42.51 212.56 0.00 24.98
1812 77.77 57.24 135.25 0.00 32.32
1813 77.84 54.19 201.06 0.00 30.47
1814 77.91 83.52 34.81 1.24 36.21
1815 77.78 23.13 153.14 0.23 26.02
1816 77.76 64.95 15.57 0.00 48.41
1817 77.93 73.91 15.75 0.15 45.01
1818 77.83 62.17 48.94 0.00 42.26
1819 78.03 37.43 209.80 0.34 20.24
1820 78.14 45.10 224.76 0.00 23.65
1821 78.00 68.68 8.25 0.00 46.45
1822 78.34 25.26 171.03 0.00 19.14
1823 78.22 27.85 188.22 0.27 19.53
1824 78.11 71.58 9.46 0.38 47.78
1825 78.24 30.35 189.48 0.00 19.20
1826 78.17 49.95 212.74 0.19 30.63
1827 78.34 32.69 192.33 0.00 20.52
1828 78.49 80.98 38.71 0.61 48.82
1829 78.47 40.98 208.54 0.67 20.17
1830 78.64 51.91 218.35 0.00 21.91
1831 78.58 78.49 34.54 1.14 45.52
1832 78.55 20.22 151.70 0.48 16.46
1833 78.44 35.13 198.66 0.34 16.14
1834 78.73 56.05 224.59 0.04 28.64
1835 78.61 76.00 21.31 0.81 52.60
1836 78.66 66.85 25.43 0.00 37.02
1837 78.85 15.46 89.49 1.10 13.21
1838 78.61 64.47 54.44 0.14 32.80
1839 78.74 60.16 192.16 0.00 26.88
1840 78.76 47.55 220.83 0.00 21.15
1841 78.93 17.72 130.35 1.37 16.38
1842 79.02 39.08 202.00 1.80 13.98
1843 79.03 62.51 177.44 0.00 29.86
1844 79.10 43.14 197.88 0.09 17.06
1845 79.03 22.64 163.42 0.62 14.10
1846 79.06 69.72 11.31 0.00 44.39
1847 79.26 53.84 230.24 0.00 22.71
1848 79.33 58.12 213.34 0.00 23.44
1849 79.35 72.46 7.96 0.00 42.19
1850 79.41 36.88 182.88 0.09 10.85
1851 79.51 29.06 166.03 0.00 9.60
1852 79.46 31.64 166.20 0.00 10.15
1853 79.56 49.86 213.79 1.40 16.54
1854 79.57 45.26 196.90 1.05 14.17
1855 79.59 74.62 9.08 1.02 49.10
1856 79.62 26.70 171.60 0.00 12.99
1857 79.69 65.42 147.31 0.06 21.66
1858 79.58 34.31 166.77 0.00 8.96
1859 79.85 24.50 160.99 0.58 11.53
1860 79.86 41.02 162.29 0.15 11.02
1861 79.87 68.08 79.86 0.00 27.62
1862 79.86 77.25 11.03 1.15 46.13
1863 79.98 79.55 5.87 0.76 27.12
1864 79.97 19.77 139.99 1.24 11.18
1865 79.93 47.73 191.06 0.00 11.72
1866 80.04 60.19 208.39 0.18 22.61
1867 80.01 55.98 206.24 0.21 19.31
1868 80.22 16.98 109.78 0.51 7.78
1869 80.19 51.86 195.52 0.44 12.70
1870 80.12 70.87 26.94 0.00 31.41
1871 80.26 62.51 210.34 0.00 20.44
1872 80.38 22.03 148.46 0.55 8.86
1873 80.41 38.66 146.78 0.14 7.16
1874 80.54 43.50 158.69 1.81 8.58
1875 80.52 53.88 209.82 0.79 16.10
1876 80.57 35.89 139.27 0.00 7.66
1877 80.71 30.28 125.27 0.00 6.98
1878 80.64 33.05 146.97 0.00 5.76
1879 80.61 73.14 15.98 0.87 37.10
1880 80.67 58.15 206.21 0.00 13.21
1881 80.87 28.04 120.42 0.00 7.16
1882 80.85 46.43 177.74 0.00 8.20
1883 80.86 64.50 210.95 0.24 19.49
1884 80.82 75.79 6.19 0.94 37.08
1885 80.96 49.11 188.30 0.48 9.71
1886 81.01 69.85 117.09 0.00 18.99
1887 81.03 25.62 109.62 0.47 6.72
1888 81.18 41.39 151.48 1.36 6.62
1889 81.14 66.94 183.15 0.00 18.35
1890 81.28 78.58 1.33 0.64 27.77
1891 81.23 56.02 191.18 0.00 9.95
1892 81.30 18.05 87.48 0.91 4.61
1893 81.44 23.17 108.56 0.54 6.04
1894 81.36 51.38 183.91 1.03 7.08
1895 81.31 60.35 200.23 0.00 12.90
1896 81.62 39.30 124.11 0.17 5.82
1897 81.68 36.88 116.18 0.74 6.21
1898 81.77 45.08 141.79 0.07 5.32
1899 81.67 62.42 208.43 0.00 14.51
1900 82.00 71.71 131.39 0.01 18.93
1901 81.76 34.52 100.04 0.24 4.48
1902 81.67 53.90 173.36 0.00 8.61
1903 81.76 74.29 64.59 0.00 26.13
1904 81.68 31.58 105.13 0.00 3.99
1905 81.90 20.07 101.15 0.57 5.74
1906 81.97 58.09 212.64 0.02 9.03
1907 82.07 43.16 126.19 0.06 3.95
1908 81.97 76.80 14.35 0.21 28.57
1909 82.12 27.05 95.88 0.60 4.27
1910 82.13 47.37 126.78 0.78 4.74
1911 82.16 69.02 185.59 0.68 18.81
1912 82.11 64.67 201.75 0.00 13.68
1913 82.18 49.64 139.30 0.76 5.40
1914 82.42 29.61 64.46 0.00 3.75
1915 82.45 24.69 74.52 0.85 4.78
1916 82.43 56.14 147.60 0.00 6.22
1917 82.49 52.36 137.14 0.77 4.78
1918 82.62 59.91 174.51 0.16 8.23
1919 82.66 66.68 191.06 0.39 11.59
1920 82.71 41.07 63.15 0.00 2.79
1921 82.68 32.67 76.31 0.00 3.22
1922 82.82 22.14 68.66 0.60 3.72
1923 82.75 38.37 68.81 0.67 3.37
1924 82.97 75.82 107.55 0.79 17.34
1925 82.99 35.62 53.01 0.00 3.15
1926 83.02 54.67 158.72 0.00 4.71
1927 82.93 62.22 181.29 1.17 7.95
1928 83.19 46.02 76.16 0.39 2.88
1929 83.27 73.20 170.59 0.79 17.59
1930 83.28 20.25 41.37 2.44 3.34
1931 83.31 43.74 67.99 0.00 2.25
1932 83.36 48.27 72.00 0.14 3.53
1933 83.27 50.74 98.98 0.61 3.39
1934 83.38 27.37 45.42 0.00 2.54
1935 83.31 57.70 131.14 0.00 5.35
1936 83.44 64.82 187.25 0.52 9.87
1937 83.52 71.05 177.89 0.50 13.20
1938 83.41 68.77 179.12 0.38 13.36
1939 83.63 24.58 44.71 0.70 2.62
1940 83.73 29.85 30.85 0.00 3.04
1941 83.70 33.02 41.38 0.43 2.34
1942 83.71 40.16 39.16 0.00 2.76
1943 83.84 37.83 41.29 0.00 1.56
1944 83.88 53.03 105.46 0.00 2.45
1945 83.80 60.21 135.01 0.36 4.97
1946 83.94 77.09 74.24 0.85 10.24
1947 84.16 55.81 117.41 0.00 3.26
1948 84.22 62.62 151.11 0.00 5.45
1949 84.21 22.18 20.57 0.28 2.00
1950 84.30 35.49 26.80 0.17 1.71
1951 84.19 67.05 149.09 0.00 7.31
1952 84.19 42.30 30.32 0.00 1.80
1953 84.36 74.59 146.82 0.81 11.29
1954 84.43 45.33 44.33 0.80 2.47
1955 84.34 50.08 46.24 0.00 1.70
1956 84.54 58.25 103.48 0.01 3.47
1957 84.38 20.96 18.96 1.34 1.87
1958 84.60 47.75 41.20 0.00 1.44
1959 84.61 26.40 23.91 0.87 2.33
1960 84.69 30.88 22.07 0.35 1.62
1961 84.76 65.17 139.44 0.00 5.85
1962 84.65 69.36 164.70 0.69 8.11
1963 84.85 72.19 181.00 0.92 9.17
1964 84.88 24.04 23.81 0.48 1.33
1965 84.94 33.09 15.60 0.03 0.84
1966 84.82 40.40 18.70 0.00 1.38
1967 84.73 27.92 15.03 1.30 0.71
1968 84.92 52.03 55.96 0.88 1.44
1969 85.18 28.71 12.22 1.17 0.48
1970 85.00 37.78 20.13 0.69 3.34
1971 85.12 54.52 61.81 0.18 2.68
1972 85.10 60.54 102.98 0.24 3.26
1973 85.20 76.54 102.71 0.47 6.66
1974 85.20 43.48 17.93 0.00 0.89
1975 85.50 56.84 49.49 0.00 2.43
1976 85.40 50.03 27.04 0.00 0.66
1977 85.67 22.02 8.08 1.29 0.89
1978 85.58 62.90 85.48 1.29 3.74
1979 85.56 67.23 117.84 0.00 4.94
1980 85.54 35.59 11.80 0.00 0.00
1981 85.52 46.21 21.46 0.56 1.80
1982 85.86 74.43 145.24 0.52 5.98
1983 85.82 70.06 156.91 0.13 5.02
1984 85.86 30.71 10.36 0.27 1.00
1985 86.06 34.35 11.14 0.00 0.66
1986 86.04 48.36 17.13 0.10 0.08
1987 85.90 25.26 11.26 0.43 1.42
1988 85.73 26.68 9.55 0.36 1.69
1989 85.95 41.53 9.73 0.00 0.72
1990 86.11 38.77 9.21 0.00 0.26
1991 85.90 52.74 33.38 0.00 0.16
1992 85.97 64.98 63.05 0.80 3.35
1993 86.10 36.86 9.00 0.79 0.59
1994 86.02 59.25 37.49 0.00 2.32
1995 85.97 27.62 11.39 0.00 0.00
1996 86.32 44.30 10.74 0.00 0.39
1997 86.62 72.32 144.03 0.82 3.18
1998 86.54 28.20 7.96 1.21 1.13
1999 86.37 55.34 17.58 0.22 0.71
2000 86.59 32.60 7.66 0.00 0.45
2001 86.43 61.24 36.29 0.00 1.78
2002 86.61 50.67 16.06 0.00 0.00
2003 86.75 68.42 109.66 1.14 3.14
2004 86.81 23.45 5.20 1.98 0.88
2005 86.79 57.81 14.91 0.00 0.01
2006 86.73 46.74 11.89 0.00 0.00
2007 86.87 40.22 5.70 0.00 0.00
2008 86.95 63.54 41.25 0.00 2.34
2009 86.97 65.96 49.97 0.00 2.83
2010 86.93 53.21 21.25 0.00 0.00
2011 87.04 25.83 6.45 0.61 0.58
2012 87.20 30.25 6.95 0.79 0.70
2013 87.11 36.47 5.74 0.00 0.00
2014 87.09 43.02 5.13 0.00 0.00
2015 87.19 34.93 7.58 0.69 0.31
2016 87.28 74.56 72.98 1.42 0.34
2017 87.34 60.30 18.90 0.00 0.96
2018 87.54 38.25 4.83 0.00 0.03
2019 87.47 70.35 75.09 0.00 0.90
2020 87.61 45.05 3.71 0.00 0.00
2021 87.53 42.08 6.40 0.00 0.20
2022 87.74 62.28 20.64 0.16 0.02
2023 87.95 33.17 4.64 0.00 0.20
2024 87.89 47.21 5.86 0.00 0.00
2025 87.85 51.86 9.65 0.00 0.00
2026 88.02 67.57 43.33 0.00 1.07
2027 88.04 54.34 10.49 0.00 0.00
2028 87.98 24.82 2.06 0.50 0.20
2029 87.82 59.64 14.47 0.00 1.60
2030 88.14 65.12 27.51 0.00 0.56
2031 88.01 72.52 63.17 0.44 0.00
2032 88.12 58.07 10.38 0.00 0.01
2033 88.35 27.96 4.94 0.31 0.68
2034 88.37 40.29 3.61 0.00 0.00
2035 88.25 30.32 5.44 0.60 0.00
2036 88.55 43.27 2.83 0.00 0.00
2037 88.61 60.24 8.48 0.00 0.41
2038 88.75 63.40 13.00 0.31 0.24
2039 88.79 69.29 33.86 0.00 0.00
2040 88.64 35.13 4.16 0.00 0.00
2041 88.94 55.90 5.42 0.00 0.00
2042 88.78 37.73 4.46 0.00 0.00
2043 88.59 52.19 4.01 0.00 0.00
2044 88.89 48.19 2.46 0.00 0.00
2045 88.53 59.06 8.16 0.00 0.17
2046 88.72 61.72 12.11 0.00 0.00
2047 89.18 45.49 3.44 0.00 0.00
2048 89.14 32.23 5.18 0.58 0.20
2049 89.34 67.49 18.72 0.00 0.00
2050 89.49 27.54 1.98 1.78 0.00
2051 89.32 57.73 4.52 0.00 0.07
2052 89.43 29.78 3.62 0.16 0.03
2053 89.75 35.12 3.34 0.00 0.47
2054 89.40 39.18 1.70 0.00 0.00
2055 89.57 65.42 14.31 0.00 0.00
2056 89.58 59.49 4.35 0.00 0.00
2057 89.61 40.79 2.29 0.00 0.00
2058 89.98 52.00 2.97 0.00 0.00
2059 90.08 61.15 3.20 0.00 0.00
2060 90.34 36.99 1.51 1.23 0.00
2061 90.15 49.42 1.46 0.00 0.00
2062 90.20 47.16 0.00 0.00 0.00
2063 90.59 31.57 2.55 1.43 0.00
2064 90.37 54.68 2.83 0.00 0.00
2065 90.51 28.95 3.28 1.81 0.00
2066 90.71 42.03 2.14 1.03 0.00
2067 90.93 39.71 2.43 0.76 0.00
2068 90.79 67.36 5.30 0.00 0.00
2069 90.82 44.13 2.23 0.00 0.00
2070 91.02 35.41 3.63 3.39 0.00
2071 91.17 62.92 0.37 0.00 0.00
2072 91.24 51.46 0.22 0.00 0.00
2073 91.36 53.36 1.59 0.47 0.00
2074 91.26 56.78 1.80 0.00 0.00
2075 91.44 61.42 1.18 0.00 0.00
2076 91.62 45.85 0.40 0.00 0.00
2077 91.53 48.85 0.85 0.86 0.00
2078 91.60 33.31 2.21 6.74 0.00
2079 91.98 30.83 3.39 8.96 0.32
2080 91.88 36.81 2.40 4.23 0.00
2081 91.70 58.05 1.08 0.00 0.00
2082 91.80 38.64 2.08 3.63 0.00
2083 92.12 43.34 0.90 3.41 0.00
2084 92.19 40.31 1.82 2.55 0.00
2085 92.12 55.05 0.00 0.00 0.00
2086 92.23 59.55 0.48 0.00 0.00
2087 92.20 64.28 0.00 0.00 0.00
2088 92.57 34.94 1.60 6.29 0.00
2089 92.62 38.07 2.45 4.97 0.01
2090 92.82 48.26 1.17 2.72 0.00
2091 92.79 50.39 0.88 0.43 0.00
2092 92.73 46.43 0.00 1.97 0.00
2093 92.90 57.54 0.21 0.00 0.00
2094 93.19 32.37 3.20 10.81 0.00
2095 93.15 45.18 0.00 3.84 0.00
2096 93.12 55.06 0.48 0.00 0.00
2097 93.40 42.25 1.99 2.07 0.00
2098 93.14 40.04 2.03 4.54 0.00
2099 93.03 34.96 7.23 8.09 0.05
2100 93.40 36.09 2.29 6.44 0.43
2101 93.43 37.66 3.12 6.43 0.00
2102 93.66 34.38 1.02 9.73 0.08
2103 93.77 43.86 2.09 4.39 0.00
2104 93.81 49.54 0.00 2.45 0.00
2105 93.72 47.41 0.00 2.96 0.00
2106 94.22 57.05 0.00 0.00 0.00
2107 94.04 37.71 0.59 7.92 0.71
2108 94.08 32.30 0.00 8.87 0.00
2109 94.35 40.98 0.83 4.09 0.24
2110 94.40 33.68 2.45 9.28 0.00
2111 94.50 55.05 0.00 0.45 0.00
2112 94.39 43.01 0.91 3.94 0.00
2113 94.54 47.18 0.00 4.99 0.00
2114 94.69 37.40 1.38 11.00 0.66
2115 95.25 40.19 0.71 7.75 0.00
2116 95.16 34.67 0.00 13.74 0.00
2117 94.95 42.21 0.01 7.75 0.10
2118 94.96 46.13 0.49 5.65 0.00
2119 95.75 37.60 0.00 15.67 0.00
2120 95.29 48.62 0.08 4.15 0.00
2121 95.17 52.19 0.00 2.72 0.00
2122 95.37 50.51 0.00 3.06 0.00
2123 95.77 54.72 0.00 1.00 0.00
2124 95.83 42.12 0.00 9.85 0.00
2125 95.98 45.56 0.00 6.27 0.00
2126 96.07 47.89 0.00 3.85 0.00
2127 96.24 39.58 0.00 12.25 0.00
2128 96.08 52.82 0.00 2.78 0.00
2129 96.39 49.72 0.00 3.25 0.00
2130 96.46 42.56 0.00 8.63 0.00
2131 96.66 51.77 0.00 1.69 0.00
2132 96.68 40.99 0.00 8.89 0.00
2133 97.28 46.77 0.00 2.25 0.00
2134 97.11 42.26 0.00 6.42 0.32
2135 97.10 48.91 0.00 1.44 0.00
2136 97.21 50.49 0.00 4.13 0.00
2137 97.30 39.41 0.00 11.13 0.00
2138 97.80 49.55 0.00 3.87 0.00

