0.0
0.09
0.021
0.018
0.025
0.029
0.027
0.033
0.033
0.028
0.023
0.02
0.054
0.022
0.025
0.065
0.061
0.056
0.071
0.046
0.938
0.945
0.929
0.944
0.926
0.95
0.946
0.93
0.947
0.935
0.945
0.922
0.946
0.935
0.942
0.937
0.941
0.941
0.073
0.067
0.059
0.062
0.068
0.058
0.058
0.051
0.071
0.0
0.0
0.0
0.0
0.0
0.0
0.0
0.0
0.0
0.0
0.0
0.232
0.0
0.0
0.0
0.131
0.116
0.119
0.125
0.134
0.11
0.134
0.114
0.117
0.111
0.128
0.115
0.099
0.106
0.886
0.867
0.877
0.875
0.883
0.878
0.889
0.0
0.0
0.0
0.0
0.0
0.0
0.0
0.0
0.0
0.0
0.0
0.0
0.0
0.0
0.0
0.0
0.0
